latitude,longitude,bright_ti4,scan,track,acq_date,acq_time,satellite,confidence,version,bright_ti5,frp,daynight
33.013,-79.88273,320.7,0.45,0.39,2019-10-15,06:48,N,nominal,1.0NRT,282.7,2,N
45.78177,-73.91178,316.3,0.39,0.37,2019-10-15,06:48,N,nominal,1.0NRT,271.7,1.2,N
46.48627,-81.03889,298.3,0.47,0.48,2019-10-15,06:48,N,nominal,1.0NRT,272.2,1.5,N
45.3397,-73.52331,301.8,0.39,0.36,2019-10-15,06:48,N,nominal,1.0NRT,278.5,1,N
45.07029,-83.4013,305.4,0.59,0.53,2019-10-15,06:48,N,nominal,1.0NRT,274,2.4,N
44.27162,-84.18313,295.7,0.64,0.54,2019-10-15,06:48,N,nominal,1.0NRT,270.4,0.7,N
44.26656,-84.18373,296.4,0.64,0.54,2019-10-15,06:48,N,nominal,1.0NRT,270.6,0.7,N
44.26861,-84.18062,300.4,0.64,0.54,2019-10-15,06:48,N,nominal,1.0NRT,270.6,1.3,N
43.49187,-79.62517,298.5,0.57,0.43,2019-10-15,06:48,N,nominal,1.0NRT,278,1.1,N
43.49075,-79.62421,298.2,0.57,0.43,2019-10-15,06:48,N,nominal,1.0NRT,277.4,1,N
43.27705,-79.82594,298.3,0.38,0.43,2019-10-15,06:48,N,nominal,1.0NRT,279.4,0.7,N
43.2739,-79.79389,315.3,0.57,0.43,2019-10-15,06:48,N,nominal,1.0NRT,283.6,4.6,N
43.27128,-79.80881,322.9,0.57,0.43,2019-10-15,06:48,N,nominal,1.0NRT,280.4,3.1,N
45.83883,-73.24663,295.5,0.39,0.36,2019-10-15,06:48,N,nominal,1.0NRT,278.7,0.7,N
43.26728,-79.80956,299.9,0.57,0.43,2019-10-15,06:48,N,nominal,1.0NRT,279.7,2.3,N
43.26659,-79.80244,301,0.57,0.43,2019-10-15,06:48,N,nominal,1.0NRT,279.1,2.1,N
43.26328,-79.81032,326.8,0.57,0.43,2019-10-15,06:48,N,nominal,1.0NRT,280.9,2.3,N
43.25927,-79.81105,304,0.57,0.43,2019-10-15,06:48,N,nominal,1.0NRT,277.5,1.6,N
43.11954,-79.17134,308.4,0.54,0.42,2019-10-15,06:48,N,nominal,1.0NRT,273.9,1.2,N
42.80048,-78.84397,303.7,0.52,0.41,2019-10-15,06:48,N,nominal,1.0NRT,277.9,1.1,N
43.18339,-84.84206,305.5,0.34,0.56,2019-10-15,06:48,N,nominal,1.0NRT,270.2,0.8,N
42.819,-80.09601,298,0.39,0.44,2019-10-15,06:48,N,nominal,1.0NRT,273.9,1.3,N
42.81092,-80.09749,317.1,0.39,0.44,2019-10-15,06:48,N,nominal,1.0NRT,276.8,2.4,N
42.8033,-80.1038,303.5,0.39,0.44,2019-10-15,06:48,N,nominal,1.0NRT,276.1,1.7,N
42.05047,-73.97673,301.3,0.38,0.36,2019-10-15,06:48,N,nominal,1.0NRT,279.1,0.9,N
42.80305,-80.10062,297.1,0.39,0.44,2019-10-15,06:48,N,nominal,1.0NRT,275.6,1.6,N
36.35363,-76.80539,327.1,0.39,0.36,2019-10-15,06:48,N,nominal,1.0NRT,286.6,1.1,N
36.3549,-76.81412,299.3,0.39,0.36,2019-10-15,06:48,N,nominal,1.0NRT,286.1,1.9,N
36.87867,-85.65668,295.8,0.33,0.55,2019-10-15,06:48,N,nominal,1.0NRT,281.5,0.4,N
36.54589,-86.90561,310.8,0.38,0.59,2019-10-15,06:48,N,nominal,1.0NRT,282,1.3,N
36.54481,-86.90343,303.3,0.38,0.59,2019-10-15,06:48,N,nominal,1.0NRT,282.3,0.9,N
35.27935,-78.52505,296.1,0.42,0.38,2019-10-15,06:48,N,nominal,1.0NRT,283.9,0.4,N
35.50227,-80.33126,305.6,0.5,0.41,2019-10-15,06:48,N,nominal,1.0NRT,284.2,1.7,N
34.86864,-76.74666,303,0.39,0.36,2019-10-15,06:48,N,nominal,1.0NRT,287.7,0.8,N
35.34138,-80.82738,298.7,0.52,0.42,2019-10-15,06:48,N,nominal,1.0NRT,278.1,1.1,N
35.64598,-89.93703,295.8,0.55,0.68,2019-10-15,06:48,N,nominal,1.0NRT,285.1,1,N
34.37479,-79.88797,309.9,0.46,0.39,2019-10-15,06:48,N,nominal,1.0NRT,279.4,1.6,N
33.96316,-81.05381,296.9,0.52,0.41,2019-10-15,06:48,N,nominal,1.0NRT,280.5,0.9,N
33.66518,-80.95972,298.9,0.51,0.41,2019-10-15,06:48,N,nominal,1.0NRT,283.3,0.7,N
33.01363,-79.88756,306.4,0.45,0.39,2019-10-15,06:48,N,nominal,1.0NRT,282.9,2,N
45.83627,-73.25259,326.7,0.39,0.36,2019-10-15,06:48,N,nominal,1.0NRT,277.3,2.1,N
42.9437,-82.41721,299.2,0.5,0.49,2019-10-15,06:48,N,nominal,1.0NRT,273.4,1.5,N
42.817,-81.32358,296.3,0.44,0.46,2019-10-15,06:48,N,nominal,1.0NRT,273.5,0.6,N
42.28362,-83.11443,295.1,0.54,0.51,2019-10-15,06:48,N,nominal,1.0NRT,274.8,1.5,N
42.28314,-83.10781,304.6,0.54,0.51,2019-10-15,06:48,N,nominal,1.0NRT,278.6,1.5,N
42.25639,-83.13149,322.2,0.54,0.51,2019-10-15,06:48,N,nominal,1.0NRT,275.8,4.2,N
40.79286,-72.92612,301.5,0.39,0.36,2019-10-15,06:48,N,nominal,1.0NRT,281.4,0.5,N
40.64437,-73.85543,297.7,0.38,0.36,2019-10-15,06:48,N,nominal,1.0NRT,285.9,0.8,N
40.63778,-74.22182,301.4,0.38,0.36,2019-10-15,06:48,N,nominal,1.0NRT,286.6,0.6,N
40.63708,-74.21732,298,0.38,0.36,2019-10-15,06:48,N,nominal,1.0NRT,283.6,0.6,N
40.63449,-74.22271,302,0.38,0.36,2019-10-15,06:48,N,nominal,1.0NRT,285.5,0.8,N
40.6338,-74.2182,296.5,0.38,0.36,2019-10-15,06:48,N,nominal,1.0NRT,284.5,0.8,N
41.46645,-81.66908,331,0.45,0.47,2019-10-15,06:48,N,nominal,1.0NRT,278.7,3.9,N
41.4626,-81.67522,343.9,0.45,0.47,2019-10-15,06:48,N,nominal,1.0NRT,282.1,3.7,N
41.45829,-81.67588,322.2,0.45,0.47,2019-10-15,06:48,N,nominal,1.0NRT,279.8,3.7,N
41.45398,-81.67654,311.4,0.45,0.47,2019-10-15,06:48,N,nominal,1.0NRT,278.4,1.8,N
41.44966,-81.67721,316.3,0.45,0.47,2019-10-15,06:48,N,nominal,1.0NRT,278.2,1.8,N
41.46108,-81.6767,340.5,0.45,0.47,2019-10-15,06:48,N,nominal,1.0NRT,280.8,3.7,N
41.46058,-81.67119,298.5,0.45,0.47,2019-10-15,06:48,N,nominal,1.0NRT,277.1,1.7,N
41.45677,-81.67735,323.6,0.45,0.47,2019-10-15,06:48,N,nominal,1.0NRT,278,3.7,N
41.45246,-81.678,329.4,0.45,0.47,2019-10-15,06:48,N,nominal,1.0NRT,280.5,3.3,N
41.56493,-84.04215,337,0.59,0.53,2019-10-15,06:48,N,nominal,1.0NRT,275.7,9.4,N
41.46577,-83.3629,309.1,0.54,0.51,2019-10-15,06:48,N,nominal,1.0NRT,277.6,1.9,N
41.46104,-83.36348,300.5,0.54,0.51,2019-10-15,06:48,N,nominal,1.0NRT,277,1.9,N
41.68089,-87.41876,302.1,0.44,0.63,2019-10-15,06:48,N,nominal,1.0NRT,277.3,1.3,N
41.67565,-87.43576,307.9,0.44,0.63,2019-10-15,06:48,N,nominal,1.0NRT,270,0.8,N
41.67061,-87.45812,299.3,0.44,0.63,2019-10-15,06:48,N,nominal,1.0NRT,273.3,1.5,N
41.67041,-87.45261,304.2,0.44,0.63,2019-10-15,06:48,N,nominal,1.0NRT,272.9,1.5,N
40.89155,-77.71207,317.4,0.45,0.39,2019-10-15,06:48,N,nominal,1.0NRT,278.8,1.7,N
40.8909,-77.70676,299,0.45,0.39,2019-10-15,06:48,N,nominal,1.0NRT,276,1.7,N
41.62634,-87.3679,309.4,0.44,0.62,2019-10-15,06:48,N,nominal,1.0NRT,278.4,2.6,N
41.61916,-87.33014,300.9,0.44,0.62,2019-10-15,06:48,N,nominal,1.0NRT,280.5,1.2,N
41.61335,-87.33057,298.2,0.44,0.62,2019-10-15,06:48,N,nominal,1.0NRT,277.9,1.2,N
41.61316,-87.32516,296.1,0.44,0.62,2019-10-15,06:48,N,nominal,1.0NRT,278,1.2,N
40.66895,-76.37697,296.2,0.41,0.37,2019-10-15,06:48,N,nominal,1.0NRT,269.4,0.6,N
41.37131,-84.91602,295.5,0.33,0.55,2019-10-15,06:48,N,nominal,1.0NRT,276.8,1.3,N
41.36641,-84.9206,319.9,0.33,0.55,2019-10-15,06:48,N,nominal,1.0NRT,276.6,1.3,N
41.36951,-84.91541,300.7,0.33,0.55,2019-10-15,06:48,N,nominal,1.0NRT,277.3,1,N
41.36463,-84.91997,313.2,0.33,0.55,2019-10-15,06:48,N,nominal,1.0NRT,274.4,1,N
41.22388,-83.21082,303,0.53,0.5,2019-10-15,06:48,N,nominal,1.0NRT,276.1,2,N
41.48301,-90.83456,299.7,0.66,0.73,2019-10-15,06:48,N,nominal,1.0NRT,278.7,2.6,N
41.41384,-88.1859,295.6,0.48,0.65,2019-10-15,06:48,N,nominal,1.0NRT,281.8,1.7,N
41.48292,-90.83221,299.6,0.66,0.73,2019-10-15,06:48,N,nominal,1.0NRT,279.4,1.3,N
41.47605,-90.8324,295.5,0.66,0.73,2019-10-15,06:48,N,nominal,1.0NRT,278.3,0.7,N
41.41296,-88.18606,296.4,0.48,0.65,2019-10-15,06:48,N,nominal,1.0NRT,280.8,1.4,N
40.06979,-74.76888,296.7,0.39,0.36,2019-10-15,06:48,N,nominal,1.0NRT,279.9,0.3,N
41.17864,-87.85983,315.8,0.46,0.64,2019-10-15,06:48,N,nominal,1.0NRT,278,1.8,N
41.18196,-87.85998,303.5,0.46,0.64,2019-10-15,06:48,N,nominal,1.0NRT,276.5,1,N
40.2294,-76.83956,308.2,0.42,0.37,2019-10-15,06:48,N,nominal,1.0NRT,282.4,1.2,N
40.39555,-79.85628,319.6,0.54,0.42,2019-10-15,06:48,N,nominal,1.0NRT,280.5,3.3,N
40.39168,-79.85703,333.9,0.54,0.42,2019-10-15,06:48,N,nominal,1.0NRT,284.4,3.3,N
40.39099,-79.85063,296.2,0.53,0.42,2019-10-15,06:48,N,nominal,1.0NRT,278.8,3.3,N
39.96321,-76.59656,315.8,0.41,0.37,2019-10-15,06:48,N,nominal,1.0NRT,278.2,1.6,N
39.94772,-76.7683,295.1,0.41,0.37,2019-10-15,06:48,N,nominal,1.0NRT,280,0.3,N
40.3032,-79.87946,297.5,0.54,0.42,2019-10-15,06:48,N,nominal,1.0NRT,279.2,1.7,N
40.30251,-79.87312,299.1,0.53,0.42,2019-10-15,06:48,N,nominal,1.0NRT,281.7,1.7,N
40.57024,-83.1385,302,0.52,0.5,2019-10-15,06:48,N,nominal,1.0NRT,277.3,1.1,N
40.33813,-80.60425,306.6,0.39,0.44,2019-10-15,06:48,N,nominal,1.0NRT,278.4,1.1,N
40.26405,-80.25439,295.3,0.56,0.43,2019-10-15,06:48,N,nominal,1.0NRT,276.9,0.8,N
40.73171,-86.43392,303,0.39,0.59,2019-10-15,06:48,N,nominal,1.0NRT,274.6,1,N
40.3292,-82.03186,326.5,0.45,0.47,2019-10-15,06:48,N,nominal,1.0NRT,275.5,2.4,N
39.59085,-75.63469,298.7,0.39,0.36,2019-10-15,06:48,N,nominal,1.0NRT,286.4,1,N
39.58753,-75.6355,299.7,0.39,0.36,2019-10-15,06:48,N,nominal,1.0NRT,286.2,1,N
39.42258,-74.54063,302.6,0.38,0.36,2019-10-15,06:48,N,nominal,1.0NRT,283.1,0.5,N
39.58421,-75.63631,303.6,0.39,0.36,2019-10-15,06:48,N,nominal,1.0NRT,287.1,1.2,N
40.63764,-89.63766,295.6,0.57,0.69,2019-10-15,06:48,N,nominal,1.0NRT,280.5,1.4,N
40.46409,-86.1609,295.2,0.37,0.58,2019-10-15,06:48,N,nominal,1.0NRT,275.4,0.4,N
39.43204,-77.97544,296.3,0.44,0.38,2019-10-15,06:48,N,nominal,1.0NRT,282.1,0.9,N
39.37909,-78.19318,296.6,0.45,0.39,2019-10-15,06:48,N,nominal,1.0NRT,279.1,0.1,N
39.97556,-86.83506,350.4,0.4,0.6,2019-10-15,06:48,N,nominal,1.0NRT,280.9,6.1,N
39.97579,-86.83992,314.3,0.4,0.6,2019-10-15,06:48,N,nominal,1.0NRT,278.1,5.9,N
39.47152,-84.40319,309.2,0.59,0.53,2019-10-15,06:48,N,nominal,1.0NRT,279.6,2.9,N
39.4701,-84.38227,302.6,0.59,0.53,2019-10-15,06:48,N,nominal,1.0NRT,277.8,2.3,N
39.04268,-82.11201,295.6,0.44,0.46,2019-10-15,06:48,N,nominal,1.0NRT,277.5,0.7,N
38.99953,-87.72596,304.1,0.44,0.62,2019-10-15,06:48,N,nominal,1.0NRT,285.8,1.4,N
38.98767,-87.72162,302.2,0.44,0.62,2019-10-15,06:48,N,nominal,1.0NRT,279.5,0.9,N
39.00065,-87.72552,298.1,0.44,0.62,2019-10-15,06:48,N,nominal,1.0NRT,284.1,0.8,N
38.98876,-87.72115,306.2,0.44,0.62,2019-10-15,06:48,N,nominal,1.0NRT,279.6,1.8,N
38.60117,-82.82215,297.9,0.48,0.48,2019-10-15,06:48,N,nominal,1.0NRT,280.8,0.6,N
38.5972,-82.82841,304.7,0.48,0.48,2019-10-15,06:48,N,nominal,1.0NRT,282.7,2.3,N
38.59674,-82.82286,298.1,0.48,0.48,2019-10-15,06:48,N,nominal,1.0NRT,279.1,0.8,N
38.79913,-87.25079,295.6,0.41,0.61,2019-10-15,06:48,N,nominal,1.0NRT,280.7,0.5,N
38.73708,-86.45773,302.1,0.37,0.58,2019-10-15,06:48,N,nominal,1.0NRT,278.8,0.8,N
38.83731,-90.06644,298.7,0.58,0.7,2019-10-15,06:48,N,nominal,1.0NRT,285.7,2.3,N
38.69554,-90.13966,298,0.59,0.7,2019-10-15,06:48,N,nominal,1.0NRT,282.9,2.4,N
38.69538,-90.13261,311.5,0.59,0.7,2019-10-15,06:48,N,nominal,1.0NRT,285.8,2.1,N
38.69106,-90.1517,303.2,0.59,0.7,2019-10-15,06:48,N,nominal,1.0NRT,282.6,1.9,N
37.53755,-76.8074,307.9,0.4,0.37,2019-10-15,06:48,N,nominal,1.0NRT,291.5,1.6,N
37.30476,-76.47832,295.7,0.39,0.36,2019-10-15,06:48,N,nominal,1.0NRT,284.5,0.2,N
37.18055,-77.44778,307.3,0.41,0.37,2019-10-15,06:48,N,nominal,1.0NRT,285.7,1.4,N
37.85149,-84.23517,297.9,0.56,0.51,2019-10-15,06:48,N,nominal,1.0NRT,277.8,1.1,N
38.17921,-90.33948,295.4,0.6,0.71,2019-10-15,06:48,N,nominal,1.0NRT,283.7,1,N
37.85157,-84.23514,297,0.56,0.51,2019-10-15,06:48,N,nominal,1.0NRT,278.1,0.9,N
37.38086,-80.66331,307.8,0.54,0.42,2019-10-15,06:48,N,nominal,1.0NRT,279.6,1.8,N
38.00994,-90.07977,299.2,0.58,0.7,2019-10-15,06:48,N,nominal,1.0NRT,282.9,1.7,N
37.27515,-79.99818,299.3,0.5,0.41,2019-10-15,06:48,N,nominal,1.0NRT,282.1,0.9,N
37.27139,-79.9989,307.3,0.5,0.41,2019-10-15,06:48,N,nominal,1.0NRT,280.5,0.9,N
37.96423,-90.08128,296.3,0.58,0.7,2019-10-15,06:48,N,nominal,1.0NRT,282.1,1.5,N
37.96503,-90.07706,309,0.58,0.7,2019-10-15,06:48,N,nominal,1.0NRT,282.6,1.3,N
37.23427,-82.03828,329.1,0.42,0.45,2019-10-15,06:48,N,nominal,1.0NRT,284.5,4.1,N
37.23374,-82.04008,321.6,0.42,0.45,2019-10-15,06:48,N,nominal,1.0NRT,282.5,2.1,N
37.23324,-82.0351,315.7,0.42,0.45,2019-10-15,06:48,N,nominal,1.0NRT,281.7,2.1,N
36.35696,-76.80464,301.1,0.39,0.36,2019-10-15,06:48,N,nominal,1.0NRT,286.8,1.1,N
18.64372,-92.17209,337.2,0.53,0.67,2019-10-15,06:54,N,nominal,1.0NRT,240.7,8.4,N
23.01222,-82.74547,306.8,0.47,0.4,2019-10-15,06:54,N,nominal,1.0NRT,293.8,1.1,N
22.75452,-80.56692,308,0.4,0.37,2019-10-15,06:54,N,nominal,1.0NRT,292.7,0.9,N
22.96789,-80.99695,316.2,0.41,0.37,2019-10-15,06:54,N,nominal,1.0NRT,292.9,2.6,N
22.96732,-80.99298,330.7,0.41,0.37,2019-10-15,06:54,N,nominal,1.0NRT,293.2,2.6,N
27.28963,-90.96508,305.6,0.54,0.68,2019-10-15,06:54,N,nominal,1.0NRT,290.2,4.7,N
27.29001,-90.97073,355,0.54,0.68,2019-10-15,06:54,N,nominal,1.0NRT,290.7,4.7,N
27.29181,-90.96551,309.3,0.54,0.68,2019-10-15,06:54,N,nominal,1.0NRT,290.1,5.3,N
27.29215,-90.97117,367,0.54,0.68,2019-10-15,06:54,N,high,1.0NRT,290.8,13.3,N
26.28791,-80.16752,303.8,0.41,0.37,2019-10-15,06:54,N,nominal,1.0NRT,291.7,0.3,N
27.85963,-82.5997,307.8,0.52,0.42,2019-10-15,06:54,N,nominal,1.0NRT,291.5,1.8,N
29.68199,-89.97662,303.1,0.5,0.65,2019-10-15,06:54,N,nominal,1.0NRT,285.8,1.2,N
30.06303,-90.5984,301.5,0.54,0.68,2019-10-15,06:54,N,nominal,1.0NRT,284.6,2,N
29.58984,-83.0056,300.7,0.38,0.44,2019-10-15,06:54,N,nominal,1.0NRT,281.9,1.1,N
35.47027,-93.33846,295.1,0.47,0.48,2019-10-15,08:30,N,nominal,1.0NRT,284.8,0.8,N
49.18882,-115.91838,308.8,0.67,0.74,2019-10-15,08:30,N,nominal,1.0NRT,267,3.2,N
49.12509,-115.99329,302.7,0.68,0.74,2019-10-15,08:30,N,nominal,1.0NRT,267.2,1.9,N
49.11823,-115.98917,354.8,0.68,0.74,2019-10-15,08:30,N,nominal,1.0NRT,269.2,14.4,N
49.11847,-115.97705,295.2,0.68,0.74,2019-10-15,08:30,N,nominal,1.0NRT,266.9,4.8,N
49.11964,-115.98485,343.4,0.68,0.74,2019-10-15,08:30,N,nominal,1.0NRT,268.5,10.1,N
49.11947,-115.99564,318.8,0.68,0.74,2019-10-15,08:30,N,nominal,1.0NRT,267.1,10.5,N
43.27139,-79.80418,318.4,0.67,0.74,2019-10-15,08:30,N,nominal,1.0NRT,278.8,4.4,N
43.26515,-79.80824,306.2,0.67,0.74,2019-10-15,08:30,N,nominal,1.0NRT,277.1,2.7,N
43.25892,-79.81231,297.1,0.67,0.74,2019-10-15,08:30,N,nominal,1.0NRT,274.9,2.7,N
48.55178,-115.48167,311.8,0.64,0.72,2019-10-15,08:30,N,nominal,1.0NRT,268.6,2.1,N
48.55106,-115.47781,296.8,0.64,0.72,2019-10-15,08:30,N,nominal,1.0NRT,267.8,3.3,N
42.81391,-80.09413,307.6,0.67,0.74,2019-10-15,08:30,N,nominal,1.0NRT,273.6,1.9,N
42.80762,-80.09808,296.7,0.67,0.74,2019-10-15,08:30,N,nominal,1.0NRT,273.5,1.6,N
42.80133,-80.10194,303.1,0.67,0.74,2019-10-15,08:30,N,nominal,1.0NRT,273.8,1.6,N
42.81254,-80.0966,313.3,0.67,0.74,2019-10-15,08:30,N,nominal,1.0NRT,273.3,3.2,N
42.79996,-80.10445,298.3,0.67,0.74,2019-10-15,08:30,N,nominal,1.0NRT,273.4,1.7,N
42.28062,-83.1075,327.5,0.51,0.66,2019-10-15,08:30,N,nominal,1.0NRT,277.3,3.6,N
42.2653,-83.12315,295.9,0.51,0.66,2019-10-15,08:30,N,nominal,1.0NRT,273.2,1,N
42.25389,-83.12971,298.8,0.51,0.66,2019-10-15,08:30,N,nominal,1.0NRT,273.4,1.3,N
46.75896,-115.99029,301.3,0.67,0.74,2019-10-15,08:30,N,nominal,1.0NRT,264,2,N
41.46053,-81.6757,304.1,0.63,0.72,2019-10-15,08:30,N,nominal,1.0NRT,277.6,2.4,N
41.4521,-81.67245,319,0.63,0.72,2019-10-15,08:30,N,nominal,1.0NRT,277.6,4.9,N
41.46545,-83.36831,295.9,0.52,0.67,2019-10-15,08:30,N,nominal,1.0NRT,273.9,1.8,N
41.46657,-83.36695,299.7,0.52,0.67,2019-10-15,08:30,N,nominal,1.0NRT,273.7,2.2,N
40.75221,-81.43055,313.2,0.68,0.74,2019-10-15,08:30,N,nominal,1.0NRT,273.2,2.1,N
40.75778,-81.42953,303.4,0.68,0.74,2019-10-15,08:30,N,nominal,1.0NRT,272.6,1.1,N
40.75149,-81.4334,297.4,0.68,0.74,2019-10-15,08:30,N,nominal,1.0NRT,268.6,1.1,N
41.22026,-83.20675,302.4,0.54,0.68,2019-10-15,08:30,N,nominal,1.0NRT,274.5,2.7,N
41.22272,-83.20387,303.5,0.54,0.68,2019-10-15,08:30,N,nominal,1.0NRT,275,1.6,N
41.36292,-84.92156,295.3,0.45,0.63,2019-10-15,08:30,N,nominal,1.0NRT,274.2,1.9,N
41.36803,-84.91969,297.5,0.45,0.63,2019-10-15,08:30,N,nominal,1.0NRT,278.4,2,N
41.36654,-84.91457,296.6,0.45,0.63,2019-10-15,08:30,N,nominal,1.0NRT,276.3,1.2,N
41.63926,-87.13088,332.2,0.34,0.56,2019-10-15,08:30,N,nominal,1.0NRT,280.2,2.8,N
41.64138,-87.13878,306.7,0.34,0.56,2019-10-15,08:30,N,nominal,1.0NRT,279.6,1.8,N
41.64032,-87.13485,302.4,0.34,0.56,2019-10-15,08:30,N,nominal,1.0NRT,280.9,1.8,N
41.63645,-87.14123,316.4,0.34,0.56,2019-10-15,08:30,N,nominal,1.0NRT,278.8,2.4,N
41.63433,-87.13332,300.8,0.34,0.56,2019-10-15,08:30,N,nominal,1.0NRT,277.9,1.2,N
41.62551,-87.14202,328.9,0.34,0.56,2019-10-15,08:30,N,nominal,1.0NRT,281.2,2,N
41.68294,-87.41884,295.3,0.33,0.55,2019-10-15,08:30,N,nominal,1.0NRT,279.2,0.4,N
41.68192,-87.415,295.8,0.33,0.55,2019-10-15,08:30,N,nominal,1.0NRT,278.1,0.4,N
41.68013,-87.42889,301.3,0.33,0.55,2019-10-15,08:30,N,nominal,1.0NRT,276.9,2.7,N
41.67705,-87.41737,317.1,0.33,0.55,2019-10-15,08:30,N,nominal,1.0NRT,284.9,2,N
41.67525,-87.43119,356.6,0.33,0.55,2019-10-15,08:30,N,nominal,1.0NRT,282.8,2.7,N
41.67627,-87.43499,300,0.33,0.55,2019-10-15,08:30,N,nominal,1.0NRT,278.4,4.2,N
41.67038,-87.43349,305.8,0.33,0.55,2019-10-15,08:30,N,nominal,1.0NRT,279.3,1.8,N
41.66962,-87.45119,321.8,0.33,0.55,2019-10-15,08:30,N,nominal,1.0NRT,279.1,1.6,N
46.48504,-81.03438,367,0.47,0.64,2019-10-15,08:30,N,high,1.0NRT,273.6,8.5,N
45.07093,-83.40449,314.5,0.41,0.6,2019-10-15,08:30,N,nominal,1.0NRT,278.2,2.6,N
49.19575,-115.91799,303.5,0.67,0.74,2019-10-15,08:30,N,nominal,1.0NRT,266,2.7,N
41.67268,-87.46263,298.9,0.33,0.55,2019-10-15,08:30,N,nominal,1.0NRT,277.9,0.9,N
41.66347,-87.42819,314.2,0.33,0.55,2019-10-15,08:30,N,nominal,1.0NRT,278.5,0.9,N
41.66243,-87.42432,295.1,0.33,0.55,2019-10-15,08:30,N,nominal,1.0NRT,277.7,0.9,N
41.66373,-87.44968,307.7,0.33,0.55,2019-10-15,08:30,N,nominal,1.0NRT,279.4,1.1,N
41.66705,-87.48254,296.3,0.33,0.55,2019-10-15,08:30,N,nominal,1.0NRT,281.6,1.2,N
41.64056,-87.40428,299,0.33,0.55,2019-10-15,08:30,N,nominal,1.0NRT,280.7,1.2,N
41.62078,-87.33084,298.8,0.34,0.56,2019-10-15,08:30,N,nominal,1.0NRT,280.9,2.1,N
41.61973,-87.32695,298.8,0.34,0.56,2019-10-15,08:30,N,nominal,1.0NRT,280.1,1.1,N
41.62841,-87.37963,298.7,0.33,0.56,2019-10-15,08:30,N,nominal,1.0NRT,276.3,1.6,N
41.62528,-87.36801,298.8,0.33,0.56,2019-10-15,08:30,N,nominal,1.0NRT,277.2,1.9,N
41.61484,-87.32931,316.2,0.34,0.56,2019-10-15,08:30,N,nominal,1.0NRT,278.7,1.1,N
41.61308,-87.34325,298.4,0.34,0.56,2019-10-15,08:30,N,nominal,1.0NRT,276.4,0.9,N
41.65662,-87.62254,297.1,0.32,0.55,2019-10-15,08:30,N,nominal,1.0NRT,277.7,0.8,N
41.4126,-88.18166,298.7,0.62,0.54,2019-10-15,08:30,N,nominal,1.0NRT,282.8,1.6,N
41.17665,-87.85712,298.1,0.33,0.55,2019-10-15,08:30,N,nominal,1.0NRT,277.4,0.5,N
40.92492,-87.3399,297,0.35,0.57,2019-10-15,08:30,N,nominal,1.0NRT,275.9,0.6,N
40.92444,-87.34016,299.1,0.35,0.57,2019-10-15,08:30,N,nominal,1.0NRT,276.1,0.6,N
39.48096,-84.37369,297.1,0.54,0.68,2019-10-15,08:30,N,nominal,1.0NRT,276.4,2.5,N
39.47733,-84.36168,306.6,0.54,0.68,2019-10-15,08:30,N,nominal,1.0NRT,277.7,1.4,N
39.97318,-86.83703,305.3,0.39,0.6,2019-10-15,08:30,N,nominal,1.0NRT,278,1.5,N
40.64354,-89.64209,305.6,0.55,0.51,2019-10-15,08:30,N,nominal,1.0NRT,280.6,1.1,N
40.63902,-89.64403,314.8,0.55,0.51,2019-10-15,08:30,N,nominal,1.0NRT,279.2,2.9,N
40.63456,-89.63358,299.3,0.55,0.51,2019-10-15,08:30,N,nominal,1.0NRT,281.2,1.2,N
41.00442,-96.15308,300.6,0.43,0.38,2019-10-15,08:30,N,nominal,1.0NRT,284.3,1,N
42.68586,-111.59193,334.7,0.39,0.59,2019-10-15,08:30,N,nominal,1.0NRT,272.4,2.8,N
42.68034,-111.59264,296.8,0.39,0.59,2019-10-15,08:30,N,nominal,1.0NRT,268.9,2.8,N
38.99714,-87.72298,309.4,0.38,0.59,2019-10-15,08:30,N,nominal,1.0NRT,286.5,1.5,N
42.68121,-111.59391,311.4,0.39,0.59,2019-10-15,08:30,N,nominal,1.0NRT,268.8,2.3,N
39.00048,-87.72372,295.6,0.38,0.59,2019-10-15,08:30,N,nominal,1.0NRT,283.6,0.8,N
38.98791,-87.71994,312,0.38,0.59,2019-10-15,08:30,N,nominal,1.0NRT,280.7,1.8,N
38.4183,-85.7444,296.2,0.49,0.65,2019-10-15,08:30,N,nominal,1.0NRT,278.7,1.2,N
38.83562,-90.06121,300,0.58,0.52,2019-10-15,08:30,N,nominal,1.0NRT,285.7,2.8,N
38.83683,-90.05999,297.4,0.58,0.52,2019-10-15,08:30,N,nominal,1.0NRT,285.6,1.3,N
38.69722,-90.13306,307.3,0.58,0.52,2019-10-15,08:30,N,nominal,1.0NRT,285.6,2.1,N
38.69561,-90.12654,299.9,0.58,0.52,2019-10-15,08:30,N,nominal,1.0NRT,283.9,1,N
38.69257,-90.13493,297,0.58,0.52,2019-10-15,08:30,N,nominal,1.0NRT,282.7,2.1,N
38.69097,-90.12844,296.6,0.58,0.52,2019-10-15,08:30,N,nominal,1.0NRT,282,1,N
38.69112,-90.14977,299.8,0.58,0.52,2019-10-15,08:30,N,nominal,1.0NRT,282.5,1,N
37.96841,-90.07784,311.3,0.61,0.53,2019-10-15,08:30,N,nominal,1.0NRT,283.8,1.9,N
40.85204,-109.68524,302.8,0.6,0.53,2019-10-15,08:30,N,nominal,1.0NRT,274,2.4,N
40.85157,-109.67811,306.4,0.6,0.53,2019-10-15,08:30,N,nominal,1.0NRT,274.8,2.4,N
40.58381,-106.38805,299,0.41,0.45,2019-10-15,08:30,N,nominal,1.0NRT,264.4,0.6,N
40.84708,-109.68525,304.8,0.6,0.53,2019-10-15,08:30,N,nominal,1.0NRT,274.9,2.4,N
40.8466,-109.67806,307.2,0.6,0.53,2019-10-15,08:30,N,nominal,1.0NRT,275.9,2.4,N
40.84613,-109.67103,301.7,0.6,0.53,2019-10-15,08:30,N,nominal,1.0NRT,275,3.7,N
40.84117,-109.67101,300.3,0.6,0.53,2019-10-15,08:30,N,nominal,1.0NRT,274.3,1.5,N
40.81921,-114.25554,297.9,0.52,0.67,2019-10-15,08:30,N,nominal,1.0NRT,276.8,0.8,N
36.42508,-88.3512,297.2,0.41,0.6,2019-10-15,08:30,N,nominal,1.0NRT,283.5,0.7,N
39.38008,-107.8027,302.8,0.46,0.47,2019-10-15,08:30,N,nominal,1.0NRT,274.5,1.9,N
39.37529,-107.79843,341.6,0.46,0.47,2019-10-15,08:30,N,nominal,1.0NRT,280.9,6.4,N
39.37568,-107.80299,309.3,0.46,0.47,2019-10-15,08:30,N,nominal,1.0NRT,273.1,6.4,N
39.37567,-107.79888,351,0.46,0.47,2019-10-15,08:30,N,nominal,1.0NRT,280.3,10.4,N
39.37608,-107.80343,309.6,0.46,0.47,2019-10-15,08:30,N,nominal,1.0NRT,272.7,4.5,N
35.81046,-88.75422,295.2,0.4,0.6,2019-10-15,08:30,N,nominal,1.0NRT,283,0.4,N
35.81061,-88.75121,295.2,0.4,0.6,2019-10-15,08:30,N,nominal,1.0NRT,283.3,0.5,N
35.89148,-89.77911,322.9,0.35,0.57,2019-10-15,08:30,N,nominal,1.0NRT,285.4,1.9,N
38.99575,-108.73132,300.4,0.51,0.5,2019-10-15,08:30,N,nominal,1.0NRT,271.5,1.2,N
35.64735,-89.93327,304.2,0.35,0.57,2019-10-15,08:30,N,nominal,1.0NRT,284.4,1.1,N
35.64421,-89.94282,304.4,0.35,0.57,2019-10-15,08:30,N,nominal,1.0NRT,284.5,1.2,N
38.46062,-105.99078,296.1,0.55,0.43,2019-10-15,08:30,N,nominal,1.0NRT,275.5,2.6,N
38.4555,-105.97991,296.8,0.55,0.43,2019-10-15,08:30,N,nominal,1.0NRT,275,1.5,N
38.44698,-105.9747,315.6,0.55,0.43,2019-10-15,08:30,N,nominal,1.0NRT,275.4,2.6,N
38.44635,-105.96864,298.9,0.55,0.43,2019-10-15,08:30,N,nominal,1.0NRT,276.2,1.2,N
38.45733,-105.9912,297.6,0.55,0.43,2019-10-15,08:30,N,nominal,1.0NRT,276.5,2.5,N
38.45612,-105.98001,297.9,0.55,0.43,2019-10-15,08:30,N,nominal,1.0NRT,275,1.6,N
38.44757,-105.97484,300.5,0.55,0.43,2019-10-15,08:30,N,nominal,1.0NRT,275.1,1.4,N
38.44358,-105.97493,312.9,0.55,0.43,2019-10-15,08:30,N,nominal,1.0NRT,274.1,1.4,N
38.44293,-105.9689,295.4,0.55,0.43,2019-10-15,08:30,N,nominal,1.0NRT,275,1.4,N
38.93756,-112.81998,302.3,0.43,0.62,2019-10-15,08:30,N,nominal,1.0NRT,275.3,2.2,N
38.93732,-112.81501,298,0.43,0.62,2019-10-15,08:30,N,nominal,1.0NRT,274.6,1.5,N
38.12724,-104.60629,298.1,0.48,0.4,2019-10-15,08:30,N,nominal,1.0NRT,280.2,1.1,N
36.66294,-97.06989,309.4,0.45,0.39,2019-10-15,08:30,N,nominal,1.0NRT,289.3,1.3,N
36.51736,-97.83886,327.4,0.43,0.38,2019-10-15,08:30,N,nominal,1.0NRT,289.7,2.7,N
36.51937,-97.83513,301,0.43,0.38,2019-10-15,08:30,N,nominal,1.0NRT,288.9,1,N
36.51679,-97.84081,309.1,0.43,0.38,2019-10-15,08:30,N,nominal,1.0NRT,288.9,1,N
36.51594,-97.8361,305,0.43,0.38,2019-10-15,08:30,N,nominal,1.0NRT,288.9,1,N
35.78482,-98.18703,301.4,0.42,0.38,2019-10-15,08:30,N,nominal,1.0NRT,289.8,0.3,N
35.95309,-101.88116,304.2,0.39,0.36,2019-10-15,08:30,N,nominal,1.0NRT,289.7,1.3,N
35.66572,-101.43733,300.1,0.38,0.36,2019-10-15,08:30,N,nominal,1.0NRT,287.8,0.5,N
35.66507,-101.43311,298.3,0.38,0.36,2019-10-15,08:30,N,nominal,1.0NRT,288.1,0.7,N
35.50876,-101.01437,299.4,0.38,0.36,2019-10-15,08:30,N,nominal,1.0NRT,285.3,0.5,N
35.51238,-101.41023,320.7,0.38,0.36,2019-10-15,08:30,N,nominal,1.0NRT,285.4,1.2,N
36.3076,-112.36203,295.4,0.38,0.59,2019-10-15,08:30,N,nominal,1.0NRT,280.4,0.5,N
36.2933,-112.39877,299.2,0.38,0.59,2019-10-15,08:30,N,nominal,1.0NRT,277.8,0.9,N
36.29303,-112.39438,302.9,0.38,0.59,2019-10-15,08:30,N,nominal,1.0NRT,279.2,0.9,N
36.29166,-112.37145,305.7,0.38,0.59,2019-10-15,08:30,N,nominal,1.0NRT,279.2,1.1,N
36.2914,-112.36711,295,0.38,0.59,2019-10-15,08:30,N,nominal,1.0NRT,279.4,0.6,N
36.3602,-114.9134,300.2,0.53,0.67,2019-10-15,08:30,N,nominal,1.0NRT,283.3,1.4,N
36.35391,-114.91366,304.1,0.53,0.67,2019-10-15,08:30,N,nominal,1.0NRT,282,1.5,N
36.35708,-114.91364,314.7,0.53,0.67,2019-10-15,08:30,N,nominal,1.0NRT,284.9,2.9,N
34.60952,-117.3385,297.8,0.7,0.75,2019-10-15,08:30,N,nominal,1.0NRT,281.5,1.1,N
34.09351,-110.05302,297.1,0.54,0.51,2019-10-15,08:30,N,nominal,1.0NRT,277.5,0.9,N
34.08308,-110.0416,295.3,0.54,0.51,2019-10-15,08:30,N,nominal,1.0NRT,280.7,0.8,N
34.0784,-110.04222,306.4,0.54,0.51,2019-10-15,08:30,N,nominal,1.0NRT,280.7,3.3,N
34.09281,-117.53383,297.5,0.71,0.75,2019-10-15,08:30,N,nominal,1.0NRT,284.7,1.1,N
33.62622,-109.71342,305.8,0.51,0.49,2019-10-15,08:30,N,nominal,1.0NRT,281.3,2,N
32.48899,-101.66677,296.9,0.38,0.36,2019-10-15,08:30,N,nominal,1.0NRT,283.5,0.3,N
32.46516,-101.70851,304.6,0.38,0.36,2019-10-15,08:30,N,nominal,1.0NRT,288.7,0.5,N
32.4429,-101.67561,299.7,0.38,0.36,2019-10-15,08:30,N,nominal,1.0NRT,276.1,0.7,N
32.43755,-101.70621,305.2,0.38,0.36,2019-10-15,08:30,N,nominal,1.0NRT,285.2,0.7,N
33.85331,-118.33263,298.7,0.79,0.78,2019-10-15,08:30,N,nominal,1.0NRT,288.2,1.1,N
30.18697,-90.98804,295.1,0.42,0.61,2019-10-15,08:30,N,nominal,1.0NRT,274.6,1.1,N
29.99791,-90.39291,326.5,0.45,0.63,2019-10-15,08:30,N,nominal,1.0NRT,285.2,3.6,N
32.34369,-101.75475,301.4,0.38,0.36,2019-10-15,08:30,N,nominal,1.0NRT,276.2,0.5,N
30.00028,-90.4022,304.7,0.45,0.63,2019-10-15,08:30,N,nominal,1.0NRT,285.4,2.5,N
29.9991,-90.39756,316.4,0.45,0.63,2019-10-15,08:30,N,nominal,1.0NRT,285.2,2.5,N
32.27787,-101.40775,305.5,0.39,0.36,2019-10-15,08:30,N,nominal,1.0NRT,290.1,1.2,N
30.10724,-90.89571,305,0.42,0.61,2019-10-15,08:30,N,nominal,1.0NRT,286.9,1.2,N
32.64894,-104.18864,296.1,0.41,0.37,2019-10-15,08:30,N,nominal,1.0NRT,285.9,0.5,N
32.24498,-101.58279,300.8,0.39,0.36,2019-10-15,08:30,N,nominal,1.0NRT,279.9,1.1,N
32.6364,-104.47611,302.2,0.42,0.38,2019-10-15,08:30,N,nominal,1.0NRT,283.6,0.5,N
32.57859,-104.10695,296.1,0.41,0.37,2019-10-15,08:30,N,nominal,1.0NRT,285.1,0.3,N
32.61106,-104.47173,299.1,0.42,0.38,2019-10-15,08:30,N,nominal,1.0NRT,282.5,0.6,N
33.58279,-116.14405,324.2,0.59,0.7,2019-10-15,08:30,N,nominal,1.0NRT,286,21.1,N
33.57644,-116.15111,346.3,0.59,0.7,2019-10-15,08:30,N,nominal,1.0NRT,286.8,21.1,N
33.57621,-116.1445,349.9,0.59,0.7,2019-10-15,08:30,N,nominal,1.0NRT,302.6,21.1,N
33.57879,-116.14865,367,0.59,0.7,2019-10-15,08:30,N,high,1.0NRT,296.7,46,N
33.57852,-116.14205,349.8,0.59,0.7,2019-10-15,08:30,N,nominal,1.0NRT,293.5,29.9,N
33.57221,-116.14905,306,0.59,0.7,2019-10-15,08:30,N,nominal,1.0NRT,284.4,2.5,N
33.57195,-116.14246,302.1,0.59,0.7,2019-10-15,08:30,N,nominal,1.0NRT,287.1,2,N
29.682,-89.97339,306.7,0.49,0.65,2019-10-15,08:30,N,nominal,1.0NRT,287.1,1.3,N
33.28331,-111.95762,300,0.34,0.56,2019-10-15,08:30,N,nominal,1.0NRT,289.7,0.6,N
33.45174,-116.05727,302.8,0.58,0.7,2019-10-15,08:30,N,nominal,1.0NRT,291.5,1.2,N
29.77452,-91.73408,303.8,0.39,0.59,2019-10-15,08:30,N,nominal,1.0NRT,287,0.6,N
32.02097,-103.27975,301.3,0.39,0.36,2019-10-15,08:30,N,nominal,1.0NRT,288.1,0.8,N
32.02036,-103.27563,305.7,0.39,0.36,2019-10-15,08:30,N,nominal,1.0NRT,288.6,0.7,N
31.71278,-101.90646,309.7,0.38,0.36,2019-10-15,08:30,N,nominal,1.0NRT,285.1,0.9,N
31.68372,-101.9378,329,0.38,0.36,2019-10-15,08:30,N,nominal,1.0NRT,287.6,4.1,N
31.66651,-103.05618,300.7,0.39,0.36,2019-10-15,08:30,N,nominal,1.0NRT,288.1,0.2,N
31.9661,-106.58528,304.1,0.5,0.41,2019-10-15,08:30,N,nominal,1.0NRT,288.6,0.8,N
31.60415,-104.01598,298.9,0.4,0.37,2019-10-15,08:30,N,nominal,1.0NRT,280.7,0.8,N
31.46229,-103.32265,308.6,0.39,0.36,2019-10-15,08:30,N,nominal,1.0NRT,288.8,0.5,N
31.4075,-103.02354,303.8,0.39,0.36,2019-10-15,08:30,N,nominal,1.0NRT,288.3,0.3,N
29.74329,-95.01405,296.8,0.5,0.49,2019-10-15,08:30,N,nominal,1.0NRT,264.1,0.9,N
29.73892,-95.12263,296.5,0.49,0.49,2019-10-15,08:30,N,nominal,1.0NRT,266.8,0.7,N
31.20726,-103.13248,312.3,0.39,0.36,2019-10-15,08:30,N,nominal,1.0NRT,286.2,0.6,N
31.0946,-103.46239,298,0.39,0.36,2019-10-15,08:30,N,nominal,1.0NRT,273.2,0.6,N
28.95717,-97.69961,296.4,0.55,0.43,2019-10-15,08:36,N,nominal,1.0NRT,268.7,0.6,N
17.92975,-102.20764,327.5,0.47,0.4,2019-10-15,08:36,N,nominal,1.0NRT,291.9,6,N
17.93417,-102.21138,311.4,0.47,0.4,2019-10-15,08:36,N,nominal,1.0NRT,291.8,3.4,N
17.78772,-93.11917,300.9,0.58,0.69,2019-10-15,08:36,N,nominal,1.0NRT,274.9,0.6,N
17.83438,-93.11898,300,0.57,0.69,2019-10-15,08:36,N,nominal,1.0NRT,270,1.3,N
17.83946,-93.11184,303.1,0.58,0.69,2019-10-15,08:36,N,nominal,1.0NRT,280.7,1.3,N
17.84067,-93.11732,304.9,0.57,0.69,2019-10-15,08:36,N,nominal,1.0NRT,277.6,1.3,N
17.8355,-93.11864,303.5,0.57,0.69,2019-10-15,08:36,N,nominal,1.0NRT,275.3,0.8,N
17.84056,-93.11155,301.6,0.57,0.69,2019-10-15,08:36,N,nominal,1.0NRT,280,2.7,N
17.8418,-93.117,297.4,0.57,0.69,2019-10-15,08:36,N,nominal,1.0NRT,277.2,0.8,N
17.79056,-92.68432,297.1,0.61,0.71,2019-10-15,08:36,N,nominal,1.0NRT,268,0.8,N
18.20147,-94.00648,336.2,0.5,0.66,2019-10-15,08:36,N,nominal,1.0NRT,275.4,4.8,N
19.17723,-96.23502,298.8,0.34,0.56,2019-10-15,08:36,N,nominal,1.0NRT,274.7,0.4,N
19.17861,-96.24155,298.3,0.34,0.56,2019-10-15,08:36,N,nominal,1.0NRT,275.1,0.7,N
19.34321,-96.70574,303,0.64,0.54,2019-10-15,08:36,N,nominal,1.0NRT,287.7,0.9,N
19.34308,-96.70346,304.2,0.64,0.54,2019-10-15,08:36,N,nominal,1.0NRT,288.1,1.2,N
19.74573,-98.60088,314.3,0.47,0.48,2019-10-15,08:36,N,nominal,1.0NRT,280.5,2,N
19.9957,-99.2099,297.7,0.43,0.46,2019-10-15,08:36,N,nominal,1.0NRT,284.2,1,N
20.01116,-99.17736,302.6,0.43,0.46,2019-10-15,08:36,N,nominal,1.0NRT,283.4,0.7,N
19.805,-97.37309,298.4,0.57,0.52,2019-10-15,08:36,N,nominal,1.0NRT,282,0.8,N
20.57655,-101.17263,298.9,0.49,0.4,2019-10-15,08:36,N,nominal,1.0NRT,286,0.7,N
20.58024,-101.17188,299.8,0.49,0.4,2019-10-15,08:36,N,nominal,1.0NRT,287.3,0.7,N
20.29554,-98.93224,323.3,0.44,0.46,2019-10-15,08:36,N,nominal,1.0NRT,281.2,2.1,N
20.41676,-99.02148,299.3,0.44,0.46,2019-10-15,08:36,N,nominal,1.0NRT,283.8,0.7,N
20.5126,-97.4736,304.1,0.54,0.51,2019-10-15,08:36,N,nominal,1.0NRT,289.6,30.5,N
20.51364,-97.47868,342.5,0.54,0.51,2019-10-15,08:36,N,nominal,1.0NRT,291.8,30.5,N
20.51824,-97.4776,318.3,0.54,0.51,2019-10-15,08:36,N,nominal,1.0NRT,287.4,0.7,N
19.56701,-92.23658,336.2,0.6,0.71,2019-10-15,08:36,N,nominal,1.0NRT,261.7,10.9,N
19.5661,-92.23712,336.7,0.6,0.71,2019-10-15,08:36,N,nominal,1.0NRT,261.7,9.2,N
22.04224,-98.87135,305.7,0.42,0.45,2019-10-15,08:36,N,nominal,1.0NRT,292.5,1,N
22.47193,-100.37798,308.1,0.51,0.41,2019-10-15,08:36,N,nominal,1.0NRT,288.4,1.5,N
22.47275,-100.37997,308.3,0.51,0.41,2019-10-15,08:36,N,nominal,1.0NRT,288.7,1.2,N
22.26089,-97.80431,338.5,0.48,0.48,2019-10-15,08:36,N,nominal,1.0NRT,294,9.9,N
22.26526,-97.80329,312.3,0.48,0.48,2019-10-15,08:36,N,nominal,1.0NRT,293.8,2.4,N
22.28108,-97.81403,308.3,0.48,0.48,2019-10-15,08:36,N,nominal,1.0NRT,291.9,0.4,N
22.35136,-97.8722,307,0.47,0.48,2019-10-15,08:36,N,nominal,1.0NRT,292.8,1.2,N
24.41382,-105.84222,300.6,0.4,0.37,2019-10-15,08:36,N,nominal,1.0NRT,279.3,0.2,N
25.74577,-103.54202,301.6,0.38,0.36,2019-10-15,08:36,N,nominal,1.0NRT,286.7,0.7,N
25.32812,-99.68173,302.1,0.5,0.41,2019-10-15,08:36,N,nominal,1.0NRT,288.6,0.8,N
25.6038,-100.91807,302.7,0.44,0.38,2019-10-15,08:36,N,nominal,1.0NRT,280,0.8,N
25.58173,-99.93363,317.7,0.48,0.4,2019-10-15,08:36,N,nominal,1.0NRT,279.5,2,N
25.59079,-99.94154,300.7,0.48,0.4,2019-10-15,08:36,N,nominal,1.0NRT,280.7,1.2,N
25.69702,-100.29765,313.2,0.46,0.39,2019-10-15,08:36,N,nominal,1.0NRT,285.5,1.8,N
25.69564,-100.26922,310.1,0.47,0.39,2019-10-15,08:36,N,nominal,1.0NRT,284.2,1.4,N
25.75232,-100.54505,299.5,0.45,0.39,2019-10-15,08:36,N,nominal,1.0NRT,281.9,0.5,N
27.45891,-113.311,302.8,0.35,0.57,2019-10-15,08:36,N,nominal,1.0NRT,287.5,0.5,N
25.71575,-100.29821,310.9,0.46,0.39,2019-10-15,08:36,N,nominal,1.0NRT,284.1,1.5,N
25.72015,-100.302,308.8,0.46,0.39,2019-10-15,08:36,N,nominal,1.0NRT,285.1,2.1,N
25.71933,-100.29742,325.8,0.46,0.39,2019-10-15,08:36,N,nominal,1.0NRT,285.3,2.1,N
25.71731,-100.30042,307.6,0.46,0.39,2019-10-15,08:36,N,nominal,1.0NRT,283.8,2.1,N
25.71646,-100.29582,324,0.46,0.39,2019-10-15,08:36,N,nominal,1.0NRT,284.4,2.2,N
25.72173,-100.3042,310.8,0.46,0.39,2019-10-15,08:36,N,nominal,1.0NRT,285.9,2.1,N
25.75014,-100.31694,300.9,0.46,0.39,2019-10-15,08:36,N,nominal,1.0NRT,283.3,0.6,N
25.81925,-100.22484,305.1,0.47,0.39,2019-10-15,08:36,N,nominal,1.0NRT,281.7,1.2,N
25.81999,-100.22659,299,0.47,0.39,2019-10-15,08:36,N,nominal,1.0NRT,281.6,1.1,N
26.85555,-101.39489,301.3,0.41,0.37,2019-10-15,08:36,N,nominal,1.0NRT,275,0.2,N
26.87603,-101.41168,297.3,0.41,0.37,2019-10-15,08:36,N,nominal,1.0NRT,279,0.5,N
26.87673,-101.41579,302.1,0.41,0.37,2019-10-15,08:36,N,nominal,1.0NRT,280.3,1.3,N
26.88441,-101.46084,303.2,0.41,0.37,2019-10-15,08:36,N,nominal,1.0NRT,282.3,1.2,N
26.87941,-101.41093,307,0.41,0.37,2019-10-15,08:36,N,nominal,1.0NRT,280.7,1.5,N
26.8864,-101.4519,311.1,0.41,0.37,2019-10-15,08:36,N,nominal,1.0NRT,283.7,3.1,N
26.8871,-101.45601,319.3,0.41,0.37,2019-10-15,08:36,N,nominal,1.0NRT,284.5,2.1,N
26.88012,-101.41503,336,0.41,0.37,2019-10-15,08:36,N,nominal,1.0NRT,282.4,4.3,N
26.8857,-101.4478,333.5,0.41,0.37,2019-10-15,08:36,N,nominal,1.0NRT,284.8,3.1,N
26.88779,-101.4601,329.1,0.41,0.37,2019-10-15,08:36,N,nominal,1.0NRT,284.5,2.1,N
26.89118,-101.45936,303.4,0.41,0.37,2019-10-15,08:36,N,nominal,1.0NRT,284.2,2.1,N
28.2228,-105.3844,316.8,0.41,0.37,2019-10-15,08:36,N,nominal,1.0NRT,281.2,1,N
28.68602,-106.08733,302.2,0.44,0.38,2019-10-15,08:36,N,nominal,1.0NRT,279,1.6,N
27.43969,-98.03481,301.8,0.56,0.43,2019-10-15,08:36,N,nominal,1.0NRT,288,0.9,N
27.83144,-97.52593,304.2,0.39,0.44,2019-10-15,08:36,N,nominal,1.0NRT,290.4,1.1,N
27.81459,-97.42168,305.6,0.4,0.44,2019-10-15,08:36,N,nominal,1.0NRT,289.9,0.6,N
27.82221,-97.20673,300.2,0.41,0.45,2019-10-15,08:36,N,nominal,1.0NRT,279.2,0.3,N
28.23743,-99.12597,302.8,0.48,0.4,2019-10-15,08:36,N,nominal,1.0NRT,283.8,0.4,N
27.88368,-97.26575,309.3,0.4,0.45,2019-10-15,08:36,N,nominal,1.0NRT,271.6,0.9,N
27.88534,-97.27388,308.2,0.4,0.45,2019-10-15,08:36,N,nominal,1.0NRT,274.1,3.6,N
27.88451,-97.26982,352.2,0.4,0.45,2019-10-15,08:36,N,nominal,1.0NRT,274.4,3.6,N
27.88772,-97.26473,295.2,0.4,0.45,2019-10-15,08:36,N,nominal,1.0NRT,272.8,0.9,N
27.88855,-97.26881,305.9,0.4,0.45,2019-10-15,08:36,N,nominal,1.0NRT,273.2,3.6,N
27.88938,-97.27287,295.8,0.4,0.45,2019-10-15,08:36,N,nominal,1.0NRT,273.9,3.6,N
28.59805,-99.36173,302.6,0.47,0.39,2019-10-15,08:36,N,nominal,1.0NRT,270.7,0.6,N
28.59938,-99.36438,300.2,0.47,0.39,2019-10-15,08:36,N,nominal,1.0NRT,270.5,0.8,N
30.8466,-116.03043,300.6,0.56,0.69,2019-10-15,08:36,N,nominal,1.0NRT,283.9,1.1,N
27.2908,-90.97003,311.2,0.49,0.65,2019-10-15,08:36,N,nominal,1.0NRT,282,4,N
27.28958,-90.96518,349.9,0.49,0.65,2019-10-15,08:36,N,nominal,1.0NRT,283,4,N
49.69774,-118.99401,301.6,0.4,0.37,2019-10-15,10:06,N,nominal,1.0NRT,265,1,N
49.5409,-114.90587,300.4,0.52,0.41,2019-10-15,10:06,N,nominal,1.0NRT,264.3,1.1,N
49.53724,-114.90773,299.8,0.52,0.41,2019-10-15,10:06,N,nominal,1.0NRT,262.7,1.1,N
49.53205,-114.90258,325.3,0.52,0.41,2019-10-15,10:06,N,nominal,1.0NRT,265.9,2.1,N
49.53058,-114.89588,295.4,0.52,0.41,2019-10-15,10:06,N,nominal,1.0NRT,264.8,2.1,N
49.53856,-114.9062,295.2,0.52,0.41,2019-10-15,10:06,N,nominal,1.0NRT,262.4,1.4,N
49.53341,-114.90106,322.7,0.52,0.41,2019-10-15,10:06,N,nominal,1.0NRT,266.1,2.8,N
49.53489,-114.90794,313.9,0.52,0.41,2019-10-15,10:06,N,nominal,1.0NRT,263.6,2.8,N
49.44805,-114.93804,325.4,0.52,0.41,2019-10-15,10:06,N,nominal,1.0NRT,267.3,3.1,N
49.44432,-114.9396,328.4,0.52,0.41,2019-10-15,10:06,N,nominal,1.0NRT,267.8,3,N
49.44061,-114.94124,326,0.52,0.41,2019-10-15,10:06,N,nominal,1.0NRT,268.5,3,N
49.992,-118.94825,297.1,0.4,0.37,2019-10-15,10:06,N,nominal,1.0NRT,267.3,0.9,N
49.98968,-118.95516,303.5,0.4,0.37,2019-10-15,10:06,N,nominal,1.0NRT,268.1,1.1,N
49.30433,-115.91115,301.9,0.48,0.4,2019-10-15,10:06,N,nominal,1.0NRT,270.4,1.8,N
49.30257,-115.9118,302.5,0.48,0.4,2019-10-15,10:06,N,nominal,1.0NRT,270.6,1.3,N
49.19712,-115.91402,300.1,0.49,0.4,2019-10-15,10:06,N,nominal,1.0NRT,271.5,1.5,N
49.19007,-115.91783,309.7,0.49,0.4,2019-10-15,10:06,N,nominal,1.0NRT,271.5,1.8,N
49.19156,-115.91693,312,0.49,0.4,2019-10-15,10:06,N,nominal,1.0NRT,270.5,2.1,N
49.73288,-119.03206,296.3,0.4,0.37,2019-10-15,10:06,N,nominal,1.0NRT,265.4,0.6,N
49.7319,-119.02657,304.3,0.4,0.37,2019-10-15,10:06,N,nominal,1.0NRT,265.4,1.7,N
49.72314,-118.97747,298.1,0.4,0.37,2019-10-15,10:06,N,nominal,1.0NRT,266.3,0.7,N
49.71984,-118.97887,326.3,0.4,0.37,2019-10-15,10:06,N,nominal,1.0NRT,266.8,2.9,N
49.138,-115.97987,314.5,0.49,0.4,2019-10-15,10:06,N,nominal,1.0NRT,271.6,3,N
49.13442,-115.98153,336.7,0.49,0.4,2019-10-15,10:06,N,nominal,1.0NRT,272.4,3,N
49.13202,-115.98881,321.1,0.49,0.4,2019-10-15,10:06,N,nominal,1.0NRT,272.6,3.2,N
49.71093,-118.98848,302.1,0.4,0.37,2019-10-15,10:06,N,nominal,1.0NRT,264.7,0.6,N
49.70763,-118.98985,326,0.4,0.37,2019-10-15,10:06,N,nominal,1.0NRT,265.3,2.1,N
49.70571,-118.97913,332.7,0.4,0.37,2019-10-15,10:06,N,nominal,1.0NRT,266.5,2.1,N
49.70475,-118.97378,300.4,0.4,0.37,2019-10-15,10:06,N,nominal,1.0NRT,265.8,2.1,N
49.7028,-118.96291,299.8,0.4,0.37,2019-10-15,10:06,N,nominal,1.0NRT,266.7,0.8,N
49.7024,-118.98049,321.9,0.4,0.37,2019-10-15,10:06,N,nominal,1.0NRT,265.6,2.1,N
49.12146,-115.99454,325.5,0.49,0.4,2019-10-15,10:06,N,nominal,1.0NRT,270.4,5.4,N
49.12016,-115.98835,351.7,0.49,0.4,2019-10-15,10:06,N,nominal,1.0NRT,274.2,9,N
49.11889,-115.98228,324.9,0.49,0.4,2019-10-15,10:06,N,nominal,1.0NRT,272.2,9,N
49.70724,-119.00747,297.4,0.4,0.37,2019-10-15,10:06,N,nominal,1.0NRT,265.5,0.4,N
49.7053,-118.99664,310,0.4,0.37,2019-10-15,10:06,N,nominal,1.0NRT,265.2,2.6,N
49.70433,-118.99124,316.7,0.4,0.37,2019-10-15,10:06,N,nominal,1.0NRT,264.8,2.1,N
49.69949,-118.9642,300.4,0.4,0.37,2019-10-15,10:06,N,nominal,1.0NRT,266.9,0.8,N
49.70007,-118.9872,320.9,0.4,0.37,2019-10-15,10:06,N,nominal,1.0NRT,265.5,1,N
49.11669,-115.99046,326.9,0.49,0.4,2019-10-15,10:06,N,nominal,1.0NRT,270.6,4.7,N
49.70394,-119.00883,297.5,0.4,0.37,2019-10-15,10:06,N,nominal,1.0NRT,265.5,1.1,N
49.70296,-119.00338,297.2,0.4,0.37,2019-10-15,10:06,N,nominal,1.0NRT,265.5,0.8,N
49.70104,-118.99262,299.8,0.4,0.37,2019-10-15,10:06,N,nominal,1.0NRT,265.3,1,N
49.6991,-118.9818,311.4,0.4,0.37,2019-10-15,10:06,N,nominal,1.0NRT,265.5,1.4,N
49.70064,-119.0102,304.2,0.4,0.37,2019-10-15,10:06,N,nominal,1.0NRT,266.1,1.1,N
49.69967,-119.00476,308.1,0.4,0.37,2019-10-15,10:06,N,nominal,1.0NRT,265.6,0.8,N
49.69676,-118.98855,295.7,0.4,0.37,2019-10-15,10:06,N,nominal,1.0NRT,264.7,1,N
49.70028,-119.02796,305.9,0.4,0.37,2019-10-15,10:06,N,nominal,1.0NRT,266.9,1.4,N
49.69346,-118.98988,303.2,0.4,0.37,2019-10-15,10:06,N,nominal,1.0NRT,264.9,1.4,N
48.55455,-115.47618,321.5,0.52,0.41,2019-10-15,10:06,N,nominal,1.0NRT,272.3,3.1,N
48.55604,-115.48302,298.2,0.52,0.41,2019-10-15,10:06,N,nominal,1.0NRT,271.7,1,N
48.59692,-116.30743,305.9,0.48,0.4,2019-10-15,10:06,N,nominal,1.0NRT,272.9,1.3,N
38.00321,-121.93311,303.8,0.45,0.39,2019-10-15,10:12,N,nominal,1.0NRT,286.1,0.9,N
38.02668,-122.05873,298.6,0.45,0.39,2019-10-15,10:12,N,nominal,1.0NRT,285.3,1.3,N
38.0229,-122.06351,299.1,0.45,0.39,2019-10-15,10:12,N,nominal,1.0NRT,288.3,1,N
38.02544,-122.05745,300.5,0.45,0.39,2019-10-15,10:12,N,nominal,1.0NRT,285.5,1,N
37.88261,-121.1862,300.2,0.48,0.4,2019-10-15,10:12,N,nominal,1.0NRT,281.9,0.5,N
36.29079,-112.3918,313.9,0.49,0.65,2019-10-15,10:12,N,nominal,1.0NRT,279.7,2,N
36.28969,-112.36497,296,0.49,0.65,2019-10-15,10:12,N,nominal,1.0NRT,279.3,1,N
36.29119,-112.37036,295.6,0.49,0.65,2019-10-15,10:12,N,nominal,1.0NRT,278.8,0.7,N
38.45073,-121.4587,295.5,0.46,0.39,2019-10-15,10:12,N,nominal,1.0NRT,278,0.4,N
36.29406,-112.39418,308.3,0.49,0.65,2019-10-15,10:12,N,nominal,1.0NRT,278.5,1.5,N
38.69176,-120.16829,296.8,0.52,0.41,2019-10-15,10:12,N,nominal,1.0NRT,279.6,1,N
38.69547,-120.16698,297.9,0.52,0.41,2019-10-15,10:12,N,nominal,1.0NRT,280,1,N
38.6958,-120.14918,321.6,0.52,0.41,2019-10-15,10:12,N,nominal,1.0NRT,283.1,2.4,N
38.6969,-120.15457,322.8,0.52,0.41,2019-10-15,10:12,N,nominal,1.0NRT,284.4,4.2,N
38.69947,-120.14771,304.6,0.52,0.41,2019-10-15,10:12,N,nominal,1.0NRT,280.7,2.4,N
38.70312,-120.1461,302,0.52,0.41,2019-10-15,10:12,N,nominal,1.0NRT,280.4,1.9,N
39.35719,-121.72701,307.3,0.44,0.38,2019-10-15,10:12,N,nominal,1.0NRT,280,0.8,N
38.9373,-112.81297,305.7,0.39,0.59,2019-10-15,10:12,N,nominal,1.0NRT,272.4,2.2,N
38.93851,-112.81739,313.3,0.39,0.59,2019-10-15,10:12,N,nominal,1.0NRT,275.1,3.3,N
42.33747,-123.61122,296.9,0.39,0.36,2019-10-15,10:12,N,nominal,1.0NRT,282.3,1.1,N
42.33823,-123.61587,309.6,0.39,0.36,2019-10-15,10:12,N,nominal,1.0NRT,282.9,1.1,N
42.3415,-123.61489,296.6,0.39,0.36,2019-10-15,10:12,N,nominal,1.0NRT,282,0.5,N
42.38281,-122.77559,295.4,0.39,0.36,2019-10-15,10:12,N,nominal,1.0NRT,277,0.6,N
42.04711,-120.12399,296,0.46,0.39,2019-10-15,10:12,N,nominal,1.0NRT,276.9,1,N
42.04821,-120.12231,302.5,0.46,0.39,2019-10-15,10:12,N,nominal,1.0NRT,278,0.9,N
40.81895,-114.25478,299.4,0.59,0.53,2019-10-15,10:12,N,nominal,1.0NRT,275.4,1.5,N
43.04889,-124.21259,334.8,0.38,0.36,2019-10-15,10:12,N,nominal,1.0NRT,278.4,2.8,N
43.05217,-124.21163,326.2,0.38,0.36,2019-10-15,10:12,N,nominal,1.0NRT,278.6,2.8,N
42.65535,-121.76247,300.1,0.41,0.37,2019-10-15,10:12,N,nominal,1.0NRT,272.6,1.4,N
42.65623,-121.76737,303.3,0.41,0.37,2019-10-15,10:12,N,nominal,1.0NRT,273.2,1.6,N
34.09172,-117.53227,306.4,0.58,0.52,2019-10-15,10:12,N,nominal,1.0NRT,284.7,1.1,N
42.65956,-121.76629,305.4,0.41,0.37,2019-10-15,10:12,N,nominal,1.0NRT,274.3,1.6,N
43.2015,-123.43639,300.6,0.38,0.36,2019-10-15,10:12,N,nominal,1.0NRT,277.2,0.6,N
40.91634,-112.73189,298.7,0.35,0.57,2019-10-15,10:12,N,nominal,1.0NRT,279,1.2,N
40.82454,-111.92271,295.4,0.39,0.59,2019-10-15,10:12,N,nominal,1.0NRT,279.5,0.8,N
43.52454,-123.38699,314.2,0.38,0.36,2019-10-15,10:12,N,nominal,1.0NRT,275.5,1.1,N
43.5253,-123.39169,301.7,0.38,0.36,2019-10-15,10:12,N,nominal,1.0NRT,274.6,1.1,N
43.79567,-122.8303,308.1,0.39,0.36,2019-10-15,10:12,N,nominal,1.0NRT,277.8,1.3,N
43.79894,-122.82927,318.3,0.39,0.36,2019-10-15,10:12,N,nominal,1.0NRT,279,1.3,N
43.82249,-122.84673,310.6,0.39,0.36,2019-10-15,10:12,N,nominal,1.0NRT,279.1,1.2,N
43.82576,-122.84566,305,0.39,0.36,2019-10-15,10:12,N,nominal,1.0NRT,278.5,1.2,N
43.82904,-122.84463,306.3,0.39,0.36,2019-10-15,10:12,N,nominal,1.0NRT,279.5,1.2,N
43.82982,-122.8494,316.3,0.39,0.36,2019-10-15,10:12,N,nominal,1.0NRT,278.6,1.2,N
40.84612,-109.67698,296.2,0.5,0.66,2019-10-15,10:12,N,nominal,1.0NRT,273.8,2.1,N
40.8478,-109.68253,298.1,0.5,0.66,2019-10-15,10:12,N,nominal,1.0NRT,273.6,2.9,N
44.06313,-122.9821,300.7,0.39,0.36,2019-10-15,10:12,N,nominal,1.0NRT,272.4,0.6,N
44.53285,-123.70682,298.2,0.38,0.36,2019-10-15,10:12,N,nominal,1.0NRT,272.1,0.5,N
44.53358,-123.71159,305.7,0.38,0.36,2019-10-15,10:12,N,nominal,1.0NRT,272,1.5,N
44.55523,-123.65829,300.9,0.38,0.36,2019-10-15,10:12,N,nominal,1.0NRT,274.9,0.8,N
44.55946,-123.22527,296.4,0.38,0.36,2019-10-15,10:12,N,nominal,1.0NRT,271.7,0.6,N
44.97863,-123.37916,300.7,0.38,0.36,2019-10-15,10:12,N,nominal,1.0NRT,276.4,0.9,N
42.68282,-111.5869,295.2,0.36,0.57,2019-10-15,10:12,N,nominal,1.0NRT,270.3,2.1,N
42.68395,-111.59101,336.2,0.36,0.57,2019-10-15,10:12,N,nominal,1.0NRT,273.2,2.1,N
42.68783,-111.58445,296.4,0.36,0.57,2019-10-15,10:12,N,nominal,1.0NRT,269.5,1.3,N
45.36224,-123.52319,299.2,0.38,0.36,2019-10-15,10:12,N,nominal,1.0NRT,272.1,0.9,N
45.35896,-123.52419,308.3,0.38,0.36,2019-10-15,10:12,N,nominal,1.0NRT,272.8,0.9,N
45.3524,-123.52618,297.1,0.38,0.36,2019-10-15,10:12,N,nominal,1.0NRT,272.9,1.1,N
45.35165,-123.52131,316.3,0.38,0.36,2019-10-15,10:12,N,nominal,1.0NRT,275.9,1.4,N
45.34838,-123.52232,316.9,0.38,0.36,2019-10-15,10:12,N,nominal,1.0NRT,275.3,1.3,N
45.22749,-123.16342,327.5,0.38,0.36,2019-10-15,10:12,N,nominal,1.0NRT,273.5,1.7,N
48.59467,-116.30836,306.2,0.48,0.4,2019-10-15,10:12,N,nominal,1.0NRT,272,1.8,N
48.72847,-117.81825,300,0.44,0.38,2019-10-15,10:12,N,nominal,1.0NRT,267.9,0.7,N
47.907,-117.02441,326.1,0.47,0.4,2019-10-15,10:12,N,nominal,1.0NRT,273.7,3.5,N
47.86362,-116.96356,297,0.47,0.4,2019-10-15,10:12,N,nominal,1.0NRT,274,0.7,N
47.86232,-116.95726,303.5,0.47,0.4,2019-10-15,10:12,N,nominal,1.0NRT,273.8,1.5,N
47.99773,-117.86613,299.6,0.44,0.39,2019-10-15,10:12,N,nominal,1.0NRT,270.2,1,N
47.09841,-114.06366,295.5,0.42,0.45,2019-10-15,10:12,N,nominal,1.0NRT,269.6,0.7,N
47.36391,-116.29514,315.5,0.51,0.41,2019-10-15,10:12,N,nominal,1.0NRT,273.8,1.6,N
47.36463,-116.29434,306.8,0.51,0.41,2019-10-15,10:12,N,nominal,1.0NRT,273.2,1.2,N
47.36094,-116.29585,305.1,0.51,0.41,2019-10-15,10:12,N,nominal,1.0NRT,271.9,1.2,N
46.79237,-116.06849,305.5,0.53,0.42,2019-10-15,10:12,N,nominal,1.0NRT,273.6,1.5,N
46.78874,-116.07063,303.2,0.53,0.42,2019-10-15,10:12,N,nominal,1.0NRT,273,1.5,N
46.76295,-115.99057,305,0.54,0.42,2019-10-15,10:12,N,nominal,1.0NRT,274.4,1.2,N
46.18737,-116.77463,301.8,0.52,0.41,2019-10-15,10:12,N,nominal,1.0NRT,273.2,1.5,N
46.31035,-120.06149,298.4,0.41,0.37,2019-10-15,10:12,N,nominal,1.0NRT,274.9,0.9,N
45.90978,-118.09954,310,0.47,0.4,2019-10-15,10:12,N,nominal,1.0NRT,274.1,1.5,N
46.62045,-122.98291,296.5,0.38,0.36,2019-10-15,10:12,N,nominal,1.0NRT,271.9,0.7,N
46.31011,-123.26642,297.7,0.38,0.36,2019-10-15,10:12,N,nominal,1.0NRT,269.7,0.7,N
34.09643,-117.53075,303.8,0.58,0.52,2019-10-15,10:12,N,nominal,1.0NRT,285,1.1,N
33.6127,-117.82237,297.4,0.57,0.52,2019-10-15,10:12,N,nominal,1.0NRT,284.9,0.5,N
33.61284,-117.82211,296.4,0.57,0.52,2019-10-15,10:12,N,nominal,1.0NRT,284.8,0.5,N
33.77737,-118.22878,301.3,0.54,0.51,2019-10-15,10:12,N,nominal,1.0NRT,288.4,1.3,N
33.85295,-118.33212,304.9,0.53,0.5,2019-10-15,10:12,N,nominal,1.0NRT,291.9,1.6,N
33.71662,-117.70849,298.4,0.58,0.52,2019-10-15,10:12,N,nominal,1.0NRT,284.8,0.6,N
34.03583,-118.10353,295.4,0.54,0.51,2019-10-15,10:12,N,nominal,1.0NRT,285.1,0.4,N
33.57285,-116.14418,303.5,0.36,0.57,2019-10-15,10:12,N,nominal,1.0NRT,284.7,12.6,N
33.57379,-116.14796,301.5,0.36,0.57,2019-10-15,10:12,N,nominal,1.0NRT,284,22.9,N
33.577,-116.13857,297.8,0.36,0.57,2019-10-15,10:12,N,nominal,1.0NRT,287.3,12.6,N
33.57795,-116.14233,330.1,0.36,0.57,2019-10-15,10:12,N,nominal,1.0NRT,309.7,12.6,N
33.57889,-116.1461,367,0.36,0.57,2019-10-15,10:12,N,high,1.0NRT,300,22.9,N
34.03391,-117.90385,300.5,0.56,0.51,2019-10-15,10:12,N,nominal,1.0NRT,284.2,0.8,N
34.15198,-118.1899,301,0.53,0.5,2019-10-15,10:12,N,nominal,1.0NRT,285.1,0.8,N
34.09324,-117.53188,313.1,0.58,0.52,2019-10-15,10:12,N,nominal,1.0NRT,285.6,2.9,N
34.33308,-118.51842,313.2,0.51,0.49,2019-10-15,10:12,N,nominal,1.0NRT,285.6,1.3,N
34.6083,-117.33636,305.2,0.58,0.52,2019-10-15,10:12,N,nominal,1.0NRT,282.8,1.9,N
34.62255,-117.09716,299.6,0.6,0.53,2019-10-15,10:12,N,nominal,1.0NRT,283.9,1,N
34.08217,-110.04123,295.9,0.74,0.76,2019-10-15,10:12,N,nominal,1.0NRT,278.4,3.7,N
34.77816,-112.08255,298.5,0.55,0.68,2019-10-15,10:12,N,nominal,1.0NRT,282.5,0.9,N
37.18358,-121.67978,296.9,0.47,0.4,2019-10-15,10:12,N,nominal,1.0NRT,279.9,0.9,N
37.18267,-121.67892,297.6,0.47,0.4,2019-10-15,10:12,N,nominal,1.0NRT,280.4,0.6,N
37.08138,-120.31532,304.6,0.54,0.42,2019-10-15,10:12,N,nominal,1.0NRT,281.2,1.1,N
37.4541,-121.92918,301.7,0.46,0.39,2019-10-15,10:12,N,nominal,1.0NRT,281.9,0.9,N
37.45561,-121.93277,303,0.46,0.39,2019-10-15,10:12,N,nominal,1.0NRT,281.3,0.5,N
37.755,-121.65776,296.3,0.47,0.39,2019-10-15,10:12,N,nominal,1.0NRT,282.5,0.4,N
37.94281,-122.39467,300,0.44,0.38,2019-10-15,10:12,N,nominal,1.0NRT,283.1,1.4,N
37.95063,-122.3975,298.3,0.44,0.38,2019-10-15,10:12,N,nominal,1.0NRT,287.3,1.3,N
36.35808,-114.91013,317.2,0.36,0.57,2019-10-15,10:12,N,nominal,1.0NRT,284.7,1.4,N
38.01413,-122.11026,301.1,0.45,0.39,2019-10-15,10:12,N,nominal,1.0NRT,287.3,0.8,N
38.01507,-122.11527,297.9,0.45,0.39,2019-10-15,10:12,N,nominal,1.0NRT,285.7,0.8,N
19.28285,-69.80397,331.4,0.5,0.41,2019-10-15,18:06,N,nominal,1.0NRT,299,3.1,D
29.58568,-82.74736,333.6,0.41,0.45,2019-10-15,18:06,N,nominal,1.0NRT,295.1,4.4,D
29.58317,-82.74856,339.1,0.41,0.45,2019-10-15,18:06,N,nominal,1.0NRT,296.5,3.4,D
29.45411,-82.40088,333.7,0.4,0.44,2019-10-15,18:06,N,nominal,1.0NRT,296.1,2.5,D
27.29066,-90.97022,352.1,0.69,0.74,2019-10-15,18:06,N,nominal,1.0NRT,285.4,10.9,D
27.29159,-90.9687,340.4,0.69,0.74,2019-10-15,18:06,N,nominal,1.0NRT,285,8.9,D
29.30947,-82.30434,339.6,0.4,0.44,2019-10-15,18:06,N,nominal,1.0NRT,295.5,2.8,D
28.57109,-81.71572,335.7,0.57,0.43,2019-10-15,18:06,N,nominal,1.0NRT,299.8,11.1,D
28.31579,-82.15948,339.5,0.41,0.45,2019-10-15,18:06,N,nominal,1.0NRT,296.4,4.1,D
28.22166,-82.58298,353.8,0.43,0.46,2019-10-15,18:06,N,nominal,1.0NRT,294.7,10.2,D
27.2951,-81.77176,340.4,0.4,0.44,2019-10-15,18:06,N,nominal,1.0NRT,294.8,11.6,D
27.2959,-81.76772,367,0.4,0.44,2019-10-15,18:06,N,high,1.0NRT,299.8,11.6,D
27.29106,-81.77077,347.2,0.4,0.44,2019-10-15,18:06,N,nominal,1.0NRT,307.6,23.9,D
27.29186,-81.76674,343.2,0.4,0.44,2019-10-15,18:06,N,nominal,1.0NRT,297.3,23.9,D
27.28702,-81.76978,341.8,0.4,0.44,2019-10-15,18:06,N,nominal,1.0NRT,296.5,23.9,D
27.28782,-81.76575,345.7,0.4,0.44,2019-10-15,18:06,N,nominal,1.0NRT,299.7,23.9,D
26.56294,-81.54677,332.9,0.4,0.44,2019-10-15,18:06,N,nominal,1.0NRT,298.5,1.6,D
26.33398,-81.21318,342,0.39,0.44,2019-10-15,18:06,N,nominal,1.0NRT,292.4,6.2,D
21.68427,-77.70217,337.9,0.46,0.39,2019-10-15,18:06,N,nominal,1.0NRT,295.9,3.3,D
19.96386,-75.09361,329.8,0.39,0.36,2019-10-15,18:06,N,nominal,1.0NRT,296.9,2.7,D
19.72404,-71.59338,337.5,0.42,0.38,2019-10-15,18:06,N,nominal,1.0NRT,299.5,2.5,D
19.69683,-71.57315,331.9,0.42,0.38,2019-10-15,18:06,N,nominal,1.0NRT,300.3,3.3,D
19.6806,-71.56243,349.8,0.42,0.38,2019-10-15,18:06,N,nominal,1.0NRT,303.1,28.9,D
19.66794,-71.577,338.5,0.42,0.38,2019-10-15,18:06,N,nominal,1.0NRT,298.6,5.2,D
19.59569,-71.74185,331.4,0.42,0.37,2019-10-15,18:06,N,nominal,1.0NRT,296.6,2.4,D
19.63674,-70.52211,332,0.47,0.39,2019-10-15,18:06,N,nominal,1.0NRT,296.8,2.2,D
19.5887,-70.49334,332.4,0.47,0.4,2019-10-15,18:06,N,nominal,1.0NRT,297.4,3.6,D
19.55209,-70.35191,332.2,0.47,0.4,2019-10-15,18:06,N,nominal,1.0NRT,296.9,7.6,D
19.51942,-70.1458,335.8,0.48,0.4,2019-10-15,18:06,N,nominal,1.0NRT,302.4,110.9,D
19.16499,-70.43864,338.2,0.47,0.39,2019-10-15,18:06,N,nominal,1.0NRT,303.1,5.4,D
19.16559,-70.4342,335.7,0.47,0.39,2019-10-15,18:06,N,nominal,1.0NRT,303.9,5.2,D
19.18194,-70.22611,335.6,0.48,0.4,2019-10-15,18:06,N,nominal,1.0NRT,300.2,1.9,D
19.02572,-69.94969,346.9,0.49,0.4,2019-10-15,18:06,N,nominal,1.0NRT,298.5,8.1,D
19.07045,-69.42612,334.1,0.52,0.42,2019-10-15,18:06,N,nominal,1.0NRT,297.7,4.8,D
18.92775,-70.35292,338.2,0.47,0.4,2019-10-15,18:06,N,nominal,1.0NRT,304.3,38.9,D
18.54616,-72.58275,343,0.39,0.36,2019-10-15,18:06,N,nominal,1.0NRT,301.4,6.6,D
18.57928,-70.87151,336.8,0.44,0.38,2019-10-15,18:06,N,nominal,1.0NRT,296.4,14.5,D
18.4767,-70.91103,336.5,0.44,0.38,2019-10-15,18:06,N,nominal,1.0NRT,301.3,2.7,D
18.38416,-71.37296,333.3,0.42,0.38,2019-10-15,18:06,N,nominal,1.0NRT,302.3,1.3,D
18.26915,-70.25548,330.2,0.46,0.39,2019-10-15,18:06,N,nominal,1.0NRT,301.1,3.2,D
18.43115,-68.70123,333,0.56,0.43,2019-10-15,18:06,N,nominal,1.0NRT,299.7,4.2,D
36.47007,-79.52757,340.9,0.39,0.36,2019-10-15,18:12,N,nominal,1.0NRT,302,2.8,D
36.47338,-79.5284,337.1,0.39,0.36,2019-10-15,18:12,N,nominal,1.0NRT,300.8,1.7,D
37.181,-77.44977,331.8,0.39,0.36,2019-10-15,18:12,N,nominal,1.0NRT,305.5,2.5,D
38.60094,-82.82346,325.9,0.45,0.39,2019-10-15,18:12,N,low,1.0NRT,299.1,4.7,D
41.00468,-72.47734,335.4,0.43,0.46,2019-10-15,18:12,N,nominal,1.0NRT,289.7,2.9,D
39.50806,-84.10582,331.6,0.48,0.4,2019-10-15,18:12,N,nominal,1.0NRT,297,1.7,D
39.48518,-84.38664,334,0.5,0.41,2019-10-15,18:12,N,nominal,1.0NRT,299.8,5.3,D
40.30542,-79.87672,335.7,0.38,0.36,2019-10-15,18:12,N,nominal,1.0NRT,299.6,3,D
40.39352,-79.85637,343.8,0.38,0.36,2019-10-15,18:12,N,nominal,1.0NRT,300.8,3.3,D
40.89278,-77.7111,333.3,0.41,0.37,2019-10-15,18:12,N,nominal,1.0NRT,294.4,2.5,D
40.89303,-77.70917,332,0.41,0.37,2019-10-15,18:12,N,nominal,1.0NRT,293.9,3.5,D
40.4718,-82.2859,328.1,0.41,0.37,2019-10-15,18:12,N,nominal,1.0NRT,292.7,1.9,D
40.45346,-82.90186,325.4,0.43,0.38,2019-10-15,18:12,N,nominal,1.0NRT,296.1,1.8,D
41.52576,-81.13416,328.1,0.39,0.36,2019-10-15,18:12,N,nominal,1.0NRT,288.6,3.3,D
41.99157,-79.35442,344.2,0.39,0.36,2019-10-15,18:12,N,nominal,1.0NRT,290.3,6.8,D
40.60147,-87.89643,327.6,0.45,0.47,2019-10-15,18:12,N,nominal,1.0NRT,290.7,3.8,D
41.56668,-84.04626,343.9,0.45,0.39,2019-10-15,18:12,N,nominal,1.0NRT,297,11.7,D
43.38472,-70.63684,339,0.56,0.52,2019-10-15,18:12,N,nominal,1.0NRT,292.3,17.1,D
43.38424,-70.64393,335.2,0.56,0.51,2019-10-15,18:12,N,nominal,1.0NRT,289.5,11,D
42.25534,-83.12737,328.1,0.42,0.37,2019-10-15,18:12,N,nominal,1.0NRT,293.8,3.2,D
42.28344,-83.11015,343.9,0.42,0.37,2019-10-15,18:12,N,nominal,1.0NRT,295.6,3.5,D
42.79879,-80.09673,327.7,0.38,0.36,2019-10-15,18:12,N,nominal,1.0NRT,288.9,2.7,D
42.80139,-80.1023,338.5,0.38,0.36,2019-10-15,18:12,N,nominal,1.0NRT,290.6,3.6,D
42.81264,-80.09564,326.2,0.38,0.36,2019-10-15,18:12,N,nominal,1.0NRT,291.1,3,D
37.23346,-82.03917,338.2,0.44,0.38,2019-10-15,18:12,N,nominal,1.0NRT,300.8,3.6,D
38.18467,-81.18135,333.6,0.41,0.37,2019-10-15,18:12,N,nominal,1.0NRT,297.4,3,D
39.01625,-77.76849,333.4,0.39,0.37,2019-10-15,18:12,N,nominal,1.0NRT,296.9,3,D
38.09128,-84.72499,326.7,0.54,0.42,2019-10-15,18:12,N,nominal,1.0NRT,291.5,2.8,D
39.45465,-77.05708,331.1,0.41,0.37,2019-10-15,18:12,N,nominal,1.0NRT,295.8,4,D
43.27369,-79.7962,326.1,0.39,0.36,2019-10-15,18:12,N,nominal,1.0NRT,289.9,1.4,D
43.20602,-81.12502,325.7,0.38,0.36,2019-10-15,18:12,N,nominal,1.0NRT,278.9,1.6,D
46.04422,-73.1419,336,0.45,0.47,2019-10-15,18:12,N,nominal,1.0NRT,292.2,4,D
46.8373,-68.29652,337.4,0.39,0.59,2019-10-15,18:12,N,nominal,1.0NRT,284.4,2.5,D
34.79455,-78.72179,330.2,0.39,0.36,2019-10-15,18:12,N,nominal,1.0NRT,282.8,2.6,D
35.01458,-77.69212,325.6,0.38,0.36,2019-10-15,18:12,N,nominal,1.0NRT,286.3,35.6,D
35.01395,-77.69632,345.2,0.38,0.36,2019-10-15,18:12,N,nominal,1.0NRT,289.4,35.6,D
35.01788,-77.69285,347.9,0.38,0.36,2019-10-15,18:12,N,nominal,1.0NRT,291.5,35.6,D
35.01662,-77.70124,335.5,0.38,0.36,2019-10-15,18:12,N,nominal,1.0NRT,287.8,7.2,D
35.02055,-77.69778,367,0.38,0.36,2019-10-15,18:12,N,high,1.0NRT,292,6.3,D
35.02117,-77.69357,327.8,0.38,0.36,2019-10-15,18:12,N,nominal,1.0NRT,291,6.3,D
35.16785,-78.0458,347.3,0.38,0.36,2019-10-15,18:12,N,nominal,1.0NRT,295.8,12,D
35.17114,-78.04654,340.7,0.38,0.36,2019-10-15,18:12,N,nominal,1.0NRT,291,6.2,D
35.11643,-78.42491,325,0.38,0.36,2019-10-15,18:12,N,nominal,1.0NRT,285.8,0.9,D
35.64025,-76.52035,331.8,0.4,0.37,2019-10-15,18:12,N,nominal,1.0NRT,300.3,3.1,D
36.2808,-76.49906,339.3,0.4,0.37,2019-10-15,18:12,N,nominal,1.0NRT,293.1,6.1,D
36.28479,-76.49528,339,0.4,0.37,2019-10-15,18:12,N,nominal,1.0NRT,295.1,6.1,D
36.28817,-76.49597,337.1,0.4,0.37,2019-10-15,18:12,N,nominal,1.0NRT,293.1,3.6,D
36.07082,-78.50607,346.2,0.38,0.36,2019-10-15,18:12,N,nominal,1.0NRT,298.7,6.7,D
36.48857,-76.09003,344.6,0.41,0.37,2019-10-15,18:12,N,nominal,1.0NRT,296.2,8.5,D
36.39209,-79.64757,335.8,0.39,0.36,2019-10-15,18:12,N,nominal,1.0NRT,299.3,2.6,D
22.04399,-98.63277,346.2,0.39,0.37,2019-10-15,19:48,N,nominal,1.0NRT,308.5,6.3,D
22.04735,-98.63332,345.5,0.39,0.37,2019-10-15,19:48,N,nominal,1.0NRT,308.8,13.7,D
22.00249,-99.17532,337,0.39,0.36,2019-10-15,19:48,N,nominal,1.0NRT,305.5,19.1,D
22.26452,-97.80823,337,0.42,0.37,2019-10-15,19:48,N,nominal,1.0NRT,303.1,5.1,D
22.23798,-98.02448,330.9,0.41,0.37,2019-10-15,19:48,N,low,1.0NRT,304,4.2,D
21.68238,-102.41053,336.4,0.43,0.38,2019-10-15,19:48,N,nominal,1.0NRT,308.1,2.6,D
21.68377,-102.42361,340.3,0.43,0.38,2019-10-15,19:48,N,nominal,1.0NRT,308,4.1,D
22.39569,-98.16614,351.5,0.41,0.37,2019-10-15,19:48,N,nominal,1.0NRT,301.2,10.3,D
22.39964,-98.16274,336.3,0.41,0.37,2019-10-15,19:48,N,nominal,1.0NRT,300.7,10.3,D
22.3991,-98.16669,337,0.41,0.37,2019-10-15,19:48,N,nominal,1.0NRT,299.4,10.3,D
22.51859,-98.64808,334.7,0.4,0.37,2019-10-15,19:48,N,nominal,1.0NRT,302.5,3.4,D
22.58877,-98.20524,331.2,0.41,0.37,2019-10-15,19:48,N,low,1.0NRT,305.5,1.8,D
22.59273,-98.20184,332.7,0.41,0.37,2019-10-15,19:48,N,low,1.0NRT,304.3,1.8,D
22.59217,-98.2058,335.9,0.41,0.37,2019-10-15,19:48,N,nominal,1.0NRT,303.9,1.8,D
22.77436,-98.95313,330.9,0.39,0.36,2019-10-15,19:48,N,nominal,1.0NRT,298.7,1.8,D
22.01172,-103.91462,340.2,0.5,0.41,2019-10-15,19:48,N,nominal,1.0NRT,304.8,15.5,D
23.22422,-98.85534,338.5,0.4,0.37,2019-10-15,19:48,N,nominal,1.0NRT,308.3,4.4,D
23.44403,-98.21488,337.3,0.41,0.37,2019-10-15,19:48,N,nominal,1.0NRT,302.4,5.7,D
23.46161,-98.11428,336.3,0.41,0.37,2019-10-15,19:48,N,nominal,1.0NRT,302.8,2.7,D
23.44745,-98.21546,348,0.41,0.37,2019-10-15,19:48,N,nominal,1.0NRT,303.7,5.7,D
23.63847,-98.16692,341.3,0.41,0.37,2019-10-15,19:48,N,nominal,1.0NRT,304.5,2.4,D
23.66361,-98.16267,337.4,0.41,0.37,2019-10-15,19:48,N,nominal,1.0NRT,306,2.7,D
24.58533,-99.52779,330.3,0.39,0.36,2019-10-15,19:48,N,low,1.0NRT,303.4,2.7,D
24.73046,-99.53291,330,0.39,0.36,2019-10-15,19:48,N,low,1.0NRT,304.8,1.5,D
24.74199,-99.64157,333.2,0.39,0.36,2019-10-15,19:48,N,nominal,1.0NRT,303.7,2.8,D
24.04861,-106.9626,334.8,0.45,0.47,2019-10-15,19:48,N,nominal,1.0NRT,298.1,3.9,D
25.29457,-99.74509,334.9,0.39,0.36,2019-10-15,19:48,N,nominal,1.0NRT,304.8,3.8,D
25.32978,-99.68365,336.2,0.39,0.36,2019-10-15,19:48,N,low,1.0NRT,307.8,10.4,D
25.64626,-98.54193,341.3,0.42,0.37,2019-10-15,19:48,N,nominal,1.0NRT,311.5,5.7,D
25.91438,-98.0192,333.4,0.44,0.38,2019-10-15,19:48,N,low,1.0NRT,304.8,1.7,D
25.69706,-100.26995,331.7,0.39,0.36,2019-10-15,19:48,N,low,1.0NRT,306.5,1.3,D
25.6997,-100.29797,333.8,0.39,0.36,2019-10-15,19:48,N,low,1.0NRT,305.6,2.6,D
25.72013,-100.29771,345.6,0.39,0.36,2019-10-15,19:48,N,nominal,1.0NRT,306,5.1,D
25.7223,-100.30596,333.7,0.39,0.36,2019-10-15,19:48,N,low,1.0NRT,307.6,2.8,D
25.98462,-99.18905,337.3,0.4,0.37,2019-10-15,19:48,N,low,1.0NRT,308.2,11.8,D
25.98801,-99.18962,343.4,0.4,0.37,2019-10-15,19:48,N,nominal,1.0NRT,311.6,11.8,D
25.98744,-99.19363,335.5,0.4,0.37,2019-10-15,19:48,N,low,1.0NRT,307.6,6.4,D
26.15481,-98.63916,331,0.42,0.38,2019-10-15,19:48,N,low,1.0NRT,306,2.5,D
26.08632,-99.38218,340,0.4,0.37,2019-10-15,19:48,N,nominal,1.0NRT,307.2,5.7,D
26.21111,-98.53689,331.9,0.42,0.38,2019-10-15,19:48,N,low,1.0NRT,306.5,2.7,D
24.88776,-107.54308,342.4,0.47,0.48,2019-10-15,19:48,N,nominal,1.0NRT,300.1,9.6,D
25.72969,-103.44695,335.5,0.43,0.38,2019-10-15,19:48,N,low,1.0NRT,308.3,1.6,D
25.72896,-103.45118,337.8,0.43,0.38,2019-10-15,19:48,N,low,1.0NRT,308.4,1.6,D
25.89961,-103.68309,335.9,0.43,0.38,2019-10-15,19:48,N,low,1.0NRT,306.6,1.7,D
26.70639,-98.75342,336.7,0.42,0.38,2019-10-15,19:48,N,nominal,1.0NRT,305.7,2.6,D
25.20669,-108.14993,334.3,0.5,0.49,2019-10-15,19:48,N,nominal,1.0NRT,301.6,2.1,D
27.01544,-97.88637,336.2,0.45,0.39,2019-10-15,19:48,N,nominal,1.0NRT,303.8,4.5,D
27.01961,-97.88236,341.7,0.45,0.39,2019-10-15,19:48,N,nominal,1.0NRT,306.7,25.7,D
27.01902,-97.88692,332,0.45,0.39,2019-10-15,19:48,N,low,1.0NRT,302.5,4.5,D
27.0232,-97.88292,353.3,0.45,0.39,2019-10-15,19:48,N,nominal,1.0NRT,305.7,41.3,D
27.02677,-97.88349,336.8,0.45,0.39,2019-10-15,19:48,N,nominal,1.0NRT,305.5,41.3,D
27.02618,-97.88806,330.3,0.45,0.39,2019-10-15,19:48,N,nominal,1.0NRT,298.3,2.6,D
27.03035,-97.88406,335.7,0.45,0.39,2019-10-15,19:48,N,nominal,1.0NRT,301.8,6.4,D
27.02976,-97.88862,346.7,0.45,0.39,2019-10-15,19:48,N,nominal,1.0NRT,303.4,12,D
27.03334,-97.88919,345.2,0.45,0.39,2019-10-15,19:48,N,nominal,1.0NRT,304.6,12,D
27.03692,-97.88976,340.2,0.45,0.39,2019-10-15,19:48,N,nominal,1.0NRT,302.4,4,D
27.03633,-97.89433,343.5,0.45,0.39,2019-10-15,19:48,N,nominal,1.0NRT,300.5,4,D
27.04229,-97.90456,340.1,0.45,0.39,2019-10-15,19:48,N,nominal,1.0NRT,306,10.8,D
27.04646,-97.90058,346.6,0.45,0.39,2019-10-15,19:48,N,nominal,1.0NRT,305.7,10.8,D
27.04587,-97.90514,349.1,0.45,0.39,2019-10-15,19:48,N,nominal,1.0NRT,307,10.8,D
27.04527,-97.90969,343.2,0.45,0.39,2019-10-15,19:48,N,nominal,1.0NRT,307.4,6.9,D
27.04468,-97.91425,337.4,0.45,0.39,2019-10-15,19:48,N,nominal,1.0NRT,302.4,6.9,D
27.04408,-97.91879,333.8,0.45,0.39,2019-10-15,19:48,N,nominal,1.0NRT,296.9,1.3,D
27.05004,-97.90115,337.2,0.45,0.39,2019-10-15,19:48,N,nominal,1.0NRT,306.3,19.9,D
27.04945,-97.9057,353.4,0.45,0.39,2019-10-15,19:48,N,nominal,1.0NRT,311.7,19.9,D
27.04885,-97.91026,351.6,0.45,0.39,2019-10-15,19:48,N,nominal,1.0NRT,306.5,26.1,D
27.04825,-97.91481,347.2,0.45,0.39,2019-10-15,19:48,N,nominal,1.0NRT,308.6,26.1,D
27.04766,-97.91936,354.8,0.45,0.39,2019-10-15,19:48,N,nominal,1.0NRT,306,20.4,D
27.04706,-97.92391,347.4,0.45,0.39,2019-10-15,19:48,N,nominal,1.0NRT,302.8,20.4,D
27.05362,-97.9017,339.9,0.45,0.39,2019-10-15,19:48,N,nominal,1.0NRT,307.5,19.9,D
27.05302,-97.90626,336.8,0.45,0.39,2019-10-15,19:48,N,nominal,1.0NRT,305.4,19.9,D
27.05243,-97.91082,346,0.45,0.39,2019-10-15,19:48,N,nominal,1.0NRT,305.8,26.1,D
27.05183,-97.91538,347.6,0.45,0.39,2019-10-15,19:48,N,nominal,1.0NRT,305.3,26.1,D
27.05123,-97.91993,343.2,0.45,0.39,2019-10-15,19:48,N,nominal,1.0NRT,302.5,20.4,D
27.05064,-97.92448,349.7,0.45,0.39,2019-10-15,19:48,N,nominal,1.0NRT,302.7,20.4,D
27.05004,-97.92902,335,0.45,0.39,2019-10-15,19:48,N,low,1.0NRT,305.7,8.8,D
27.0572,-97.90228,332,0.45,0.39,2019-10-15,19:48,N,low,1.0NRT,306.4,7.6,D
27.0566,-97.90683,337.9,0.45,0.39,2019-10-15,19:48,N,nominal,1.0NRT,302.4,7.6,D
27.05361,-97.9296,337.3,0.45,0.39,2019-10-15,19:48,N,nominal,1.0NRT,303.3,4,D
27.05898,-97.9165,367,0.45,0.39,2019-10-15,19:48,N,high,1.0NRT,305.5,18.1,D
27.05839,-97.92106,367,0.45,0.39,2019-10-15,19:48,N,high,1.0NRT,304.2,13,D
27.05779,-97.92561,367,0.45,0.39,2019-10-15,19:48,N,high,1.0NRT,305.2,13,D
27.05719,-97.93016,336,0.45,0.39,2019-10-15,19:48,N,nominal,1.0NRT,301.8,4,D
27.05513,-97.90437,349.1,0.45,0.39,2019-10-15,19:48,N,nominal,1.0NRT,305.6,15.6,D
27.05397,-97.91351,354.7,0.45,0.39,2019-10-15,19:48,N,nominal,1.0NRT,304.4,20.2,D
27.05225,-97.92718,347.4,0.45,0.39,2019-10-15,19:48,N,nominal,1.0NRT,303,8.6,D
27.0587,-97.90495,348.5,0.45,0.39,2019-10-15,19:48,N,nominal,1.0NRT,304.6,15.6,D
27.05755,-97.91407,344.3,0.45,0.39,2019-10-15,19:48,N,nominal,1.0NRT,302.3,20.2,D
27.05697,-97.91863,349.3,0.45,0.39,2019-10-15,19:48,N,nominal,1.0NRT,303.1,7.3,D
27.0564,-97.92319,337.1,0.45,0.39,2019-10-15,19:48,N,nominal,1.0NRT,301.9,7.3,D
27.05582,-97.92775,342.2,0.45,0.39,2019-10-15,19:48,N,nominal,1.0NRT,303.3,8.6,D
27.05997,-97.92375,367,0.45,0.39,2019-10-15,19:48,N,high,1.0NRT,303.1,7.4,D
27.06055,-97.9192,336.7,0.45,0.39,2019-10-15,19:48,N,nominal,1.0NRT,301.8,7.4,D
26.88133,-101.41435,344.3,0.38,0.36,2019-10-15,19:48,N,nominal,1.0NRT,309.4,8.3,D
26.88536,-101.45099,335.1,0.38,0.36,2019-10-15,19:48,N,low,1.0NRT,307.6,2.8,D
26.88925,-101.44777,333.7,0.38,0.36,2019-10-15,19:48,N,low,1.0NRT,305.7,2.5,D
26.88866,-101.45161,338.5,0.38,0.36,2019-10-15,19:48,N,low,1.0NRT,308.8,2.5,D
26.88747,-101.45932,338.6,0.38,0.36,2019-10-15,19:48,N,low,1.0NRT,308.8,5.3,D
27.37189,-98.20552,346.4,0.44,0.39,2019-10-15,19:48,N,nominal,1.0NRT,304.9,9.5,D
27.43856,-98.02696,346.3,0.45,0.39,2019-10-15,19:48,N,nominal,1.0NRT,301.9,4.3,D
27.44213,-98.02753,345.8,0.45,0.39,2019-10-15,19:48,N,nominal,1.0NRT,304.3,8.8,D
27.44154,-98.03209,338.6,0.45,0.39,2019-10-15,19:48,N,nominal,1.0NRT,304.5,7.8,D
27.43506,-98.1376,335,0.45,0.39,2019-10-15,19:48,N,low,1.0NRT,305.6,5.7,D
27.44277,-98.13424,338.5,0.45,0.39,2019-10-15,19:48,N,nominal,1.0NRT,304,7.3,D
27.09123,-101.52161,338.7,0.38,0.36,2019-10-15,19:48,N,nominal,1.0NRT,305.2,1.8,D
27.33957,-100.31664,336.1,0.39,0.36,2019-10-15,19:48,N,nominal,1.0NRT,304.6,1.5,D
27.51592,-99.29379,335.2,0.41,0.37,2019-10-15,19:48,N,nominal,1.0NRT,305,1.4,D
27.88733,-97.26931,339.9,0.49,0.4,2019-10-15,19:48,N,nominal,1.0NRT,301.6,16.1,D
27.88408,-97.27203,339,0.49,0.4,2019-10-15,19:48,N,nominal,1.0NRT,302.3,8.9,D
27.88781,-97.27261,337.7,0.49,0.4,2019-10-15,19:48,N,nominal,1.0NRT,299.6,8.9,D
28.7544,-88.26495,349,0.56,0.69,2019-10-15,19:48,N,nominal,1.0NRT,290.1,9.7,D
28.04649,-99.28343,338.1,0.41,0.37,2019-10-15,19:48,N,nominal,1.0NRT,305.7,2.9,D
28.46854,-100.30669,332,0.39,0.36,2019-10-15,19:48,N,low,1.0NRT,302.6,1.8,D
28.4769,-99.08401,336.5,0.42,0.38,2019-10-15,19:48,N,nominal,1.0NRT,302.3,2.6,D
29.00558,-96.02207,336.6,0.39,0.44,2019-10-15,19:48,N,nominal,1.0NRT,295.5,2.7,D
29.60407,-90.46902,330.2,0.42,0.61,2019-10-15,19:48,N,nominal,1.0NRT,282.3,3,D
28.58638,-100.91879,339.2,0.39,0.36,2019-10-15,19:48,N,nominal,1.0NRT,302.5,3.8,D
29.75624,-90.79948,334.4,0.4,0.6,2019-10-15,19:48,N,nominal,1.0NRT,286.9,3,D
29.76185,-90.79996,329.4,0.4,0.6,2019-10-15,19:48,N,nominal,1.0NRT,286.9,3.3,D
29.06802,-97.86932,330.7,0.47,0.4,2019-10-15,19:48,N,nominal,1.0NRT,297.6,3.6,D
29.9035,-91.05753,328.9,0.39,0.59,2019-10-15,19:48,N,nominal,1.0NRT,286.7,6.2,D
29.90379,-91.05339,367,0.39,0.59,2019-10-15,19:48,N,low,1.0NRT,287.4,6.2,D
29.20454,-98.87714,344.5,0.43,0.38,2019-10-15,19:48,N,nominal,1.0NRT,302.3,5.1,D
29.57727,-98.03438,330.8,0.47,0.4,2019-10-15,19:48,N,nominal,1.0NRT,299.5,4,D
29.6182,-97.79366,334.1,0.48,0.4,2019-10-15,19:48,N,nominal,1.0NRT,294.5,4.1,D
30.16608,-95.014,328.3,0.46,0.47,2019-10-15,19:48,N,nominal,1.0NRT,287.4,2.5,D
30.44753,-94.89719,341.6,0.47,0.48,2019-10-15,19:48,N,nominal,1.0NRT,287.2,23.8,D
27.4592,-113.31288,346.4,0.46,0.63,2019-10-15,19:48,N,nominal,1.0NRT,307.8,3.2,D
27.45871,-113.31164,342.4,0.46,0.63,2019-10-15,19:48,N,nominal,1.0NRT,307.3,4.4,D
30.49882,-109.63503,337,0.48,0.48,2019-10-15,19:48,N,nominal,1.0NRT,297,3.3,D
32.00882,-106.59105,340,0.48,0.4,2019-10-15,19:48,N,nominal,1.0NRT,309,2.6,D
33.69365,-95.97952,356.8,0.44,0.46,2019-10-15,19:48,N,nominal,1.0NRT,279.4,15.2,D
33.69316,-95.98436,343.6,0.44,0.46,2019-10-15,19:48,N,nominal,1.0NRT,282.4,10.3,D
33.69794,-95.9801,356.5,0.44,0.46,2019-10-15,19:48,N,nominal,1.0NRT,275.5,11.7,D
33.70224,-95.98067,344.1,0.44,0.46,2019-10-15,19:48,N,nominal,1.0NRT,274.6,11.7,D
33.69123,-95.9821,354.4,0.44,0.46,2019-10-15,19:48,N,nominal,1.0NRT,283.3,10.7,D
33.69598,-95.97782,342.1,0.44,0.46,2019-10-15,19:48,N,nominal,1.0NRT,274.4,10.4,D
33.69553,-95.98269,367,0.44,0.46,2019-10-15,19:48,N,low,1.0NRT,279.2,10.7,D
33.70027,-95.97841,353.4,0.44,0.46,2019-10-15,19:48,N,nominal,1.0NRT,277.4,14.8,D
17.89689,-92.49164,347.3,0.46,0.47,2019-10-15,19:48,N,nominal,1.0NRT,291,14.1,D
18.64313,-92.17313,326.9,0.49,0.49,2019-10-15,19:48,N,nominal,1.0NRT,281.3,4,D
18.6448,-92.17248,327.9,0.49,0.49,2019-10-15,19:48,N,nominal,1.0NRT,279.4,2.8,D
19.3679,-92.00449,326,0.52,0.5,2019-10-15,19:48,N,nominal,1.0NRT,282,4,D
18.54125,-101.30005,329.3,0.42,0.38,2019-10-15,19:48,N,low,1.0NRT,300.4,6.9,D
18.72227,-100.52625,327.3,0.4,0.37,2019-10-15,19:48,N,low,1.0NRT,298.5,2.9,D
19.05283,-102.29204,332.1,0.45,0.39,2019-10-15,19:48,N,nominal,1.0NRT,298.2,2.1,D
19.17694,-104.56445,328.8,0.39,0.44,2019-10-15,19:48,N,nominal,1.0NRT,296.6,2.7,D
20.68152,-97.27753,336,0.42,0.38,2019-10-15,19:48,N,nominal,1.0NRT,296.7,3.6,D
20.17781,-102.40478,331.7,0.45,0.39,2019-10-15,19:48,N,nominal,1.0NRT,304.6,3.1,D
20.9134,-98.08511,335.4,0.4,0.37,2019-10-15,19:48,N,nominal,1.0NRT,298.8,6.8,D
21.03996,-97.75562,336.5,0.41,0.37,2019-10-15,19:48,N,nominal,1.0NRT,300.1,3.9,D
21.02634,-98.3884,331.6,0.39,0.37,2019-10-15,19:48,N,nominal,1.0NRT,297.2,3.7,D
20.91233,-101.45341,345.2,0.41,0.37,2019-10-15,19:48,N,nominal,1.0NRT,310.7,7.5,D
20.51005,-103.97955,337.3,0.52,0.42,2019-10-15,19:48,N,nominal,1.0NRT,305.2,6.7,D
21.64632,-97.46938,333.3,0.42,0.38,2019-10-15,19:48,N,nominal,1.0NRT,296.9,3.2,D
21.64978,-97.46992,339.2,0.42,0.38,2019-10-15,19:48,N,nominal,1.0NRT,297.5,9.8,D
21.62887,-98.7508,337.2,0.39,0.36,2019-10-15,19:48,N,nominal,1.0NRT,300.4,5.6,D
21.65781,-98.89412,332.8,0.39,0.36,2019-10-15,19:48,N,nominal,1.0NRT,298,5.2,D
21.65726,-98.8979,331.6,0.39,0.36,2019-10-15,19:48,N,nominal,1.0NRT,297.7,3.2,D
21.70879,-98.84869,342.4,0.39,0.36,2019-10-15,19:48,N,nominal,1.0NRT,304.9,28.7,D
21.25887,-101.90582,333.2,0.42,0.38,2019-10-15,19:48,N,low,1.0NRT,305.2,1.9,D
21.26295,-101.90246,333.8,0.42,0.37,2019-10-15,19:48,N,low,1.0NRT,305.3,4,D
21.92436,-98.19913,334.4,0.4,0.37,2019-10-15,19:48,N,nominal,1.0NRT,301.8,3.6,D
39.37983,-107.80089,341.6,0.43,0.38,2019-10-15,19:54,N,nominal,1.0NRT,299.7,12.5,D
33.79195,-109.35612,338.6,0.4,0.44,2019-10-15,19:54,N,nominal,1.0NRT,296.4,16.5,D
33.79511,-109.36137,367,0.4,0.44,2019-10-15,19:54,N,high,1.0NRT,300.7,16.5,D
33.79601,-109.35705,345,0.4,0.44,2019-10-15,19:54,N,nominal,1.0NRT,299.5,16.5,D
33.7942,-109.36576,355.2,0.4,0.44,2019-10-15,19:54,N,nominal,1.0NRT,299.9,22.2,D
33.80006,-109.35797,345,0.4,0.44,2019-10-15,19:54,N,nominal,1.0NRT,318,44.3,D
33.805,-109.35459,346.7,0.4,0.44,2019-10-15,19:54,N,nominal,1.0NRT,296.7,36.7,D
33.8041,-109.35894,351.7,0.4,0.44,2019-10-15,19:54,N,nominal,1.0NRT,308.7,44.3,D
33.80901,-109.35573,367,0.4,0.44,2019-10-15,19:54,N,high,1.0NRT,295.7,8.3,D
33.81303,-109.35682,340.2,0.4,0.44,2019-10-15,19:54,N,nominal,1.0NRT,292,8.3,D
33.82424,-109.3642,333.6,0.4,0.44,2019-10-15,19:54,N,nominal,1.0NRT,291.5,4.4,D
33.82476,-109.38235,332.9,0.4,0.44,2019-10-15,19:54,N,nominal,1.0NRT,294.7,2.7,D
34.06245,-110.03658,339.3,0.43,0.46,2019-10-15,19:54,N,nominal,1.0NRT,297.4,24.4,D
34.0615,-110.04102,344.3,0.43,0.46,2019-10-15,19:54,N,nominal,1.0NRT,297.1,24.4,D
34.06559,-110.04242,353.3,0.43,0.46,2019-10-15,19:54,N,nominal,1.0NRT,311.4,24.4,D
34.06463,-110.04692,332.8,0.43,0.46,2019-10-15,19:54,N,nominal,1.0NRT,294.6,10,D
34.06968,-110.04384,367,0.43,0.46,2019-10-15,19:54,N,high,1.0NRT,305.8,19.3,D
34.07476,-110.04063,340.4,0.43,0.46,2019-10-15,19:54,N,nominal,1.0NRT,297,19.3,D
34.07378,-110.04525,353,0.43,0.46,2019-10-15,19:54,N,nominal,1.0NRT,294.8,19.3,D
34.07887,-110.04195,348.5,0.43,0.46,2019-10-15,19:54,N,nominal,1.0NRT,299.2,11.8,D
34.42079,-110.94324,333.5,0.47,0.48,2019-10-15,19:54,N,nominal,1.0NRT,294.8,3.7,D
46.39934,-115.89902,356.3,0.44,0.46,2019-10-15,19:54,N,nominal,1.0NRT,286.2,17.7,D
46.20838,-116.70703,349.2,0.48,0.48,2019-10-15,19:54,N,nominal,1.0NRT,276.6,12.6,D
46.25898,-116.44067,352.8,0.46,0.47,2019-10-15,19:54,N,nominal,1.0NRT,280.6,17.4,D
46.39832,-115.90084,342.1,0.44,0.46,2019-10-15,19:54,N,nominal,1.0NRT,283.7,59.3,D
46.40373,-115.89719,354.9,0.44,0.46,2019-10-15,19:54,N,nominal,1.0NRT,294.5,75.4,D
33.86386,-101.83845,339.1,0.39,0.36,2019-10-15,19:54,N,nominal,1.0NRT,299,3,D
34.55905,-97.49693,334.9,0.57,0.43,2019-10-15,19:54,N,nominal,1.0NRT,300.6,3.5,D
32.24139,-115.32104,332.5,0.46,0.64,2019-10-15,19:54,N,nominal,1.0NRT,306.7,3.9,D
32.24015,-115.32581,333.1,0.46,0.64,2019-10-15,19:54,N,low,1.0NRT,305.2,3.2,D
32.23943,-115.32356,334.9,0.46,0.64,2019-10-15,19:54,N,nominal,1.0NRT,304.4,3.4,D
32.41502,-114.91153,336.4,0.43,0.62,2019-10-15,19:54,N,low,1.0NRT,307.4,4.4,D
33.6307,-109.72906,340.3,0.42,0.45,2019-10-15,19:54,N,nominal,1.0NRT,293.5,11.8,D
33.79105,-109.36047,367,0.4,0.44,2019-10-15,19:54,N,high,1.0NRT,308.6,16.5,D
34.42619,-110.93962,339.4,0.47,0.48,2019-10-15,19:54,N,nominal,1.0NRT,299.6,28.2,D
34.42506,-110.94467,348.9,0.47,0.48,2019-10-15,19:54,N,nominal,1.0NRT,310.6,35.8,D
34.43046,-110.94105,367,0.47,0.48,2019-10-15,19:54,N,high,1.0NRT,308.2,28.2,D
34.43157,-110.93605,339.5,0.47,0.48,2019-10-15,19:54,N,nominal,1.0NRT,297.6,28.2,D
34.42934,-110.94613,351.1,0.47,0.48,2019-10-15,19:54,N,nominal,1.0NRT,309.6,35.8,D
34.42818,-110.95133,345.5,0.47,0.48,2019-10-15,19:54,N,nominal,1.0NRT,297.3,35.8,D
34.43472,-110.94258,367,0.47,0.48,2019-10-15,19:54,N,high,1.0NRT,303.8,19.5,D
34.43584,-110.93749,332,0.47,0.48,2019-10-15,19:54,N,nominal,1.0NRT,295.6,19.5,D
34.4336,-110.94764,348.8,0.47,0.48,2019-10-15,19:54,N,nominal,1.0NRT,295.5,13.1,D
34.97202,-108.5705,334.4,0.53,0.42,2019-10-15,19:54,N,nominal,1.0NRT,297.2,3.8,D
34.56427,-111.16776,344.8,0.48,0.48,2019-10-15,19:54,N,nominal,1.0NRT,297.4,12.7,D
34.56856,-111.16935,367,0.48,0.48,2019-10-15,19:54,N,high,1.0NRT,303.8,54.3,D
34.56747,-111.17429,367,0.48,0.48,2019-10-15,19:54,N,high,1.0NRT,301.2,44,D
34.57176,-111.17592,367,0.48,0.48,2019-10-15,19:54,N,high,1.0NRT,303.9,44,D
34.57067,-111.18089,351.8,0.48,0.48,2019-10-15,19:54,N,nominal,1.0NRT,317.7,44,D
34.56958,-111.18589,339.2,0.48,0.48,2019-10-15,19:54,N,nominal,1.0NRT,293.9,14.7,D
34.57602,-111.17764,356.6,0.48,0.48,2019-10-15,19:54,N,nominal,1.0NRT,303.5,44.4,D
34.57494,-111.18255,344.7,0.48,0.48,2019-10-15,19:54,N,nominal,1.0NRT,317.4,44.4,D
34.57388,-111.18742,356.4,0.48,0.48,2019-10-15,19:54,N,nominal,1.0NRT,298.8,21.9,D
34.57923,-111.18418,367,0.48,0.48,2019-10-15,19:54,N,high,1.0NRT,299.7,44.4,D
34.58029,-111.17929,356.2,0.48,0.48,2019-10-15,19:54,N,nominal,1.0NRT,299.4,44.4,D
34.57817,-111.189,353,0.48,0.48,2019-10-15,19:54,N,nominal,1.0NRT,294,21.9,D
34.57712,-111.19384,343.1,0.48,0.48,2019-10-15,19:54,N,nominal,1.0NRT,294.6,21.9,D
34.56732,-111.17146,367,0.48,0.48,2019-10-15,19:54,N,high,1.0NRT,304.9,28.7,D
34.56841,-111.16664,348.1,0.48,0.48,2019-10-15,19:54,N,nominal,1.0NRT,298.4,22.5,D
34.56619,-111.17648,332.3,0.48,0.48,2019-10-15,19:54,N,nominal,1.0NRT,292.4,28.7,D
34.57159,-111.17311,355.5,0.48,0.48,2019-10-15,19:54,N,nominal,1.0NRT,297.3,28.7,D
34.57048,-111.17805,356.6,0.48,0.48,2019-10-15,19:54,N,nominal,1.0NRT,308,28.7,D
34.56935,-111.18305,356,0.48,0.48,2019-10-15,19:54,N,nominal,1.0NRT,308,45.3,D
34.57586,-111.17479,339.7,0.48,0.48,2019-10-15,19:54,N,nominal,1.0NRT,295.6,43.3,D
34.57474,-111.17973,347.1,0.48,0.48,2019-10-15,19:54,N,nominal,1.0NRT,315.5,43.3,D
34.57365,-111.18461,351.8,0.48,0.48,2019-10-15,19:54,N,nominal,1.0NRT,310.9,29,D
34.57255,-111.18951,341.1,0.48,0.48,2019-10-15,19:54,N,nominal,1.0NRT,292.4,29,D
34.57901,-111.18138,347.2,0.48,0.48,2019-10-15,19:54,N,nominal,1.0NRT,299,43.3,D
34.57793,-111.18623,354,0.48,0.48,2019-10-15,19:54,N,nominal,1.0NRT,299.5,29,D
34.57685,-111.19105,349.4,0.48,0.48,2019-10-15,19:54,N,nominal,1.0NRT,295.7,29,D
34.58443,-111.17792,352,0.48,0.48,2019-10-15,19:54,N,nominal,1.0NRT,304.4,20.5,D
34.58334,-111.1828,343.4,0.48,0.48,2019-10-15,19:54,N,nominal,1.0NRT,294.4,20.5,D
34.58225,-111.18764,355.6,0.48,0.48,2019-10-15,19:54,N,nominal,1.0NRT,300.2,16.2,D
34.58117,-111.1925,344.4,0.48,0.48,2019-10-15,19:54,N,nominal,1.0NRT,293.3,16.2,D
34.58659,-111.18903,367,0.48,0.48,2019-10-15,19:54,N,high,1.0NRT,298,16.2,D
34.58768,-111.18414,333.8,0.48,0.48,2019-10-15,19:54,N,nominal,1.0NRT,294.4,20.5,D
34.58548,-111.19399,353.4,0.48,0.48,2019-10-15,19:54,N,nominal,1.0NRT,295.3,16.2,D
34.58435,-111.19902,346.6,0.48,0.48,2019-10-15,19:54,N,nominal,1.0NRT,292.7,8.2,D
34.59196,-111.18574,367,0.48,0.48,2019-10-15,19:54,N,high,1.0NRT,296.8,30.2,D
34.59086,-111.19067,367,0.48,0.48,2019-10-15,19:54,N,high,1.0NRT,299,27.4,D
34.58975,-111.19566,356.5,0.48,0.48,2019-10-15,19:54,N,nominal,1.0NRT,300,27.4,D
34.59624,-111.18738,351.2,0.48,0.48,2019-10-15,19:54,N,nominal,1.0NRT,303.9,30.2,D
34.59511,-111.19244,355.8,0.48,0.48,2019-10-15,19:54,N,nominal,1.0NRT,298.4,27.4,D
34.57658,-111.33781,338.2,0.49,0.49,2019-10-15,19:54,N,nominal,1.0NRT,293.2,6,D
33.57541,-116.14236,367,0.47,0.64,2019-10-15,19:54,N,high,1.0NRT,309.2,48.7,D
33.58114,-116.14451,367,0.47,0.64,2019-10-15,19:54,N,high,1.0NRT,305.7,48.7,D
33.57981,-116.14951,350.4,0.47,0.64,2019-10-15,19:54,N,nominal,1.0NRT,309.3,48.7,D
33.57975,-116.14177,335.6,0.47,0.64,2019-10-15,19:54,N,nominal,1.0NRT,304.3,68.2,D
33.57839,-116.14674,356.4,0.47,0.64,2019-10-15,19:54,N,nominal,1.0NRT,328.7,68.2,D
33.57703,-116.15173,345.9,0.47,0.64,2019-10-15,19:54,N,nominal,1.0NRT,308.4,45.5,D
33.26204,-117.42837,339.7,0.56,0.69,2019-10-15,19:54,N,nominal,1.0NRT,298.1,4.3,D
36.11691,-105.31764,331.1,0.4,0.37,2019-10-15,19:54,N,nominal,1.0NRT,300.2,9.8,D
35.28154,-112.18913,349,0.53,0.5,2019-10-15,19:54,N,nominal,1.0NRT,304.7,10.8,D
35.28602,-112.19073,355,0.53,0.5,2019-10-15,19:54,N,nominal,1.0NRT,304.3,16.8,D
35.28474,-112.19633,343.2,0.53,0.5,2019-10-15,19:54,N,nominal,1.0NRT,298.9,12.2,D
35.2905,-112.19232,367,0.53,0.5,2019-10-15,19:54,N,high,1.0NRT,302,16.8,D
35.29498,-112.19389,333.6,0.53,0.5,2019-10-15,19:54,N,nominal,1.0NRT,299.4,4,D
35.29238,-112.20527,345.2,0.53,0.5,2019-10-15,19:54,N,nominal,1.0NRT,297.8,10.3,D
35.29109,-112.21091,345,0.53,0.5,2019-10-15,19:54,N,nominal,1.0NRT,299,11.6,D
35.29686,-112.20688,330.6,0.53,0.5,2019-10-15,19:54,N,nominal,1.0NRT,295.3,10.3,D
36.62434,-106.22846,331.8,0.41,0.37,2019-10-15,19:54,N,nominal,1.0NRT,296,2.8,D
38.06375,-96.53838,329.8,0.46,0.47,2019-10-15,19:54,N,nominal,1.0NRT,291,4.1,D
37.20765,-107.42275,338.8,0.44,0.38,2019-10-15,19:54,N,nominal,1.0NRT,293.3,4.7,D
35.53232,-115.4528,335.3,0.39,0.59,2019-10-15,19:54,N,nominal,1.0NRT,302.1,1.8,D
38.80606,-96.16664,325.9,0.49,0.49,2019-10-15,19:54,N,nominal,1.0NRT,291,10.8,D
38.8056,-96.17249,351.4,0.49,0.49,2019-10-15,19:54,N,nominal,1.0NRT,293.3,10.8,D
35.55567,-115.47456,343.5,0.39,0.59,2019-10-15,19:54,N,nominal,1.0NRT,300.8,4.3,D
38.80965,-96.17897,346.6,0.49,0.49,2019-10-15,19:54,N,nominal,1.0NRT,288.7,7.5,D
38.81961,-96.16849,348.4,0.49,0.49,2019-10-15,19:54,N,nominal,1.0NRT,298.1,23,D
38.82413,-96.16908,345.2,0.49,0.49,2019-10-15,19:54,N,nominal,1.0NRT,291.1,7.2,D
38.82365,-96.17493,345.5,0.49,0.49,2019-10-15,19:54,N,nominal,1.0NRT,291.7,7.2,D
35.5759,-115.48612,353.5,0.39,0.59,2019-10-15,19:54,N,nominal,1.0NRT,302.8,3,D
38.9239,-95.17848,339.7,0.56,0.51,2019-10-15,19:54,N,nominal,1.0NRT,291.3,4.9,D
38.24192,-104.60982,332.2,0.38,0.36,2019-10-15,19:54,N,nominal,1.0NRT,301.6,2,D
36.76437,-112.61714,350.8,0.51,0.5,2019-10-15,19:54,N,nominal,1.0NRT,314.6,75,D
39.26141,-96.9137,332.6,0.46,0.47,2019-10-15,19:54,N,nominal,1.0NRT,292.2,2.9,D
35.24431,-118.7692,338.5,0.59,0.7,2019-10-15,19:54,N,nominal,1.0NRT,305.8,7.6,D
36.35884,-114.91086,330.3,0.35,0.56,2019-10-15,19:54,N,low,1.0NRT,304.2,1.5,D
38.40283,-105.98582,329.9,0.4,0.37,2019-10-15,19:54,N,nominal,1.0NRT,294.2,4.9,D
38.40207,-105.99042,344.8,0.4,0.37,2019-10-15,19:54,N,nominal,1.0NRT,295,4.9,D
38.42002,-106.02824,343.6,0.4,0.37,2019-10-15,19:54,N,nominal,1.0NRT,298.9,3.9,D
38.42334,-106.02908,331.8,0.4,0.37,2019-10-15,19:54,N,nominal,1.0NRT,299.8,3.9,D
38.44431,-105.97778,345,0.39,0.37,2019-10-15,19:54,N,nominal,1.0NRT,297.4,4.9,D
38.4476,-105.97876,349.9,0.39,0.37,2019-10-15,19:54,N,nominal,1.0NRT,293.4,7.6,D
36.2837,-119.21365,367,0.58,0.7,2019-10-15,19:54,N,high,1.0NRT,300.6,10.8,D
36.2854,-119.21299,344.7,0.58,0.7,2019-10-15,19:54,N,nominal,1.0NRT,298.3,5.2,D
36.28349,-119.21934,329.9,0.58,0.7,2019-10-15,19:54,N,nominal,1.0NRT,302.2,5.2,D
36.49537,-119.28078,347.3,0.58,0.7,2019-10-15,19:54,N,nominal,1.0NRT,299.3,9.3,D
36.49351,-119.28712,340.6,0.58,0.7,2019-10-15,19:54,N,nominal,1.0NRT,301,7.1,D
36.49587,-119.2831,367,0.58,0.7,2019-10-15,19:54,N,high,1.0NRT,300.4,14.3,D
36.52377,-119.44727,330.8,0.59,0.7,2019-10-15,19:54,N,nominal,1.0NRT,296.7,2.8,D
36.47934,-119.59666,331.1,0.6,0.71,2019-10-15,19:54,N,nominal,1.0NRT,297.7,3.1,D
36.52703,-119.50729,367,0.59,0.7,2019-10-15,19:54,N,high,1.0NRT,301,27.6,D
36.52512,-119.51373,355.4,0.59,0.7,2019-10-15,19:54,N,nominal,1.0NRT,299.1,19,D
36.53131,-119.51653,330,0.59,0.7,2019-10-15,19:54,N,nominal,1.0NRT,297.9,4.7,D
36.47732,-119.59821,336.3,0.6,0.71,2019-10-15,19:54,N,nominal,1.0NRT,298.2,4,D
36.52555,-119.50906,367,0.59,0.7,2019-10-15,19:54,N,high,1.0NRT,304,14.8,D
36.5236,-119.51551,337.7,0.59,0.7,2019-10-15,19:54,N,nominal,1.0NRT,296.1,14.8,D
36.5298,-119.51827,339.8,0.59,0.7,2019-10-15,19:54,N,nominal,1.0NRT,299.9,6.7,D
39.37641,-107.79987,367,0.43,0.38,2019-10-15,19:54,N,high,1.0NRT,308.1,12.5,D
39.37723,-107.79529,354,0.43,0.38,2019-10-15,19:54,N,nominal,1.0NRT,301.4,12.5,D
39.3756,-107.80441,340.2,0.43,0.38,2019-10-15,19:54,N,nominal,1.0NRT,297.4,15.9,D
36.5852,-119.52114,346.8,0.59,0.7,2019-10-15,19:54,N,nominal,1.0NRT,299.7,6.3,D
36.57162,-119.56651,330.3,0.6,0.7,2019-10-15,19:54,N,nominal,1.0NRT,299.6,5.6,D
39.38065,-107.79629,325.8,0.43,0.38,2019-10-15,19:54,N,nominal,1.0NRT,297.2,12.5,D
46.12833,-113.26038,329.6,0.52,0.41,2019-10-15,19:54,N,nominal,1.0NRT,277.2,6.3,D
46.12696,-113.26691,330.6,0.52,0.42,2019-10-15,19:54,N,nominal,1.0NRT,277.7,8.7,D
46.1256,-113.27336,343.4,0.52,0.42,2019-10-15,19:54,N,nominal,1.0NRT,280,8.7,D
46.12424,-113.27978,337,0.52,0.42,2019-10-15,19:54,N,nominal,1.0NRT,279.6,7.7,D
46.12288,-113.28622,326.5,0.52,0.42,2019-10-15,19:54,N,nominal,1.0NRT,279,7.7,D
46.1215,-113.29276,346.7,0.52,0.42,2019-10-15,19:54,N,nominal,1.0NRT,279.1,16.4,D
46.12015,-113.29916,355.1,0.52,0.42,2019-10-15,19:54,N,nominal,1.0NRT,283.2,16.4,D
46.13344,-113.25528,327.2,0.52,0.41,2019-10-15,19:54,N,nominal,1.0NRT,278.4,6.3,D
46.12655,-113.28796,329.7,0.52,0.42,2019-10-15,19:54,N,nominal,1.0NRT,279.1,7.7,D
46.12382,-113.3009,330.6,0.52,0.42,2019-10-15,19:54,N,nominal,1.0NRT,278.4,16.4,D
46.12246,-113.30733,352.3,0.52,0.42,2019-10-15,19:54,N,nominal,1.0NRT,284.8,39.4,D
46.11972,-113.32027,349.7,0.52,0.42,2019-10-15,19:54,N,nominal,1.0NRT,282.7,16.2,D
46.12109,-113.3138,367,0.52,0.42,2019-10-15,19:54,N,low,1.0NRT,284.6,39.4,D
46.12334,-113.32223,351.6,0.52,0.42,2019-10-15,19:54,N,nominal,1.0NRT,281.3,19.2,D
46.12197,-113.32878,342.5,0.52,0.42,2019-10-15,19:54,N,nominal,1.0NRT,283.2,19.2,D
46.1235,-113.35977,330.3,0.52,0.42,2019-10-15,19:54,N,nominal,1.0NRT,281.8,19,D
46.122,-113.36688,330.4,0.52,0.42,2019-10-15,19:54,N,nominal,1.0NRT,279.6,27.5,D
46.12714,-113.36166,336.3,0.52,0.42,2019-10-15,19:54,N,nominal,1.0NRT,282.5,19,D
46.13081,-113.36346,330.7,0.52,0.42,2019-10-15,19:54,N,nominal,1.0NRT,279.4,3.4,D
46.46914,-112.31114,338.4,0.47,0.4,2019-10-15,19:54,N,nominal,1.0NRT,279.2,17.3,D
46.47268,-112.31262,343.8,0.47,0.4,2019-10-15,19:54,N,nominal,1.0NRT,278.2,32.9,D
46.47144,-112.31888,333.1,0.47,0.4,2019-10-15,19:54,N,nominal,1.0NRT,272.6,14.7,D
45.86535,-115.56803,342.3,0.44,0.46,2019-10-15,19:54,N,nominal,1.0NRT,282.3,10.4,D
45.86945,-115.56982,352.3,0.44,0.46,2019-10-15,19:54,N,nominal,1.0NRT,276.6,10.4,D
45.86809,-115.57564,330,0.44,0.46,2019-10-15,19:54,N,nominal,1.0NRT,276.3,10.6,D
43.86733,-122.87935,326.2,0.53,0.67,2019-10-15,19:54,N,nominal,1.0NRT,268.9,3.8,D
43.87472,-122.87769,326.7,0.53,0.67,2019-10-15,19:54,N,nominal,1.0NRT,270.1,11.8,D
43.87325,-122.88233,367,0.53,0.67,2019-10-15,19:54,N,low,1.0NRT,273.9,15.1,D
43.89657,-122.87357,333.3,0.52,0.67,2019-10-15,19:54,N,nominal,1.0NRT,271.5,7,D
43.89502,-122.87848,353.8,0.52,0.67,2019-10-15,19:54,N,nominal,1.0NRT,272.9,7,D
43.89907,-122.88738,332.3,0.53,0.67,2019-10-15,19:54,N,nominal,1.0NRT,270.4,10.2,D
43.90061,-122.88249,367,0.52,0.67,2019-10-15,19:54,N,low,1.0NRT,274.6,23.5,D
46.6058,-113.50401,332.7,0.52,0.41,2019-10-15,19:54,N,nominal,1.0NRT,279.5,9.6,D
46.60946,-113.50576,330.7,0.52,0.41,2019-10-15,19:54,N,nominal,1.0NRT,275.6,4.1,D
46.62045,-113.51093,328.8,0.52,0.41,2019-10-15,19:54,N,nominal,1.0NRT,272.8,3.4,D
44.20677,-122.8129,331.5,0.51,0.66,2019-10-15,19:54,N,nominal,1.0NRT,274.2,12.3,D
44.20911,-122.80547,367,0.51,0.66,2019-10-15,19:54,N,low,1.0NRT,280.4,26,D
46.25445,-116.43648,350.5,0.46,0.47,2019-10-15,19:54,N,nominal,1.0NRT,279.4,10.1,D
46.25861,-116.43855,345.7,0.46,0.47,2019-10-15,19:54,N,nominal,1.0NRT,281.4,11.3,D
46.25724,-116.44433,326.7,0.46,0.47,2019-10-15,19:54,N,nominal,1.0NRT,277.4,11.3,D
46.20888,-116.70235,329,0.48,0.48,2019-10-15,19:54,N,nominal,1.0NRT,275.4,7,D
46.20743,-116.70824,339.7,0.48,0.48,2019-10-15,19:54,N,nominal,1.0NRT,275.2,6.4,D
46.4091,-115.89367,346.8,0.44,0.46,2019-10-15,19:54,N,nominal,1.0NRT,290.3,64.1,D
46.40647,-115.90476,344.4,0.44,0.46,2019-10-15,19:54,N,nominal,1.0NRT,275.1,22.1,D
46.41315,-115.8957,340.7,0.44,0.46,2019-10-15,19:54,N,nominal,1.0NRT,272.1,64.1,D
46.41183,-115.90126,333.4,0.44,0.46,2019-10-15,19:54,N,nominal,1.0NRT,271.5,64.1,D
46.46265,-115.74319,339,0.43,0.46,2019-10-15,19:54,N,nominal,1.0NRT,277.8,10.8,D
46.46679,-115.74471,354.3,0.43,0.46,2019-10-15,19:54,N,nominal,1.0NRT,279.2,10.8,D
46.46552,-115.75012,335,0.43,0.46,2019-10-15,19:54,N,nominal,1.0NRT,271.6,9.4,D
46.41808,-116.2682,334.5,0.45,0.47,2019-10-15,19:54,N,nominal,1.0NRT,281.7,4.7,D
46.41718,-117.1899,326.8,0.49,0.49,2019-10-15,19:54,N,nominal,1.0NRT,276.2,3.9,D
46.78597,-116.20554,340.8,0.44,0.46,2019-10-15,19:54,N,nominal,1.0NRT,270.4,6.5,D
46.9431,-116.20924,330,0.44,0.46,2019-10-15,19:54,N,nominal,1.0NRT,267.3,35.6,D
46.94047,-116.2204,339.1,0.44,0.46,2019-10-15,19:54,N,nominal,1.0NRT,268.2,5.2,D
46.9418,-116.2148,367,0.44,0.46,2019-10-15,19:54,N,low,1.0NRT,276.4,35.6,D
46.94704,-116.21178,354.3,0.44,0.46,2019-10-15,19:54,N,nominal,1.0NRT,282.3,35.6,D
46.94575,-116.21727,348,0.44,0.46,2019-10-15,19:54,N,nominal,1.0NRT,278.4,35.6,D
46.94447,-116.22269,330.9,0.44,0.46,2019-10-15,19:54,N,nominal,1.0NRT,269.4,5.2,D
46.951,-116.21425,351.2,0.44,0.46,2019-10-15,19:54,N,nominal,1.0NRT,274.3,30.6,D
46.94971,-116.21971,338.5,0.44,0.46,2019-10-15,19:54,N,nominal,1.0NRT,270.2,30.6,D
46.95498,-116.21662,351,0.44,0.46,2019-10-15,19:54,N,nominal,1.0NRT,278.5,30.6,D
46.95367,-116.2222,341.5,0.44,0.46,2019-10-15,19:54,N,nominal,1.0NRT,267.5,30.6,D
46.95899,-116.21886,334.6,0.44,0.46,2019-10-15,19:54,N,nominal,1.0NRT,265.9,5.5,D
47.96338,-115.28383,336.7,0.57,0.43,2019-10-15,19:54,N,nominal,1.0NRT,276.6,6.1,D
48.42614,-114.51117,330,0.52,0.42,2019-10-15,19:54,N,nominal,1.0NRT,274.7,5.5,D
48.45187,-115.495,330.4,0.56,0.43,2019-10-15,19:54,N,nominal,1.0NRT,283.3,51,D
48.45782,-115.50622,329.2,0.57,0.43,2019-10-15,19:54,N,nominal,1.0NRT,276.1,9.8,D
48.45632,-115.51296,356.2,0.57,0.43,2019-10-15,19:54,N,nominal,1.0NRT,282.3,36.6,D
48.83152,-114.41016,332.7,0.51,0.41,2019-10-15,19:54,N,nominal,1.0NRT,267.9,3.9,D
48.86506,-114.45679,331,0.51,0.41,2019-10-15,19:54,N,nominal,1.0NRT,269.3,4.7,D
49.93457,-109.47846,330.2,0.39,0.36,2019-10-15,19:54,N,nominal,1.0NRT,284.4,4.2,D
49.19239,-114.97285,336.5,0.52,0.42,2019-10-15,19:54,N,nominal,1.0NRT,277.9,15.8,D
49.18475,-114.96181,326.4,0.52,0.42,2019-10-15,19:54,N,nominal,1.0NRT,271.2,3.7,D
49.19046,-114.97297,341.5,0.52,0.42,2019-10-15,19:54,N,nominal,1.0NRT,277,15.9,D
49.56158,-116.43149,336,0.39,0.44,2019-10-15,19:54,N,nominal,1.0NRT,268.6,4.9,D
49.5656,-116.4327,343,0.39,0.44,2019-10-15,19:54,N,nominal,1.0NRT,268.5,4.9,D
39.37901,-107.80544,354.5,0.43,0.38,2019-10-15,19:54,N,nominal,1.0NRT,305.1,15.9,D
36.57783,-119.56929,351.5,0.6,0.7,2019-10-15,19:54,N,nominal,1.0NRT,300.8,5.6,D
36.63087,-119.55645,338.4,0.59,0.7,2019-10-15,19:54,N,nominal,1.0NRT,298.9,4.8,D
36.60768,-119.63468,335.6,0.6,0.71,2019-10-15,19:54,N,nominal,1.0NRT,299.4,4.3,D
36.60788,-119.63252,333.5,0.6,0.7,2019-10-15,19:54,N,nominal,1.0NRT,297.9,2.9,D
36.66012,-119.55284,330,0.59,0.7,2019-10-15,19:54,N,nominal,1.0NRT,297.8,3.7,D
39.55104,-107.94515,333,0.43,0.38,2019-10-15,19:54,N,nominal,1.0NRT,302.4,6.5,D
39.55449,-107.9461,338.5,0.43,0.38,2019-10-15,19:54,N,nominal,1.0NRT,302.3,6.9,D
36.72079,-119.99884,330.8,0.62,0.71,2019-10-15,19:54,N,nominal,1.0NRT,297.3,6.3,D
36.78957,-119.96117,367,0.61,0.71,2019-10-15,19:54,N,high,1.0NRT,300.2,17,D
36.91908,-120.11623,336,0.62,0.71,2019-10-15,19:54,N,nominal,1.0NRT,303.2,4.9,D
36.91719,-120.11657,336.5,0.62,0.71,2019-10-15,19:54,N,nominal,1.0NRT,301.6,4.3,D
40.7459,-105.48364,367,0.38,0.36,2019-10-15,19:54,N,high,1.0NRT,300.5,15.5,D
40.74918,-105.48451,349.3,0.38,0.36,2019-10-15,19:54,N,nominal,1.0NRT,296.3,15.5,D
40.74848,-105.48901,345.3,0.38,0.36,2019-10-15,19:54,N,nominal,1.0NRT,294.5,13.1,D
40.75175,-105.48989,349.6,0.38,0.36,2019-10-15,19:54,N,nominal,1.0NRT,296.4,10.7,D
40.75105,-105.49439,346.1,0.38,0.36,2019-10-15,19:54,N,nominal,1.0NRT,297.8,10.7,D
39.91161,-110.82737,327.2,0.54,0.42,2019-10-15,19:54,N,nominal,1.0NRT,301.3,4.8,D
39.91537,-110.82885,337.7,0.54,0.42,2019-10-15,19:54,N,nominal,1.0NRT,302.9,9,D
39.9761,-111.14967,345.7,0.56,0.43,2019-10-15,19:54,N,nominal,1.0NRT,294.6,8.8,D
39.97851,-111.15182,329.4,0.56,0.43,2019-10-15,19:54,N,nominal,1.0NRT,292.5,12.3,D
37.8531,-121.45033,367,0.68,0.74,2019-10-15,19:54,N,high,1.0NRT,303,18.2,D
37.87248,-121.46007,333.6,0.68,0.74,2019-10-15,19:54,N,nominal,1.0NRT,303.4,7.2,D
37.85418,-121.45188,367,0.68,0.74,2019-10-15,19:54,N,high,1.0NRT,302.5,17.2,D
40.85702,-109.78365,338.3,0.47,0.4,2019-10-15,19:54,N,nominal,1.0NRT,293.9,5.7,D
40.85378,-109.8003,339.2,0.48,0.4,2019-10-15,19:54,N,nominal,1.0NRT,292.9,5.7,D
40.85269,-109.80589,327.9,0.48,0.4,2019-10-15,19:54,N,nominal,1.0NRT,287.4,5.7,D
37.87359,-121.46152,332.8,0.68,0.74,2019-10-15,19:54,N,low,1.0NRT,303.8,4.6,D
40.86166,-109.7793,328.9,0.47,0.4,2019-10-15,19:54,N,nominal,1.0NRT,292.8,5.7,D
40.85846,-109.79584,335.4,0.48,0.4,2019-10-15,19:54,N,nominal,1.0NRT,291.1,4.4,D
40.85735,-109.80148,328.6,0.48,0.4,2019-10-15,19:54,N,nominal,1.0NRT,289.6,5.7,D
40.87302,-109.75999,339.2,0.47,0.4,2019-10-15,19:54,N,nominal,1.0NRT,294.2,8.4,D
40.87199,-109.76535,348.5,0.47,0.4,2019-10-15,19:54,N,nominal,1.0NRT,292.2,8.4,D
40.8699,-109.77612,342.2,0.47,0.4,2019-10-15,19:54,N,nominal,1.0NRT,292.3,9.6,D
40.87661,-109.76112,342.2,0.47,0.4,2019-10-15,19:54,N,nominal,1.0NRT,295.1,8.2,D
40.87555,-109.76656,341.1,0.47,0.4,2019-10-15,19:54,N,nominal,1.0NRT,289.8,8.2,D
40.87451,-109.77196,345.8,0.47,0.4,2019-10-15,19:54,N,nominal,1.0NRT,290.1,7,D
40.87241,-109.78277,337.4,0.47,0.4,2019-10-15,19:54,N,nominal,1.0NRT,290.4,5.3,D
38.69717,-120.14761,332.4,0.56,0.69,2019-10-15,19:54,N,nominal,1.0NRT,290.5,5.3,D
41.30897,-112.09757,345.9,0.39,0.44,2019-10-15,19:54,N,nominal,1.0NRT,293.1,5,D
39.01821,-121.57062,332.8,0.64,0.72,2019-10-15,19:54,N,nominal,1.0NRT,294.4,4.2,D
39.05992,-121.84142,339.9,0.66,0.73,2019-10-15,19:54,N,nominal,1.0NRT,298.4,7.4,D
39.0619,-121.8435,334.5,0.65,0.73,2019-10-15,19:54,N,nominal,1.0NRT,298,4.2,D
39.18085,-121.70261,326.1,0.64,0.72,2019-10-15,19:54,N,low,1.0NRT,297.8,1.8,D
39.38461,-122.03642,351.7,0.65,0.73,2019-10-15,19:54,N,nominal,1.0NRT,289.4,8.1,D
42.68258,-111.59142,336.7,0.52,0.41,2019-10-15,19:54,N,nominal,1.0NRT,292.4,6.3,D
42.6863,-111.59278,339.5,0.52,0.41,2019-10-15,19:54,N,nominal,1.0NRT,295.6,23.6,D
40.9288,-120.51846,348,0.5,0.66,2019-10-15,19:54,N,nominal,1.0NRT,273,9.1,D
40.93281,-120.52716,344.8,0.5,0.66,2019-10-15,19:54,N,nominal,1.0NRT,270.5,9.1,D
40.93453,-120.52142,367,0.5,0.66,2019-10-15,19:54,N,low,1.0NRT,272.7,9.1,D
43.90224,-111.62072,332.1,0.5,0.41,2019-10-15,19:54,N,nominal,1.0NRT,291.1,4,D
43.90587,-111.62214,334.2,0.5,0.41,2019-10-15,19:54,N,nominal,1.0NRT,289.2,4.5,D
43.95139,-115.88557,338.5,0.5,0.49,2019-10-15,19:54,N,nominal,1.0NRT,289,13.5,D
43.94994,-115.89146,339.4,0.5,0.49,2019-10-15,19:54,N,nominal,1.0NRT,292.7,12.9,D
44.5391,-115.81505,331.8,0.48,0.48,2019-10-15,19:54,N,nominal,1.0NRT,281.6,6.1,D
44.53762,-115.82116,339.6,0.48,0.48,2019-10-15,19:54,N,nominal,1.0NRT,283.4,6.1,D
44.5433,-115.81722,340.3,0.48,0.48,2019-10-15,19:54,N,nominal,1.0NRT,286.6,28.8,D
44.54188,-115.82311,347.2,0.48,0.48,2019-10-15,19:54,N,nominal,1.0NRT,291.6,28.8,D
44.54757,-115.81912,331,0.48,0.48,2019-10-15,19:54,N,nominal,1.0NRT,282.9,28.8,D
45.1203,-115.3396,338.9,0.44,0.46,2019-10-15,19:54,N,nominal,1.0NRT,283.6,7.3,D
45.11912,-115.34467,341.3,0.44,0.46,2019-10-15,19:54,N,nominal,1.0NRT,284.7,6.4,D
44.93522,-116.13502,337.4,0.49,0.48,2019-10-15,19:54,N,nominal,1.0NRT,282.4,5.3,D
44.80462,-116.66665,326.1,0.52,0.5,2019-10-15,19:54,N,nominal,1.0NRT,284.5,2.8,D
44.90842,-116.64371,347.8,0.51,0.5,2019-10-15,19:54,N,nominal,1.0NRT,292.9,12.1,D
35.24361,-118.76877,336.8,0.32,0.55,2019-10-15,21:30,N,low,1.0NRT,309.7,10.5,D
36.28225,-119.2159,342,0.62,0.54,2019-10-15,21:30,N,nominal,1.0NRT,305.4,5.5,D
36.28727,-119.21643,338.7,0.62,0.54,2019-10-15,21:30,N,nominal,1.0NRT,303.5,5.5,D
32.25308,-115.05002,334.1,0.5,0.65,2019-10-15,21:30,N,low,1.0NRT,304.9,2.9,D
32.26496,-115.28094,347.4,0.48,0.65,2019-10-15,21:30,N,nominal,1.0NRT,309.1,5.6,D
32.26567,-115.27995,343.9,0.48,0.65,2019-10-15,21:30,N,nominal,1.0NRT,309.4,6.2,D
32.76412,-117.09821,334,0.38,0.59,2019-10-15,21:30,N,nominal,1.0NRT,301.3,1,D
33.57439,-116.14514,367,0.44,0.62,2019-10-15,21:30,N,high,1.0NRT,320.5,29.8,D
33.57411,-116.15005,345.8,0.44,0.62,2019-10-15,21:30,N,nominal,1.0NRT,308.7,13.9,D
33.58021,-116.14556,367,0.44,0.62,2019-10-15,21:30,N,high,1.0NRT,316.3,43.7,D
33.57993,-116.15044,354.8,0.44,0.62,2019-10-15,21:30,N,nominal,1.0NRT,306.9,19.2,D
33.57996,-116.14375,367,0.44,0.62,2019-10-15,21:30,N,high,1.0NRT,310.9,42.2,D
33.57971,-116.14864,342.4,0.44,0.62,2019-10-15,21:30,N,nominal,1.0NRT,313.5,37.4,D
35.2441,-118.76167,367,0.32,0.55,2019-10-15,21:30,N,high,1.0NRT,309,16.8,D
35.24385,-118.76523,352.8,0.32,0.55,2019-10-15,21:30,N,nominal,1.0NRT,314.8,10.5,D
43.94203,-115.88308,352.3,0.54,0.68,2019-10-15,21:36,N,nominal,1.0NRT,285.7,7.9,D
43.94833,-115.88394,350.4,0.54,0.68,2019-10-15,21:36,N,nominal,1.0NRT,285.7,7.9,D
43.87109,-122.87524,335.8,0.48,0.48,2019-10-15,21:36,N,nominal,1.0NRT,282.6,6.2,D
43.87051,-122.88267,338.6,0.48,0.48,2019-10-15,21:36,N,nominal,1.0NRT,283.2,6.2,D
43.87555,-122.87582,338,0.48,0.48,2019-10-15,21:36,N,nominal,1.0NRT,280.6,6.2,D
43.87502,-122.88273,329.2,0.48,0.48,2019-10-15,21:36,N,nominal,1.0NRT,280.2,6.2,D
43.8985,-122.87048,338.6,0.48,0.48,2019-10-15,21:36,N,nominal,1.0NRT,281.2,7.6,D
43.89797,-122.8772,353.4,0.48,0.48,2019-10-15,21:36,N,nominal,1.0NRT,283.1,13.8,D
43.89742,-122.8841,340.6,0.48,0.48,2019-10-15,21:36,N,nominal,1.0NRT,282,13.8,D
43.89635,-122.8724,331.3,0.48,0.48,2019-10-15,21:36,N,nominal,1.0NRT,280.8,7,D
43.89585,-122.87927,353.3,0.48,0.48,2019-10-15,21:36,N,nominal,1.0NRT,282.7,7,D
43.90084,-122.87262,332.9,0.48,0.48,2019-10-15,21:36,N,nominal,1.0NRT,280.1,7,D
43.90035,-122.87935,342.9,0.48,0.48,2019-10-15,21:36,N,nominal,1.0NRT,281.6,7,D
43.89986,-122.88607,325.4,0.48,0.48,2019-10-15,21:36,N,nominal,1.0NRT,279.1,6,D
43.97566,-122.77769,340.4,0.49,0.48,2019-10-15,21:36,N,nominal,1.0NRT,280.1,10.2,D
44.20742,-122.80763,338.1,0.49,0.48,2019-10-15,21:36,N,nominal,1.0NRT,273.5,4.5,D
44.21189,-122.80846,357.3,0.49,0.48,2019-10-15,21:36,N,nominal,1.0NRT,278.1,11.8,D
44.20857,-122.80872,348.9,0.49,0.48,2019-10-15,21:36,N,nominal,1.0NRT,279.8,10.4,D
44.21304,-122.80948,346.5,0.49,0.48,2019-10-15,21:36,N,nominal,1.0NRT,272.7,10.4,D
36.49347,-119.28244,338,0.62,0.54,2019-10-15,21:36,N,nominal,1.0NRT,305.4,3.4,D
36.52712,-119.51009,354.9,0.6,0.53,2019-10-15,21:36,N,nominal,1.0NRT,310.7,33.4,D
36.53156,-119.51746,332.2,0.6,0.53,2019-10-15,21:36,N,nominal,1.0NRT,302.2,2.3,D
36.49671,-119.82425,342.7,0.58,0.52,2019-10-15,21:36,N,nominal,1.0NRT,299.2,6.8,D
36.52354,-119.50891,343.4,0.6,0.53,2019-10-15,21:36,N,nominal,1.0NRT,300.8,7.2,D
36.52848,-119.50943,367,0.6,0.53,2019-10-15,21:36,N,high,1.0NRT,307.8,14.5,D
36.53296,-119.51685,330.8,0.6,0.53,2019-10-15,21:36,N,nominal,1.0NRT,301.9,14.5,D
36.57402,-119.56947,346.6,0.6,0.53,2019-10-15,21:36,N,nominal,1.0NRT,305,6.9,D
36.58239,-119.52211,341.5,0.6,0.53,2019-10-15,21:36,N,nominal,1.0NRT,303.6,8.4,D
36.62978,-119.55473,331.9,0.6,0.53,2019-10-15,21:36,N,nominal,1.0NRT,300.9,2.4,D
36.63076,-119.55645,333.1,0.6,0.53,2019-10-15,21:36,N,nominal,1.0NRT,302.5,5,D
36.66087,-119.55276,330.2,0.6,0.53,2019-10-15,21:36,N,nominal,1.0NRT,302.9,3.1,D
36.71988,-120.00321,333.2,0.57,0.52,2019-10-15,21:36,N,nominal,1.0NRT,302.1,3.5,D
36.79131,-119.95871,348.7,0.57,0.52,2019-10-15,21:36,N,nominal,1.0NRT,304.4,10.3,D
37.36989,-120.83981,335.6,0.52,0.5,2019-10-15,21:36,N,nominal,1.0NRT,307.5,3.8,D
37.84812,-121.45352,350.5,0.49,0.48,2019-10-15,21:36,N,nominal,1.0NRT,307.2,8.9,D
37.85261,-121.45408,367,0.49,0.48,2019-10-15,21:36,N,high,1.0NRT,310.3,8.9,D
37.85422,-121.45641,367,0.49,0.48,2019-10-15,21:36,N,high,1.0NRT,306.8,6.1,D
37.85467,-121.45078,332.7,0.49,0.48,2019-10-15,21:36,N,nominal,1.0NRT,306.1,6.1,D
38.04388,-122.2487,331,0.45,0.47,2019-10-15,21:36,N,nominal,1.0NRT,301.3,64.6,D
38.04433,-122.24362,367,0.45,0.47,2019-10-15,21:36,N,low,1.0NRT,331.9,64.6,D
38.04863,-122.24432,337.9,0.45,0.47,2019-10-15,21:36,N,nominal,1.0NRT,298.3,64.6,D
38.6903,-120.16724,330.7,0.59,0.53,2019-10-15,21:36,N,nominal,1.0NRT,292.7,3.9,D
38.69696,-120.14289,341,0.59,0.53,2019-10-15,21:36,N,nominal,1.0NRT,290,8.1,D
38.69917,-120.14419,339.7,0.59,0.53,2019-10-15,21:36,N,nominal,1.0NRT,286.8,12.1,D
39.06137,-121.83745,344,0.48,0.48,2019-10-15,21:36,N,nominal,1.0NRT,306.7,6.2,D
37.85213,-121.45971,340.8,0.49,0.48,2019-10-15,21:36,N,nominal,1.0NRT,305.6,8.9,D
39.52125,-121.45003,329.3,0.51,0.49,2019-10-15,21:36,N,nominal,1.0NRT,298.9,2.8,D
39.68246,-122.23715,350.8,0.46,0.47,2019-10-15,21:36,N,nominal,1.0NRT,302.3,54.2,D
40.14258,-118.48589,367,0.37,0.58,2019-10-15,21:36,N,high,1.0NRT,302.3,17.6,D
40.30782,-123.97696,351.9,0.39,0.44,2019-10-15,21:36,N,nominal,1.0NRT,294.7,9.2,D
40.3469,-124.08012,338.9,0.38,0.43,2019-10-15,21:36,N,nominal,1.0NRT,295,10.1,D
40.34646,-124.08456,334,0.38,0.43,2019-10-15,21:36,N,nominal,1.0NRT,295.1,10.1,D
42.64143,-116.5824,340.9,0.49,0.65,2019-10-15,21:36,N,nominal,1.0NRT,292.7,7.4,D
42.64171,-116.58253,342.7,0.49,0.65,2019-10-15,21:36,N,nominal,1.0NRT,292.7,9.6,D
43.60138,-114.73703,367,0.61,0.71,2019-10-15,21:36,N,high,1.0NRT,292.1,14.9,D
43.60132,-114.74349,353.6,0.61,0.71,2019-10-15,21:36,N,nominal,1.0NRT,291.3,14.9,D
43.6049,-114.74084,367,0.61,0.71,2019-10-15,21:36,N,high,1.0NRT,294.4,25.3,D
43.515,-122.4133,351.2,0.5,0.49,2019-10-15,21:36,N,nominal,1.0NRT,283.7,7.7,D
43.51456,-122.41911,332.1,0.5,0.49,2019-10-15,21:36,N,nominal,1.0NRT,280.8,7.7,D
43.51041,-122.41931,326.4,0.5,0.49,2019-10-15,21:36,N,nominal,1.0NRT,283.7,3.8,D
43.51532,-122.41471,353.7,0.5,0.49,2019-10-15,21:36,N,nominal,1.0NRT,284.8,13.3,D
