latitude,longitude,bright_ti4,scan,track,acq_date,acq_time,satellite,confidence,version,bright_ti5,frp,daynight
37.966,-90.07968,302.8,0.52,0.5,2019-10-19,07:12,N,nominal,1.0NRT,280.3,1.6,N
46.04284,-73.14239,318.7,0.49,0.4,2019-10-19,07:12,N,nominal,1.0NRT,280.5,3.3,N
45.83555,-73.2521,308,0.49,0.4,2019-10-19,07:12,N,nominal,1.0NRT,274.8,1.9,N
46.48592,-81.0349,343.5,0.41,0.37,2019-10-19,07:12,N,nominal,1.0NRT,274.7,12,N
46.48365,-81.0368,331.3,0.41,0.37,2019-10-19,07:12,N,nominal,1.0NRT,266.3,6.5,N
46.47899,-81.05476,301.6,0.41,0.37,2019-10-19,07:12,N,nominal,1.0NRT,267,0.8,N
46.52211,-84.36801,299.7,0.52,0.42,2019-10-19,07:12,N,nominal,1.0NRT,276.4,1.3,N
46.51898,-84.37576,310.3,0.52,0.42,2019-10-19,07:12,N,nominal,1.0NRT,278.7,2.4,N
46.51727,-84.39722,327.1,0.53,0.42,2019-10-19,07:12,N,nominal,1.0NRT,278.4,13.5,N
46.51342,-84.39805,305.1,0.53,0.42,2019-10-19,07:12,N,nominal,1.0NRT,276.1,2.3,N
45.07367,-83.40252,295.5,0.47,0.39,2019-10-19,07:12,N,nominal,1.0NRT,276.6,0.6,N
45.07004,-83.40332,301.7,0.47,0.39,2019-10-19,07:12,N,nominal,1.0NRT,276.6,0.6,N
44.05302,-77.12228,298.2,0.4,0.37,2019-10-19,07:12,N,nominal,1.0NRT,275.9,0.9,N
44.30436,-85.29662,318.2,0.54,0.42,2019-10-19,07:12,N,nominal,1.0NRT,273.9,2.1,N
44.30094,-85.29661,295,0.54,0.42,2019-10-19,07:12,N,nominal,1.0NRT,272.7,1.1,N
43.49092,-79.62502,304.4,0.38,0.36,2019-10-19,07:12,N,nominal,1.0NRT,277.1,1,N
42.95419,-76.57312,302.7,0.42,0.38,2019-10-19,07:12,N,nominal,1.0NRT,275,0.7,N
43.05859,-77.93333,297.6,0.4,0.37,2019-10-19,07:12,N,nominal,1.0NRT,274.2,0.5,N
43.27555,-79.79554,302.4,0.38,0.36,2019-10-19,07:12,N,nominal,1.0NRT,284.7,1.6,N
43.27226,-79.79648,331.8,0.38,0.36,2019-10-19,07:12,N,nominal,1.0NRT,281.8,3.9,N
43.2766,-79.82467,298.8,0.38,0.36,2019-10-19,07:12,N,nominal,1.0NRT,278.1,0.5,N
43.27299,-79.80117,314.9,0.38,0.36,2019-10-19,07:12,N,nominal,1.0NRT,280.5,1.8,N
43.27043,-79.80682,308.2,0.38,0.36,2019-10-19,07:12,N,nominal,1.0NRT,282.1,1.8,N
43.2673,-79.80483,306.5,0.38,0.36,2019-10-19,07:12,N,nominal,1.0NRT,279.9,1,N
43.29142,-79.9844,308.5,0.39,0.36,2019-10-19,07:12,N,nominal,1.0NRT,277.1,1.3,N
43.26402,-79.80578,304.6,0.38,0.36,2019-10-19,07:12,N,nominal,1.0NRT,279.6,1,N
43.26075,-79.80673,312.6,0.38,0.36,2019-10-19,07:12,N,nominal,1.0NRT,279.2,1.1,N
43.25712,-79.78324,296.7,0.38,0.36,2019-10-19,07:12,N,nominal,1.0NRT,278,0.7,N
43.11979,-79.17175,320.5,0.38,0.36,2019-10-19,07:12,N,nominal,1.0NRT,274.6,1,N
42.05135,-73.97946,309.5,0.53,0.42,2019-10-19,07:12,N,nominal,1.0NRT,275.3,2.2,N
43.06813,-80.85573,303,0.39,0.36,2019-10-19,07:12,N,nominal,1.0NRT,274.4,0.6,N
42.81495,-80.09421,312.7,0.38,0.36,2019-10-19,07:12,N,nominal,1.0NRT,276.4,1.9,N
42.80909,-80.10074,326.6,0.38,0.36,2019-10-19,07:12,N,nominal,1.0NRT,278.1,3.2,N
42.80253,-80.10259,322.1,0.38,0.36,2019-10-19,07:12,N,nominal,1.0NRT,278,2.5,N
42.96656,-81.86833,305,0.41,0.37,2019-10-19,07:12,N,nominal,1.0NRT,274.2,1,N
42.81747,-81.32731,307.9,0.4,0.37,2019-10-19,07:12,N,nominal,1.0NRT,273.7,0.7,N
43.1847,-84.60124,324.4,0.49,0.4,2019-10-19,07:12,N,nominal,1.0NRT,276.3,2.2,N
42.72381,-83.26282,297.4,0.44,0.38,2019-10-19,07:12,N,nominal,1.0NRT,274.3,0.6,N
41.43553,-75.59317,301.3,0.47,0.4,2019-10-19,07:12,N,nominal,1.0NRT,273.1,1.1,N
41.43593,-75.5941,306.3,0.47,0.4,2019-10-19,07:12,N,nominal,1.0NRT,273.5,1,N
42.31083,-82.04914,301.8,0.4,0.37,2019-10-19,07:12,N,nominal,1.0NRT,275.1,0.6,N
42.30433,-83.15385,300.2,0.43,0.38,2019-10-19,07:12,N,nominal,1.0NRT,278.1,0.9,N
42.28439,-83.11017,329,0.43,0.38,2019-10-19,07:12,N,nominal,1.0NRT,281.2,3.9,N
42.28091,-83.11098,303.3,0.43,0.38,2019-10-19,07:12,N,nominal,1.0NRT,280,3.9,N
42.27594,-83.12823,301.4,0.43,0.38,2019-10-19,07:12,N,nominal,1.0NRT,277.6,1.4,N
42.25438,-83.12788,311.4,0.43,0.38,2019-10-19,07:12,N,nominal,1.0NRT,278,1.8,N
42.2446,-83.13554,311.3,0.43,0.38,2019-10-19,07:12,N,nominal,1.0NRT,280.2,2.2,N
42.26738,-83.43372,297.9,0.44,0.38,2019-10-19,07:12,N,nominal,1.0NRT,274.7,0.7,N
41.28436,-78.63865,298.1,0.39,0.37,2019-10-19,07:12,N,nominal,1.0NRT,274.2,0.6,N
41.89186,-83.35703,298.5,0.43,0.38,2019-10-19,07:12,N,nominal,1.0NRT,281.8,2.2,N
40.66896,-76.37794,297.8,0.46,0.39,2019-10-19,07:12,N,nominal,1.0NRT,275.7,0.7,N
40.89161,-77.7093,328,0.41,0.37,2019-10-19,07:12,N,nominal,1.0NRT,278,2.7,N
41.47441,-81.66519,299.4,0.39,0.36,2019-10-19,07:12,N,nominal,1.0NRT,279,2.1,N
41.47108,-81.66605,335.3,0.39,0.36,2019-10-19,07:12,N,nominal,1.0NRT,279.1,2.1,N
41.4651,-81.67244,298.2,0.39,0.37,2019-10-19,07:12,N,nominal,1.0NRT,279.4,0.7,N
41.46244,-81.67799,322.2,0.39,0.37,2019-10-19,07:12,N,nominal,1.0NRT,279.8,1.5,N
41.46177,-81.67328,332.9,0.39,0.37,2019-10-19,07:12,N,nominal,1.0NRT,279.9,2.9,N
41.45911,-81.67883,299.3,0.39,0.37,2019-10-19,07:12,N,nominal,1.0NRT,278.1,1.5,N
41.45843,-81.67413,310,0.39,0.37,2019-10-19,07:12,N,nominal,1.0NRT,277.3,2.9,N
41.45177,-81.6758,337.2,0.39,0.37,2019-10-19,07:12,N,nominal,1.0NRT,281.6,3,N
41.56588,-84.04798,321.5,0.45,0.39,2019-10-19,07:12,N,nominal,1.0NRT,277.2,3,N
41.56522,-84.04256,325.5,0.45,0.39,2019-10-19,07:12,N,nominal,1.0NRT,276.4,3,N
41.46883,-83.36349,309.3,0.43,0.38,2019-10-19,07:12,N,nominal,1.0NRT,279.6,1.4,N
41.45838,-83.36584,311.2,0.43,0.38,2019-10-19,07:12,N,nominal,1.0NRT,277.4,1.8,N
40.84583,-79.92525,296.5,0.38,0.36,2019-10-19,07:12,N,nominal,1.0NRT,274.6,0.5,N
40.83417,-79.93794,299,0.38,0.36,2019-10-19,07:12,N,nominal,1.0NRT,274.5,1.2,N
40.73774,-79.75909,303.3,0.39,0.36,2019-10-19,07:12,N,nominal,1.0NRT,273.8,0.9,N
41.22556,-83.2068,317.1,0.42,0.38,2019-10-19,07:12,N,nominal,1.0NRT,278.8,3,N
41.68238,-87.41621,296.9,0.42,0.45,2019-10-19,07:12,N,nominal,1.0NRT,281.5,0.3,N
41.6796,-87.43221,298.2,0.42,0.45,2019-10-19,07:12,N,nominal,1.0NRT,279.8,0.9,N
41.6782,-87.41687,313.1,0.42,0.45,2019-10-19,07:12,N,nominal,1.0NRT,285,1.1,N
41.67541,-87.43291,298.1,0.42,0.45,2019-10-19,07:12,N,nominal,1.0NRT,282.3,0.9,N
41.67402,-87.46433,325.8,0.42,0.45,2019-10-19,07:12,N,nominal,1.0NRT,281,1.9,N
41.67029,-87.42337,327.3,0.42,0.45,2019-10-19,07:12,N,nominal,1.0NRT,280.3,1.5,N
41.64385,-87.13743,327.4,0.41,0.45,2019-10-19,07:12,N,nominal,1.0NRT,281.8,1.5,N
41.67122,-87.43362,303.9,0.42,0.45,2019-10-19,07:12,N,nominal,1.0NRT,280.6,2.1,N
41.67075,-87.42847,304.3,0.42,0.45,2019-10-19,07:12,N,nominal,1.0NRT,279.5,1.5,N
41.64338,-87.13248,296.7,0.41,0.45,2019-10-19,07:12,N,nominal,1.0NRT,279.3,1.5,N
41.66982,-87.465,320.8,0.42,0.45,2019-10-19,07:12,N,nominal,1.0NRT,278.6,1.9,N
41.66935,-87.45988,318.8,0.42,0.45,2019-10-19,07:12,N,nominal,1.0NRT,279.6,3.5,N
41.66842,-87.44963,310,0.42,0.45,2019-10-19,07:12,N,nominal,1.0NRT,279.9,1.2,N
41.66796,-87.44452,299.3,0.42,0.45,2019-10-19,07:12,N,nominal,1.0NRT,280.7,1.2,N
41.64018,-87.14305,306.5,0.41,0.45,2019-10-19,07:12,N,nominal,1.0NRT,279.5,3.5,N
41.63972,-87.13808,311.7,0.41,0.45,2019-10-19,07:12,N,nominal,1.0NRT,280.6,1.5,N
41.63926,-87.13313,318.8,0.41,0.45,2019-10-19,07:12,N,nominal,1.0NRT,282,1.5,N
41.66423,-87.45032,302.3,0.42,0.45,2019-10-19,07:12,N,nominal,1.0NRT,281.9,1.6,N
41.63605,-87.14373,308.1,0.41,0.45,2019-10-19,07:12,N,nominal,1.0NRT,280.5,1.6,N
41.63916,-87.40793,305.3,0.42,0.45,2019-10-19,07:12,N,nominal,1.0NRT,279.7,1.9,N
41.62806,-87.37882,310.8,0.42,0.45,2019-10-19,07:12,N,nominal,1.0NRT,279,2.3,N
41.62761,-87.37376,303.5,0.42,0.45,2019-10-19,07:12,N,nominal,1.0NRT,279.1,1.9,N
41.62716,-87.36871,309.4,0.42,0.45,2019-10-19,07:12,N,nominal,1.0NRT,280.6,1.9,N
41.6267,-87.36364,304.5,0.42,0.45,2019-10-19,07:12,N,nominal,1.0NRT,279.6,1.3,N
41.62352,-87.32825,297.7,0.42,0.45,2019-10-19,07:12,N,nominal,1.0NRT,280.5,1.5,N
41.61934,-87.32891,296.1,0.42,0.45,2019-10-19,07:12,N,nominal,1.0NRT,281.9,0.8,N
41.61518,-87.32962,300.3,0.42,0.45,2019-10-19,07:12,N,nominal,1.0NRT,282.4,0.8,N
41.3681,-84.92087,311.1,0.49,0.4,2019-10-19,07:12,N,nominal,1.0NRT,279.2,1.5,N
41.3644,-84.92163,302.9,0.49,0.4,2019-10-19,07:12,N,nominal,1.0NRT,275.5,1.5,N
41.36658,-84.92191,321.6,0.48,0.4,2019-10-19,07:12,N,nominal,1.0NRT,279.3,2.8,N
41.61386,-87.32619,295.1,0.41,0.45,2019-10-19,07:12,N,nominal,1.0NRT,282,1.5,N
39.96371,-76.59655,306.3,0.46,0.39,2019-10-19,07:12,N,nominal,1.0NRT,275,1.1,N
39.9385,-76.81596,312,0.45,0.39,2019-10-19,07:12,N,nominal,1.0NRT,277.6,1.5,N
40.36152,-79.56492,299.5,0.39,0.36,2019-10-19,07:12,N,nominal,1.0NRT,274.8,0.4,N
40.39562,-79.85717,314.3,0.39,0.36,2019-10-19,07:12,N,nominal,1.0NRT,277.8,1.4,N
40.39161,-79.85358,329.8,0.39,0.36,2019-10-19,07:12,N,nominal,1.0NRT,278.8,1.9,N
40.39233,-79.85809,304.5,0.39,0.36,2019-10-19,07:12,N,nominal,1.0NRT,280.2,1.4,N
40.39088,-79.84908,296.8,0.39,0.36,2019-10-19,07:12,N,nominal,1.0NRT,275.9,1.9,N
41.4137,-88.18379,300.4,0.45,0.47,2019-10-19,07:12,N,nominal,1.0NRT,284.2,1.5,N
41.12106,-85.35374,317.7,0.5,0.41,2019-10-19,07:12,N,nominal,1.0NRT,277.8,1.9,N
41.1204,-85.34772,302.7,0.5,0.41,2019-10-19,07:12,N,nominal,1.0NRT,281,1.9,N
41.11731,-85.35447,299,0.5,0.41,2019-10-19,07:12,N,nominal,1.0NRT,275.1,1.7,N
40.30428,-79.87987,295.9,0.39,0.36,2019-10-19,07:12,N,nominal,1.0NRT,277.8,0.7,N
41.18133,-87.85648,324.7,0.44,0.46,2019-10-19,07:12,N,nominal,1.0NRT,280.2,2.6,N
41.17707,-87.85717,310,0.44,0.46,2019-10-19,07:12,N,nominal,1.0NRT,277.8,1.7,N
40.1465,-79.85574,296.9,0.39,0.36,2019-10-19,07:12,N,nominal,1.0NRT,275.3,0.6,N
40.5687,-83.13661,309.8,0.42,0.37,2019-10-19,07:12,N,nominal,1.0NRT,277.2,0.9,N
39.55969,-77.17282,303.5,0.44,0.39,2019-10-19,07:12,N,nominal,1.0NRT,279.3,1.5,N
40.92539,-87.3409,306.5,0.41,0.45,2019-10-19,07:12,N,nominal,1.0NRT,277.4,1.1,N
40.73337,-86.43595,304.7,0.55,0.43,2019-10-19,07:12,N,nominal,1.0NRT,277.8,1.6,N
40.05729,-81.30022,300.7,0.39,0.36,2019-10-19,07:12,N,nominal,1.0NRT,277.8,0.9,N
39.89788,-80.2955,302,0.38,0.36,2019-10-19,07:12,N,nominal,1.0NRT,274.7,0.6,N
39.43413,-77.97672,300.9,0.42,0.38,2019-10-19,07:12,N,nominal,1.0NRT,278.3,0.9,N
40.63723,-89.63506,300.3,0.53,0.5,2019-10-19,07:12,N,nominal,1.0NRT,272.3,1.4,N
39.94411,-83.91534,305,0.43,0.38,2019-10-19,07:12,N,nominal,1.0NRT,275.7,1.1,N
39.71384,-83.17764,303.5,0.41,0.37,2019-10-19,07:12,N,nominal,1.0NRT,274.9,0.9,N
39.72689,-84.21194,300.4,0.44,0.38,2019-10-19,07:12,N,nominal,1.0NRT,275.5,1.2,N
39.97755,-86.83331,295.5,0.57,0.43,2019-10-19,07:12,N,nominal,1.0NRT,280,1.4,N
39.97358,-86.83401,302.1,0.57,0.43,2019-10-19,07:12,N,nominal,1.0NRT,280.7,1.5,N
39.87553,-86.48544,300.1,0.54,0.42,2019-10-19,07:12,N,nominal,1.0NRT,281.1,1.3,N
39.48596,-84.38276,299.3,0.44,0.39,2019-10-19,07:12,N,nominal,1.0NRT,278.1,1.2,N
39.48242,-84.38351,316.9,0.44,0.39,2019-10-19,07:12,N,nominal,1.0NRT,279.1,1.2,N
39.47888,-84.38425,300.2,0.44,0.39,2019-10-19,07:12,N,nominal,1.0NRT,280,1.1,N
39.47371,-84.40127,303.8,0.44,0.39,2019-10-19,07:12,N,nominal,1.0NRT,281.5,1.6,N
39.46825,-84.38649,308.9,0.44,0.39,2019-10-19,07:12,N,nominal,1.0NRT,278.1,1.4,N
39.47194,-84.40277,297.5,0.44,0.39,2019-10-19,07:12,N,nominal,1.0NRT,278.5,1.2,N
39.47129,-84.3976,310.9,0.44,0.39,2019-10-19,07:12,N,nominal,1.0NRT,279.7,1.2,N
39.46932,-84.3821,304.3,0.44,0.39,2019-10-19,07:12,N,nominal,1.0NRT,278,0.7,N
39.46735,-84.36662,297.8,0.44,0.39,2019-10-19,07:12,N,nominal,1.0NRT,274.9,0.5,N
39.52783,-86.38173,298.9,0.53,0.42,2019-10-19,07:12,N,nominal,1.0NRT,279.4,0.9,N
37.94081,-77.76408,297.6,0.44,0.39,2019-10-19,07:12,N,nominal,1.0NRT,275.2,0.6,N
37.81895,-77.44453,296.2,0.46,0.39,2019-10-19,07:12,N,nominal,1.0NRT,277.3,0.6,N
38.83635,-84.23727,304.2,0.43,0.38,2019-10-19,07:12,N,nominal,1.0NRT,281.4,1.7,N
38.59822,-82.8278,296.6,0.4,0.37,2019-10-19,07:12,N,nominal,1.0NRT,275.1,1.5,N
38.83488,-84.76188,295.5,0.45,0.39,2019-10-19,07:12,N,nominal,1.0NRT,277.4,0.5,N
37.54002,-76.80447,295.3,0.49,0.4,2019-10-19,07:12,N,nominal,1.0NRT,283.1,1.3,N
38.99909,-87.72592,301.4,0.41,0.45,2019-10-19,07:12,N,nominal,1.0NRT,284.7,1.5,N
38.99041,-87.72253,317.8,0.41,0.45,2019-10-19,07:12,N,nominal,1.0NRT,278.9,1.9,N
38.99739,-87.88647,303.3,0.41,0.45,2019-10-19,07:12,N,nominal,1.0NRT,277.9,0.9,N
38.9885,-87.71906,323.9,0.41,0.45,2019-10-19,07:12,N,nominal,1.0NRT,278.9,2.3,N
38.99689,-87.88744,298.8,0.41,0.45,2019-10-19,07:12,N,nominal,1.0NRT,278.3,0.7,N
38.45898,-83.89915,299.8,0.42,0.38,2019-10-19,07:12,N,nominal,1.0NRT,272.2,0.8,N
38.73957,-86.45911,299.7,0.53,0.42,2019-10-19,07:12,N,nominal,1.0NRT,278.4,1.4,N
38.64357,-85.78696,314.1,0.49,0.4,2019-10-19,07:12,N,nominal,1.0NRT,278.1,1.9,N
38.80061,-87.25001,296.7,0.38,0.43,2019-10-19,07:12,N,nominal,1.0NRT,278.9,0.7,N
38.63985,-85.78767,296.1,0.49,0.4,2019-10-19,07:12,N,nominal,1.0NRT,277.7,1,N
38.47909,-85.18407,330.1,0.46,0.39,2019-10-19,07:12,N,nominal,1.0NRT,278.5,3.8,N
38.47459,-85.36102,298.4,0.47,0.4,2019-10-19,07:12,N,nominal,1.0NRT,277.4,1,N
37.18059,-77.44953,303.4,0.47,0.39,2019-10-19,07:12,N,nominal,1.0NRT,280.4,1.6,N
38.41646,-85.74675,295.2,0.49,0.4,2019-10-19,07:12,N,nominal,1.0NRT,278.6,0.6,N
38.69688,-90.131,303.4,0.54,0.51,2019-10-19,07:12,N,nominal,1.0NRT,285.3,1.8,N
38.69363,-90.15047,296.9,0.54,0.51,2019-10-19,07:12,N,nominal,1.0NRT,281.6,1.3,N
37.38134,-80.66113,311.4,0.39,0.36,2019-10-19,07:12,N,nominal,1.0NRT,269.5,0.8,N
36.35427,-76.80543,299.7,0.51,0.41,2019-10-19,07:12,N,nominal,1.0NRT,264.2,0.7,N
37.2351,-82.03974,322.1,0.39,0.36,2019-10-19,07:12,N,nominal,1.0NRT,276.2,2.2,N
38.1788,-90.33894,295.3,0.54,0.51,2019-10-19,07:12,N,nominal,1.0NRT,280.6,1.2,N
37.23445,-82.03541,311.1,0.39,0.36,2019-10-19,07:12,N,nominal,1.0NRT,273.6,1,N
37.23181,-82.04051,323.4,0.39,0.36,2019-10-19,07:12,N,nominal,1.0NRT,272.7,2.3,N
38.00824,-90.08051,307.2,0.52,0.5,2019-10-19,07:12,N,nominal,1.0NRT,281.5,1.9,N
34.63905,-87.08192,313,0.51,0.41,2019-10-19,07:18,N,nominal,1.0NRT,272.8,1.6,N
17.59629,-93.29597,303.1,0.47,0.48,2019-10-19,07:18,N,nominal,1.0NRT,289.3,0.5,N
17.59574,-93.2942,303.1,0.47,0.48,2019-10-19,07:18,N,nominal,1.0NRT,289,0.4,N
17.96986,-94.51626,307.2,0.57,0.52,2019-10-19,07:18,N,nominal,1.0NRT,283.8,2.1,N
17.97051,-94.52166,313.8,0.57,0.52,2019-10-19,07:18,N,nominal,1.0NRT,284.6,2.1,N
17.94693,-94.2867,306.7,0.55,0.51,2019-10-19,07:18,N,nominal,1.0NRT,285.1,1,N
17.97595,-94.52643,310.1,0.57,0.52,2019-10-19,07:18,N,nominal,1.0NRT,285.4,3.9,N
17.78861,-93.12041,303.2,0.46,0.47,2019-10-19,07:18,N,nominal,1.0NRT,289.2,0.8,N
17.96893,-94.51582,302.6,0.57,0.52,2019-10-19,07:18,N,nominal,1.0NRT,283.6,1.5,N
17.96954,-94.52122,314.3,0.57,0.52,2019-10-19,07:18,N,nominal,1.0NRT,284.7,2.4,N
17.97495,-94.52601,312.5,0.57,0.52,2019-10-19,07:18,N,nominal,1.0NRT,285.6,2.4,N
17.98514,-94.53006,303.7,0.57,0.52,2019-10-19,07:18,N,nominal,1.0NRT,285.4,2.8,N
17.86953,-93.49751,311.4,0.49,0.48,2019-10-19,07:18,N,nominal,1.0NRT,288.4,1.3,N
17.98933,-94.52409,305.3,0.57,0.52,2019-10-19,07:18,N,nominal,1.0NRT,284.1,1.6,N
17.83703,-93.11812,311.5,0.46,0.47,2019-10-19,07:18,N,nominal,1.0NRT,289.5,1.6,N
17.83756,-93.12248,317.4,0.46,0.47,2019-10-19,07:18,N,nominal,1.0NRT,289.4,1.6,N
17.84085,-93.11321,304.7,0.46,0.47,2019-10-19,07:18,N,nominal,1.0NRT,289.3,1.5,N
17.84246,-93.12628,312,0.46,0.47,2019-10-19,07:18,N,nominal,1.0NRT,289.3,2.1,N
17.84139,-93.11754,330.5,0.46,0.47,2019-10-19,07:18,N,nominal,1.0NRT,290,2,N
17.84192,-93.12192,331.4,0.46,0.47,2019-10-19,07:18,N,nominal,1.0NRT,289.8,2,N
17.84575,-93.11699,305.9,0.46,0.47,2019-10-19,07:18,N,nominal,1.0NRT,289.3,2,N
17.84628,-93.12134,308.1,0.46,0.47,2019-10-19,07:18,N,nominal,1.0NRT,289.3,2,N
17.92373,-93.7591,304.5,0.51,0.49,2019-10-19,07:18,N,nominal,1.0NRT,285.4,1.1,N
17.79213,-92.68602,320.2,0.43,0.46,2019-10-19,07:18,N,nominal,1.0NRT,289.6,2.1,N
17.90868,-93.52052,337,0.49,0.48,2019-10-19,07:18,N,nominal,1.0NRT,286.1,6.3,N
17.98068,-94.11916,323.2,0.53,0.5,2019-10-19,07:18,N,nominal,1.0NRT,287.6,3.2,N
17.91315,-93.51994,339.7,0.49,0.48,2019-10-19,07:18,N,nominal,1.0NRT,285.3,6.3,N
17.88996,-93.1869,304.4,0.46,0.47,2019-10-19,07:18,N,nominal,1.0NRT,289.7,4.1,N
17.89106,-93.19566,304.7,0.47,0.47,2019-10-19,07:18,N,nominal,1.0NRT,289.9,4.2,N
17.89051,-93.19131,327.2,0.46,0.47,2019-10-19,07:18,N,nominal,1.0NRT,290.2,4.2,N
17.89268,-93.17309,305.7,0.46,0.47,2019-10-19,07:18,N,nominal,1.0NRT,289.8,10.2,N
17.89378,-93.18191,307.6,0.46,0.47,2019-10-19,07:18,N,nominal,1.0NRT,289.6,6.3,N
17.89323,-93.17749,340.3,0.46,0.47,2019-10-19,07:18,N,nominal,1.0NRT,291.1,10.2,N
17.89433,-93.18631,328.9,0.46,0.47,2019-10-19,07:18,N,nominal,1.0NRT,290.1,6.3,N
17.89816,-93.18132,337.3,0.46,0.47,2019-10-19,07:18,N,nominal,1.0NRT,289.6,6.3,N
17.89871,-93.18572,339.5,0.46,0.47,2019-10-19,07:18,N,nominal,1.0NRT,290,6.3,N
17.90253,-93.18073,346.7,0.46,0.47,2019-10-19,07:18,N,nominal,1.0NRT,290.4,8.6,N
17.90309,-93.18513,338.4,0.46,0.47,2019-10-19,07:18,N,nominal,1.0NRT,290,8.6,N
17.90249,-93.17853,318.1,0.46,0.47,2019-10-19,07:18,N,nominal,1.0NRT,290,1.9,N
17.90301,-93.18293,352.5,0.46,0.47,2019-10-19,07:18,N,nominal,1.0NRT,290.4,12.7,N
18.03119,-93.92186,314.6,0.52,0.5,2019-10-19,07:18,N,nominal,1.0NRT,282.3,0.8,N
17.87896,-92.49033,309,0.42,0.45,2019-10-19,07:18,N,nominal,1.0NRT,286,1.1,N
17.89569,-92.48801,324.9,0.42,0.45,2019-10-19,07:18,N,nominal,1.0NRT,285.5,2.8,N
17.8962,-92.492,336.4,0.42,0.45,2019-10-19,07:18,N,nominal,1.0NRT,285.9,4.2,N
18.0929,-94.04588,317.3,0.53,0.5,2019-10-19,07:18,N,nominal,1.0NRT,286.7,3.2,N
18.13063,-94.20217,316.3,0.54,0.51,2019-10-19,07:18,N,nominal,1.0NRT,283.5,2.8,N
18.13152,-94.19992,315.3,0.54,0.51,2019-10-19,07:18,N,nominal,1.0NRT,282.3,2.7,N
18.21852,-93.89448,334.6,0.52,0.5,2019-10-19,07:18,N,nominal,1.0NRT,283.6,5.2,N
18.21756,-93.89294,338.4,0.52,0.5,2019-10-19,07:18,N,nominal,1.0NRT,283.5,2.2,N
18.22217,-93.89233,308.5,0.52,0.5,2019-10-19,07:18,N,nominal,1.0NRT,283.3,2.2,N
18.13976,-92.82834,318.5,0.44,0.46,2019-10-19,07:18,N,nominal,1.0NRT,287,1.7,N
18.01731,-88.26672,318.9,0.4,0.37,2019-10-19,07:18,N,nominal,1.0NRT,292.3,1.7,N
18.64302,-92.1689,327.2,0.41,0.45,2019-10-19,07:18,N,nominal,1.0NRT,283.2,3.3,N
18.64353,-92.17281,338.5,0.41,0.45,2019-10-19,07:18,N,nominal,1.0NRT,283.7,3.3,N
18.64101,-92.17038,308.4,0.41,0.45,2019-10-19,07:18,N,nominal,1.0NRT,283,0.9,N
18.64149,-92.1743,304.5,0.41,0.45,2019-10-19,07:18,N,nominal,1.0NRT,282.7,0.9,N
31.97886,-95.32826,304.1,0.45,0.63,2019-10-19,07:18,N,nominal,1.0NRT,286,0.7,N
31.98268,-95.32774,299.3,0.45,0.63,2019-10-19,07:18,N,nominal,1.0NRT,285.8,0.3,N
31.65231,-90.4451,307.2,0.47,0.48,2019-10-19,07:18,N,nominal,1.0NRT,285.7,0.9,N
32.24681,-97.55183,300.6,0.61,0.71,2019-10-19,07:18,N,nominal,1.0NRT,279.1,3.2,N
31.97509,-92.60828,295.7,0.63,0.54,2019-10-19,07:18,N,nominal,1.0NRT,281.8,0.6,N
31.98012,-92.6077,300.8,0.63,0.54,2019-10-19,07:18,N,nominal,1.0NRT,282.2,1.2,N
31.9789,-92.60749,300.4,0.63,0.54,2019-10-19,07:18,N,nominal,1.0NRT,281.9,2.3,N
31.78604,-90.17929,329.8,0.45,0.47,2019-10-19,07:18,N,nominal,1.0NRT,285.3,3.9,N
32.57341,-98.91984,312.9,0.74,0.76,2019-10-19,07:18,N,nominal,1.0NRT,273.8,2.7,N
32.57576,-98.92413,313.9,0.74,0.76,2019-10-19,07:18,N,nominal,1.0NRT,277.1,4.4,N
32.2759,-92.72891,296.9,0.32,0.55,2019-10-19,07:18,N,nominal,1.0NRT,286.5,0.5,N
32.13582,-89.78696,298.2,0.43,0.46,2019-10-19,07:18,N,nominal,1.0NRT,283.9,0.4,N
32.19542,-90.37205,316,0.47,0.48,2019-10-19,07:18,N,nominal,1.0NRT,284.2,2.3,N
32.19592,-90.37706,311.5,0.47,0.48,2019-10-19,07:18,N,nominal,1.0NRT,284.7,2.3,N
32.25832,-90.87582,299.3,0.5,0.49,2019-10-19,07:18,N,nominal,1.0NRT,283.8,0.7,N
32.25845,-90.87516,295.4,0.5,0.49,2019-10-19,07:18,N,nominal,1.0NRT,283.9,0.7,N
32.31417,-90.13503,310.1,0.46,0.47,2019-10-19,07:18,N,nominal,1.0NRT,285.5,1.6,N
32.31559,-87.64512,301.4,0.51,0.41,2019-10-19,07:18,N,nominal,1.0NRT,284.7,0.7,N
32.98698,-92.97461,296.8,0.34,0.56,2019-10-19,07:18,N,nominal,1.0NRT,281.5,0.5,N
33.10419,-94.22449,296.3,0.4,0.6,2019-10-19,07:18,N,nominal,1.0NRT,281.8,0.4,N
33.32529,-93.88689,298.7,0.38,0.59,2019-10-19,07:18,N,nominal,1.0NRT,281.6,0.5,N
33.54277,-93.60146,295.7,0.37,0.58,2019-10-19,07:18,N,nominal,1.0NRT,281,0.5,N
33.53848,-93.60258,296.5,0.37,0.58,2019-10-19,07:18,N,nominal,1.0NRT,281.3,0.7,N
33.69847,-95.9989,301.7,0.51,0.66,2019-10-19,07:18,N,nominal,1.0NRT,281.2,1.3,N
32.99307,-86.97852,296.1,0.48,0.4,2019-10-19,07:18,N,nominal,1.0NRT,283.5,1,N
32.99371,-86.9837,310.4,0.48,0.4,2019-10-19,07:18,N,nominal,1.0NRT,284.1,1.7,N
33.20745,-88.74951,295.7,0.39,0.44,2019-10-19,07:18,N,nominal,1.0NRT,283.5,0.5,N
33.20791,-88.75375,295.3,0.39,0.44,2019-10-19,07:18,N,nominal,1.0NRT,283.4,1,N
33.09001,-86.80224,309.4,0.47,0.4,2019-10-19,07:18,N,nominal,1.0NRT,285.1,1.5,N
33.09066,-86.80734,305.2,0.48,0.4,2019-10-19,07:18,N,nominal,1.0NRT,284.9,1.5,N
33.10465,-86.79965,308.7,0.47,0.4,2019-10-19,07:18,N,nominal,1.0NRT,285.3,1.4,N
33.1033,-86.79868,306.9,0.48,0.4,2019-10-19,07:18,N,nominal,1.0NRT,285,1.3,N
33.23003,-87.51408,323,0.51,0.41,2019-10-19,07:18,N,nominal,1.0NRT,285.7,1.7,N
33.23317,-87.50788,302.5,0.51,0.41,2019-10-19,07:18,N,nominal,1.0NRT,285.4,1.7,N
33.23382,-87.51343,297.4,0.51,0.41,2019-10-19,07:18,N,nominal,1.0NRT,286.5,1.7,N
33.23697,-87.50725,298.5,0.51,0.41,2019-10-19,07:18,N,nominal,1.0NRT,285.5,0.9,N
33.43885,-88.56926,308,0.39,0.44,2019-10-19,07:18,N,nominal,1.0NRT,284.4,1.3,N
33.24704,-86.81886,302.2,0.48,0.4,2019-10-19,07:18,N,nominal,1.0NRT,284.8,0.9,N
34.06897,-88.58961,299.5,0.39,0.44,2019-10-19,07:18,N,nominal,1.0NRT,281.3,0.6,N
34.42884,-86.3057,296.5,0.47,0.4,2019-10-19,07:18,N,nominal,1.0NRT,278.5,0.5,N
34.43246,-86.30499,298,0.47,0.4,2019-10-19,07:18,N,nominal,1.0NRT,278.1,0.5,N
33.86346,-82.19986,302.1,0.38,0.36,2019-10-19,07:18,N,nominal,1.0NRT,274.2,0.9,N
34.63812,-87.08135,298.9,0.51,0.41,2019-10-19,07:18,N,nominal,1.0NRT,271.7,1,N
34.80505,-88.32172,300.6,0.39,0.44,2019-10-19,07:18,N,nominal,1.0NRT,281.2,0.9,N
35.08275,-90.84417,299.9,0.54,0.51,2019-10-19,07:18,N,nominal,1.0NRT,280.5,1.6,N
35.04574,-90.16132,313.5,0.49,0.49,2019-10-19,07:18,N,nominal,1.0NRT,281.4,3,N
34.34733,-82.77615,298.6,0.38,0.36,2019-10-19,07:18,N,nominal,1.0NRT,275.4,0.6,N
35.64085,-89.94474,297.9,0.49,0.48,2019-10-19,07:18,N,nominal,1.0NRT,279.9,1.4,N
35.7947,-91.74807,301.7,0.61,0.54,2019-10-19,07:18,N,nominal,1.0NRT,279.4,1.5,N
35.64882,-89.93263,319.5,0.49,0.48,2019-10-19,07:18,N,nominal,1.0NRT,281.9,2.3,N
34.37497,-79.88757,300.3,0.42,0.37,2019-10-19,07:18,N,nominal,1.0NRT,261.6,0.7,N
35.7291,-88.81017,302.5,0.42,0.45,2019-10-19,07:18,N,nominal,1.0NRT,281.7,1,N
35.89078,-89.78101,297.7,0.48,0.48,2019-10-19,07:18,N,nominal,1.0NRT,283,1,N
35.34286,-80.82861,321.1,0.39,0.36,2019-10-19,07:18,N,nominal,1.0NRT,278.9,2,N
36.26912,-83.47938,310.7,0.4,0.37,2019-10-19,07:18,N,nominal,1.0NRT,282,1.6,N
35.87432,-80.51231,308.8,0.39,0.37,2019-10-19,07:18,N,nominal,1.0NRT,278,1,N
36.37286,-82.96021,297.6,0.39,0.36,2019-10-19,07:18,N,nominal,1.0NRT,267.8,0.4,N
36.92912,-86.62786,297.8,0.51,0.41,2019-10-19,07:18,N,nominal,1.0NRT,276,0.4,N
37.70488,-93.83065,296.8,0.42,0.61,2019-10-19,07:18,N,nominal,1.0NRT,281.7,0.4,N
36.34002,-80.70749,317.8,0.39,0.36,2019-10-19,07:18,N,nominal,1.0NRT,266.7,0.9,N
36.48273,-80.09869,296.7,0.4,0.37,2019-10-19,07:18,N,nominal,1.0NRT,271.7,0.7,N
37.91184,-92.46894,297.3,0.35,0.57,2019-10-19,07:18,N,nominal,1.0NRT,280.2,0.6,N
18.64563,-92.17371,318.4,0.41,0.45,2019-10-19,07:18,N,nominal,1.0NRT,282.7,2.2,N
18.64515,-92.16978,328.1,0.41,0.45,2019-10-19,07:18,N,nominal,1.0NRT,283.4,2.2,N
19.24145,-92.25444,318.2,0.42,0.45,2019-10-19,07:18,N,nominal,1.0NRT,277.5,1.7,N
19.29169,-92.16976,315.4,0.42,0.45,2019-10-19,07:18,N,nominal,1.0NRT,274.3,1,N
19.36427,-92.0061,301.1,0.41,0.45,2019-10-19,07:18,N,nominal,1.0NRT,274.8,0.3,N
19.3684,-92.00552,318.7,0.41,0.45,2019-10-19,07:18,N,nominal,1.0NRT,275.6,0.4,N
19.36636,-92.00729,313,0.41,0.45,2019-10-19,07:18,N,nominal,1.0NRT,275.3,0.6,N
19.39187,-92.04376,340.8,0.41,0.45,2019-10-19,07:18,N,nominal,1.0NRT,280.5,6.4,N
19.39602,-92.04317,340.6,0.41,0.45,2019-10-19,07:18,N,nominal,1.0NRT,279.9,2.5,N
19.40016,-92.04258,303,0.41,0.45,2019-10-19,07:18,N,nominal,1.0NRT,278.8,2.5,N
19.42581,-92.07928,312.9,0.42,0.45,2019-10-19,07:18,N,nominal,1.0NRT,278.7,1.3,N
19.42997,-92.0787,321.3,0.42,0.45,2019-10-19,07:18,N,nominal,1.0NRT,279.1,1.3,N
19.43698,-92.03333,307.2,0.41,0.45,2019-10-19,07:18,N,nominal,1.0NRT,278.7,4.1,N
19.43748,-92.03729,341.5,0.41,0.45,2019-10-19,07:18,N,nominal,1.0NRT,279,4.1,N
19.44162,-92.03671,348.5,0.41,0.45,2019-10-19,07:18,N,nominal,1.0NRT,279,4.1,N
19.52128,-92.18966,316.2,0.42,0.45,2019-10-19,07:18,N,nominal,1.0NRT,279.3,2.2,N
20.94388,-89.6655,315.6,0.48,0.4,2019-10-19,07:18,N,nominal,1.0NRT,290.5,1.7,N
22.26087,-97.80857,310.9,0.52,0.67,2019-10-19,07:18,N,nominal,1.0NRT,286.8,3.2,N
22.26709,-97.80793,312.1,0.52,0.67,2019-10-19,07:18,N,nominal,1.0NRT,287.3,2,N
23.01068,-82.74251,297.9,0.43,0.38,2019-10-19,07:18,N,nominal,1.0NRT,262.4,0.6,N
25.57904,-99.94084,299.4,0.76,0.77,2019-10-19,07:18,N,nominal,1.0NRT,285.3,2.3,N
25.58032,-99.94045,307.7,0.76,0.77,2019-10-19,07:18,N,nominal,1.0NRT,287.2,3.2,N
27.81001,-97.4302,303.7,0.56,0.69,2019-10-19,07:18,N,nominal,1.0NRT,292.6,1.7,N
27.81143,-97.42998,303.3,0.56,0.69,2019-10-19,07:18,N,nominal,1.0NRT,292.7,1.9,N
28.51209,-96.79514,302.7,0.52,0.67,2019-10-19,07:18,N,nominal,1.0NRT,290.6,0.5,N
28.73449,-98.02995,340.3,0.62,0.71,2019-10-19,07:18,N,nominal,1.0NRT,289.2,5.6,N
29.13462,-97.72134,304,0.6,0.7,2019-10-19,07:18,N,nominal,1.0NRT,289.1,0.8,N
29.06898,-95.75008,305.5,0.45,0.63,2019-10-19,07:18,N,nominal,1.0NRT,293.2,1.9,N
29.067,-95.74976,304.9,0.45,0.63,2019-10-19,07:18,N,nominal,1.0NRT,292.8,2,N
26.59385,-77.21131,300.8,0.49,0.49,2019-10-19,07:18,N,nominal,1.0NRT,279.2,2.3,N
29.36502,-94.91071,301.4,0.41,0.6,2019-10-19,07:18,N,nominal,1.0NRT,291.3,0.9,N
29.37064,-94.91015,303.1,0.41,0.6,2019-10-19,07:18,N,nominal,1.0NRT,292.3,0.9,N
29.37126,-94.91868,303.4,0.41,0.6,2019-10-19,07:18,N,nominal,1.0NRT,292,0.9,N
29.37157,-94.92297,304.7,0.41,0.6,2019-10-19,07:18,N,nominal,1.0NRT,292.2,0.9,N
29.37843,-94.9396,302.5,0.41,0.6,2019-10-19,07:18,N,nominal,1.0NRT,291.8,1.3,N
29.57237,-98.0325,305.6,0.63,0.72,2019-10-19,07:18,N,nominal,1.0NRT,287.6,1.6,N
29.57909,-98.03201,306.9,0.63,0.72,2019-10-19,07:18,N,nominal,1.0NRT,287.6,1.9,N
29.61196,-95.02906,302,0.41,0.61,2019-10-19,07:18,N,nominal,1.0NRT,290.5,0.8,N
29.6208,-95.07238,300.4,0.42,0.61,2019-10-19,07:18,N,nominal,1.0NRT,289.9,0.4,N
29.62649,-95.07184,308.2,0.42,0.61,2019-10-19,07:18,N,nominal,1.0NRT,290.8,0.4,N
29.71392,-95.23351,303.1,0.43,0.62,2019-10-19,07:18,N,nominal,1.0NRT,292,0.8,N
29.71967,-95.23301,310.7,0.43,0.62,2019-10-19,07:18,N,nominal,1.0NRT,291.4,0.8,N
29.74101,-95.12673,310.6,0.42,0.61,2019-10-19,07:18,N,nominal,1.0NRT,290.4,1,N
29.73805,-95.00657,302.6,0.41,0.61,2019-10-19,07:18,N,nominal,1.0NRT,291.7,1.4,N
29.74339,-95.00161,307.7,0.41,0.61,2019-10-19,07:18,N,nominal,1.0NRT,292.2,2.6,N
29.74436,-95.01479,305.5,0.41,0.61,2019-10-19,07:18,N,nominal,1.0NRT,292.2,2.1,N
29.74468,-95.01921,307,0.42,0.61,2019-10-19,07:18,N,nominal,1.0NRT,291,1.8,N
29.74278,-95.12451,302.4,0.42,0.61,2019-10-19,07:18,N,nominal,1.0NRT,290.1,0.6,N
29.74027,-94.99977,304.4,0.41,0.61,2019-10-19,07:18,N,nominal,1.0NRT,292,1.2,N
29.74057,-95.00417,302.8,0.41,0.61,2019-10-19,07:18,N,nominal,1.0NRT,291.5,2.3,N
29.74594,-94.99918,306.1,0.41,0.61,2019-10-19,07:18,N,nominal,1.0NRT,292.3,1.1,N
29.74624,-95.0036,304,0.41,0.61,2019-10-19,07:18,N,nominal,1.0NRT,291.4,1.5,N
29.74712,-95.01681,304.3,0.42,0.61,2019-10-19,07:18,N,nominal,1.0NRT,291.8,2.1,N
29.75621,-93.87199,299.3,0.35,0.57,2019-10-19,07:18,N,nominal,1.0NRT,288.7,0.5,N
29.75682,-93.87949,313.4,0.35,0.57,2019-10-19,07:18,N,nominal,1.0NRT,290.2,2,N
29.83665,-93.96183,299,0.36,0.57,2019-10-19,07:18,N,nominal,1.0NRT,288.7,1.4,N
29.83695,-93.96563,303,0.36,0.57,2019-10-19,07:18,N,nominal,1.0NRT,289,1.5,N
29.88526,-93.96426,300.6,0.36,0.57,2019-10-19,07:18,N,nominal,1.0NRT,289.7,2,N
29.68268,-91.47429,300.4,0.51,0.49,2019-10-19,07:18,N,nominal,1.0NRT,289,1.3,N
29.96389,-93.89176,300.8,0.36,0.57,2019-10-19,07:18,N,nominal,1.0NRT,290.3,1.4,N
30.0107,-93.9697,300.7,0.36,0.57,2019-10-19,07:18,N,nominal,1.0NRT,288.7,0.7,N
30.06661,-94.06477,301.5,0.37,0.58,2019-10-19,07:18,N,nominal,1.0NRT,289.2,1.2,N
30.06691,-94.06863,307.6,0.37,0.58,2019-10-19,07:18,N,nominal,1.0NRT,289.9,1.1,N
30.06721,-94.0725,305.9,0.37,0.58,2019-10-19,07:18,N,nominal,1.0NRT,291.4,1.1,N
30.04117,-93.33587,300.6,0.33,0.55,2019-10-19,07:18,N,nominal,1.0NRT,287.7,1,N
30.11574,-93.29554,303.2,0.33,0.55,2019-10-19,07:18,N,nominal,1.0NRT,286.8,0.5,N
30.15044,-93.72005,298.6,0.35,0.57,2019-10-19,07:18,N,nominal,1.0NRT,287,0.3,N
30.17691,-93.32893,315.6,0.33,0.55,2019-10-19,07:18,N,nominal,1.0NRT,290.5,1.7,N
30.1815,-93.32132,301.1,0.33,0.55,2019-10-19,07:18,N,nominal,1.0NRT,289.7,0.8,N
30.18178,-93.32483,301.3,0.33,0.55,2019-10-19,07:18,N,nominal,1.0NRT,289.8,0.8,N
30.24004,-93.27579,301.9,0.33,0.55,2019-10-19,07:18,N,nominal,1.0NRT,289.6,0.9,N
30.2418,-93.27452,300.2,0.33,0.55,2019-10-19,07:18,N,nominal,1.0NRT,289.2,0.7,N
30.24207,-93.27802,301.5,0.33,0.55,2019-10-19,07:18,N,nominal,1.0NRT,289.6,1.4,N
29.99714,-90.39316,298.8,0.44,0.46,2019-10-19,07:18,N,nominal,1.0NRT,288.8,1,N
29.99761,-90.39779,299.3,0.44,0.46,2019-10-19,07:18,N,nominal,1.0NRT,289,1,N
30.18515,-90.99075,298.5,0.48,0.48,2019-10-19,07:18,N,nominal,1.0NRT,288.4,1.1,N
30.4502,-93.14666,296.2,0.33,0.55,2019-10-19,07:18,N,nominal,1.0NRT,285.6,0.3,N
30.44778,-93.14725,296.5,0.33,0.55,2019-10-19,07:18,N,nominal,1.0NRT,286,0.3,N
30.32888,-91.28002,301.2,0.5,0.49,2019-10-19,07:18,N,nominal,1.0NRT,287.6,1.1,N
30.81191,-96.65297,299.4,0.53,0.67,2019-10-19,07:18,N,nominal,1.0NRT,287.1,0.6,N
30.48487,-91.17801,302.2,0.5,0.49,2019-10-19,07:18,N,nominal,1.0NRT,290.3,3,N
30.48159,-91.18098,300.8,0.5,0.49,2019-10-19,07:18,N,nominal,1.0NRT,289.8,2.1,N
30.47272,-90.62267,300.5,0.46,0.47,2019-10-19,07:18,N,nominal,1.0NRT,286.6,1.1,N
30.58406,-91.24242,301.4,0.5,0.49,2019-10-19,07:18,N,nominal,1.0NRT,287,0.8,N
30.83615,-93.97292,298.9,0.37,0.58,2019-10-19,07:18,N,nominal,1.0NRT,285.7,0.6,N
30.75078,-92.25179,300.6,0.58,0.52,2019-10-19,07:18,N,nominal,1.0NRT,286.1,0.8,N
30.62703,-90.30154,304.7,0.45,0.47,2019-10-19,07:18,N,nominal,1.0NRT,286,1.4,N
31.10669,-92.95014,300.8,0.32,0.55,2019-10-19,07:18,N,nominal,1.0NRT,285,0.5,N
31.10697,-92.9536,298,0.32,0.55,2019-10-19,07:18,N,nominal,1.0NRT,284.3,0.5,N
31.12445,-92.97942,296.5,0.32,0.55,2019-10-19,07:18,N,nominal,1.0NRT,283.9,0.3,N
30.825,-89.70219,298.8,0.42,0.45,2019-10-19,07:18,N,nominal,1.0NRT,285.5,0.6,N
31.35358,-96.16476,308.6,0.5,0.66,2019-10-19,07:18,N,nominal,1.0NRT,287.8,1.2,N
31.35389,-96.17028,300.7,0.5,0.66,2019-10-19,07:18,N,nominal,1.0NRT,287.4,1.5,N
31.07935,-90.5731,296,0.47,0.48,2019-10-19,07:18,N,nominal,1.0NRT,285.4,2.3,N
31.07983,-90.57808,326.8,0.47,0.48,2019-10-19,07:18,N,nominal,1.0NRT,286.1,2.3,N
31.90833,-96.22272,301.2,0.51,0.66,2019-10-19,07:18,N,nominal,1.0NRT,286.4,0.5,N
31.90738,-96.22166,297,0.51,0.66,2019-10-19,07:18,N,nominal,1.0NRT,286.2,0.6,N
47.78754,-103.05706,326.4,0.38,0.36,2019-10-19,08:54,N,nominal,1.0NRT,277.4,1.3,N
47.78674,-103.05199,314.9,0.38,0.36,2019-10-19,08:54,N,nominal,1.0NRT,275.3,1.3,N
47.74247,-102.77376,308.8,0.38,0.36,2019-10-19,08:54,N,nominal,1.0NRT,277.1,0.6,N
47.93544,-104.04596,296.9,0.39,0.36,2019-10-19,08:54,N,nominal,1.0NRT,277.2,0.3,N
47.75937,-102.92278,297,0.38,0.36,2019-10-19,08:54,N,nominal,1.0NRT,274.8,0.6,N
47.72944,-102.75699,297.1,0.38,0.36,2019-10-19,08:54,N,nominal,1.0NRT,276.2,0.4,N
47.76003,-102.99197,302,0.38,0.36,2019-10-19,08:54,N,nominal,1.0NRT,275.7,0.9,N
47.70337,-102.68069,324.6,0.38,0.36,2019-10-19,08:54,N,nominal,1.0NRT,278,1.7,N
47.70337,-102.70208,317.6,0.38,0.36,2019-10-19,08:54,N,nominal,1.0NRT,277.3,1.6,N
47.70256,-102.69702,307.5,0.38,0.36,2019-10-19,08:54,N,nominal,1.0NRT,276.8,1.6,N
47.72999,-102.95443,306,0.38,0.36,2019-10-19,08:54,N,nominal,1.0NRT,276.3,0.8,N
47.71466,-102.87974,305,0.38,0.36,2019-10-19,08:54,N,nominal,1.0NRT,276.2,0.7,N
47.61492,-102.6599,296.6,0.39,0.36,2019-10-19,08:54,N,nominal,1.0NRT,275.8,0.6,N
47.62931,-102.96414,306.1,0.38,0.36,2019-10-19,08:54,N,nominal,1.0NRT,276.7,0.5,N
47.5887,-102.9038,297.9,0.38,0.36,2019-10-19,08:54,N,nominal,1.0NRT,275.9,0.4,N
47.58628,-102.88868,299.5,0.38,0.36,2019-10-19,08:54,N,nominal,1.0NRT,275.8,0.3,N
47.5359,-102.70009,299.6,0.38,0.36,2019-10-19,08:54,N,nominal,1.0NRT,275.6,0.4,N
47.52521,-102.86909,317.2,0.38,0.36,2019-10-19,08:54,N,nominal,1.0NRT,276,2.6,N
47.35456,-101.83685,300.1,0.39,0.36,2019-10-19,08:54,N,nominal,1.0NRT,275.1,0.3,N
47.38458,-102.61108,312.6,0.39,0.36,2019-10-19,08:54,N,nominal,1.0NRT,274.1,0.8,N
41.64317,-87.13702,302.7,0.68,0.74,2019-10-19,08:54,N,nominal,1.0NRT,279.3,4.2,N
41.64059,-87.12934,319.6,0.68,0.74,2019-10-19,08:54,N,nominal,1.0NRT,279.4,3.6,N
41.63689,-87.141,312.4,0.68,0.74,2019-10-19,08:54,N,nominal,1.0NRT,279.8,3.2,N
41.63429,-87.13329,296.6,0.68,0.74,2019-10-19,08:54,N,nominal,1.0NRT,278.8,1.9,N
41.68032,-87.4277,310.8,0.66,0.73,2019-10-19,08:54,N,nominal,1.0NRT,277.9,2.9,N
41.6778,-87.4202,305.3,0.66,0.73,2019-10-19,08:54,N,nominal,1.0NRT,280.6,2.9,N
41.67404,-87.43139,322.3,0.66,0.73,2019-10-19,08:54,N,nominal,1.0NRT,280,4.9,N
41.66911,-87.46142,347.1,0.66,0.73,2019-10-19,08:54,N,nominal,1.0NRT,278.2,8.4,N
41.61689,-87.32919,342.7,0.67,0.73,2019-10-19,08:54,N,nominal,1.0NRT,281.2,6.1,N
41.64249,-87.40482,297.2,0.66,0.73,2019-10-19,08:54,N,nominal,1.0NRT,279.6,1.1,N
41.6297,-87.36702,303.7,0.66,0.73,2019-10-19,08:54,N,nominal,1.0NRT,279.5,2.5,N
41.62601,-87.37843,298.8,0.66,0.73,2019-10-19,08:54,N,nominal,1.0NRT,277.2,1,N
41.68021,-87.43303,295.3,0.66,0.73,2019-10-19,08:54,N,nominal,1.0NRT,277.6,5.4,N
41.67776,-87.42558,314.5,0.66,0.73,2019-10-19,08:54,N,nominal,1.0NRT,278,1.7,N
41.67525,-87.41799,302.9,0.66,0.73,2019-10-19,08:54,N,nominal,1.0NRT,279.6,1.7,N
41.67149,-87.42931,301.4,0.66,0.73,2019-10-19,08:54,N,nominal,1.0NRT,278.5,1.7,N
41.66899,-87.42175,295,0.66,0.73,2019-10-19,08:54,N,nominal,1.0NRT,277.4,1.7,N
41.67517,-87.46316,297.3,0.66,0.73,2019-10-19,08:54,N,nominal,1.0NRT,277.5,2.9,N
41.67271,-87.45572,300.5,0.66,0.73,2019-10-19,08:54,N,nominal,1.0NRT,277.4,2.9,N
41.66647,-87.45947,325.5,0.66,0.73,2019-10-19,08:54,N,nominal,1.0NRT,277.3,2.9,N
41.66895,-87.46697,319,0.66,0.73,2019-10-19,08:54,N,nominal,1.0NRT,277.3,2.9,N
41.61487,-87.32674,331.6,0.67,0.73,2019-10-19,08:54,N,nominal,1.0NRT,280.1,4.3,N
41.63005,-87.37235,295.6,0.66,0.73,2019-10-19,08:54,N,nominal,1.0NRT,278.9,3.7,N
41.62751,-87.36472,309.7,0.66,0.73,2019-10-19,08:54,N,nominal,1.0NRT,279.5,3.2,N
41.61742,-87.33438,304.8,0.67,0.73,2019-10-19,08:54,N,nominal,1.0NRT,277.9,4.3,N
45.77808,-115.97942,313.8,0.33,0.55,2019-10-19,08:54,N,nominal,1.0NRT,273,1,N
44.11547,-103.27933,305.9,0.39,0.36,2019-10-19,08:54,N,nominal,1.0NRT,274.9,1.3,N
38.99669,-87.71955,297.2,0.77,0.77,2019-10-19,08:54,N,nominal,1.0NRT,281.5,2.6,N
41.26647,-105.60168,301.3,0.38,0.36,2019-10-19,08:54,N,nominal,1.0NRT,271.4,0.7,N
36.38078,-90.18574,306.6,0.7,0.75,2019-10-19,08:54,N,nominal,1.0NRT,278.4,1.6,N
40.91607,-112.73196,298.7,0.41,0.45,2019-10-19,08:54,N,nominal,1.0NRT,279.3,1.2,N
36.38105,-90.18335,300.1,0.7,0.75,2019-10-19,08:54,N,nominal,1.0NRT,278.3,0.9,N
40.82104,-114.25596,307.2,0.49,0.48,2019-10-19,08:54,N,nominal,1.0NRT,277.3,1.6,N
35.64224,-89.94209,295.4,0.75,0.77,2019-10-19,08:54,N,nominal,1.0NRT,279.3,1.7,N
35.79094,-91.74562,296.5,0.6,0.71,2019-10-19,08:54,N,nominal,1.0NRT,278,0.8,N
38.24174,-104.60699,310.6,0.4,0.37,2019-10-19,08:54,N,nominal,1.0NRT,276.3,1.5,N
38.23761,-104.60339,299.8,0.4,0.37,2019-10-19,08:54,N,nominal,1.0NRT,277,0.8,N
38.23621,-104.60127,296.1,0.4,0.37,2019-10-19,08:54,N,nominal,1.0NRT,275.7,0.6,N
38.45422,-105.99033,295.2,0.39,0.36,2019-10-19,08:54,N,nominal,1.0NRT,270.3,0.8,N
35.96594,-94.59229,323.1,0.42,0.61,2019-10-19,08:54,N,nominal,1.0NRT,282,1.7,N
37.74002,-102.45966,307.4,0.47,0.4,2019-10-19,08:54,N,nominal,1.0NRT,276.3,1.9,N
37.73899,-102.45437,297.8,0.47,0.4,2019-10-19,08:54,N,nominal,1.0NRT,276.1,1.1,N
38.12876,-104.60781,301.1,0.4,0.37,2019-10-19,08:54,N,nominal,1.0NRT,277.3,0.7,N
38.12781,-104.60522,297.7,0.4,0.37,2019-10-19,08:54,N,nominal,1.0NRT,277.5,1,N
39.61809,-119.26309,311.5,0.44,0.62,2019-10-19,08:54,N,nominal,1.0NRT,277.9,1.7,N
38.93933,-112.81721,320.8,0.39,0.44,2019-10-19,08:54,N,nominal,1.0NRT,278.7,3.3,N
38.11895,-107.59795,299.2,0.39,0.36,2019-10-19,08:54,N,nominal,1.0NRT,270.7,1.6,N
38.11829,-107.59351,300.9,0.39,0.36,2019-10-19,08:54,N,nominal,1.0NRT,271.9,1,N
38.11764,-107.58907,297.2,0.39,0.36,2019-10-19,08:54,N,nominal,1.0NRT,270.2,1,N
38.11433,-107.61289,299.1,0.39,0.36,2019-10-19,08:54,N,nominal,1.0NRT,270.7,1,N
38.11104,-107.6137,305,0.39,0.36,2019-10-19,08:54,N,nominal,1.0NRT,271.9,1,N
38.10838,-107.59564,299.5,0.39,0.36,2019-10-19,08:54,N,nominal,1.0NRT,270.5,1.1,N
38.32487,-112.50971,300.4,0.56,0.43,2019-10-19,08:54,N,nominal,1.0NRT,270.4,1.2,N
35.6637,-101.43437,295.2,0.57,0.43,2019-10-19,08:54,N,nominal,1.0NRT,283.9,1,N
35.66523,-101.43423,297.8,0.57,0.43,2019-10-19,08:54,N,nominal,1.0NRT,284.5,1.2,N
34.63216,-97.17405,297.7,0.33,0.56,2019-10-19,08:54,N,nominal,1.0NRT,284,0.5,N
34.63042,-97.16702,296.5,0.33,0.56,2019-10-19,08:54,N,nominal,1.0NRT,285.7,0.8,N
35.35585,-101.99298,311.6,0.54,0.42,2019-10-19,08:54,N,nominal,1.0NRT,282.3,1.3,N
35.35204,-101.99418,295.4,0.54,0.42,2019-10-19,08:54,N,nominal,1.0NRT,280.8,0.7,N
37.00749,-112.96118,321.1,0.57,0.43,2019-10-19,08:54,N,nominal,1.0NRT,276,2.3,N
33.07511,-94.77532,308,0.49,0.65,2019-10-19,08:54,N,nominal,1.0NRT,283,2.1,N
32.94201,-95.48462,295.8,0.45,0.63,2019-10-19,08:54,N,nominal,1.0NRT,282.8,0.3,N
36.35781,-114.91,317.3,0.47,0.48,2019-10-19,08:54,N,nominal,1.0NRT,283.6,2.1,N
36.35891,-114.91238,307.3,0.47,0.48,2019-10-19,08:54,N,nominal,1.0NRT,283,2.7,N
32.42886,-94.6813,297.9,0.52,0.67,2019-10-19,08:54,N,nominal,1.0NRT,286.9,1.8,N
34.2036,-97.10236,295.6,0.34,0.56,2019-10-19,08:54,N,nominal,1.0NRT,281.9,0.9,N
33.07622,-94.77412,317.7,0.49,0.65,2019-10-19,08:54,N,nominal,1.0NRT,283.9,1.7,N
48.02222,-103.29315,297.3,0.38,0.36,2019-10-19,08:54,N,nominal,1.0NRT,275.5,0.4,N
47.90651,-102.73322,298.7,0.38,0.36,2019-10-19,08:54,N,nominal,1.0NRT,276.4,0.5,N
47.90569,-102.72813,296.7,0.38,0.36,2019-10-19,08:54,N,nominal,1.0NRT,276.2,0.5,N
47.91944,-102.85731,302.5,0.38,0.36,2019-10-19,08:54,N,nominal,1.0NRT,274.4,0.7,N
47.91292,-102.85961,327.1,0.38,0.36,2019-10-19,08:54,N,nominal,1.0NRT,276.2,2.2,N
47.91211,-102.85454,326.7,0.38,0.36,2019-10-19,08:54,N,nominal,1.0NRT,275.6,2.2,N
47.83108,-102.57911,301.1,0.38,0.36,2019-10-19,08:54,N,nominal,1.0NRT,276,0.6,N
47.82121,-102.51823,296.1,0.39,0.36,2019-10-19,08:54,N,nominal,1.0NRT,275.7,0.3,N
47.87641,-102.97006,296.3,0.38,0.36,2019-10-19,08:54,N,nominal,1.0NRT,274.4,0.5,N
47.84406,-102.85309,305.1,0.38,0.36,2019-10-19,08:54,N,nominal,1.0NRT,274,0.6,N
47.87514,-103.11507,295.7,0.38,0.36,2019-10-19,08:54,N,nominal,1.0NRT,274.1,0.5,N
47.87586,-103.14159,299.4,0.38,0.36,2019-10-19,08:54,N,nominal,1.0NRT,274.5,0.5,N
47.83099,-102.8791,328.8,0.38,0.36,2019-10-19,08:54,N,nominal,1.0NRT,275.8,1.9,N
47.78709,-102.62698,297.9,0.38,0.36,2019-10-19,08:54,N,nominal,1.0NRT,276.5,0.5,N
47.78874,-102.65855,305.3,0.38,0.36,2019-10-19,08:54,N,nominal,1.0NRT,276.4,0.6,N
47.78957,-102.68503,327,0.38,0.36,2019-10-19,08:54,N,nominal,1.0NRT,277.2,1.6,N
47.96389,-103.8511,295.3,0.39,0.36,2019-10-19,08:54,N,nominal,1.0NRT,276.7,0.7,N
47.74127,-102.51476,302.8,0.39,0.36,2019-10-19,08:54,N,nominal,1.0NRT,277.1,0.5,N
47.74379,-102.5514,316.3,0.39,0.36,2019-10-19,08:54,N,nominal,1.0NRT,276.5,1.3,N
47.76185,-102.68418,338.3,0.38,0.36,2019-10-19,08:54,N,nominal,1.0NRT,278,3.1,N
47.84691,-103.24244,296.5,0.38,0.36,2019-10-19,08:54,N,nominal,1.0NRT,274.6,0.2,N
47.81748,-103.05487,301.3,0.38,0.36,2019-10-19,08:54,N,nominal,1.0NRT,275.5,0.6,N
47.93503,-102.7177,327.1,0.38,0.36,2019-10-19,08:54,N,nominal,1.0NRT,279.1,3.3,N
47.92924,-102.5533,303,0.38,0.36,2019-10-19,08:54,N,nominal,1.0NRT,275.6,0.6,N
47.9325,-102.55212,318.6,0.38,0.36,2019-10-19,08:54,N,nominal,1.0NRT,278.3,0.6,N
48.02302,-103.12127,300.2,0.38,0.36,2019-10-19,08:54,N,nominal,1.0NRT,275.9,0.7,N
47.909,-102.28057,308.1,0.39,0.36,2019-10-19,08:54,N,nominal,1.0NRT,276,1.1,N
47.97238,-102.61135,301.8,0.38,0.36,2019-10-19,08:54,N,nominal,1.0NRT,275.8,0.4,N
47.98954,-102.71809,318.6,0.38,0.36,2019-10-19,08:54,N,nominal,1.0NRT,275.9,0.8,N
48.08819,-103.27943,320.8,0.38,0.36,2019-10-19,08:54,N,nominal,1.0NRT,275.9,1.8,N
48.02043,-102.82528,303.4,0.38,0.36,2019-10-19,08:54,N,nominal,1.0NRT,274.7,0.4,N
48.10834,-103.32082,302.1,0.38,0.36,2019-10-19,08:54,N,nominal,1.0NRT,275.9,0.6,N
48.05063,-102.75544,296.9,0.38,0.36,2019-10-19,08:54,N,nominal,1.0NRT,274.1,0.4,N
48.17116,-103.3045,299,0.38,0.36,2019-10-19,08:54,N,nominal,1.0NRT,274.8,0.5,N
48.11236,-102.90553,299.3,0.38,0.36,2019-10-19,08:54,N,nominal,1.0NRT,276.7,0.6,N
48.04804,-102.48193,302.8,0.38,0.36,2019-10-19,08:54,N,nominal,1.0NRT,274,0.8,N
48.1124,-102.88398,337.5,0.38,0.36,2019-10-19,08:54,N,nominal,1.0NRT,277.7,3.5,N
48.09262,-102.63692,301.3,0.38,0.36,2019-10-19,08:54,N,nominal,1.0NRT,274.7,0.6,N
48.09343,-102.64201,295.6,0.38,0.36,2019-10-19,08:54,N,nominal,1.0NRT,274.3,0.6,N
48.2305,-103.52,307.9,0.39,0.36,2019-10-19,08:54,N,nominal,1.0NRT,276.3,1.1,N
48.07941,-102.49086,326.9,0.38,0.36,2019-10-19,08:54,N,nominal,1.0NRT,273.8,3.5,N
48.1105,-102.57665,336.8,0.38,0.36,2019-10-19,08:54,N,nominal,1.0NRT,275.2,3.6,N
48.2234,-102.98357,300,0.38,0.36,2019-10-19,08:54,N,nominal,1.0NRT,273.8,0.5,N
48.31069,-103.48174,299.9,0.39,0.36,2019-10-19,08:54,N,nominal,1.0NRT,273.8,0.6,N
48.1969,-102.7289,303.5,0.38,0.36,2019-10-19,08:54,N,nominal,1.0NRT,274.4,0.7,N
48.22682,-102.91765,308.8,0.38,0.36,2019-10-19,08:54,N,nominal,1.0NRT,274.6,0.8,N
48.34372,-103.50056,298.1,0.39,0.36,2019-10-19,08:54,N,nominal,1.0NRT,273.8,0.6,N
48.22776,-102.71014,295.1,0.38,0.36,2019-10-19,08:54,N,nominal,1.0NRT,273.9,0.3,N
48.37142,-103.61571,301,0.39,0.36,2019-10-19,08:54,N,nominal,1.0NRT,274.7,0.6,N
48.37409,-103.47394,302.1,0.39,0.36,2019-10-19,08:54,N,nominal,1.0NRT,274.4,0.6,N
48.39869,-103.45467,308.6,0.39,0.36,2019-10-19,08:54,N,nominal,1.0NRT,272.7,0.8,N
48.39947,-103.4598,300.2,0.39,0.36,2019-10-19,08:54,N,nominal,1.0NRT,273.5,1.1,N
48.40248,-103.36671,295.2,0.38,0.36,2019-10-19,08:54,N,nominal,1.0NRT,274,0.5,N
48.28676,-102.50407,298.5,0.38,0.36,2019-10-19,08:54,N,nominal,1.0NRT,274.4,0.5,N
48.339,-102.7447,311.9,0.38,0.36,2019-10-19,08:54,N,nominal,1.0NRT,274.2,1,N
48.45765,-103.46574,325.3,0.39,0.36,2019-10-19,08:54,N,nominal,1.0NRT,275.3,2,N
48.4565,-103.39021,320.9,0.39,0.36,2019-10-19,08:54,N,nominal,1.0NRT,273.8,1.5,N
47.76104,-102.70053,302.2,0.38,0.36,2019-10-19,08:54,N,nominal,1.0NRT,275.3,0.5,N
47.73433,-102.6376,306.3,0.38,0.36,2019-10-19,08:54,N,nominal,1.0NRT,277.4,1.1,N
47.78852,-102.99802,316.8,0.38,0.36,2019-10-19,08:54,N,nominal,1.0NRT,274.9,1.7,N
47.78761,-103.03565,303.5,0.38,0.36,2019-10-19,08:54,N,nominal,1.0NRT,276,0.7,N
26.87648,-101.41545,317.7,0.57,0.52,2019-10-19,09:00,N,nominal,1.0NRT,291.7,2.4,N
26.88854,-101.4475,310.9,0.56,0.52,2019-10-19,09:00,N,nominal,1.0NRT,288,2.7,N
29.05036,-110.71593,304.4,0.4,0.37,2019-10-19,09:00,N,nominal,1.0NRT,291.6,0.7,N
28.68386,-106.08809,307.5,0.45,0.39,2019-10-19,09:00,N,nominal,1.0NRT,287.5,1.2,N
28.68738,-106.08727,301.3,0.45,0.39,2019-10-19,09:00,N,nominal,1.0NRT,286.8,0.5,N
27.81736,-97.48153,305.5,0.46,0.64,2019-10-19,09:00,N,nominal,1.0NRT,293.1,1.6,N
27.81045,-97.42836,305.1,0.47,0.64,2019-10-19,09:00,N,nominal,1.0NRT,292.6,1.8,N
30.72544,-112.14558,300.3,0.45,0.39,2019-10-19,09:00,N,nominal,1.0NRT,288.2,0.7,N
30.49623,-109.63361,337.4,0.39,0.36,2019-10-19,09:00,N,nominal,1.0NRT,286.7,6,N
28.59535,-98.37869,303.2,0.39,0.6,2019-10-19,09:00,N,nominal,1.0NRT,289.7,0.5,N
28.65749,-98.25703,299.8,0.4,0.6,2019-10-19,09:00,N,nominal,1.0NRT,289.3,0.4,N
28.9364,-97.86167,308.2,0.41,0.61,2019-10-19,09:00,N,nominal,1.0NRT,289,0.9,N
28.99377,-97.84161,301.7,0.41,0.61,2019-10-19,09:00,N,nominal,1.0NRT,289,0.5,N
28.69771,-96.53703,302.2,0.5,0.66,2019-10-19,09:00,N,nominal,1.0NRT,290.8,1.5,N
29.03881,-97.80886,307.4,0.42,0.61,2019-10-19,09:00,N,nominal,1.0NRT,289,0.9,N
29.001,-97.63257,304.5,0.43,0.62,2019-10-19,09:00,N,nominal,1.0NRT,289.5,0.5,N
33.77639,-118.23777,303.7,0.34,0.56,2019-10-19,09:00,N,nominal,1.0NRT,289.8,1,N
31.88593,-103.96809,297.2,0.5,0.41,2019-10-19,09:00,N,nominal,1.0NRT,286,0.6,N
31.88246,-103.96761,299.6,0.5,0.41,2019-10-19,09:00,N,nominal,1.0NRT,285.7,0.8,N
31.88616,-103.96664,299.7,0.5,0.41,2019-10-19,09:00,N,nominal,1.0NRT,285.7,0.6,N
33.77583,-118.2284,311.2,0.34,0.56,2019-10-19,09:00,N,nominal,1.0NRT,288.3,0.8,N
33.77635,-118.23589,301.3,0.34,0.56,2019-10-19,09:00,N,nominal,1.0NRT,289.6,1.2,N
31.86851,-103.77724,298.2,0.51,0.41,2019-10-19,09:00,N,nominal,1.0NRT,283.7,0.6,N
33.81303,-118.23556,298.7,0.34,0.56,2019-10-19,09:00,N,nominal,1.0NRT,288.5,1.1,N
33.81878,-118.24247,303.3,0.34,0.56,2019-10-19,09:00,N,nominal,1.0NRT,290.1,1.1,N
31.80484,-103.23376,304.6,0.54,0.42,2019-10-19,09:00,N,nominal,1.0NRT,286.3,0.9,N
33.85136,-118.33005,304,0.34,0.56,2019-10-19,09:00,N,nominal,1.0NRT,290.3,0.8,N
33.85163,-118.33383,301.1,0.34,0.56,2019-10-19,09:00,N,nominal,1.0NRT,289.3,0.8,N
31.9829,-104.0666,298.1,0.49,0.41,2019-10-19,09:00,N,nominal,1.0NRT,285.2,0.4,N
32.06523,-104.36046,296.2,0.48,0.4,2019-10-19,09:00,N,nominal,1.0NRT,283.5,0.7,N
31.93052,-103.63106,307.5,0.52,0.41,2019-10-19,09:00,N,nominal,1.0NRT,283.6,1.3,N
32.06424,-104.35796,298.1,0.48,0.4,2019-10-19,09:00,N,nominal,1.0NRT,284,0.5,N
31.92934,-103.62901,316.7,0.52,0.41,2019-10-19,09:00,N,nominal,1.0NRT,284.5,1.8,N
32.00172,-103.91682,300,0.5,0.41,2019-10-19,09:00,N,nominal,1.0NRT,283.1,0.6,N
31.93792,-103.5526,297.4,0.52,0.42,2019-10-19,09:00,N,nominal,1.0NRT,283.1,0.9,N
31.95239,-103.60577,304.1,0.52,0.41,2019-10-19,09:00,N,nominal,1.0NRT,283.1,1.1,N
31.74676,-102.54667,306.4,0.39,0.44,2019-10-19,09:00,N,nominal,1.0NRT,289.6,1.1,N
32.06203,-104.04823,298.1,0.49,0.41,2019-10-19,09:00,N,nominal,1.0NRT,283.3,0.5,N
32.07193,-104.09972,322.5,0.49,0.4,2019-10-19,09:00,N,nominal,1.0NRT,286.2,1.9,N
31.67871,-102.11604,304.8,0.42,0.45,2019-10-19,09:00,N,nominal,1.0NRT,285.2,0.9,N
32.04475,-103.93847,298.8,0.5,0.41,2019-10-19,09:00,N,nominal,1.0NRT,284.1,0.5,N
31.68278,-102.11487,313.5,0.42,0.45,2019-10-19,09:00,N,nominal,1.0NRT,287.2,0.9,N
31.68412,-101.93373,301.6,0.42,0.46,2019-10-19,09:00,N,nominal,1.0NRT,284.2,0.5,N
29.75728,-93.87822,299,0.67,0.73,2019-10-19,09:00,N,nominal,1.0NRT,288.4,1.8,N
31.72904,-101.87628,303.6,0.43,0.46,2019-10-19,09:00,N,nominal,1.0NRT,284.8,0.8,N
32.02062,-103.27837,307,0.54,0.42,2019-10-19,09:00,N,nominal,1.0NRT,284.7,1.4,N
34.03549,-118.10495,298.8,0.34,0.56,2019-10-19,09:00,N,nominal,1.0NRT,284.6,0.3,N
34.0402,-117.82079,299.9,0.32,0.55,2019-10-19,09:00,N,nominal,1.0NRT,284.2,0.3,N
32.08161,-103.30302,303.3,0.53,0.42,2019-10-19,09:00,N,nominal,1.0NRT,284.8,0.6,N
32.0828,-103.30135,295.9,0.53,0.42,2019-10-19,09:00,N,nominal,1.0NRT,284.4,0.4,N
29.83365,-93.96156,301.3,0.66,0.73,2019-10-19,09:00,N,nominal,1.0NRT,288.4,1.2,N
32.25105,-104.05405,298.5,0.49,0.4,2019-10-19,09:00,N,nominal,1.0NRT,283.4,0.6,N
32.2659,-104.13087,329.5,0.49,0.4,2019-10-19,09:00,N,nominal,1.0NRT,284.9,3.1,N
31.7937,-101.74561,316.9,0.43,0.46,2019-10-19,09:00,N,nominal,1.0NRT,286.4,1.2,N
32.18913,-103.59651,307.9,0.51,0.41,2019-10-19,09:00,N,nominal,1.0NRT,283.1,1.7,N
32.19287,-103.5955,318,0.51,0.41,2019-10-19,09:00,N,nominal,1.0NRT,283.5,1.7,N
32.20618,-103.60322,309.6,0.51,0.41,2019-10-19,09:00,N,nominal,1.0NRT,282.6,1.5,N
34.15313,-118.19466,304.1,0.34,0.56,2019-10-19,09:00,N,nominal,1.0NRT,285.4,0.5,N
31.84886,-101.81964,296.7,0.43,0.46,2019-10-19,09:00,N,nominal,1.0NRT,285.6,0.4,N
31.86186,-101.8816,300,0.42,0.46,2019-10-19,09:00,N,nominal,1.0NRT,286.6,0.9,N
32.33326,-104.20353,295.5,0.48,0.4,2019-10-19,09:00,N,nominal,1.0NRT,284.9,0.7,N
33.41503,-110.86537,306.2,0.43,0.38,2019-10-19,09:00,N,nominal,1.0NRT,285.1,1.3,N
32.2595,-103.757,297.6,0.5,0.41,2019-10-19,09:00,N,nominal,1.0NRT,282.1,0.4,N
34.28947,-118.80305,295.5,0.37,0.58,2019-10-19,09:00,N,nominal,1.0NRT,283.3,0.3,N
30.06383,-94.05947,298.8,0.64,0.72,2019-10-19,09:00,N,nominal,1.0NRT,288,1.1,N
30.06567,-94.06606,302.7,0.64,0.72,2019-10-19,09:00,N,nominal,1.0NRT,288.4,1.1,N
31.98141,-101.72171,300,0.43,0.46,2019-10-19,09:00,N,nominal,1.0NRT,286.1,0.5,N
30.0686,-94.06177,298.8,0.64,0.72,2019-10-19,09:00,N,nominal,1.0NRT,288,2.1,N
31.98206,-101.72288,297.6,0.43,0.46,2019-10-19,09:00,N,nominal,1.0NRT,286.3,0.5,N
32.33297,-103.41628,305.3,0.52,0.42,2019-10-19,09:00,N,nominal,1.0NRT,282.5,0.8,N
34.33305,-118.52061,313.4,0.36,0.57,2019-10-19,09:00,N,nominal,1.0NRT,285,1,N
30.8114,-96.64873,297.3,0.44,0.62,2019-10-19,09:00,N,nominal,1.0NRT,285.8,0.4,N
32.60965,-104.47099,301.5,0.47,0.39,2019-10-19,09:00,N,nominal,1.0NRT,283.1,0.8,N
34.42735,-118.64375,295.4,0.36,0.58,2019-10-19,09:00,N,nominal,1.0NRT,282.8,0.4,N
32.10942,-101.80856,297.9,0.42,0.45,2019-10-19,09:00,N,nominal,1.0NRT,286,0.5,N
32.63736,-104.47902,306.3,0.46,0.39,2019-10-19,09:00,N,nominal,1.0NRT,282.9,0.7,N
32.63758,-104.47736,307.1,0.46,0.39,2019-10-19,09:00,N,nominal,1.0NRT,283.5,1.2,N
34.42973,-118.64639,295.4,0.36,0.58,2019-10-19,09:00,N,nominal,1.0NRT,283,0.4,N
32.15402,-101.93314,308.7,0.42,0.45,2019-10-19,09:00,N,nominal,1.0NRT,287.3,4.6,N
32.1531,-101.92879,337.9,0.42,0.45,2019-10-19,09:00,N,nominal,1.0NRT,291.6,5.7,N
32.19793,-101.95726,296,0.41,0.45,2019-10-19,09:00,N,nominal,1.0NRT,285.4,0.3,N
30.11298,-93.29401,303.1,0.7,0.75,2019-10-19,09:00,N,nominal,1.0NRT,286.8,1.2,N
32.14014,-101.45242,314.3,0.44,0.46,2019-10-19,09:00,N,nominal,1.0NRT,286.6,1.3,N
32.13993,-101.45528,295.9,0.44,0.46,2019-10-19,09:00,N,nominal,1.0NRT,285.4,0.4,N
32.1441,-101.45399,306.5,0.44,0.46,2019-10-19,09:00,N,nominal,1.0NRT,286.1,0.6,N
32.18312,-101.57313,301.7,0.43,0.46,2019-10-19,09:00,N,nominal,1.0NRT,284.8,0.9,N
32.2469,-101.87158,305.5,0.42,0.45,2019-10-19,09:00,N,nominal,1.0NRT,286.4,1.2,N
32.18532,-101.56284,298.7,0.43,0.46,2019-10-19,09:00,N,nominal,1.0NRT,285.4,0.3,N
30.11348,-93.29549,302,0.7,0.75,2019-10-19,09:00,N,nominal,1.0NRT,286.5,1.2,N
32.18345,-101.47173,303.5,0.44,0.46,2019-10-19,09:00,N,nominal,1.0NRT,285.9,0.5,N
32.25894,-101.82615,326.5,0.42,0.45,2019-10-19,09:00,N,nominal,1.0NRT,287.1,2.1,N
30.17451,-93.3278,301.7,0.7,0.75,2019-10-19,09:00,N,nominal,1.0NRT,287.3,1.6,N
30.19239,-93.31293,309.5,0.7,0.75,2019-10-19,09:00,N,nominal,1.0NRT,286,1.2,N
32.2469,-101.58308,295.5,0.43,0.46,2019-10-19,09:00,N,nominal,1.0NRT,285.1,0.5,N
32.2349,-101.4215,298.4,0.44,0.46,2019-10-19,09:00,N,nominal,1.0NRT,287.7,0.3,N
32.8479,-104.39238,297.7,0.46,0.39,2019-10-19,09:00,N,nominal,1.0NRT,286.3,1.3,N
30.19226,-93.31469,308.7,0.7,0.75,2019-10-19,09:00,N,nominal,1.0NRT,286.5,2.2,N
32.34407,-101.75157,302.5,0.42,0.45,2019-10-19,09:00,N,nominal,1.0NRT,287.3,0.6,N
32.42546,-102.11738,307.2,0.4,0.44,2019-10-19,09:00,N,nominal,1.0NRT,286.7,1.1,N
32.27909,-101.4064,304.1,0.44,0.46,2019-10-19,09:00,N,nominal,1.0NRT,287.7,0.9,N
32.40687,-101.54977,304.6,0.43,0.46,2019-10-19,09:00,N,nominal,1.0NRT,286.3,1.4,N
32.4626,-101.7088,321.8,0.42,0.45,2019-10-19,09:00,N,nominal,1.0NRT,285.7,2,N
34.08097,-110.05878,305.1,0.41,0.37,2019-10-19,09:00,N,nominal,1.0NRT,278.5,1.2,N
34.08437,-110.05812,304.6,0.41,0.37,2019-10-19,09:00,N,nominal,1.0NRT,278.2,1.2,N
31.70808,-97.59023,301.5,0.37,0.58,2019-10-19,09:00,N,nominal,1.0NRT,282.3,1,N
34.44749,-112.47086,296.8,0.51,0.41,2019-10-19,09:00,N,nominal,1.0NRT,278,1.5,N
34.44814,-112.4764,303.1,0.51,0.41,2019-10-19,09:00,N,nominal,1.0NRT,280.2,1.5,N
34.45261,-112.48176,297.2,0.51,0.41,2019-10-19,09:00,N,nominal,1.0NRT,277.4,1.1,N
34.45572,-112.47549,300.3,0.51,0.41,2019-10-19,09:00,N,nominal,1.0NRT,278.2,1.2,N
32.97302,-102.74319,299.8,0.55,0.43,2019-10-19,09:00,N,nominal,1.0NRT,284.5,0.9,N
34.27307,-110.31917,298.8,0.42,0.38,2019-10-19,09:00,N,nominal,1.0NRT,276.3,1.3,N
33.06047,-101.90144,316.1,0.4,0.44,2019-10-19,09:00,N,nominal,1.0NRT,284.2,1.4,N
32.23993,-98.2081,345.7,0.33,0.55,2019-10-19,09:00,N,nominal,1.0NRT,286.1,3.1,N
34.78061,-112.08466,295.3,0.49,0.4,2019-10-19,09:00,N,nominal,1.0NRT,282.5,0.6,N
31.90807,-96.21835,303,0.44,0.62,2019-10-19,09:00,N,nominal,1.0NRT,285,0.5,N
32.57127,-98.92073,304.5,0.6,0.53,2019-10-19,09:00,N,nominal,1.0NRT,288.8,7.7,N
32.57603,-98.91924,348.4,0.6,0.53,2019-10-19,09:00,N,nominal,1.0NRT,292,7.7,N
32.57373,-98.9203,332.7,0.6,0.53,2019-10-19,09:00,N,nominal,1.0NRT,289.7,5.5,N
32.57849,-98.91879,354.4,0.6,0.53,2019-10-19,09:00,N,nominal,1.0NRT,292.9,10.4,N
31.90857,-96.21703,297.3,0.44,0.62,2019-10-19,09:00,N,nominal,1.0NRT,285.1,0.5,N
32.58323,-98.9172,331.9,0.6,0.53,2019-10-19,09:00,N,nominal,1.0NRT,291.1,10.4,N
31.10399,-92.94936,295.4,0.69,0.74,2019-10-19,09:00,N,nominal,1.0NRT,283.5,1.3,N
31.10531,-92.95026,299.2,0.69,0.74,2019-10-19,09:00,N,nominal,1.0NRT,283.1,0.7,N
35.51667,-113.31366,311.1,0.57,0.43,2019-10-19,09:00,N,nominal,1.0NRT,275.8,2.3,N
29.13213,-97.71523,301.5,0.42,0.61,2019-10-19,09:00,N,nominal,1.0NRT,289.2,0.6,N
29.13317,-97.71944,300.7,0.42,0.61,2019-10-19,09:00,N,nominal,1.0NRT,289.1,0.8,N
29.24374,-97.50486,306,0.43,0.62,2019-10-19,09:00,N,nominal,1.0NRT,289.2,0.5,N
32.56536,-115.34153,298.6,0.45,0.47,2019-10-19,09:00,N,nominal,1.0NRT,288.1,1.6,N
32.56725,-115.34431,308.6,0.45,0.47,2019-10-19,09:00,N,nominal,1.0NRT,287.5,1.4,N
30.96765,-102.80383,300.7,0.39,0.44,2019-10-19,09:00,N,nominal,1.0NRT,285.1,0.4,N
31.18696,-103.63767,298.6,0.53,0.42,2019-10-19,09:00,N,nominal,1.0NRT,286.7,0.4,N
31.17615,-103.33979,299.7,0.55,0.43,2019-10-19,09:00,N,nominal,1.0NRT,285.7,0.7,N
31.1261,-102.8949,298.6,0.39,0.44,2019-10-19,09:00,N,nominal,1.0NRT,286.5,0.4,N
31.28073,-103.61691,295.7,0.53,0.42,2019-10-19,09:00,N,nominal,1.0NRT,285.2,0.6,N
31.20718,-103.12971,317.2,0.56,0.43,2019-10-19,09:00,N,nominal,1.0NRT,287,2,N
31.21005,-102.95992,303.1,0.38,0.43,2019-10-19,09:00,N,nominal,1.0NRT,287,0.6,N
31.39737,-103.65319,297.2,0.53,0.42,2019-10-19,09:00,N,nominal,1.0NRT,286.1,0.4,N
31.96679,-106.58441,312.7,0.4,0.37,2019-10-19,09:00,N,nominal,1.0NRT,285.3,1.5,N
31.01941,-101.32063,306,0.47,0.48,2019-10-19,09:00,N,nominal,1.0NRT,285.7,0.8,N
31.01943,-101.31895,305.4,0.47,0.48,2019-10-19,09:00,N,nominal,1.0NRT,285.4,1.1,N
31.58892,-104.06728,312.5,0.5,0.41,2019-10-19,09:00,N,nominal,1.0NRT,286.7,1.6,N
31.62545,-104.15572,309.1,0.5,0.41,2019-10-19,09:00,N,nominal,1.0NRT,286.7,0.9,N
31.4052,-103.02335,299.2,0.57,0.43,2019-10-19,09:00,N,nominal,1.0NRT,286.4,0.9,N
31.60665,-104.01859,317.7,0.5,0.41,2019-10-19,09:00,N,nominal,1.0NRT,286.1,1.5,N
31.62244,-104.01979,302.2,0.5,0.41,2019-10-19,09:00,N,nominal,1.0NRT,285.3,2.1,N
31.62547,-104.03548,303.2,0.5,0.41,2019-10-19,09:00,N,nominal,1.0NRT,286.3,0.7,N
31.63153,-104.0669,327.5,0.5,0.41,2019-10-19,09:00,N,nominal,1.0NRT,287.5,2.2,N
31.62514,-104.01359,297.8,0.5,0.41,2019-10-19,09:00,N,nominal,1.0NRT,285.6,1.6,N
32.9012,-112.02219,296.2,0.47,0.39,2019-10-19,09:00,N,nominal,1.0NRT,283.5,0.4,N
31.62614,-104.0188,327.5,0.5,0.41,2019-10-19,09:00,N,nominal,1.0NRT,288.7,2.1,N
31.65502,-104.02753,297,0.5,0.41,2019-10-19,09:00,N,nominal,1.0NRT,286,0.4,N
29.62268,-95.06376,305.2,0.58,0.69,2019-10-19,09:00,N,nominal,1.0NRT,290.6,1.4,N
31.54904,-103.41875,296,0.54,0.42,2019-10-19,09:00,N,nominal,1.0NRT,284.6,0.6,N
31.55285,-103.41771,320,0.54,0.42,2019-10-19,09:00,N,nominal,1.0NRT,285.5,1.9,N
31.60598,-103.67056,298.4,0.52,0.42,2019-10-19,09:00,N,nominal,1.0NRT,286.9,0.4,N
31.64224,-103.85902,299.4,0.51,0.41,2019-10-19,09:00,N,nominal,1.0NRT,286.7,0.5,N
31.54977,-103.41769,317.2,0.54,0.42,2019-10-19,09:00,N,nominal,1.0NRT,285,1.4,N
31.55359,-103.41666,302.9,0.54,0.42,2019-10-19,09:00,N,nominal,1.0NRT,284.5,1.4,N
31.64166,-103.85799,299.3,0.51,0.41,2019-10-19,09:00,N,nominal,1.0NRT,286.6,0.6,N
19.98632,-99.32646,296.4,0.53,0.67,2019-10-19,09:00,N,nominal,1.0NRT,274.6,1.4,N
20.0489,-99.28918,304.4,0.53,0.67,2019-10-19,09:00,N,nominal,1.0NRT,271,1.2,N
22.26607,-97.80375,301.5,0.59,0.7,2019-10-19,09:00,N,nominal,1.0NRT,276.3,2,N
25.48581,-103.39575,306.4,0.46,0.47,2019-10-19,09:00,N,nominal,1.0NRT,290.7,0.5,N
25.60253,-100.91979,308,0.32,0.55,2019-10-19,09:00,N,nominal,1.0NRT,289.4,1.3,N
25.69739,-100.29733,313,0.35,0.57,2019-10-19,09:00,N,nominal,1.0NRT,293,1.4,N
25.69617,-100.26784,316.8,0.35,0.57,2019-10-19,09:00,N,nominal,1.0NRT,292.8,1.1,N
25.71944,-100.29838,306.2,0.35,0.57,2019-10-19,09:00,N,nominal,1.0NRT,292.9,1.4,N
29.73865,-95.00259,301.9,0.58,0.69,2019-10-19,09:00,N,nominal,1.0NRT,291.4,2,N
31.36617,-101.77922,295.7,0.44,0.46,2019-10-19,09:00,N,nominal,1.0NRT,285.6,1.4,N
31.3652,-101.77466,308.4,0.44,0.46,2019-10-19,09:00,N,nominal,1.0NRT,286.8,1.7,N
31.362,-101.78042,327.9,0.44,0.46,2019-10-19,09:00,N,nominal,1.0NRT,287.9,1.4,N
29.73792,-95.1246,301.8,0.57,0.69,2019-10-19,09:00,N,nominal,1.0NRT,290.8,1.6,N
33.07873,-112.14225,296.8,0.47,0.4,2019-10-19,09:00,N,nominal,1.0NRT,285.7,1.3,N
31.80325,-104.12143,303,0.49,0.41,2019-10-19,09:00,N,nominal,1.0NRT,285.2,0.7,N
31.79958,-104.12241,302.2,0.49,0.41,2019-10-19,09:00,N,nominal,1.0NRT,284.7,0.7,N
33.07595,-112.14442,304.5,0.47,0.4,2019-10-19,09:00,N,nominal,1.0NRT,285.3,1.3,N
31.80189,-104.1235,316.5,0.49,0.41,2019-10-19,09:00,N,nominal,1.0NRT,286.1,1.7,N
31.50292,-102.63634,337.3,0.39,0.44,2019-10-19,09:00,N,nominal,1.0NRT,288.2,1.5,N
31.76611,-103.99644,305.2,0.5,0.41,2019-10-19,09:00,N,nominal,1.0NRT,285.1,0.8,N
31.49894,-102.63743,302.1,0.39,0.44,2019-10-19,09:00,N,nominal,1.0NRT,284,1.5,N
29.74188,-95.12379,300.6,0.57,0.69,2019-10-19,09:00,N,nominal,1.0NRT,290.2,0.7,N
31.76241,-103.99743,322.7,0.5,0.41,2019-10-19,09:00,N,nominal,1.0NRT,284.7,2.1,N
33.61309,-117.82083,300.3,0.32,0.55,2019-10-19,09:00,N,nominal,1.0NRT,284.3,0.6,N
31.73657,-103.94379,303.9,0.5,0.41,2019-10-19,09:00,N,nominal,1.0NRT,285.7,0.5,N
31.20161,-101.33644,315.3,0.47,0.48,2019-10-19,09:00,N,nominal,1.0NRT,287.9,1.8,N
29.72192,-95.22594,302.6,0.56,0.69,2019-10-19,09:00,N,nominal,1.0NRT,289.9,2.4,N
29.62384,-95.06384,307.4,0.58,0.69,2019-10-19,09:00,N,nominal,1.0NRT,290.9,1.1,N
31.7158,-104.1572,301.6,0.49,0.41,2019-10-19,09:00,N,nominal,1.0NRT,286.1,0.6,N
25.75048,-100.31539,306.1,0.35,0.57,2019-10-19,09:00,N,nominal,1.0NRT,292.5,0.9,N
25.75147,-100.31557,302.8,0.35,0.57,2019-10-19,09:00,N,nominal,1.0NRT,292.3,1,N
25.74402,-100.23591,314.4,0.35,0.57,2019-10-19,09:00,N,nominal,1.0NRT,292.7,1.2,N
26.87462,-101.41085,303.8,0.57,0.52,2019-10-19,09:00,N,nominal,1.0NRT,290.4,1.8,N
26.87582,-101.41648,313.5,0.57,0.52,2019-10-19,09:00,N,nominal,1.0NRT,291.4,1.8,N
26.87771,-101.42101,306.7,0.57,0.52,2019-10-19,09:00,N,nominal,1.0NRT,292,2.4,N
25.72023,-100.30187,316.9,0.35,0.57,2019-10-19,09:00,N,nominal,1.0NRT,292.9,2.6,N
25.71865,-100.29488,323.6,0.35,0.57,2019-10-19,09:00,N,nominal,1.0NRT,292.3,1.4,N
33.77583,-118.2303,299.4,0.34,0.56,2019-10-19,09:00,N,nominal,1.0NRT,287.5,1.3,N
33.77555,-118.22657,299.4,0.34,0.56,2019-10-19,09:00,N,nominal,1.0NRT,287.3,0.8,N
31.84528,-103.85726,303.5,0.51,0.41,2019-10-19,09:00,N,nominal,1.0NRT,284.7,0.5,N
33.71534,-117.71239,297.6,0.63,0.54,2019-10-19,09:00,N,nominal,1.0NRT,284.6,1,N
33.57739,-116.14304,321.6,0.51,0.49,2019-10-19,09:00,N,nominal,1.0NRT,292.9,4.1,N
29.74326,-94.99446,305,0.58,0.7,2019-10-19,09:00,N,nominal,1.0NRT,291.3,2,N
29.74186,-95.01438,303.2,0.58,0.69,2019-10-19,09:00,N,nominal,1.0NRT,290.5,3.4,N
49.19939,-124.40775,302.4,0.42,0.38,2019-10-19,10:36,N,nominal,1.0NRT,264.9,1.3,N
49.19606,-124.40941,308.6,0.42,0.38,2019-10-19,10:36,N,nominal,1.0NRT,265.9,1.3,N
42.68704,-111.5875,308.6,0.7,0.75,2019-10-19,10:36,N,nominal,1.0NRT,271.7,2.5,N
42.68641,-111.58427,295.2,0.7,0.75,2019-10-19,10:36,N,nominal,1.0NRT,270.9,4.6,N
42.68267,-111.59586,321,0.7,0.75,2019-10-19,10:36,N,nominal,1.0NRT,268.9,4.6,N
42.67999,-111.58804,321.3,0.7,0.75,2019-10-19,10:36,N,nominal,1.0NRT,270.1,4.6,N
45.22802,-123.16206,313.6,0.54,0.42,2019-10-19,10:36,N,nominal,1.0NRT,282.9,2,N
45.14599,-123.47179,298,0.52,0.42,2019-10-19,10:36,N,nominal,1.0NRT,279.3,1.1,N
33.77567,-118.23007,300.8,0.6,0.7,2019-10-19,10:36,N,nominal,1.0NRT,287.3,1.4,N
43.89922,-122.75285,297.1,0.4,0.44,2019-10-19,10:36,N,nominal,1.0NRT,280.3,0.9,N
39.6177,-119.26458,302.7,0.37,0.58,2019-10-19,10:36,N,nominal,1.0NRT,276.6,1.4,N
39.09711,-120.73396,295.7,0.32,0.55,2019-10-19,10:36,N,nominal,1.0NRT,278,0.3,N
38.69991,-120.14424,295,0.36,0.57,2019-10-19,10:36,N,nominal,1.0NRT,275.4,1.3,N
38.69825,-120.13792,302.8,0.36,0.57,2019-10-19,10:36,N,nominal,1.0NRT,275.2,1.5,N
38.69674,-120.15353,300.9,0.35,0.57,2019-10-19,10:36,N,nominal,1.0NRT,275.5,2.3,N
38.6959,-120.15034,308.4,0.36,0.57,2019-10-19,10:36,N,nominal,1.0NRT,275.8,1.3,N
36.35783,-114.91159,297.6,0.75,0.77,2019-10-19,10:36,N,nominal,1.0NRT,279.5,1,N
38.02202,-122.06107,295.7,0.59,0.53,2019-10-19,10:36,N,nominal,1.0NRT,285.1,1.2,N
38.01464,-122.11413,299.9,0.58,0.52,2019-10-19,10:36,N,nominal,1.0NRT,285.4,2.1,N
37.94785,-122.39956,298.8,0.57,0.52,2019-10-19,10:36,N,nominal,1.0NRT,286.3,1.7,N
37.94751,-122.39916,298.3,0.57,0.52,2019-10-19,10:36,N,nominal,1.0NRT,285.9,1.2,N
37.94134,-122.39448,295.7,0.57,0.52,2019-10-19,10:36,N,nominal,1.0NRT,283.7,1.2,N
37.18343,-121.67957,296.2,0.32,0.55,2019-10-19,10:36,N,nominal,1.0NRT,279.7,0.3,N
34.62133,-117.09934,297.9,0.65,0.73,2019-10-19,10:36,N,nominal,1.0NRT,280.9,1.1,N
34.33087,-118.51514,295.6,0.56,0.69,2019-10-19,10:36,N,nominal,1.0NRT,284.3,0.6,N
33.85424,-118.33073,299.4,0.59,0.7,2019-10-19,10:36,N,nominal,1.0NRT,288.6,0.7,N
33.85349,-118.33124,301.6,0.59,0.7,2019-10-19,10:36,N,nominal,1.0NRT,289.6,1.1,N
