latitude,longitude,bright_ti4,scan,track,acq_date,acq_time,satellite,confidence,version,bright_ti5,frp,daynight
40.67089,-76.38015,295,0.41,0.45,2019-10-16,06:30,N,nominal,1.0NRT,280.7,0.5,N
43.27762,-79.82487,313.6,0.33,0.55,2019-10-16,06:30,N,nominal,1.0NRT,282.6,1.3,N
43.27164,-79.80892,313,0.33,0.55,2019-10-16,06:30,N,nominal,1.0NRT,283.4,1.7,N
43.27142,-79.80482,311.6,0.33,0.55,2019-10-16,06:30,N,nominal,1.0NRT,284.2,1.7,N
43.27121,-79.80075,308.2,0.33,0.55,2019-10-16,06:30,N,nominal,1.0NRT,283.5,1.2,N
43.271,-79.79669,318.5,0.32,0.55,2019-10-16,06:30,N,nominal,1.0NRT,281.5,1.2,N
43.27561,-79.82736,295.9,0.33,0.55,2019-10-16,06:30,N,nominal,1.0NRT,282.3,1,N
43.27418,-79.80272,306.7,0.32,0.55,2019-10-16,06:30,N,nominal,1.0NRT,283,1.4,N
43.27371,-79.79456,303.7,0.32,0.55,2019-10-16,06:30,N,nominal,1.0NRT,278.5,1.9,N
43.2693,-79.80732,328,0.33,0.55,2019-10-16,06:30,N,nominal,1.0NRT,285.8,1.4,N
43.26907,-79.80324,305.8,0.32,0.55,2019-10-16,06:30,N,nominal,1.0NRT,283.5,1.4,N
43.26419,-79.80791,320,0.33,0.55,2019-10-16,06:30,N,nominal,1.0NRT,285.4,1.7,N
43.25907,-79.80845,320.7,0.33,0.55,2019-10-16,06:30,N,nominal,1.0NRT,282.7,1.7,N
43.25954,-79.81666,295.7,0.33,0.55,2019-10-16,06:30,N,nominal,1.0NRT,280.4,2.5,N
42.81834,-80.09224,307.5,0.33,0.56,2019-10-16,06:30,N,nominal,1.0NRT,282.3,0.8,N
42.81339,-80.09698,300.5,0.33,0.56,2019-10-16,06:30,N,nominal,1.0NRT,282,0.8,N
42.81317,-80.0928,304.6,0.33,0.56,2019-10-16,06:30,N,nominal,1.0NRT,281.6,0.8,N
42.80822,-80.09756,304.5,0.33,0.56,2019-10-16,06:30,N,nominal,1.0NRT,281.3,0.9,N
42.80327,-80.10235,306.4,0.33,0.56,2019-10-16,06:30,N,nominal,1.0NRT,282,1.8,N
42.80305,-80.09814,313.2,0.33,0.56,2019-10-16,06:30,N,nominal,1.0NRT,281.8,0.9,N
41.43434,-75.5937,307.8,0.39,0.44,2019-10-16,06:30,N,nominal,1.0NRT,278.4,0.4,N
41.4258,-75.59006,296.7,0.39,0.44,2019-10-16,06:30,N,nominal,1.0NRT,278.8,0.3,N
41.67688,-87.42204,298.9,0.77,0.78,2019-10-16,06:30,N,nominal,1.0NRT,278.7,2.5,N
41.6692,-87.46149,304.1,0.78,0.78,2019-10-16,06:30,N,nominal,1.0NRT,276.5,3.2,N
41.6693,-87.45163,298.2,0.78,0.78,2019-10-16,06:30,N,nominal,1.0NRT,277.4,2.7,N
41.66958,-87.42215,308.5,0.77,0.78,2019-10-16,06:30,N,nominal,1.0NRT,276.2,2.5,N
41.66964,-87.46426,302.9,0.78,0.78,2019-10-16,06:30,N,nominal,1.0NRT,276.6,3.1,N
41.66968,-87.45438,299.7,0.78,0.78,2019-10-16,06:30,N,nominal,1.0NRT,276.8,3.3,N
41.66983,-87.4249,306.2,0.77,0.78,2019-10-16,06:30,N,nominal,1.0NRT,276.1,5.3,N
41.64198,-87.13634,310.5,0.75,0.77,2019-10-16,06:30,N,nominal,1.0NRT,278.6,4.1,N
41.63356,-87.38609,302.9,0.77,0.77,2019-10-16,06:30,N,nominal,1.0NRT,276.8,2.8,N
41.63477,-87.13622,306.9,0.75,0.77,2019-10-16,06:30,N,nominal,1.0NRT,278.1,3.8,N
41.63319,-87.38184,301.8,0.77,0.77,2019-10-16,06:30,N,nominal,1.0NRT,277.2,2.8,N
41.6332,-87.13226,296.3,0.75,0.77,2019-10-16,06:30,N,nominal,1.0NRT,277.7,1.6,N
40.6355,-74.22102,307.3,0.49,0.41,2019-10-16,06:30,N,nominal,1.0NRT,288,2.3,N
40.62606,-74.20493,295.9,0.49,0.41,2019-10-16,06:30,N,nominal,1.0NRT,285.2,1,N
40.89196,-77.71086,322.6,0.48,0.48,2019-10-16,06:30,N,nominal,1.0NRT,283.8,2.5,N
40.48286,-74.32471,297,0.5,0.41,2019-10-16,06:30,N,nominal,1.0NRT,280.4,0.7,N
40.47178,-75.89489,296.3,0.39,0.44,2019-10-16,06:30,N,nominal,1.0NRT,282.3,0.9,N
40.17183,-75.89624,295.2,0.39,0.44,2019-10-16,06:30,N,nominal,1.0NRT,281,0.3,N
40.39663,-79.85133,302.5,0.62,0.54,2019-10-16,06:30,N,nominal,1.0NRT,278.9,3.7,N
40.39165,-79.8522,325.1,0.62,0.54,2019-10-16,06:30,N,nominal,1.0NRT,279.5,3.7,N
40.39213,-79.85966,319.3,0.62,0.54,2019-10-16,06:30,N,nominal,1.0NRT,281.1,3.7,N
40.30279,-79.8763,299.8,0.62,0.54,2019-10-16,06:30,N,nominal,1.0NRT,279.5,1.6,N
42.68312,-111.5941,306.8,0.68,0.74,2019-10-16,08:12,N,nominal,1.0NRT,272.3,2.9,N
42.68434,-111.59052,310.4,0.68,0.74,2019-10-16,08:12,N,nominal,1.0NRT,272.8,3.2,N
41.16764,-86.15278,311.9,0.46,0.47,2019-10-16,08:12,N,nominal,1.0NRT,277.9,1.6,N
40.92646,-87.34304,305.9,0.41,0.45,2019-10-16,08:12,N,nominal,1.0NRT,277.2,0.6,N
40.64293,-89.63942,305.9,0.5,0.41,2019-10-16,08:12,N,nominal,1.0NRT,279.6,0.9,N
40.63928,-89.6407,312.3,0.5,0.41,2019-10-16,08:12,N,nominal,1.0NRT,279.4,2.4,N
40.63445,-89.63621,324.9,0.5,0.41,2019-10-16,08:12,N,nominal,1.0NRT,280,2.4,N
54.10967,-121.68109,297.7,0.53,0.42,2019-10-16,09:48,N,nominal,1.0NRT,272.1,0.9,N
55.62642,-118.173,314.2,0.43,0.38,2019-10-16,09:48,N,nominal,1.0NRT,273.3,1.8,N
55.62477,-118.15926,300.7,0.43,0.38,2019-10-16,09:48,N,nominal,1.0NRT,273.1,1.1,N
55.6213,-118.16058,305.4,0.43,0.38,2019-10-16,09:48,N,nominal,1.0NRT,272.8,1.2,N
54.85981,-119.16579,295.3,0.45,0.39,2019-10-16,09:48,N,nominal,1.0NRT,271.4,0.2,N
53.84563,-113.11987,327.4,0.39,0.36,2019-10-16,09:48,N,nominal,1.0NRT,277.9,2,N
53.84464,-113.11409,296.4,0.39,0.36,2019-10-16,09:48,N,nominal,1.0NRT,274.3,2,N
54.4812,-117.51787,298.8,0.41,0.37,2019-10-16,09:48,N,nominal,1.0NRT,261.3,0.6,N
54.98363,-123.2984,325,0.41,0.45,2019-10-16,09:48,N,nominal,1.0NRT,255.4,5.2,N
53.56074,-113.35394,307,0.39,0.36,2019-10-16,09:48,N,nominal,1.0NRT,273.3,0.9,N
53.55328,-113.35135,302.4,0.39,0.36,2019-10-16,09:48,N,nominal,1.0NRT,276.6,1,N
53.74743,-114.70017,328.5,0.38,0.36,2019-10-16,09:48,N,nominal,1.0NRT,272.9,2.4,N
53.52614,-113.38985,309.8,0.39,0.36,2019-10-16,09:48,N,nominal,1.0NRT,272.5,1.9,N
53.52783,-115.30414,300.8,0.38,0.36,2019-10-16,09:48,N,nominal,1.0NRT,270.9,0.5,N
54.14045,-121.79931,303.4,0.53,0.42,2019-10-16,09:48,N,nominal,1.0NRT,268.6,0.8,N
53.17059,-114.92313,304.1,0.38,0.36,2019-10-16,09:48,N,nominal,1.0NRT,271.1,0.9,N
52.21159,-115.00727,296.7,0.38,0.36,2019-10-16,09:48,N,nominal,1.0NRT,270.7,0.6,N
52.90696,-120.94472,305.5,0.48,0.4,2019-10-16,09:48,N,nominal,1.0NRT,273,2,N
52.90326,-120.94557,296.7,0.48,0.4,2019-10-16,09:48,N,nominal,1.0NRT,273.2,1.4,N
52.90253,-120.93869,297.1,0.48,0.4,2019-10-16,09:48,N,nominal,1.0NRT,273.3,1.4,N
51.83554,-124.9829,332,0.44,0.46,2019-10-16,09:48,N,nominal,1.0NRT,261.1,3.4,N
51.83124,-124.98335,313.8,0.44,0.46,2019-10-16,09:48,N,nominal,1.0NRT,263,2.3,N
50.29426,-115.19846,297.3,0.39,0.36,2019-10-16,09:48,N,nominal,1.0NRT,272.2,0.9,N
50.29099,-115.19968,318.7,0.39,0.36,2019-10-16,09:48,N,nominal,1.0NRT,272.5,1.9,N
50.28773,-115.20095,313.2,0.39,0.36,2019-10-16,09:48,N,nominal,1.0NRT,270.4,1.9,N
50.28637,-116.07458,326.5,0.38,0.36,2019-10-16,09:48,N,nominal,1.0NRT,272,1.9,N
49.97444,-114.89826,317.1,0.39,0.36,2019-10-16,09:48,N,nominal,1.0NRT,271.5,1.9,N
50.90629,-122.36472,295.3,0.51,0.41,2019-10-16,09:48,N,nominal,1.0NRT,272.4,1.1,N
50.89141,-122.29441,306,0.51,0.41,2019-10-16,09:48,N,nominal,1.0NRT,273.2,1,N
50.88291,-122.32485,325.6,0.51,0.41,2019-10-16,09:48,N,nominal,1.0NRT,273.9,3.9,N
50.87914,-122.32575,305.6,0.51,0.41,2019-10-16,09:48,N,nominal,1.0NRT,272.5,2,N
50.01542,-115.84026,296.9,0.39,0.36,2019-10-16,09:48,N,nominal,1.0NRT,270.5,1,N
49.90573,-115.40132,340.7,0.39,0.36,2019-10-16,09:48,N,nominal,1.0NRT,273.3,5.6,N
49.90485,-115.39607,325.8,0.39,0.36,2019-10-16,09:48,N,nominal,1.0NRT,273.4,2.7,N
49.9016,-115.39735,322.5,0.39,0.36,2019-10-16,09:48,N,nominal,1.0NRT,270.9,2.7,N
49.89835,-115.39871,316.1,0.39,0.36,2019-10-16,09:48,N,nominal,1.0NRT,268.9,1.9,N
49.44857,-114.93916,301.8,0.39,0.36,2019-10-16,09:48,N,nominal,1.0NRT,268.2,1.2,N
49.19402,-114.96404,313.8,0.39,0.37,2019-10-16,09:48,N,nominal,1.0NRT,266.7,1.2,N
49.19158,-114.97027,330.1,0.39,0.37,2019-10-16,09:48,N,nominal,1.0NRT,265.5,3.2,N
49.18981,-114.96008,295,0.39,0.37,2019-10-16,09:48,N,nominal,1.0NRT,267.4,0.7,N
49.19136,-115.91581,297.1,0.39,0.36,2019-10-16,09:48,N,nominal,1.0NRT,269.9,0.7,N
49.23424,-118.84087,301.1,0.4,0.37,2019-10-16,09:48,N,nominal,1.0NRT,272.9,1,N
49.18486,-118.76118,296,0.4,0.37,2019-10-16,09:48,N,nominal,1.0NRT,272.5,0.8,N
49.18225,-118.76744,297.4,0.4,0.37,2019-10-16,09:48,N,nominal,1.0NRT,273.3,0.8,N
49.1815,-118.76208,306,0.4,0.37,2019-10-16,09:48,N,nominal,1.0NRT,272.9,0.8,N
48.63695,-116.98047,299,0.38,0.36,2019-10-16,09:48,N,nominal,1.0NRT,276.9,1.2,N
49.18796,-121.00652,324.3,0.44,0.39,2019-10-16,09:48,N,nominal,1.0NRT,276.8,1.5,N
49.1844,-121.00721,303.7,0.44,0.39,2019-10-16,09:48,N,nominal,1.0NRT,271.8,1.5,N
46.1306,-113.40343,304,0.46,0.39,2019-10-16,09:48,N,nominal,1.0NRT,271.2,1.5,N
46.12943,-113.39762,295.7,0.46,0.39,2019-10-16,09:48,N,nominal,1.0NRT,273.5,1.7,N
46.12825,-113.39177,317.5,0.46,0.39,2019-10-16,09:48,N,nominal,1.0NRT,274.9,1.7,N
41.37827,-122.00573,302.6,0.41,0.37,2019-10-16,09:54,N,nominal,1.0NRT,277.3,1.6,N
41.37696,-121.99615,307.8,0.41,0.37,2019-10-16,09:54,N,nominal,1.0NRT,280.2,1.7,N
41.3749,-122.00655,299.5,0.41,0.37,2019-10-16,09:54,N,nominal,1.0NRT,277.9,1.6,N
41.37424,-122.00175,319.6,0.41,0.37,2019-10-16,09:54,N,nominal,1.0NRT,281.3,1.6,N
41.37358,-121.99697,317.4,0.41,0.37,2019-10-16,09:54,N,nominal,1.0NRT,281.3,1.7,N
41.37293,-121.99216,307,0.4,0.37,2019-10-16,09:54,N,nominal,1.0NRT,278.9,1.7,N
41.32375,-121.73658,306.4,0.4,0.37,2019-10-16,09:54,N,nominal,1.0NRT,275.9,1.8,N
40.30664,-123.9764,297.3,0.45,0.39,2019-10-16,09:54,N,nominal,1.0NRT,280.6,0.9,N
40.30601,-123.97124,303.4,0.45,0.39,2019-10-16,09:54,N,nominal,1.0NRT,281.3,0.4,N
42.3425,-123.61572,296.2,0.46,0.39,2019-10-16,09:54,N,nominal,1.0NRT,282.8,0.8,N
42.33891,-123.61652,299.2,0.46,0.39,2019-10-16,09:54,N,nominal,1.0NRT,284.2,1.7,N
41.34924,-121.72049,301.5,0.4,0.37,2019-10-16,09:54,N,nominal,1.0NRT,274.9,1.6,N
41.34655,-121.72604,301.4,0.4,0.37,2019-10-16,09:54,N,nominal,1.0NRT,273.9,2.1,N
41.37762,-122.00093,318,0.41,0.37,2019-10-16,09:54,N,nominal,1.0NRT,280.6,1.6,N
43.94536,-115.88253,296.6,0.42,0.38,2019-10-16,09:54,N,nominal,1.0NRT,268.9,1.3,N
41.2685,-105.60052,299.7,0.45,0.63,2019-10-16,09:54,N,nominal,1.0NRT,271.9,1.6,N
41.26895,-105.60085,304,0.45,0.63,2019-10-16,09:54,N,nominal,1.0NRT,272.7,1.3,N
42.68536,-111.58974,343.6,0.43,0.46,2019-10-16,09:54,N,nominal,1.0NRT,274.8,10.8,N
42.6865,-111.59473,299.6,0.43,0.46,2019-10-16,09:54,N,nominal,1.0NRT,265.8,6.4,N
42.6813,-111.59136,339.9,0.43,0.46,2019-10-16,09:54,N,nominal,1.0NRT,270.8,5.8,N
44.17305,-122.21388,308.5,0.43,0.38,2019-10-16,09:54,N,nominal,1.0NRT,274.3,1.4,N
42.85301,-121.18587,299.4,0.4,0.37,2019-10-16,09:54,N,nominal,1.0NRT,274.7,1.3,N
42.85235,-121.18107,296.4,0.4,0.37,2019-10-16,09:54,N,nominal,1.0NRT,275.2,1,N
42.68456,-121.76286,300.9,0.41,0.37,2019-10-16,09:54,N,nominal,1.0NRT,275.8,1.2,N
42.68116,-121.76368,295.9,0.41,0.37,2019-10-16,09:54,N,nominal,1.0NRT,275.1,1.2,N
42.67711,-121.7596,310.2,0.41,0.37,2019-10-16,09:54,N,nominal,1.0NRT,279.2,2.8,N
42.67373,-121.76046,324.1,0.41,0.37,2019-10-16,09:54,N,nominal,1.0NRT,284.7,2.8,N
42.67306,-121.75552,295.6,0.41,0.37,2019-10-16,09:54,N,nominal,1.0NRT,274.6,0.8,N
42.67034,-121.76131,328.3,0.41,0.37,2019-10-16,09:54,N,nominal,1.0NRT,279.4,3.5,N
42.47998,-120.74762,314.5,0.39,0.36,2019-10-16,09:54,N,nominal,1.0NRT,279.6,1.9,N
42.47931,-120.74295,310,0.39,0.36,2019-10-16,09:54,N,nominal,1.0NRT,276,1.5,N
42.476,-120.74384,322.6,0.39,0.36,2019-10-16,09:54,N,nominal,1.0NRT,278.7,1.5,N
42.47871,-120.76257,310.8,0.39,0.36,2019-10-16,09:54,N,nominal,1.0NRT,274,0.7,N
42.47667,-120.74848,309.8,0.39,0.36,2019-10-16,09:54,N,nominal,1.0NRT,276.7,1.9,N
42.47532,-120.73917,305.2,0.39,0.36,2019-10-16,09:54,N,nominal,1.0NRT,277.7,1.5,N
42.47337,-120.74938,308,0.39,0.36,2019-10-16,09:54,N,nominal,1.0NRT,278.1,1.7,N
42.47269,-120.7447,319.6,0.39,0.36,2019-10-16,09:54,N,nominal,1.0NRT,281.4,1.6,N
42.47006,-120.75028,306.6,0.39,0.36,2019-10-16,09:54,N,nominal,1.0NRT,278.1,1.7,N
42.46938,-120.74561,298.8,0.39,0.36,2019-10-16,09:54,N,nominal,1.0NRT,276.2,1.6,N
42.37543,-120.17671,297.7,0.39,0.36,2019-10-16,09:54,N,nominal,1.0NRT,277.2,0.3,N
42.63633,-122.05944,302.9,0.41,0.37,2019-10-16,09:54,N,nominal,1.0NRT,273.8,0.9,N
42.63567,-122.0544,301.6,0.41,0.37,2019-10-16,09:54,N,nominal,1.0NRT,273,1.2,N
42.63415,-122.06156,308.9,0.41,0.37,2019-10-16,09:54,N,nominal,1.0NRT,274.6,2.1,N
42.63347,-122.05652,310.1,0.41,0.37,2019-10-16,09:54,N,nominal,1.0NRT,275.7,2.1,N
42.3671,-120.18584,300.9,0.39,0.36,2019-10-16,09:54,N,nominal,1.0NRT,276.9,0.6,N
42.30564,-120.1637,309.5,0.39,0.36,2019-10-16,09:54,N,nominal,1.0NRT,275,1.3,N
42.22292,-120.81736,315.7,0.39,0.36,2019-10-16,09:54,N,nominal,1.0NRT,279.8,2,N
42.22225,-120.81271,299.8,0.39,0.36,2019-10-16,09:54,N,nominal,1.0NRT,277.3,0.7,N
42.21961,-120.81824,321.8,0.39,0.36,2019-10-16,09:54,N,nominal,1.0NRT,281.7,2.4,N
42.22029,-120.82291,299.1,0.39,0.36,2019-10-16,09:54,N,nominal,1.0NRT,278.3,2.4,N
42.21894,-120.81363,302.8,0.39,0.36,2019-10-16,09:54,N,nominal,1.0NRT,276.3,1.4,N
42.2163,-120.81912,328.6,0.39,0.36,2019-10-16,09:54,N,nominal,1.0NRT,283.9,2.4,N
42.21564,-120.81451,322.7,0.39,0.36,2019-10-16,09:54,N,nominal,1.0NRT,280.7,1.4,N
42.21299,-120.81999,325.2,0.39,0.36,2019-10-16,09:54,N,nominal,1.0NRT,283.5,2.2,N
42.21233,-120.81538,330.2,0.39,0.36,2019-10-16,09:54,N,nominal,1.0NRT,282.5,2.3,N
42.20901,-120.81624,320.8,0.39,0.36,2019-10-16,09:54,N,nominal,1.0NRT,279.6,2.3,N
42.20969,-120.82085,297.5,0.39,0.36,2019-10-16,09:54,N,nominal,1.0NRT,277.4,2.2,N
40.82123,-114.25902,296.8,0.53,0.42,2019-10-16,09:54,N,nominal,1.0NRT,272.3,1.5,N
40.81985,-114.25243,295.7,0.53,0.42,2019-10-16,09:54,N,nominal,1.0NRT,271.2,1,N
55.6246,-118.15739,304.4,0.47,0.64,2019-10-16,11:30,N,nominal,1.0NRT,264.6,0.9,N
55.62172,-118.15719,315.6,0.47,0.64,2019-10-16,11:30,N,nominal,1.0NRT,266.4,1.7,N
56.58358,-122.12105,295.2,0.32,0.55,2019-10-16,11:30,N,nominal,1.0NRT,269.5,0.6,N
52.61395,-125.66097,296.8,0.34,0.56,2019-10-16,11:30,N,nominal,1.0NRT,264.8,0.9,N
41.6671,-87.44834,333,0.34,0.56,2019-10-16,17:54,N,nominal,1.0NRT,281.1,3.4,D
52.45388,-106.20548,355.8,0.39,0.36,2019-10-16,19:36,N,nominal,1.0NRT,292.3,15.3,D
47.67507,-115.6209,340.6,0.63,0.54,2019-10-16,19:36,N,nominal,1.0NRT,282.9,22,D
47.67053,-115.61758,367,0.63,0.54,2019-10-16,19:36,N,low,1.0NRT,286.2,22,D
47.66585,-115.63457,331.1,0.63,0.54,2019-10-16,19:36,N,nominal,1.0NRT,281.9,20.9,D
47.66824,-115.62591,347,0.63,0.54,2019-10-16,19:36,N,nominal,1.0NRT,287.4,20.9,D
47.66376,-115.62234,367,0.63,0.54,2019-10-16,19:36,N,low,1.0NRT,288.3,17.1,D
47.6616,-115.63019,333.2,0.63,0.54,2019-10-16,19:36,N,nominal,1.0NRT,283.7,17.1,D
47.97283,-114.453,327.3,0.55,0.51,2019-10-16,19:36,N,nominal,1.0NRT,272.6,3.9,D
47.58097,-115.36559,336.7,0.62,0.54,2019-10-16,19:36,N,nominal,1.0NRT,287.4,4.1,D
47.5784,-115.3553,332,0.62,0.54,2019-10-16,19:36,N,nominal,1.0NRT,287.1,10.5,D
47.57191,-115.35921,345,0.62,0.54,2019-10-16,19:36,N,nominal,1.0NRT,288.1,10.5,D
47.57383,-115.35225,337.9,0.62,0.54,2019-10-16,19:36,N,nominal,1.0NRT,286.6,10.5,D
47.56762,-115.35516,333.2,0.62,0.54,2019-10-16,19:36,N,nominal,1.0NRT,285.3,10.3,D
47.5694,-115.34871,356.1,0.62,0.54,2019-10-16,19:36,N,nominal,1.0NRT,287.7,10.3,D
47.63904,-115.01698,345.4,0.59,0.53,2019-10-16,19:36,N,nominal,1.0NRT,289.2,13.1,D
47.57116,-115.35831,345.8,0.62,0.54,2019-10-16,19:36,N,nominal,1.0NRT,288.4,18.3,D
47.57305,-115.35132,338.4,0.62,0.54,2019-10-16,19:36,N,nominal,1.0NRT,286.9,15.2,D
47.56868,-115.3475,355.2,0.62,0.54,2019-10-16,19:36,N,nominal,1.0NRT,287.3,15.2,D
47.64122,-115.01753,344.3,0.59,0.53,2019-10-16,19:36,N,nominal,1.0NRT,289.1,18.4,D
47.80849,-113.90033,326,0.53,0.5,2019-10-16,19:36,N,nominal,1.0NRT,282.4,4.3,D
47.49497,-115.03639,338.4,0.6,0.53,2019-10-16,19:36,N,nominal,1.0NRT,289.1,8.1,D
47.49661,-115.03032,329,0.6,0.53,2019-10-16,19:36,N,nominal,1.0NRT,287.5,8.1,D
46.43307,-118.12981,345.7,0.44,0.62,2019-10-16,19:36,N,nominal,1.0NRT,295.6,4.2,D
46.43465,-118.12468,338.5,0.44,0.62,2019-10-16,19:36,N,nominal,1.0NRT,293,4.2,D
46.42792,-118.1258,326.4,0.44,0.62,2019-10-16,19:36,N,nominal,1.0NRT,293.1,4.2,D
46.41145,-115.89293,339.7,0.35,0.57,2019-10-16,19:36,N,nominal,1.0NRT,282.7,6.1,D
46.41017,-115.89738,367,0.35,0.57,2019-10-16,19:36,N,high,1.0NRT,292.6,6.1,D
48.35404,-107.61607,348.8,0.44,0.39,2019-10-16,19:36,N,nominal,1.0NRT,287.2,8.5,D
46.07386,-116.4304,326.7,0.38,0.59,2019-10-16,19:36,N,nominal,1.0NRT,283.4,1.5,D
46.50885,-114.10131,328.6,0.58,0.52,2019-10-16,19:36,N,nominal,1.0NRT,292.7,5.3,D
45.85142,-115.58768,347.5,0.35,0.57,2019-10-16,19:36,N,nominal,1.0NRT,291.1,5.9,D
45.85265,-115.58333,351.4,0.35,0.57,2019-10-16,19:36,N,nominal,1.0NRT,291.3,7.9,D
45.83107,-115.59875,333.1,0.36,0.57,2019-10-16,19:36,N,nominal,1.0NRT,288.2,8,D
45.83244,-115.59393,367,0.35,0.57,2019-10-16,19:36,N,high,1.0NRT,293.2,20,D
45.8261,-115.59602,328.9,0.36,0.57,2019-10-16,19:36,N,nominal,1.0NRT,285.2,6.9,D
45.82737,-115.59154,367,0.35,0.57,2019-10-16,19:36,N,high,1.0NRT,294.9,16.1,D
44.97469,-118.24191,333.1,0.49,0.65,2019-10-16,19:36,N,nominal,1.0NRT,280.2,8.4,D
46.76628,-111.84472,337.9,0.46,0.47,2019-10-16,19:36,N,nominal,1.0NRT,292.2,5,D
46.76208,-111.84289,349.9,0.46,0.47,2019-10-16,19:36,N,nominal,1.0NRT,308.5,36.5,D
46.76351,-111.83699,352.4,0.46,0.47,2019-10-16,19:36,N,nominal,1.0NRT,307.9,36.5,D
46.75926,-111.83534,330.9,0.46,0.47,2019-10-16,19:36,N,nominal,1.0NRT,299,36.5,D
46.76082,-111.84201,351.6,0.46,0.47,2019-10-16,19:36,N,nominal,1.0NRT,307.6,43.7,D
46.76221,-111.83615,353.9,0.46,0.47,2019-10-16,19:36,N,nominal,1.0NRT,312,58.8,D
46.12767,-113.41748,341,0.56,0.51,2019-10-16,19:36,N,nominal,1.0NRT,288.6,16,D
46.12954,-113.41035,326.1,0.56,0.51,2019-10-16,19:36,N,nominal,1.0NRT,288.8,5.8,D
46.12654,-113.41618,340,0.56,0.51,2019-10-16,19:36,N,nominal,1.0NRT,288.6,7.9,D
46.12837,-113.40903,328.1,0.56,0.51,2019-10-16,19:36,N,nominal,1.0NRT,286.6,7.9,D
46.12146,-113.3962,349.5,0.56,0.51,2019-10-16,19:36,N,nominal,1.0NRT,285.9,9.6,D
46.11177,-113.41401,326.5,0.56,0.51,2019-10-16,19:36,N,nominal,1.0NRT,285.9,8,D
46.11712,-113.39323,343.5,0.56,0.51,2019-10-16,19:36,N,nominal,1.0NRT,286.8,9.6,D
46.10561,-113.41807,325.8,0.56,0.51,2019-10-16,19:36,N,nominal,1.0NRT,285.5,3,D
46.11277,-113.39031,342.5,0.56,0.51,2019-10-16,19:36,N,nominal,1.0NRT,286.3,5.7,D
44.55243,-118.26347,343.9,0.51,0.66,2019-10-16,19:36,N,nominal,1.0NRT,281.4,5.9,D
44.54659,-118.26049,325.3,0.51,0.66,2019-10-16,19:36,N,nominal,1.0NRT,275.7,5.9,D
44.54859,-118.2542,333,0.51,0.66,2019-10-16,19:36,N,nominal,1.0NRT,277.8,5.9,D
48.1115,-102.5792,335,0.39,0.36,2019-10-16,19:36,N,nominal,1.0NRT,281,3.9,D
48.08072,-102.49133,338,0.39,0.36,2019-10-16,19:36,N,nominal,1.0NRT,282.9,3.5,D
48.04792,-102.48061,327.3,0.39,0.36,2019-10-16,19:36,N,nominal,1.0NRT,287,2,D
48.06788,-102.20157,333.6,0.39,0.36,2019-10-16,19:36,N,nominal,1.0NRT,283.1,6,D
47.91405,-102.85806,348.2,0.38,0.36,2019-10-16,19:36,N,nominal,1.0NRT,290.6,5.4,D
47.93549,-102.71533,325.8,0.38,0.36,2019-10-16,19:36,N,nominal,1.0NRT,290.3,2,D
47.93208,-102.55357,329.2,0.39,0.36,2019-10-16,19:36,N,nominal,1.0NRT,286.8,1.8,D
44.80748,-116.67031,342.4,0.43,0.62,2019-10-16,19:36,N,nominal,1.0NRT,283.4,6.1,D
47.69563,-103.25674,334.8,0.38,0.36,2019-10-16,19:36,N,nominal,1.0NRT,290.9,3.1,D
47.76505,-102.68871,330.5,0.38,0.36,2019-10-16,19:36,N,nominal,1.0NRT,289.5,2,D
47.76581,-102.68362,325.5,0.38,0.36,2019-10-16,19:36,N,nominal,1.0NRT,288.5,2,D
47.70225,-102.70239,332.5,0.38,0.36,2019-10-16,19:36,N,nominal,1.0NRT,289.9,3,D
47.52563,-102.87515,329.4,0.38,0.36,2019-10-16,19:36,N,nominal,1.0NRT,289.8,1.7,D
44.77028,-108.77773,338.1,0.57,0.43,2019-10-16,19:36,N,nominal,1.0NRT,295.1,4.9,D
44.70278,-108.82454,326.9,0.57,0.43,2019-10-16,19:36,N,nominal,1.0NRT,290.1,4.1,D
44.69894,-108.82287,343.9,0.57,0.43,2019-10-16,19:36,N,nominal,1.0NRT,294.4,8.9,D
42.68449,-111.59235,355.9,0.57,0.52,2019-10-16,19:36,N,nominal,1.0NRT,298.8,16.5,D
41.62991,-112.23079,350.5,0.32,0.55,2019-10-16,19:36,N,nominal,1.0NRT,296.1,18.7,D
41.63089,-112.22706,367,0.32,0.55,2019-10-16,19:36,N,high,1.0NRT,308.4,18.7,D
42.41295,-103.72925,344.7,0.41,0.37,2019-10-16,19:36,N,nominal,1.0NRT,286.4,4.5,D
42.41383,-103.72428,336.9,0.41,0.37,2019-10-16,19:36,N,nominal,1.0NRT,287.4,4.5,D
40.86607,-109.78432,345.7,0.52,0.5,2019-10-16,19:36,N,nominal,1.0NRT,293.2,12.5,D
40.87159,-109.76151,330,0.51,0.5,2019-10-16,19:36,N,nominal,1.0NRT,293.7,10.1,D
40.85873,-109.79456,332.8,0.52,0.5,2019-10-16,19:36,N,nominal,1.0NRT,291.4,10.5,D
40.86018,-109.78858,351.8,0.52,0.5,2019-10-16,19:36,N,nominal,1.0NRT,293.7,13.9,D
40.87284,-109.73636,350.2,0.51,0.5,2019-10-16,19:36,N,nominal,1.0NRT,297.1,14,D
40.87423,-109.73064,353.5,0.51,0.5,2019-10-16,19:36,N,nominal,1.0NRT,293.9,11.7,D
40.87558,-109.72504,344,0.51,0.5,2019-10-16,19:36,N,nominal,1.0NRT,294.2,11.7,D
40.85279,-109.79904,341.2,0.52,0.5,2019-10-16,19:36,N,nominal,1.0NRT,292.9,10.5,D
40.85573,-109.78693,346,0.52,0.5,2019-10-16,19:36,N,nominal,1.0NRT,295.1,13.9,D
40.85428,-109.79291,367,0.52,0.5,2019-10-16,19:36,N,high,1.0NRT,295.9,10.5,D
40.84977,-109.7915,331.3,0.52,0.5,2019-10-16,19:36,N,nominal,1.0NRT,293.3,6.7,D
40.86687,-109.78259,348.2,0.52,0.5,2019-10-16,19:36,N,nominal,1.0NRT,293.1,14.3,D
40.87225,-109.75981,333,0.52,0.5,2019-10-16,19:36,N,nominal,1.0NRT,293.8,3.4,D
40.85962,-109.79282,332.6,0.52,0.5,2019-10-16,19:36,N,nominal,1.0NRT,291.1,9.2,D
40.86102,-109.78687,345.1,0.52,0.5,2019-10-16,19:36,N,nominal,1.0NRT,294.3,9.2,D
40.87473,-109.72883,356.2,0.51,0.5,2019-10-16,19:36,N,nominal,1.0NRT,294,14.6,D
40.87603,-109.72327,337.6,0.51,0.5,2019-10-16,19:36,N,nominal,1.0NRT,294,10.8,D
40.87338,-109.73451,367,0.51,0.5,2019-10-16,19:36,N,high,1.0NRT,297.8,14.6,D
40.85373,-109.79726,341.1,0.52,0.5,2019-10-16,19:36,N,nominal,1.0NRT,292.4,7.4,D
40.85658,-109.7852,341.8,0.52,0.5,2019-10-16,19:36,N,nominal,1.0NRT,294,11.9,D
40.85517,-109.79115,367,0.52,0.5,2019-10-16,19:36,N,high,1.0NRT,297.5,11.9,D
40.84923,-109.79579,334.4,0.52,0.5,2019-10-16,19:36,N,nominal,1.0NRT,292.4,7.4,D
40.85067,-109.7897,340,0.52,0.5,2019-10-16,19:36,N,nominal,1.0NRT,293.9,11.9,D
40.93631,-106.94891,328.9,0.57,0.43,2019-10-16,19:36,N,nominal,1.0NRT,278.5,3.3,D
40.93759,-106.94939,329.4,0.57,0.43,2019-10-16,19:36,N,nominal,1.0NRT,278.6,5.1,D
53.04707,-124.98458,367,0.48,0.65,2019-10-16,19:36,N,low,1.0NRT,278.3,48.3,D
53.04957,-124.97753,353.7,0.48,0.65,2019-10-16,19:36,N,nominal,1.0NRT,277.5,125,D
53.03868,-124.98839,354.3,0.48,0.65,2019-10-16,19:36,N,nominal,1.0NRT,280.5,48.3,D
53.04116,-124.9814,339.1,0.48,0.65,2019-10-16,19:36,N,nominal,1.0NRT,294,48.3,D
53.04606,-124.96756,347.9,0.48,0.65,2019-10-16,19:36,N,nominal,1.0NRT,297,125,D
53.04869,-124.96018,342.2,0.48,0.65,2019-10-16,19:36,N,nominal,1.0NRT,278.1,58.3,D
53.04018,-124.96432,367,0.48,0.65,2019-10-16,19:36,N,low,1.0NRT,282.4,12.8,D
53.0427,-124.95721,326.7,0.48,0.65,2019-10-16,19:36,N,nominal,1.0NRT,278.5,12.6,D
53.05039,-124.9679,367,0.48,0.65,2019-10-16,19:36,N,low,1.0NRT,278.5,50,D
53.04301,-124.9891,351.8,0.48,0.65,2019-10-16,19:36,N,nominal,1.0NRT,281.2,35.6,D
53.0454,-124.98223,330.6,0.48,0.65,2019-10-16,19:36,N,nominal,1.0NRT,295,98.2,D
53.04781,-124.9753,350.4,0.48,0.65,2019-10-16,19:36,N,nominal,1.0NRT,289.4,98.2,D
53.04197,-124.97197,346.3,0.48,0.65,2019-10-16,19:36,N,nominal,1.0NRT,282.1,41.5,D
53.0444,-124.965,342.4,0.48,0.65,2019-10-16,19:36,N,nominal,1.0NRT,298.4,69.6,D
53.04694,-124.95771,342.6,0.48,0.65,2019-10-16,19:36,N,nominal,1.0NRT,278.5,69.6,D
53.43512,-123.2156,367,0.4,0.6,2019-10-16,19:36,N,low,1.0NRT,284.7,16.1,D
53.43689,-123.21024,342.7,0.4,0.6,2019-10-16,19:36,N,nominal,1.0NRT,282.7,12.6,D
52.9764,-123.78292,352.5,0.44,0.62,2019-10-16,19:36,N,nominal,1.0NRT,282.3,34.7,D
52.97842,-123.77699,352.9,0.44,0.62,2019-10-16,19:36,N,nominal,1.0NRT,298.9,126.4,D
53.16674,-123.15893,334.5,0.41,0.61,2019-10-16,19:36,N,nominal,1.0NRT,281.1,7.4,D
52.97671,-123.78098,335.4,0.44,0.62,2019-10-16,19:36,N,nominal,1.0NRT,283.9,60,D
52.97868,-123.77506,367,0.44,0.62,2019-10-16,19:36,N,high,1.0NRT,295.7,60,D
53.16945,-123.15891,331.5,0.41,0.61,2019-10-16,19:36,N,nominal,1.0NRT,281.3,6.8,D
53.17121,-123.15353,329.7,0.41,0.61,2019-10-16,19:36,N,nominal,1.0NRT,281.4,6.2,D
52.95245,-123.7736,331.4,0.44,0.62,2019-10-16,19:36,N,nominal,1.0NRT,280.6,7.1,D
52.95472,-123.76684,336.6,0.44,0.62,2019-10-16,19:36,N,nominal,1.0NRT,280.9,7.1,D
52.95179,-123.75566,367,0.44,0.62,2019-10-16,19:36,N,low,1.0NRT,286.1,49.7,D
52.9496,-123.76221,339,0.44,0.62,2019-10-16,19:36,N,nominal,1.0NRT,280.2,7.1,D
52.98369,-121.41003,325.1,0.36,0.57,2019-10-16,19:36,N,nominal,1.0NRT,276.3,5.6,D
52.97748,-121.41059,341.6,0.36,0.57,2019-10-16,19:36,N,nominal,1.0NRT,276,5.8,D
51.7519,-120.72021,349.2,0.37,0.58,2019-10-16,19:36,N,nominal,1.0NRT,272.1,15.5,D
50.29122,-118.67497,367,0.35,0.57,2019-10-16,19:36,N,low,1.0NRT,278,19.5,D
50.28989,-118.67948,356.3,0.35,0.57,2019-10-16,19:36,N,nominal,1.0NRT,273.2,11.5,D
50.28621,-118.67224,347,0.35,0.57,2019-10-16,19:36,N,nominal,1.0NRT,274.1,4.5,D
50.04748,-118.98079,367,0.37,0.58,2019-10-16,19:36,N,low,1.0NRT,274,8.7,D
50.04891,-118.97601,367,0.37,0.58,2019-10-16,19:36,N,low,1.0NRT,273,8.7,D
50.04829,-118.95831,367,0.36,0.58,2019-10-16,19:36,N,low,1.0NRT,275.8,10.3,D
50.04403,-118.97247,342.9,0.37,0.58,2019-10-16,19:36,N,nominal,1.0NRT,275.1,6.8,D
50.04685,-118.9631,352.3,0.37,0.58,2019-10-16,19:36,N,nominal,1.0NRT,275,7,D
50.04041,-118.96472,345.4,0.37,0.58,2019-10-16,19:36,N,nominal,1.0NRT,275.3,7,D
50.04187,-118.95988,330.3,0.37,0.58,2019-10-16,19:36,N,nominal,1.0NRT,275.4,7,D
50.04335,-118.95496,355.2,0.36,0.58,2019-10-16,19:36,N,nominal,1.0NRT,276.9,10.3,D
50.03545,-118.96143,367,0.37,0.58,2019-10-16,19:36,N,low,1.0NRT,277.8,13,D
52.44445,-106.52785,330.4,0.39,0.36,2019-10-16,19:36,N,nominal,1.0NRT,286.9,2.4,D
52.45063,-106.20406,351.2,0.39,0.36,2019-10-16,19:36,N,nominal,1.0NRT,293.8,15.3,D
52.45153,-106.19848,343.3,0.39,0.36,2019-10-16,19:36,N,nominal,1.0NRT,291.5,19.9,D
49.19796,-114.97069,340.6,0.53,0.5,2019-10-16,19:36,N,nominal,1.0NRT,279.1,9.5,D
49.19378,-114.96734,341.4,0.53,0.5,2019-10-16,19:36,N,nominal,1.0NRT,279.4,11.2,D
49.1893,-114.96512,348.1,0.53,0.5,2019-10-16,19:36,N,nominal,1.0NRT,282.7,11.2,D
48.60682,-116.32404,367,0.63,0.54,2019-10-16,19:36,N,low,1.0NRT,281.1,16.9,D
48.60432,-116.33298,342.1,0.63,0.54,2019-10-16,19:36,N,nominal,1.0NRT,280,11.8,D
48.60263,-116.31935,336.9,0.63,0.54,2019-10-16,19:36,N,nominal,1.0NRT,272.2,16.9,D
49.67891,-112.04556,334.2,0.4,0.44,2019-10-16,19:36,N,nominal,1.0NRT,291.6,4.4,D
49.68011,-112.04034,349.1,0.4,0.44,2019-10-16,19:36,N,nominal,1.0NRT,290.9,6,D
49.67505,-112.04341,346.8,0.4,0.44,2019-10-16,19:36,N,nominal,1.0NRT,292.7,4.4,D
49.67625,-112.03819,338.7,0.4,0.44,2019-10-16,19:36,N,nominal,1.0NRT,291.8,6,D
50.64577,-106.08408,328.9,0.39,0.36,2019-10-16,19:36,N,nominal,1.0NRT,287.2,2.1,D
51.1805,-102.13924,328.1,0.4,0.37,2019-10-16,19:36,N,nominal,1.0NRT,282,6.8,D
48.72392,-114.29124,351,0.52,0.5,2019-10-16,19:36,N,nominal,1.0NRT,284.1,34.9,D
48.72843,-114.27364,334.3,0.51,0.5,2019-10-16,19:36,N,nominal,1.0NRT,285.8,5.1,D
48.71959,-114.28877,343.4,0.52,0.5,2019-10-16,19:36,N,nominal,1.0NRT,296.3,34.9,D
48.36796,-115.58184,334,0.6,0.53,2019-10-16,19:36,N,nominal,1.0NRT,269.7,6.5,D
48.37133,-115.24139,339.2,0.58,0.52,2019-10-16,19:36,N,nominal,1.0NRT,274.1,10.2,D
50.52118,-104.63921,330.3,0.38,0.36,2019-10-16,19:36,N,nominal,1.0NRT,287.7,4.4,D
50.51701,-104.62927,326.8,0.38,0.36,2019-10-16,19:36,N,nominal,1.0NRT,290.4,2,D
48.43059,-114.50658,339.2,0.54,0.51,2019-10-16,19:36,N,nominal,1.0NRT,277.8,10.9,D
48.42617,-114.50414,342.5,0.54,0.51,2019-10-16,19:36,N,nominal,1.0NRT,278.7,10.9,D
48.13254,-115.35117,327.1,0.59,0.53,2019-10-16,19:36,N,nominal,1.0NRT,280.3,10.3,D
48.1258,-115.35632,346.3,0.59,0.53,2019-10-16,19:36,N,nominal,1.0NRT,284,10.3,D
48.12782,-115.34896,348.6,0.59,0.53,2019-10-16,19:36,N,nominal,1.0NRT,283.6,10.3,D
48.12783,-115.35719,340.1,0.59,0.53,2019-10-16,19:36,N,nominal,1.0NRT,282.5,8.3,D
48.12975,-115.35002,342.5,0.59,0.53,2019-10-16,19:36,N,nominal,1.0NRT,282.6,12.7,D
48.12508,-115.34765,347.8,0.59,0.53,2019-10-16,19:36,N,nominal,1.0NRT,284,8.4,D
48.12712,-115.34004,336.7,0.59,0.53,2019-10-16,19:36,N,nominal,1.0NRT,282.6,8.4,D
47.96335,-115.2876,331.1,0.6,0.53,2019-10-16,19:36,N,nominal,1.0NRT,278,8,D
48.30807,-113.6303,337.3,0.5,0.49,2019-10-16,19:36,N,nominal,1.0NRT,287.3,6.9,D
47.56287,-116.08569,329,0.33,0.55,2019-10-16,19:36,N,nominal,1.0NRT,272.6,3.3,D
47.55788,-116.08352,352.1,0.33,0.55,2019-10-16,19:36,N,nominal,1.0NRT,273.7,6.2,D
40.8714,-109.73802,331.9,0.61,0.71,2019-10-16,21:18,N,nominal,1.0NRT,290.9,6.6,D
40.87149,-109.73007,341.8,0.61,0.71,2019-10-16,21:18,N,nominal,1.0NRT,293.2,6.6,D
40.87451,-109.736,339.3,0.61,0.71,2019-10-16,21:18,N,nominal,1.0NRT,290.4,9.6,D
40.87465,-109.72767,332.9,0.61,0.71,2019-10-16,21:18,N,nominal,1.0NRT,290.4,12.5,D
40.85376,-109.78981,341,0.61,0.71,2019-10-16,21:18,N,nominal,1.0NRT,291.3,16.7,D
54.75349,-122.71614,350.6,0.4,0.44,2019-10-16,21:18,N,nominal,1.0NRT,289.7,33.3,D
54.75301,-122.72233,356.8,0.4,0.44,2019-10-16,21:18,N,nominal,1.0NRT,286.1,33.3,D
54.75254,-122.72845,346.1,0.4,0.44,2019-10-16,21:18,N,nominal,1.0NRT,281.7,32.5,D
54.75207,-122.73457,345.2,0.4,0.44,2019-10-16,21:18,N,nominal,1.0NRT,296.2,32.5,D
54.75159,-122.74084,332.1,0.4,0.44,2019-10-16,21:18,N,nominal,1.0NRT,292.9,55.7,D
54.75664,-122.72931,348.7,0.4,0.44,2019-10-16,21:18,N,nominal,1.0NRT,278.7,32.5,D
54.75616,-122.73553,337.3,0.4,0.44,2019-10-16,21:18,N,nominal,1.0NRT,278.1,32.5,D
54.75713,-122.72306,367,0.4,0.44,2019-10-16,21:18,N,low,1.0NRT,281.2,33.3,D
55.63633,-118.47092,336.6,0.59,0.53,2019-10-16,21:18,N,nominal,1.0NRT,270.5,8.8,D
56.96987,-121.07239,337.3,0.49,0.48,2019-10-16,21:18,N,nominal,1.0NRT,281.3,3.1,D
56.97053,-121.07348,337.2,0.49,0.48,2019-10-16,21:18,N,nominal,1.0NRT,281.6,9.4,D
57.86935,-116.8916,332.5,0.35,0.57,2019-10-16,21:18,N,nominal,1.0NRT,274.2,2.2,D
40.51895,-121.56158,332.9,0.47,0.39,2019-10-16,21:18,N,nominal,1.0NRT,284.3,8.9,D
40.52322,-121.55664,355.1,0.47,0.39,2019-10-16,21:18,N,nominal,1.0NRT,290.8,19.7,D
40.52259,-121.56206,354.7,0.47,0.39,2019-10-16,21:18,N,nominal,1.0NRT,283.9,12.1,D
40.53839,-123.22519,325,0.41,0.37,2019-10-16,21:18,N,nominal,1.0NRT,287.1,2,D
41.00878,-121.6468,342,0.47,0.4,2019-10-16,21:18,N,nominal,1.0NRT,294.8,93.5,D
40.99433,-122.69939,340.2,0.43,0.38,2019-10-16,21:18,N,nominal,1.0NRT,280.7,4.8,D
40.99782,-122.70016,339.2,0.43,0.38,2019-10-16,21:18,N,nominal,1.0NRT,275.9,4.8,D
40.99716,-122.70544,329.8,0.43,0.38,2019-10-16,21:18,N,nominal,1.0NRT,270.5,4.8,D
41.34792,-121.9772,347.4,0.46,0.39,2019-10-16,21:18,N,nominal,1.0NRT,295.6,10.2,D
41.35151,-121.978,350.8,0.46,0.39,2019-10-16,21:18,N,nominal,1.0NRT,293.4,10.2,D
41.35509,-121.97877,325.1,0.46,0.39,2019-10-16,21:18,N,nominal,1.0NRT,288.6,5.5,D
41.35235,-121.97528,329.3,0.46,0.39,2019-10-16,21:18,N,nominal,1.0NRT,289.2,4.1,D
41.35172,-121.9808,329,0.46,0.39,2019-10-16,21:18,N,nominal,1.0NRT,289.1,4.1,D
41.3553,-121.98157,335.3,0.46,0.39,2019-10-16,21:18,N,nominal,1.0NRT,289.7,4.1,D
41.37363,-122.0138,367,0.46,0.39,2019-10-16,21:18,N,high,1.0NRT,290,11,D
41.37298,-122.01943,328.7,0.46,0.39,2019-10-16,21:18,N,nominal,1.0NRT,283.4,11,D
41.37722,-122.01458,346.6,0.46,0.39,2019-10-16,21:18,N,nominal,1.0NRT,284.6,7.4,D
41.37656,-122.02021,343,0.46,0.39,2019-10-16,21:18,N,nominal,1.0NRT,284.9,7.4,D
41.41454,-121.72189,349.4,0.47,0.4,2019-10-16,21:18,N,nominal,1.0NRT,305.3,29.8,D
41.41391,-121.72751,341.7,0.47,0.4,2019-10-16,21:18,N,nominal,1.0NRT,301.9,16.8,D
41.41881,-121.71702,367,0.47,0.4,2019-10-16,21:18,N,high,1.0NRT,342.8,60.6,D
41.41753,-121.72825,353.6,0.47,0.4,2019-10-16,21:18,N,nominal,1.0NRT,312.5,21.8,D
41.41817,-121.72263,367,0.47,0.4,2019-10-16,21:18,N,low,1.0NRT,329.8,60.6,D
41.42244,-121.71774,355.3,0.47,0.4,2019-10-16,21:18,N,nominal,1.0NRT,302.9,60.6,D
41.4218,-121.72337,344.4,0.47,0.4,2019-10-16,21:18,N,nominal,1.0NRT,299.9,60.6,D
41.42116,-121.72898,330.5,0.47,0.4,2019-10-16,21:18,N,nominal,1.0NRT,291.5,21.8,D
42.64198,-116.57967,367,0.56,0.51,2019-10-16,21:18,N,high,1.0NRT,298,34.7,D
42.64149,-116.58698,338.7,0.56,0.51,2019-10-16,21:18,N,nominal,1.0NRT,294.6,34.7,D
44.09398,-115.59792,367,0.32,0.55,2019-10-16,21:18,N,high,1.0NRT,292.8,6.3,D
44.09417,-115.59428,333.8,0.32,0.55,2019-10-16,21:18,N,nominal,1.0NRT,286.3,7.9,D
44.09378,-115.6015,335.3,0.32,0.55,2019-10-16,21:18,N,nominal,1.0NRT,287.9,6.3,D
44.15779,-118.58584,329,0.46,0.47,2019-10-16,21:18,N,nominal,1.0NRT,269.3,6.2,D
44.16258,-118.58088,335,0.46,0.47,2019-10-16,21:18,N,nominal,1.0NRT,270.2,7.6,D
44.16172,-118.59199,333.7,0.46,0.47,2019-10-16,21:18,N,nominal,1.0NRT,265.8,8.4,D
44.16215,-118.58652,367,0.46,0.47,2019-10-16,21:18,N,low,1.0NRT,270.7,8.4,D
44.16694,-118.58154,342.1,0.46,0.47,2019-10-16,21:18,N,nominal,1.0NRT,271,7.6,D
44.16651,-118.58717,354.9,0.46,0.47,2019-10-16,21:18,N,nominal,1.0NRT,270.7,8.4,D
44.16608,-118.59263,348.6,0.46,0.47,2019-10-16,21:18,N,nominal,1.0NRT,267.5,8.4,D
44.14855,-118.81615,346.9,0.45,0.47,2019-10-16,21:18,N,nominal,1.0NRT,279.1,10.2,D
44.1713,-118.58222,340.3,0.46,0.47,2019-10-16,21:18,N,nominal,1.0NRT,271.1,8.8,D
44.17087,-118.58781,355.9,0.46,0.47,2019-10-16,21:18,N,nominal,1.0NRT,271.1,19.5,D
44.17044,-118.59327,347.6,0.46,0.47,2019-10-16,21:18,N,nominal,1.0NRT,267.3,19.5,D
44.15287,-118.81664,338.9,0.45,0.47,2019-10-16,21:18,N,nominal,1.0NRT,274.1,6.5,D
44.17611,-118.5771,342.3,0.46,0.47,2019-10-16,21:18,N,nominal,1.0NRT,272.6,8.8,D
44.17566,-118.58283,356.4,0.46,0.47,2019-10-16,21:18,N,nominal,1.0NRT,273.6,8.8,D
44.17523,-118.58839,353.4,0.46,0.47,2019-10-16,21:18,N,nominal,1.0NRT,269.9,19.5,D
44.1748,-118.59391,355.4,0.46,0.47,2019-10-16,21:18,N,nominal,1.0NRT,273.5,19.5,D
44.17437,-118.59946,367,0.46,0.47,2019-10-16,21:18,N,low,1.0NRT,264.2,24.9,D
44.18047,-118.57774,343.6,0.46,0.47,2019-10-16,21:18,N,nominal,1.0NRT,273.4,11.4,D
44.18003,-118.58341,355.7,0.46,0.47,2019-10-16,21:18,N,nominal,1.0NRT,274.9,11.4,D
44.17959,-118.589,352.3,0.46,0.47,2019-10-16,21:18,N,nominal,1.0NRT,268.8,17.6,D
44.17916,-118.59456,367,0.46,0.47,2019-10-16,21:18,N,low,1.0NRT,265.2,17.6,D
44.69503,-108.82394,330.9,0.7,0.75,2019-10-16,21:18,N,nominal,1.0NRT,291.9,3.1,D
44.22536,-121.70661,329.4,0.5,0.41,2019-10-16,21:18,N,nominal,1.0NRT,286,4.4,D
44.2247,-121.71299,329.9,0.5,0.41,2019-10-16,21:18,N,nominal,1.0NRT,285.4,4.4,D
44.81066,-116.66714,325.2,0.58,0.52,2019-10-16,21:18,N,nominal,1.0NRT,273.9,5.2,D
44.97848,-118.24212,353.1,0.49,0.48,2019-10-16,21:18,N,nominal,1.0NRT,289.3,18.9,D
44.98397,-118.22903,338.3,0.49,0.48,2019-10-16,21:18,N,nominal,1.0NRT,285.1,13.7,D
44.98346,-118.23601,357.4,0.49,0.48,2019-10-16,21:18,N,nominal,1.0NRT,288.2,13.7,D
44.98298,-118.24242,335.5,0.49,0.48,2019-10-16,21:18,N,nominal,1.0NRT,283.2,7.4,D
44.98794,-118.2365,341.9,0.49,0.48,2019-10-16,21:18,N,nominal,1.0NRT,283.8,13.7,D
45.82657,-115.59086,367,0.33,0.55,2019-10-16,21:18,N,high,1.0NRT,293.4,7.9,D
45.83171,-115.59181,367,0.33,0.55,2019-10-16,21:18,N,high,1.0NRT,295.6,20.1,D
45.83152,-115.59598,342.2,0.33,0.55,2019-10-16,21:18,N,nominal,1.0NRT,289.4,8.1,D
45.85268,-115.58681,340.5,0.33,0.55,2019-10-16,21:18,N,nominal,1.0NRT,284.8,3.5,D
46.11377,-113.39094,325.4,0.43,0.62,2019-10-16,21:18,N,nominal,1.0NRT,286.1,2.8,D
46.11293,-113.41778,334.1,0.43,0.62,2019-10-16,21:18,N,nominal,1.0NRT,287.2,5.9,D
46.11413,-113.39069,325.8,0.43,0.62,2019-10-16,21:18,N,nominal,1.0NRT,286.4,2.8,D
46.11343,-113.41756,331.3,0.43,0.62,2019-10-16,21:18,N,nominal,1.0NRT,287,4.7,D
46.11976,-113.39558,348.1,0.43,0.62,2019-10-16,21:18,N,nominal,1.0NRT,288.4,6.9,D
46.4367,-112.22626,328.9,0.49,0.65,2019-10-16,21:18,N,nominal,1.0NRT,283.5,2.2,D
46.76045,-111.83867,367,0.51,0.66,2019-10-16,21:18,N,high,1.0NRT,300.7,17.1,D
46.76034,-111.84583,341.4,0.51,0.66,2019-10-16,21:18,N,nominal,1.0NRT,294.9,7.3,D
46.75914,-111.83918,356.6,0.51,0.66,2019-10-16,21:18,N,nominal,1.0NRT,300.2,4.9,D
46.75906,-111.84641,329.7,0.51,0.66,2019-10-16,21:18,N,nominal,1.0NRT,293.6,4.9,D
46.76532,-111.84052,334.8,0.51,0.66,2019-10-16,21:18,N,nominal,1.0NRT,293.9,4.9,D
46.76524,-111.84773,325,0.51,0.66,2019-10-16,21:18,N,nominal,1.0NRT,292.9,4.9,D
47.48532,-116.21507,338.1,0.32,0.55,2019-10-16,21:18,N,nominal,1.0NRT,286.8,3.5,D
47.51642,-115.87054,328.3,0.33,0.55,2019-10-16,21:18,N,nominal,1.0NRT,288.8,2.8,D
47.50159,-116.19439,334.8,0.32,0.55,2019-10-16,21:18,N,nominal,1.0NRT,283.1,2.4,D
47.50142,-116.19817,325.5,0.32,0.55,2019-10-16,21:18,N,nominal,1.0NRT,283.1,2.4,D
47.50672,-116.1941,343.8,0.32,0.55,2019-10-16,21:18,N,nominal,1.0NRT,285.3,2.4,D
47.66355,-115.61722,325.1,0.34,0.56,2019-10-16,21:18,N,nominal,1.0NRT,273.1,5.5,D
47.66874,-115.61864,367,0.34,0.56,2019-10-16,21:18,N,low,1.0NRT,271.8,5.5,D
47.86367,-114.37639,335.5,0.39,0.6,2019-10-16,21:18,N,nominal,1.0NRT,283.7,4.1,D
47.86349,-114.38237,325.6,0.39,0.6,2019-10-16,21:18,N,nominal,1.0NRT,282.9,2.6,D
48.30965,-113.63169,328.5,0.43,0.62,2019-10-16,21:18,N,nominal,1.0NRT,281.7,2.8,D
48.34432,-115.58092,334.9,0.35,0.57,2019-10-16,21:18,N,nominal,1.0NRT,273.1,3.5,D
48.19709,-118.82521,332.6,0.49,0.49,2019-10-16,21:18,N,nominal,1.0NRT,272.8,4.9,D
48.72131,-114.28717,331.3,0.4,0.6,2019-10-16,21:18,N,nominal,1.0NRT,284.2,4.7,D
48.72694,-114.28659,340,0.4,0.6,2019-10-16,21:18,N,nominal,1.0NRT,282.2,4.7,D
48.81293,-114.34584,352.3,0.4,0.6,2019-10-16,21:18,N,nominal,1.0NRT,289,7,D
48.91109,-115.08721,356.3,0.37,0.58,2019-10-16,21:18,N,nominal,1.0NRT,285.8,6.2,D
49.33956,-114.70233,354.2,0.39,0.59,2019-10-16,21:18,N,nominal,1.0NRT,279,6.8,D
49.89694,-115.15513,351.8,0.37,0.58,2019-10-16,21:18,N,nominal,1.0NRT,279.7,8.9,D
49.90778,-115.15632,343.8,0.37,0.58,2019-10-16,21:18,N,nominal,1.0NRT,277.9,5.7,D
49.89769,-115.15312,326.1,0.37,0.58,2019-10-16,21:18,N,nominal,1.0NRT,280.1,7,D
51.41402,-122.91463,329.4,0.54,0.42,2019-10-16,21:18,N,nominal,1.0NRT,278,4.5,D
52.50387,-116.10796,328.5,0.35,0.57,2019-10-16,21:18,N,nominal,1.0NRT,282,1.6,D
52.97995,-121.40858,340.8,0.43,0.46,2019-10-16,21:18,N,nominal,1.0NRT,273.5,14.2,D
52.98944,-121.39625,327.6,0.43,0.46,2019-10-16,21:18,N,nominal,1.0NRT,273.8,5.4,D
52.99369,-121.39687,326.3,0.43,0.46,2019-10-16,21:18,N,nominal,1.0NRT,273.2,2.3,D
53.18021,-121.95573,328.5,0.41,0.45,2019-10-16,21:18,N,nominal,1.0NRT,267.8,13.5,D
53.1829,-121.97511,347.6,0.41,0.45,2019-10-16,21:18,N,nominal,1.0NRT,266.7,12.2,D
53.18336,-121.9692,367,0.41,0.45,2019-10-16,21:18,N,low,1.0NRT,266.9,12.2,D
53.18699,-121.97656,345.6,0.41,0.45,2019-10-16,21:18,N,nominal,1.0NRT,266.8,12.1,D
53.60975,-121.73135,337.9,0.42,0.45,2019-10-16,21:18,N,nominal,1.0NRT,277.8,4.1,D
54.41792,-122.58755,337.2,0.4,0.44,2019-10-16,21:18,N,nominal,1.0NRT,274,24.8,D
54.43937,-122.58045,340.6,0.4,0.44,2019-10-16,21:18,N,nominal,1.0NRT,282.4,12.8,D
54.44346,-122.58141,354.1,0.4,0.44,2019-10-16,21:18,N,nominal,1.0NRT,282.3,12.8,D
54.443,-122.58713,342.8,0.4,0.44,2019-10-16,21:18,N,nominal,1.0NRT,285.4,15.6,D
54.44155,-122.58105,342.8,0.4,0.44,2019-10-16,21:18,N,nominal,1.0NRT,283.3,11.7,D
54.44111,-122.58678,338.9,0.4,0.44,2019-10-16,21:18,N,nominal,1.0NRT,282.8,11.7,D
54.44566,-122.58196,345.3,0.4,0.44,2019-10-16,21:18,N,nominal,1.0NRT,280.7,8.5,D
54.44521,-122.58775,344,0.4,0.44,2019-10-16,21:18,N,nominal,1.0NRT,281.6,8.5,D
54.47598,-122.51389,337.1,0.4,0.45,2019-10-16,21:18,N,nominal,1.0NRT,280.6,12,D
54.47553,-122.51973,355.5,0.4,0.45,2019-10-16,21:18,N,nominal,1.0NRT,282.5,12,D
54.47964,-122.52066,367,0.4,0.45,2019-10-16,21:18,N,low,1.0NRT,280.2,12,D
54.64611,-122.706,338.6,0.4,0.44,2019-10-16,21:18,N,nominal,1.0NRT,286.8,19.8,D
54.64825,-122.70797,341.3,0.4,0.44,2019-10-16,21:18,N,nominal,1.0NRT,292.8,36.5,D
54.65235,-122.70877,337.5,0.4,0.44,2019-10-16,21:18,N,nominal,1.0NRT,283.2,36.5,D
54.65188,-122.7149,332.5,0.4,0.44,2019-10-16,21:18,N,nominal,1.0NRT,283.3,36.5,D
54.66005,-122.7169,348.1,0.4,0.44,2019-10-16,21:18,N,nominal,1.0NRT,286,7.2,D
54.65958,-122.72292,349.1,0.4,0.44,2019-10-16,21:18,N,nominal,1.0NRT,286.5,14.9,D
54.66366,-122.72397,367,0.4,0.44,2019-10-16,21:18,N,high,1.0NRT,290.8,25.3,D
54.66699,-122.68119,340.7,0.4,0.44,2019-10-16,21:18,N,nominal,1.0NRT,282,14.8,D
54.66651,-122.68739,336.7,0.4,0.44,2019-10-16,21:18,N,nominal,1.0NRT,281,6.8,D
54.66319,-122.73003,333.6,0.4,0.44,2019-10-16,21:18,N,nominal,1.0NRT,282.3,25.3,D
54.66413,-122.71793,367,0.4,0.44,2019-10-16,21:18,N,low,1.0NRT,285.4,15.2,D
54.66727,-122.73107,356.8,0.4,0.44,2019-10-16,21:18,N,nominal,1.0NRT,288.1,25.3,D
54.67135,-122.73208,325.2,0.4,0.44,2019-10-16,21:18,N,nominal,1.0NRT,278.9,2.9,D
54.74081,-122.74862,351.7,0.4,0.44,2019-10-16,21:18,N,nominal,1.0NRT,282.7,10.3,D
54.74689,-122.72507,333.3,0.4,0.44,2019-10-16,21:18,N,nominal,1.0NRT,278.8,25.4,D
54.7464,-122.73111,353.1,0.4,0.44,2019-10-16,21:18,N,nominal,1.0NRT,283,29.9,D
54.7459,-122.73724,354.3,0.4,0.44,2019-10-16,21:18,N,nominal,1.0NRT,280,29.9,D
54.74539,-122.74346,349,0.4,0.44,2019-10-16,21:18,N,nominal,1.0NRT,281.3,17.3,D
54.7449,-122.74948,355.2,0.4,0.44,2019-10-16,21:18,N,nominal,1.0NRT,283.8,17.3,D
54.75201,-122.71336,338.4,0.4,0.44,2019-10-16,21:18,N,nominal,1.0NRT,283.8,17.8,D
57.8692,-116.89771,326.3,0.35,0.57,2019-10-16,21:18,N,nominal,1.0NRT,273.4,2.2,D
54.7515,-122.7196,350.4,0.4,0.44,2019-10-16,21:18,N,nominal,1.0NRT,286,25.4,D
54.751,-122.72572,350.3,0.4,0.44,2019-10-16,21:18,N,nominal,1.0NRT,286.7,25.4,D
54.75051,-122.73179,344.6,0.4,0.44,2019-10-16,21:18,N,nominal,1.0NRT,283.2,29.9,D
54.75001,-122.73798,328.7,0.4,0.44,2019-10-16,21:18,N,nominal,1.0NRT,296.3,29.9,D
54.7495,-122.74424,356.9,0.4,0.44,2019-10-16,21:18,N,nominal,1.0NRT,284.2,17.3,D
54.74432,-122.727,328,0.4,0.44,2019-10-16,21:18,N,nominal,1.0NRT,278.8,13.3,D
54.74386,-122.73305,338.6,0.4,0.44,2019-10-16,21:18,N,nominal,1.0NRT,276.3,13.3,D
54.74339,-122.73922,338.3,0.4,0.44,2019-10-16,21:18,N,nominal,1.0NRT,277.5,17.5,D
54.74292,-122.7454,347.9,0.4,0.44,2019-10-16,21:18,N,nominal,1.0NRT,285.6,17.5,D
54.74245,-122.75142,339.3,0.4,0.44,2019-10-16,21:18,N,nominal,1.0NRT,283.8,7.1,D
54.74843,-122.72775,352.1,0.4,0.44,2019-10-16,21:18,N,nominal,1.0NRT,281.7,13.3,D
54.74796,-122.73387,356.1,0.4,0.44,2019-10-16,21:18,N,nominal,1.0NRT,288.6,13.3,D
54.74701,-122.74627,340.6,0.4,0.44,2019-10-16,21:18,N,nominal,1.0NRT,283.2,17.5,D
54.74655,-122.75224,335.8,0.4,0.44,2019-10-16,21:18,N,nominal,1.0NRT,281.5,7.1,D
54.7489,-122.72169,367,0.4,0.44,2019-10-16,21:18,N,low,1.0NRT,279.8,14,D
54.74748,-122.74007,367,0.4,0.44,2019-10-16,21:18,N,low,1.0NRT,285.9,17.5,D
