latitude,longitude,bright_ti4,scan,track,acq_date,acq_time,satellite,confidence,version,bright_ti5,frp,daynight
45.10949,-73.01199,301.8,0.38,0.59,2019-08-20,05:54,N,nominal,1.0NRT,288.4,0.8,N
45.83262,-73.25075,297.8,0.4,0.6,2019-08-20,05:54,N,nominal,1.0NRT,287.1,1,N
45.81099,-73.27368,300.4,0.4,0.6,2019-08-20,05:54,N,nominal,1.0NRT,286.9,0.6,N
45.77975,-73.91389,297.2,0.43,0.62,2019-08-20,05:54,N,nominal,1.0NRT,283.5,0.3,N
45.78001,-73.91254,297.5,0.43,0.62,2019-08-20,05:54,N,nominal,1.0NRT,283.2,0.2,N
45.64178,-73.52259,301.2,0.41,0.61,2019-08-20,05:54,N,nominal,1.0NRT,291.1,0.9,N
45.11035,-73.01176,301.9,0.38,0.59,2019-08-20,05:54,N,nominal,1.0NRT,288.1,0.6,N
48.18606,-64.92352,304.9,0.53,0.42,2019-08-20,05:54,N,nominal,1.0NRT,289.8,0.8,N
46.75719,-71.19141,301.7,0.32,0.55,2019-08-20,05:54,N,nominal,1.0NRT,289.5,0.8,N
46.37044,-72.38913,305,0.37,0.58,2019-08-20,05:54,N,nominal,1.0NRT,288.8,0.8,N
46.04301,-73.14409,316.5,0.39,0.6,2019-08-20,05:54,N,nominal,1.0NRT,290.6,1.6,N
46.04281,-73.13878,299.7,0.39,0.6,2019-08-20,05:54,N,nominal,1.0NRT,289.5,1.6,N
45.83822,-73.25038,316.6,0.4,0.6,2019-08-20,05:54,N,nominal,1.0NRT,290.1,2.3,N
43.3218,-72.71811,300.4,0.36,0.57,2019-08-20,06:00,N,nominal,1.0NRT,287.2,0.1,N
41.43558,-75.59671,299.9,0.49,0.65,2019-08-20,06:00,N,nominal,1.0NRT,287.7,0.4,N
41.43555,-75.59531,298.4,0.49,0.65,2019-08-20,06:00,N,nominal,1.0NRT,287.5,0.5,N
40.89274,-77.70949,300.8,0.62,0.72,2019-08-20,06:00,N,nominal,1.0NRT,286.8,1.7,N
40.89071,-77.71395,306,0.62,0.72,2019-08-20,06:00,N,nominal,1.0NRT,287.4,1.5,N
40.63555,-74.22181,304.3,0.41,0.61,2019-08-20,06:00,N,nominal,1.0NRT,289.2,1.6,N
40.83264,-79.93459,324.9,0.39,0.44,2019-08-20,07:36,N,nominal,1.0NRT,289.7,2,N
44.16782,-76.8038,299,0.46,0.47,2019-08-20,07:36,N,nominal,1.0NRT,287.4,1.1,N
45.07278,-83.40408,310.4,0.4,0.37,2019-08-20,07:36,N,nominal,1.0NRT,291.2,1.3,N
45.06948,-83.40524,304.7,0.4,0.37,2019-08-20,07:36,N,nominal,1.0NRT,288,1.3,N
45.31641,-85.30225,301.1,0.38,0.36,2019-08-20,07:36,N,nominal,1.0NRT,289.9,1,N
43.88039,-78.70176,299.1,0.38,0.43,2019-08-20,07:36,N,nominal,1.0NRT,288.3,0.5,N
42.49356,-73.81584,308.2,0.35,0.57,2019-08-20,07:36,N,nominal,1.0NRT,289.7,1,N
43.865,-79.4978,295.8,0.53,0.42,2019-08-20,07:36,N,nominal,1.0NRT,285.8,0.2,N
43.08185,-77.38252,299.2,0.46,0.47,2019-08-20,07:36,N,nominal,1.0NRT,288.3,0.6,N
43.27475,-79.7985,325,0.53,0.42,2019-08-20,07:36,N,nominal,1.0NRT,290.2,2.2,N
43.27339,-79.79208,307.4,0.53,0.42,2019-08-20,07:36,N,nominal,1.0NRT,290.3,2.5,N
43.27643,-79.82558,300.7,0.53,0.42,2019-08-20,07:36,N,nominal,1.0NRT,289,0.9,N
43.27237,-79.80643,312,0.53,0.42,2019-08-20,07:36,N,nominal,1.0NRT,290.5,2.2,N
43.27101,-79.80003,312.3,0.53,0.42,2019-08-20,07:36,N,nominal,1.0NRT,290.3,2.2,N
43.26862,-79.80793,306.8,0.53,0.42,2019-08-20,07:36,N,nominal,1.0NRT,291.4,1.3,N
43.26726,-79.80153,302.1,0.53,0.42,2019-08-20,07:36,N,nominal,1.0NRT,289.6,1.3,N
43.26487,-79.80943,311.9,0.53,0.42,2019-08-20,07:36,N,nominal,1.0NRT,290.3,1.3,N
43.26113,-79.81092,323.3,0.53,0.42,2019-08-20,07:36,N,nominal,1.0NRT,290.8,3.9,N
44.952,-90.30941,299.4,0.49,0.4,2019-08-20,07:36,N,nominal,1.0NRT,284.2,0.4,N
43.11911,-79.17322,300.9,0.57,0.43,2019-08-20,07:36,N,nominal,1.0NRT,287.4,1,N
43.29026,-79.98633,303.2,0.52,0.42,2019-08-20,07:36,N,nominal,1.0NRT,288.7,1.4,N
44.8514,-93.00305,301,0.42,0.45,2019-08-20,07:36,N,nominal,1.0NRT,290.6,1.1,N
43.0669,-80.85651,315.9,0.49,0.4,2019-08-20,07:36,N,nominal,1.0NRT,288.8,1.4,N
44.78815,-93.05746,299.6,0.42,0.45,2019-08-20,07:36,N,nominal,1.0NRT,287.1,0.2,N
44.76533,-93.03955,302.5,0.42,0.45,2019-08-20,07:36,N,nominal,1.0NRT,291.5,1.2,N
44.76114,-93.04034,301.4,0.42,0.45,2019-08-20,07:36,N,nominal,1.0NRT,290.7,1.2,N
44.1661,-87.70417,305.8,0.4,0.37,2019-08-20,07:36,N,nominal,1.0NRT,288.1,0.8,N
42.81649,-80.09241,300.1,0.53,0.42,2019-08-20,07:36,N,nominal,1.0NRT,289.2,0.7,N
42.81509,-80.09431,307.8,0.53,0.42,2019-08-20,07:36,N,nominal,1.0NRT,289.6,1.4,N
42.81135,-80.09579,307.3,0.53,0.42,2019-08-20,07:36,N,nominal,1.0NRT,289.6,1.4,N
42.80761,-80.09724,307.9,0.53,0.42,2019-08-20,07:36,N,nominal,1.0NRT,290.1,3.2,N
42.80387,-80.0987,330.7,0.53,0.42,2019-08-20,07:36,N,nominal,1.0NRT,290.6,3.2,N
42.80146,-80.10645,314.8,0.53,0.42,2019-08-20,07:36,N,nominal,1.0NRT,289.5,2.4,N
42.80013,-80.10015,311.1,0.53,0.42,2019-08-20,07:36,N,nominal,1.0NRT,290.6,3.3,N
42.81764,-81.32563,301.8,0.47,0.4,2019-08-20,07:36,N,nominal,1.0NRT,288.4,0.6,N
42.94497,-82.41688,308.6,0.44,0.38,2019-08-20,07:36,N,nominal,1.0NRT,290.6,1.3,N
43.18462,-84.8421,331,0.39,0.36,2019-08-20,07:36,N,nominal,1.0NRT,290.3,2.2,N
43.70263,-88.38488,312,0.41,0.37,2019-08-20,07:36,N,nominal,1.0NRT,290,1.7,N
43.70087,-88.3866,301.6,0.41,0.37,2019-08-20,07:36,N,nominal,1.0NRT,288.5,1.1,N
42.31272,-82.05011,301.1,0.46,0.39,2019-08-20,07:36,N,nominal,1.0NRT,289.5,0.7,N
43.21037,-88.6117,304.4,0.42,0.37,2019-08-20,07:36,N,nominal,1.0NRT,288.2,0.8,N
42.30425,-83.15226,308,0.42,0.38,2019-08-20,07:36,N,nominal,1.0NRT,291.8,0.8,N
42.30178,-83.15846,305.2,0.42,0.38,2019-08-20,07:36,N,nominal,1.0NRT,292.5,1.3,N
42.29745,-83.15455,330.1,0.42,0.38,2019-08-20,07:36,N,nominal,1.0NRT,294.2,4.4,N
42.30023,-83.16968,304,0.42,0.38,2019-08-20,07:36,N,nominal,1.0NRT,291.7,1.1,N
42.29683,-83.17081,314.9,0.42,0.38,2019-08-20,07:36,N,nominal,1.0NRT,292.5,1.1,N
42.29251,-83.16691,323.7,0.42,0.38,2019-08-20,07:36,N,nominal,1.0NRT,292.2,2.4,N
42.29158,-83.16187,323.5,0.42,0.38,2019-08-20,07:36,N,nominal,1.0NRT,292.4,2.4,N
42.28228,-83.11138,313.4,0.42,0.38,2019-08-20,07:36,N,nominal,1.0NRT,292.1,1.4,N
42.27827,-83.12883,310.7,0.42,0.38,2019-08-20,07:36,N,nominal,1.0NRT,292.3,1.4,N
42.26643,-83.43567,307.2,0.42,0.37,2019-08-20,07:36,N,nominal,1.0NRT,290.5,0.7,N
42.26804,-83.43671,303.6,0.42,0.37,2019-08-20,07:36,N,nominal,1.0NRT,290.2,0.8,N
40.89136,-77.70817,304.7,0.5,0.49,2019-08-20,07:36,N,nominal,1.0NRT,288.6,1,N
41.4744,-81.67409,304.7,0.48,0.4,2019-08-20,07:36,N,nominal,1.0NRT,291.6,0.9,N
41.47327,-81.66843,304.3,0.48,0.4,2019-08-20,07:36,N,nominal,1.0NRT,292.2,1.2,N
41.46359,-81.67795,329,0.48,0.4,2019-08-20,07:36,N,nominal,1.0NRT,292.4,3.3,N
41.46246,-81.67232,341.5,0.48,0.4,2019-08-20,07:36,N,nominal,1.0NRT,293,3.7,N
41.45998,-81.67924,304.4,0.48,0.4,2019-08-20,07:36,N,nominal,1.0NRT,291.7,3.3,N
41.45886,-81.67361,313.4,0.48,0.4,2019-08-20,07:36,N,nominal,1.0NRT,291.7,3.7,N
41.45525,-81.6749,306.6,0.48,0.4,2019-08-20,07:36,N,nominal,1.0NRT,291,3.5,N
41.21631,-80.51258,306.1,0.54,0.42,2019-08-20,07:36,N,nominal,1.0NRT,290.4,1.5,N
41.45164,-81.67618,336.8,0.48,0.4,2019-08-20,07:36,N,nominal,1.0NRT,293.5,3.5,N
40.79393,-79.70073,303.1,0.4,0.44,2019-08-20,07:36,N,nominal,1.0NRT,289.3,0.8,N
40.83364,-79.93916,315.1,0.39,0.44,2019-08-20,07:36,N,nominal,1.0NRT,289.3,2,N
52.22146,-100.94183,312.6,0.54,0.68,2019-08-20,07:36,N,nominal,1.0NRT,278.6,2.7,N
52.2215,-100.93354,298.8,0.54,0.68,2019-08-20,07:36,N,nominal,1.0NRT,277.4,1.5,N
51.17646,-98.59139,330.8,0.43,0.62,2019-08-20,07:36,N,nominal,1.0NRT,282,2.8,N
51.17658,-98.59772,300.7,0.43,0.62,2019-08-20,07:36,N,nominal,1.0NRT,281.2,2.8,N
46.75806,-71.19116,298.7,0.35,0.56,2019-08-20,07:36,N,nominal,1.0NRT,288.1,0.8,N
50.51791,-104.62894,299,0.77,0.78,2019-08-20,07:36,N,nominal,1.0NRT,280.4,2,N
46.04448,-73.14021,311.3,0.6,0.53,2019-08-20,07:36,N,nominal,1.0NRT,290,4.2,N
45.83673,-73.25259,307.8,0.6,0.53,2019-08-20,07:36,N,nominal,1.0NRT,287.3,2.4,N
49.31244,-102.63576,295.5,0.63,0.72,2019-08-20,07:36,N,nominal,1.0NRT,281.8,1.1,N
45.77976,-73.91222,295.6,0.56,0.52,2019-08-20,07:36,N,nominal,1.0NRT,282.4,0.7,N
45.11004,-73.01071,303.1,0.32,0.55,2019-08-20,07:36,N,nominal,1.0NRT,288.1,0.6,N
46.57554,-80.79169,323.7,0.44,0.38,2019-08-20,07:36,N,nominal,1.0NRT,285.4,2.4,N
48.39644,-103.46084,298.4,0.69,0.74,2019-08-20,07:36,N,nominal,1.0NRT,274,1.5,N
46.48831,-81.02989,301.7,0.43,0.38,2019-08-20,07:36,N,nominal,1.0NRT,287.2,0.7,N
48.37273,-103.61935,311,0.7,0.75,2019-08-20,07:36,N,nominal,1.0NRT,280.6,1.5,N
48.3437,-103.66719,295.5,0.7,0.75,2019-08-20,07:36,N,nominal,1.0NRT,283.6,1.1,N
48.36855,-103.61782,311.7,0.7,0.75,2019-08-20,07:36,N,nominal,1.0NRT,278.7,2.1,N
48.15142,-102.79793,304.6,0.64,0.72,2019-08-20,07:36,N,nominal,1.0NRT,282.2,1.9,N
48.15093,-102.80132,297.6,0.64,0.72,2019-08-20,07:36,N,nominal,1.0NRT,278.2,2,N
48.14556,-102.57396,299.5,0.63,0.72,2019-08-20,07:36,N,nominal,1.0NRT,281.3,1.5,N
48.10943,-102.88232,300.9,0.65,0.73,2019-08-20,07:36,N,nominal,1.0NRT,284.7,2.6,N
48.05493,-102.87837,298.2,0.65,0.73,2019-08-20,07:36,N,nominal,1.0NRT,284.4,0.9,N
48.05431,-102.87495,306.2,0.65,0.73,2019-08-20,07:36,N,nominal,1.0NRT,285.3,1.7,N
48.00819,-102.68072,297.9,0.63,0.72,2019-08-20,07:36,N,nominal,1.0NRT,282.4,0.7,N
47.99315,-102.85646,300.1,0.64,0.72,2019-08-20,07:36,N,nominal,1.0NRT,281.1,0.6,N
47.96102,-102.35869,297.7,0.61,0.71,2019-08-20,07:36,N,nominal,1.0NRT,286.2,0.8,N
47.93265,-102.72359,295.6,0.63,0.72,2019-08-20,07:36,N,nominal,1.0NRT,285.5,0.4,N
47.8923,-102.68749,303.1,0.63,0.72,2019-08-20,07:36,N,nominal,1.0NRT,286.2,0.9,N
46.52422,-84.37336,305.1,0.38,0.36,2019-08-20,07:36,N,nominal,1.0NRT,287.5,1,N
46.52343,-84.36841,310.9,0.38,0.36,2019-08-20,07:36,N,nominal,1.0NRT,288.6,1.4,N
46.52095,-84.37445,325.3,0.38,0.36,2019-08-20,07:36,N,nominal,1.0NRT,291.2,2.2,N
47.87158,-102.73933,296,0.64,0.72,2019-08-20,07:36,N,nominal,1.0NRT,285.5,0.6,N
47.87217,-102.67025,297.2,0.63,0.72,2019-08-20,07:36,N,nominal,1.0NRT,286.9,0.9,N
46.52016,-84.3695,302.6,0.38,0.36,2019-08-20,07:36,N,nominal,1.0NRT,286.7,1.2,N
46.51847,-84.3805,302.4,0.38,0.36,2019-08-20,07:36,N,nominal,1.0NRT,285.2,2.2,N
46.51758,-84.39645,317.3,0.38,0.36,2019-08-20,07:36,N,nominal,1.0NRT,285.9,2.1,N
46.51431,-84.39754,328.8,0.38,0.36,2019-08-20,07:36,N,nominal,1.0NRT,286.3,2.1,N
47.84511,-103.2527,304.1,0.67,0.74,2019-08-20,07:36,N,nominal,1.0NRT,286,1,N
46.51352,-84.39259,311.7,0.38,0.36,2019-08-20,07:36,N,nominal,1.0NRT,286.1,2.5,N
47.84326,-102.85512,309.6,0.64,0.72,2019-08-20,07:36,N,nominal,1.0NRT,284,2,N
47.83247,-102.5813,312.1,0.63,0.72,2019-08-20,07:36,N,nominal,1.0NRT,286.8,1.6,N
47.82538,-102.61818,332.3,0.63,0.72,2019-08-20,07:36,N,nominal,1.0NRT,288.2,2.5,N
47.82547,-102.60902,297,0.63,0.72,2019-08-20,07:36,N,nominal,1.0NRT,287,2.5,N
47.86059,-103.19297,298.5,0.67,0.73,2019-08-20,07:36,N,nominal,1.0NRT,285.8,0.7,N
47.84627,-103.24846,304.5,0.67,0.74,2019-08-20,07:36,N,nominal,1.0NRT,286.2,1.5,N
47.84843,-102.9954,298.4,0.65,0.73,2019-08-20,07:36,N,nominal,1.0NRT,285.9,1.2,N
47.84261,-102.85143,310.4,0.64,0.72,2019-08-20,07:36,N,nominal,1.0NRT,284.3,1.6,N
47.83055,-102.58663,312.6,0.63,0.72,2019-08-20,07:36,N,nominal,1.0NRT,286.9,1.6,N
47.82368,-102.61444,337.5,0.63,0.72,2019-08-20,07:36,N,nominal,1.0NRT,288.6,6.2,N
47.81739,-102.52576,298.3,0.62,0.71,2019-08-20,07:36,N,nominal,1.0NRT,287.1,1.4,N
47.81743,-102.51697,304.3,0.62,0.71,2019-08-20,07:36,N,nominal,1.0NRT,287,0.9,N
47.81747,-102.50861,303.7,0.62,0.71,2019-08-20,07:36,N,nominal,1.0NRT,286.9,0.9,N
47.78944,-102.69182,300.1,0.63,0.72,2019-08-20,07:36,N,nominal,1.0NRT,285.8,0.9,N
47.75946,-102.99472,307.3,0.65,0.73,2019-08-20,07:36,N,nominal,1.0NRT,286.1,1.1,N
47.72951,-102.59431,307.5,0.63,0.72,2019-08-20,07:36,N,nominal,1.0NRT,286.9,1.1,N
47.74183,-102.55412,299,0.62,0.72,2019-08-20,07:36,N,nominal,1.0NRT,287,0.5,N
47.73475,-102.64079,301.5,0.63,0.72,2019-08-20,07:36,N,nominal,1.0NRT,286.3,0.7,N
47.72824,-102.58883,312.6,0.63,0.72,2019-08-20,07:36,N,nominal,1.0NRT,286.7,1.3,N
47.70075,-102.68535,306.8,0.63,0.72,2019-08-20,07:36,N,nominal,1.0NRT,285.8,0.7,N
47.6744,-102.58948,306.9,0.63,0.72,2019-08-20,07:36,N,nominal,1.0NRT,287.6,1.2,N
46.39133,-84.96145,295.5,0.38,0.36,2019-08-20,07:36,N,nominal,1.0NRT,285.2,0.4,N
46.39056,-84.9565,297.3,0.38,0.36,2019-08-20,07:36,N,nominal,1.0NRT,284.9,0.4,N
46.38806,-84.96251,302.5,0.38,0.36,2019-08-20,07:36,N,nominal,1.0NRT,285.1,0.6,N
46.38729,-84.95756,304.7,0.38,0.36,2019-08-20,07:36,N,nominal,1.0NRT,285.3,1,N
47.67242,-102.58624,310.3,0.62,0.72,2019-08-20,07:36,N,nominal,1.0NRT,287.7,1.6,N
47.58954,-102.90273,299,0.65,0.73,2019-08-20,07:36,N,nominal,1.0NRT,287.4,1.6,N
47.58969,-102.88383,305.3,0.64,0.72,2019-08-20,07:36,N,nominal,1.0NRT,287.4,2.1,N
47.53693,-102.70167,303.1,0.63,0.72,2019-08-20,07:36,N,nominal,1.0NRT,285.7,1.3,N
47.52963,-102.76004,300.3,0.64,0.72,2019-08-20,07:36,N,nominal,1.0NRT,285.6,0.9,N
47.5358,-102.70454,299.8,0.63,0.72,2019-08-20,07:36,N,nominal,1.0NRT,285.6,1.1,N
47.52876,-102.76316,300.2,0.64,0.72,2019-08-20,07:36,N,nominal,1.0NRT,285.5,0.7,N
47.4476,-102.74579,303.9,0.63,0.72,2019-08-20,07:36,N,nominal,1.0NRT,286.2,3.1,N
47.44767,-102.73713,298.8,0.63,0.72,2019-08-20,07:36,N,nominal,1.0NRT,286.5,1.7,N
47.41383,-102.73696,302.9,0.63,0.72,2019-08-20,07:36,N,nominal,1.0NRT,287.2,1.3,N
47.41392,-102.72801,309.1,0.63,0.72,2019-08-20,07:36,N,nominal,1.0NRT,287.3,1.3,N
47.414,-102.71916,300.3,0.63,0.72,2019-08-20,07:36,N,nominal,1.0NRT,286.9,1,N
47.44594,-102.74742,306.6,0.63,0.72,2019-08-20,07:36,N,nominal,1.0NRT,286.1,1.4,N
47.44597,-102.73875,311.1,0.63,0.72,2019-08-20,07:36,N,nominal,1.0NRT,287,1.4,N
47.41219,-102.72947,304.1,0.63,0.72,2019-08-20,07:36,N,nominal,1.0NRT,287,1.5,N
47.41223,-102.72055,304.8,0.63,0.72,2019-08-20,07:36,N,nominal,1.0NRT,287.7,1.5,N
46.73125,-92.07561,309.3,0.4,0.44,2019-08-20,07:36,N,nominal,1.0NRT,289.6,1.4,N
45.97415,-85.87473,299.9,0.39,0.36,2019-08-20,07:36,N,nominal,1.0NRT,289,0.9,N
41.46867,-83.36926,303.2,0.43,0.38,2019-08-20,07:42,N,nominal,1.0NRT,287.5,1.2,N
41.46775,-83.36424,316.7,0.43,0.38,2019-08-20,07:42,N,nominal,1.0NRT,288.7,1.2,N
41.46093,-83.36651,307,0.43,0.38,2019-08-20,07:42,N,nominal,1.0NRT,286.6,1.3,N
41.45751,-83.36762,298.9,0.43,0.38,2019-08-20,07:42,N,nominal,1.0NRT,285.9,0.6,N
41.56629,-84.04586,328.6,0.41,0.37,2019-08-20,07:42,N,nominal,1.0NRT,291.9,3.1,N
41.56801,-84.05551,308.5,0.41,0.37,2019-08-20,07:42,N,nominal,1.0NRT,291.3,1.4,N
41.22278,-83.20712,323.8,0.43,0.38,2019-08-20,07:42,N,nominal,1.0NRT,289,2,N
42.14058,-89.07946,304.9,0.42,0.38,2019-08-20,07:42,N,nominal,1.0NRT,291.5,0.8,N
40.75642,-81.43402,311.2,0.51,0.41,2019-08-20,07:42,N,nominal,1.0NRT,287.8,1.3,N
40.75393,-81.44124,304,0.51,0.41,2019-08-20,07:42,N,nominal,1.0NRT,288.7,1.1,N
40.39345,-79.8565,331.2,0.4,0.44,2019-08-20,07:42,N,nominal,1.0NRT,287,2.4,N
40.39244,-79.8519,310.4,0.4,0.44,2019-08-20,07:42,N,nominal,1.0NRT,285.5,2.4,N
41.36967,-84.91724,303.3,0.39,0.37,2019-08-20,07:42,N,nominal,1.0NRT,286.5,0.9,N
41.36887,-84.91257,299.4,0.39,0.37,2019-08-20,07:42,N,nominal,1.0NRT,286.7,0.9,N
41.36716,-84.9229,328.8,0.39,0.37,2019-08-20,07:42,N,nominal,1.0NRT,285.7,2.5,N
41.36385,-84.9239,298.3,0.39,0.37,2019-08-20,07:42,N,nominal,1.0NRT,284,0.3,N
40.30425,-79.87833,308.1,0.4,0.45,2019-08-20,07:42,N,nominal,1.0NRT,289,1.1,N
40.30325,-79.87372,303.2,0.4,0.45,2019-08-20,07:42,N,nominal,1.0NRT,287.7,1.1,N
41.64279,-87.14132,330,0.39,0.36,2019-08-20,07:42,N,nominal,1.0NRT,275.9,2,N
41.6421,-87.13671,302.4,0.39,0.36,2019-08-20,07:42,N,nominal,1.0NRT,272.8,2,N
41.6414,-87.13211,300.2,0.39,0.36,2019-08-20,07:42,N,nominal,1.0NRT,271.9,0.5,N
41.68164,-87.42417,304.3,0.39,0.36,2019-08-20,07:42,N,nominal,1.0NRT,269.9,1.2,N
41.6395,-87.14221,303.9,0.39,0.36,2019-08-20,07:42,N,nominal,1.0NRT,269.7,1.7,N
41.63881,-87.1376,304.2,0.39,0.36,2019-08-20,07:42,N,nominal,1.0NRT,275.4,1.7,N
41.63811,-87.13299,318.5,0.39,0.36,2019-08-20,07:42,N,nominal,1.0NRT,276.3,1.8,N
41.63621,-87.14309,336.3,0.39,0.36,2019-08-20,07:42,N,nominal,1.0NRT,269.4,1.7,N
41.67764,-87.42041,308.8,0.39,0.36,2019-08-20,07:42,N,nominal,1.0NRT,274.1,1.3,N
41.63551,-87.13849,299.9,0.39,0.36,2019-08-20,07:42,N,nominal,1.0NRT,275.8,1.7,N
41.6764,-87.4352,323.9,0.39,0.36,2019-08-20,07:42,N,nominal,1.0NRT,279,1.1,N
41.67503,-87.42592,331.7,0.39,0.36,2019-08-20,07:42,N,nominal,1.0NRT,279.8,3.1,N
41.67572,-87.43056,312.7,0.39,0.36,2019-08-20,07:42,N,nominal,1.0NRT,279.4,3.1,N
41.63292,-87.14398,298.8,0.39,0.36,2019-08-20,07:42,N,nominal,1.0NRT,271.1,0.8,N
41.6731,-87.43608,307.5,0.39,0.36,2019-08-20,07:42,N,nominal,1.0NRT,282.2,1.1,N
41.67241,-87.43143,311.1,0.39,0.36,2019-08-20,07:42,N,nominal,1.0NRT,282.4,3.1,N
41.62633,-87.14575,300.3,0.39,0.36,2019-08-20,07:42,N,nominal,1.0NRT,274.5,0.7,N
41.6706,-87.46568,329.9,0.39,0.36,2019-08-20,07:42,N,nominal,1.0NRT,293,3.1,N
41.66991,-87.46103,314.1,0.39,0.36,2019-08-20,07:42,N,nominal,1.0NRT,293.1,2.7,N
41.66512,-87.42854,313.8,0.39,0.36,2019-08-20,07:42,N,nominal,1.0NRT,286,1.4,N
41.66455,-87.44797,341.3,0.39,0.36,2019-08-20,07:42,N,nominal,1.0NRT,294.1,6.3,N
41.66181,-87.42941,319.1,0.39,0.36,2019-08-20,07:42,N,nominal,1.0NRT,287.2,1.9,N
41.64118,-87.40598,314.2,0.39,0.36,2019-08-20,07:42,N,nominal,1.0NRT,291.6,1.6,N
41.6284,-87.36603,308.8,0.39,0.36,2019-08-20,07:42,N,nominal,1.0NRT,285.8,0.5,N
41.62291,-87.32902,301.7,0.39,0.36,2019-08-20,07:42,N,nominal,1.0NRT,275.9,0.6,N
41.61961,-87.3299,309.3,0.39,0.36,2019-08-20,07:42,N,nominal,1.0NRT,272.1,1,N
41.61631,-87.33077,325.8,0.39,0.36,2019-08-20,07:42,N,nominal,1.0NRT,272.8,1,N
41.61562,-87.32615,311.1,0.39,0.36,2019-08-20,07:42,N,nominal,1.0NRT,268.5,1,N
41.61232,-87.32702,305.7,0.39,0.36,2019-08-20,07:42,N,nominal,1.0NRT,271,0.8,N
41.11856,-85.34961,331.2,0.39,0.36,2019-08-20,07:42,N,nominal,1.0NRT,293.2,2.1,N
41.11934,-85.35421,302.8,0.39,0.36,2019-08-20,07:42,N,nominal,1.0NRT,291.5,2.1,N
40.52978,-82.51154,300.2,0.47,0.39,2019-08-20,07:42,N,nominal,1.0NRT,289.6,0.5,N
41.07129,-85.8448,302.5,0.39,0.36,2019-08-20,07:42,N,nominal,1.0NRT,290.5,0.2,N
41.41477,-88.18292,308.2,0.4,0.37,2019-08-20,07:42,N,nominal,1.0NRT,293.1,1.2,N
40.56848,-83.13752,307.7,0.44,0.39,2019-08-20,07:42,N,nominal,1.0NRT,291.8,1.2,N
40.71294,-84.13709,298.4,0.41,0.37,2019-08-20,07:42,N,nominal,1.0NRT,284.7,0.4,N
41.55808,-90.22012,304.8,0.45,0.39,2019-08-20,07:42,N,nominal,1.0NRT,292,0.7,N
41.17921,-87.85905,330.5,0.39,0.36,2019-08-20,07:42,N,nominal,1.0NRT,294.3,3.8,N
40.81367,-85.62794,301.5,0.39,0.36,2019-08-20,07:42,N,nominal,1.0NRT,290.6,1,N
40.81038,-85.6289,321.1,0.39,0.36,2019-08-20,07:42,N,nominal,1.0NRT,290.4,1,N
41.48317,-90.82331,304.3,0.47,0.4,2019-08-20,07:42,N,nominal,1.0NRT,290.2,1.1,N
40.92657,-87.3422,319.7,0.39,0.36,2019-08-20,07:42,N,nominal,1.0NRT,292,1.5,N
40.7339,-86.43236,307.7,0.38,0.36,2019-08-20,07:42,N,nominal,1.0NRT,292.4,0.7,N
40.41354,-95.59629,313.1,0.5,0.49,2019-08-20,07:42,N,nominal,1.0NRT,294.3,6.8,N
40.40934,-95.59655,309.9,0.5,0.49,2019-08-20,07:42,N,nominal,1.0NRT,294,4.5,N
48.25442,-103.41216,303.6,0.5,0.41,2019-08-20,09:18,N,nominal,1.0NRT,283.2,1,N
46.0159,-112.28077,333.7,0.4,0.37,2019-08-20,09:18,N,nominal,1.0NRT,290.3,2.1,N
46.01924,-112.27977,298.7,0.4,0.37,2019-08-20,09:18,N,nominal,1.0NRT,284.9,2.1,N
45.94638,-111.477,305.2,0.39,0.36,2019-08-20,09:18,N,nominal,1.0NRT,288.3,1.5,N
45.63174,-109.23254,306.4,0.39,0.36,2019-08-20,09:18,N,nominal,1.0NRT,287.1,0.6,N
47.06057,-123.44498,295.5,0.38,0.59,2019-08-20,09:18,N,nominal,1.0NRT,284,0.1,N
45.21049,-106.51959,302.4,0.44,0.39,2019-08-20,09:18,N,nominal,1.0NRT,288.1,1.8,N
45.21585,-106.54749,301.2,0.44,0.39,2019-08-20,09:18,N,nominal,1.0NRT,287.3,1.3,N
45.81353,-108.43364,297.7,0.4,0.37,2019-08-20,09:18,N,nominal,1.0NRT,285.1,1.5,N
46.32888,-111.61725,305,0.39,0.36,2019-08-20,09:18,N,nominal,1.0NRT,288.4,0.8,N
46.54277,-111.91979,299.5,0.4,0.37,2019-08-20,09:18,N,nominal,1.0NRT,285.3,0.5,N
47.56663,-122.34324,311.1,0.34,0.56,2019-08-20,09:18,N,nominal,1.0NRT,286.3,1.1,N
47.56764,-122.36621,297.8,0.34,0.56,2019-08-20,09:18,N,nominal,1.0NRT,285.3,0.7,N
47.56784,-122.37072,305.2,0.34,0.56,2019-08-20,09:18,N,nominal,1.0NRT,285.5,1,N
47.57289,-122.36578,298.6,0.34,0.56,2019-08-20,09:18,N,nominal,1.0NRT,287.1,0.7,N
47.57309,-122.37037,306.1,0.34,0.56,2019-08-20,09:18,N,nominal,1.0NRT,286.6,1,N
46.16339,-108.20747,300.2,0.4,0.37,2019-08-20,09:18,N,nominal,1.0NRT,287.5,0.5,N
47.95824,-116.29056,301.4,0.56,0.43,2019-08-20,09:18,N,nominal,1.0NRT,282.9,1.5,N
48.88551,-122.73338,299.9,0.36,0.58,2019-08-20,09:18,N,nominal,1.0NRT,288,1.3,N
48.88571,-122.73853,308.8,0.36,0.58,2019-08-20,09:18,N,nominal,1.0NRT,289,1.7,N
48.88779,-122.73734,303.5,0.36,0.58,2019-08-20,09:18,N,nominal,1.0NRT,288.3,1.3,N
49.26874,-124.71872,295.4,0.45,0.63,2019-08-20,09:18,N,nominal,1.0NRT,282.8,0.5,N
47.53139,-102.76128,305.3,0.54,0.42,2019-08-20,09:18,N,nominal,1.0NRT,286.3,1.2,N
47.53543,-102.70405,296.5,0.55,0.42,2019-08-20,09:18,N,nominal,1.0NRT,283.1,0.3,N
47.58716,-102.90327,314.8,0.54,0.42,2019-08-20,09:18,N,nominal,1.0NRT,286.6,1.9,N
47.58645,-102.88103,302.7,0.54,0.42,2019-08-20,09:18,N,nominal,1.0NRT,286.3,1.2,N
47.53864,-102.70216,297.9,0.55,0.42,2019-08-20,09:18,N,nominal,1.0NRT,282.6,0.2,N
47.58756,-102.90273,312.9,0.54,0.42,2019-08-20,09:18,N,nominal,1.0NRT,287,1.8,N
47.58828,-102.88744,300.5,0.54,0.42,2019-08-20,09:18,N,nominal,1.0NRT,286.4,0.8,N
47.59072,-102.59946,309.1,0.55,0.43,2019-08-20,09:18,N,nominal,1.0NRT,280.7,1.3,N
47.64659,-102.72095,309.3,0.54,0.42,2019-08-20,09:18,N,nominal,1.0NRT,285.7,0.9,N
47.66708,-102.79581,297.5,0.54,0.42,2019-08-20,09:18,N,nominal,1.0NRT,284.7,0.3,N
47.76113,-102.99414,304.4,0.53,0.42,2019-08-20,09:18,N,nominal,1.0NRT,285.5,0.9,N
47.67449,-102.58282,309.8,0.55,0.43,2019-08-20,09:18,N,nominal,1.0NRT,284.8,1,N
47.84501,-103.25027,307.3,0.51,0.41,2019-08-20,09:18,N,nominal,1.0NRT,285,1.4,N
47.79142,-102.92677,296.5,0.53,0.42,2019-08-20,09:18,N,nominal,1.0NRT,284.7,0.4,N
47.73301,-102.64055,298.7,0.54,0.42,2019-08-20,09:18,N,nominal,1.0NRT,269.6,0.4,N
47.85918,-103.18453,302.9,0.52,0.41,2019-08-20,09:18,N,nominal,1.0NRT,284.5,1.1,N
47.84772,-102.99087,295.5,0.53,0.42,2019-08-20,09:18,N,nominal,1.0NRT,284.5,0.6,N
47.84509,-102.84834,302,0.53,0.42,2019-08-20,09:18,N,nominal,1.0NRT,285.1,0.5,N
47.87574,-102.96973,296.1,0.53,0.42,2019-08-20,09:18,N,nominal,1.0NRT,283.9,0.3,N
47.82588,-102.611,328.7,0.54,0.42,2019-08-20,09:18,N,nominal,1.0NRT,288,5.2,N
47.831,-102.57775,303.9,0.55,0.42,2019-08-20,09:18,N,nominal,1.0NRT,278.3,1.6,N
47.83254,-102.58475,308.5,0.54,0.42,2019-08-20,09:18,N,nominal,1.0NRT,281,1.9,N
47.81914,-102.50505,296.9,0.55,0.43,2019-08-20,09:18,N,nominal,1.0NRT,284.2,0.9,N
47.87373,-102.73502,298.3,0.54,0.42,2019-08-20,09:18,N,nominal,1.0NRT,284.5,0.5,N
47.87484,-102.66447,297.8,0.54,0.42,2019-08-20,09:18,N,nominal,1.0NRT,285,1.5,N
47.9208,-102.85741,298,0.53,0.42,2019-08-20,09:18,N,nominal,1.0NRT,284.5,0.6,N
47.88843,-102.68898,296.2,0.54,0.42,2019-08-20,09:18,N,nominal,1.0NRT,284.1,0.8,N
47.87515,-102.68078,297.8,0.54,0.42,2019-08-20,09:18,N,nominal,1.0NRT,285.4,0.9,N
47.91883,-102.859,301.2,0.53,0.42,2019-08-20,09:18,N,nominal,1.0NRT,284.2,0.8,N
47.89315,-102.68736,296.5,0.54,0.42,2019-08-20,09:18,N,nominal,1.0NRT,284.2,0.8,N
47.91836,-102.78255,295.3,0.53,0.42,2019-08-20,09:18,N,nominal,1.0NRT,284.8,0.4,N
48.02116,-103.12257,300,0.52,0.41,2019-08-20,09:18,N,nominal,1.0NRT,285.4,0.5,N
47.96074,-102.76975,302.2,0.53,0.42,2019-08-20,09:18,N,nominal,1.0NRT,284.7,0.9,N
47.9914,-102.85398,300.6,0.53,0.42,2019-08-20,09:18,N,nominal,1.0NRT,284.2,0.9,N
48.08741,-103.2815,296,0.51,0.41,2019-08-20,09:18,N,nominal,1.0NRT,284.5,0.7,N
48.09105,-103.27979,327.7,0.51,0.41,2019-08-20,09:18,N,nominal,1.0NRT,286.1,1.9,N
48.09611,-103.28474,305.1,0.51,0.41,2019-08-20,09:18,N,nominal,1.0NRT,284.3,1.9,N
48.09974,-103.28298,307.8,0.51,0.41,2019-08-20,09:18,N,nominal,1.0NRT,285.1,1,N
48.10195,-103.27453,309.1,0.51,0.41,2019-08-20,09:18,N,nominal,1.0NRT,284.5,1,N
48.10337,-103.28123,295.2,0.51,0.41,2019-08-20,09:18,N,nominal,1.0NRT,284.8,1,N
48.02166,-102.82387,300.1,0.53,0.42,2019-08-20,09:18,N,nominal,1.0NRT,283.4,0.8,N
48.01934,-102.8259,296.9,0.53,0.42,2019-08-20,09:18,N,nominal,1.0NRT,282.7,0.2,N
48.02304,-102.82411,296.4,0.53,0.42,2019-08-20,09:18,N,nominal,1.0NRT,283.4,0.3,N
47.9899,-102.65607,297,0.54,0.42,2019-08-20,09:18,N,nominal,1.0NRT,285.3,0.3,N
48.00724,-102.67843,303.5,0.54,0.42,2019-08-20,09:18,N,nominal,1.0NRT,284.6,1.1,N
48.01097,-102.67666,311.6,0.54,0.42,2019-08-20,09:18,N,nominal,1.0NRT,285.3,1.1,N
48.05056,-102.85623,296.2,0.53,0.42,2019-08-20,09:18,N,nominal,1.0NRT,284.5,0.7,N
48.05357,-102.86996,307.2,0.53,0.42,2019-08-20,09:18,N,nominal,1.0NRT,285.2,1.3,N
48.16812,-103.3243,301.4,0.5,0.41,2019-08-20,09:18,N,nominal,1.0NRT,284,0.7,N
48.0494,-102.75768,297.5,0.53,0.42,2019-08-20,09:18,N,nominal,1.0NRT,284.7,0.7,N
48.17049,-103.27928,303.7,0.51,0.41,2019-08-20,09:18,N,nominal,1.0NRT,283.9,0.9,N
48.09851,-102.87026,298.9,0.52,0.42,2019-08-20,09:18,N,nominal,1.0NRT,284.5,0.4,N
48.16658,-103.18602,306.8,0.51,0.41,2019-08-20,09:18,N,nominal,1.0NRT,284.6,1,N
48.16802,-103.19277,296.2,0.51,0.41,2019-08-20,09:18,N,nominal,1.0NRT,284.2,1.1,N
48.11386,-102.88466,325.1,0.52,0.42,2019-08-20,09:18,N,nominal,1.0NRT,286.4,2.5,N
48.25496,-103.41082,298.9,0.5,0.41,2019-08-20,09:18,N,nominal,1.0NRT,282.9,0.3,N
48.25484,-103.31743,296.4,0.5,0.41,2019-08-20,09:18,N,nominal,1.0NRT,284.1,0.7,N
48.15026,-102.79842,301.1,0.53,0.42,2019-08-20,09:18,N,nominal,1.0NRT,284.8,1.3,N
48.15398,-102.79674,304.2,0.53,0.42,2019-08-20,09:18,N,nominal,1.0NRT,285.3,0.9,N
48.10905,-102.57436,303.9,0.54,0.42,2019-08-20,09:18,N,nominal,1.0NRT,284.7,1.4,N
48.33914,-103.63969,295.9,0.49,0.4,2019-08-20,09:18,N,nominal,1.0NRT,283.7,0.3,N
48.11061,-102.58141,328,0.54,0.42,2019-08-20,09:18,N,nominal,1.0NRT,285.1,3.5,N
48.17111,-102.819,297,0.53,0.42,2019-08-20,09:18,N,nominal,1.0NRT,284.3,0.8,N
48.22262,-102.98118,298.7,0.52,0.41,2019-08-20,09:18,N,nominal,1.0NRT,284.5,0.7,N
48.36994,-103.6179,304.6,0.49,0.4,2019-08-20,09:18,N,nominal,1.0NRT,283.4,1.3,N
48.1495,-102.57067,304.8,0.54,0.42,2019-08-20,09:18,N,nominal,1.0NRT,284.4,1.1,N
48.22558,-102.91991,295.9,0.52,0.41,2019-08-20,09:18,N,nominal,1.0NRT,284.6,0.8,N
48.37352,-103.6162,311.6,0.49,0.4,2019-08-20,09:18,N,nominal,1.0NRT,284,1.3,N
48.19825,-102.77497,299.8,0.53,0.42,2019-08-20,09:18,N,nominal,1.0NRT,284.4,0.4,N
48.22926,-102.91813,318.1,0.52,0.41,2019-08-20,09:18,N,nominal,1.0NRT,285.3,2.1,N
48.3754,-103.47436,304.7,0.49,0.41,2019-08-20,09:18,N,nominal,1.0NRT,284.6,1.2,N
48.39998,-103.45596,307.4,0.49,0.41,2019-08-20,09:18,N,nominal,1.0NRT,284.1,1.3,N
48.40275,-103.46904,298,0.49,0.41,2019-08-20,09:18,N,nominal,1.0NRT,283.9,0.6,N
48.40047,-103.32764,302.7,0.5,0.41,2019-08-20,09:18,N,nominal,1.0NRT,283.5,0.6,N
48.37211,-102.63857,299.1,0.53,0.42,2019-08-20,09:18,N,nominal,1.0NRT,283.5,0.7,N
48.54496,-100.49964,295.5,0.42,0.45,2019-08-20,09:18,N,nominal,1.0NRT,284.9,0.3,N
49.24307,-102.47822,298.5,0.51,0.41,2019-08-20,09:18,N,nominal,1.0NRT,281.6,0.6,N
50.51457,-104.62955,298.2,0.42,0.38,2019-08-20,09:18,N,nominal,1.0NRT,279.5,1,N
50.51593,-104.62827,320.4,0.42,0.38,2019-08-20,09:18,N,nominal,1.0NRT,283.2,3.2,N
50.51929,-104.62669,296.3,0.42,0.38,2019-08-20,09:18,N,nominal,1.0NRT,281.6,1,N
50.52152,-104.6383,302.7,0.42,0.38,2019-08-20,09:18,N,nominal,1.0NRT,280.9,1.2,N
52.91171,-114.01725,295.4,0.52,0.42,2019-08-20,09:18,N,nominal,1.0NRT,279,1.3,N
53.56112,-113.35612,305.5,0.5,0.41,2019-08-20,09:18,N,nominal,1.0NRT,281.5,1.1,N
53.26294,-109.94519,303.3,0.41,0.37,2019-08-20,09:18,N,nominal,1.0NRT,283.2,2.3,N
53.26374,-109.95128,297.7,0.41,0.37,2019-08-20,09:18,N,nominal,1.0NRT,282.4,0.9,N
53.26631,-109.94395,296.9,0.41,0.37,2019-08-20,09:18,N,nominal,1.0NRT,281.9,1.1,N
51.17562,-98.59539,302.5,0.43,0.46,2019-08-20,09:18,N,nominal,1.0NRT,283.5,1.2,N
51.17816,-98.58709,301.3,0.43,0.46,2019-08-20,09:18,N,nominal,1.0NRT,284.6,2.2,N
51.17958,-98.5929,338.1,0.43,0.46,2019-08-20,09:18,N,nominal,1.0NRT,286.8,6.2,N
52.22292,-100.94207,301.4,0.5,0.41,2019-08-20,09:18,N,nominal,1.0NRT,277.8,1.7,N
52.22498,-100.93291,310.8,0.5,0.41,2019-08-20,09:18,N,nominal,1.0NRT,279.4,2.1,N
52.22314,-100.94171,304.7,0.5,0.41,2019-08-20,09:18,N,nominal,1.0NRT,278.4,1.3,N
52.22518,-100.93259,304,0.5,0.41,2019-08-20,09:18,N,nominal,1.0NRT,278.2,0.8,N
52.22673,-100.93962,295.8,0.5,0.41,2019-08-20,09:18,N,nominal,1.0NRT,278.5,0.9,N
54.69654,-110.72127,300.9,0.44,0.38,2019-08-20,09:18,N,nominal,1.0NRT,276.8,0.6,N
54.69815,-110.73477,300.9,0.44,0.38,2019-08-20,09:18,N,nominal,1.0NRT,276.3,1,N
55.2458,-114.51532,304.5,0.38,0.43,2019-08-20,09:18,N,nominal,1.0NRT,276.3,1.3,N
55.24983,-114.5145,312.2,0.38,0.43,2019-08-20,09:18,N,nominal,1.0NRT,276.9,1.3,N
53.7016,-100.35847,301,0.49,0.4,2019-08-20,09:18,N,nominal,1.0NRT,279.4,1.1,N
56.96469,-111.47077,297.4,0.48,0.4,2019-08-20,09:18,N,nominal,1.0NRT,278.1,0.8,N
57.00437,-111.47578,297.4,0.48,0.4,2019-08-20,09:18,N,nominal,1.0NRT,282.5,1.3,N
57.00805,-111.4746,298.2,0.48,0.4,2019-08-20,09:18,N,nominal,1.0NRT,281.8,1.3,N
57.04202,-111.62015,301.7,0.49,0.4,2019-08-20,09:18,N,nominal,1.0NRT,283.6,2.2,N
40.82065,-114.25566,320.9,0.41,0.37,2019-08-20,09:18,N,nominal,1.0NRT,292.9,2.3,N
40.82034,-114.25405,309,0.41,0.37,2019-08-20,09:18,N,nominal,1.0NRT,291.7,1.3,N
40.82098,-114.25871,301.2,0.41,0.37,2019-08-20,09:18,N,nominal,1.0NRT,291.1,1.3,N
40.35525,-110.24446,298.2,0.4,0.37,2019-08-20,09:18,N,nominal,1.0NRT,285.9,0.4,N
40.38311,-110.08303,327.7,0.4,0.37,2019-08-20,09:18,N,nominal,1.0NRT,291,2.7,N
40.38309,-110.08127,328.1,0.4,0.37,2019-08-20,09:18,N,nominal,1.0NRT,290.6,1.7,N
40.91451,-112.73424,305.9,0.39,0.36,2019-08-20,09:18,N,nominal,1.0NRT,288.4,1.5,N
40.20281,-105.23555,299.3,0.41,0.45,2019-08-20,09:18,N,nominal,1.0NRT,289.2,0.3,N
40.51002,-106.38596,298.5,0.54,0.42,2019-08-20,09:18,N,nominal,1.0NRT,275.4,0.8,N
40.57137,-106.42194,296.6,0.53,0.42,2019-08-20,09:18,N,nominal,1.0NRT,275.7,1.2,N
41.54219,-109.13043,301.2,0.42,0.37,2019-08-20,09:18,N,nominal,1.0NRT,285.5,1.3,N
42.558,-114.08729,301.4,0.41,0.37,2019-08-20,09:18,N,nominal,1.0NRT,287.7,1.9,N
42.56075,-114.0815,327,0.41,0.37,2019-08-20,09:18,N,nominal,1.0NRT,290.8,12.1,N
42.56141,-114.08647,367,0.41,0.37,2019-08-20,09:18,N,high,1.0NRT,350.5,63.1,N
42.56207,-114.09145,331.3,0.41,0.37,2019-08-20,09:18,N,nominal,1.0NRT,292.9,63.1,N
42.56416,-114.08069,307.9,0.41,0.37,2019-08-20,09:18,N,nominal,1.0NRT,286.6,12.1,N
42.56548,-114.09065,301.8,0.41,0.37,2019-08-20,09:18,N,nominal,1.0NRT,284.8,63.1,N
42.56482,-114.08567,349.3,0.41,0.37,2019-08-20,09:18,N,nominal,1.0NRT,301.4,63.1,N
42.56823,-114.08487,303.4,0.41,0.37,2019-08-20,09:18,N,nominal,1.0NRT,282.7,0.9,N
41.2676,-105.60178,303.6,0.56,0.43,2019-08-20,09:18,N,nominal,1.0NRT,284.5,1.1,N
41.78106,-107.1065,297.1,0.48,0.4,2019-08-20,09:18,N,nominal,1.0NRT,282.4,1.5,N
43.14548,-115.66738,307.1,0.47,0.39,2019-08-20,09:18,N,nominal,1.0NRT,288,1.1,N
43.17909,-115.73647,299.2,0.47,0.4,2019-08-20,09:18,N,nominal,1.0NRT,287.6,0.4,N
42.68294,-111.59175,310.4,0.38,0.36,2019-08-20,09:18,N,nominal,1.0NRT,283.5,2.6,N
42.68621,-111.59081,326.7,0.38,0.36,2019-08-20,09:18,N,nominal,1.0NRT,283.3,2.6,N
44.28269,-118.4595,339.5,0.42,0.45,2019-08-20,09:18,N,nominal,1.0NRT,289.1,6.4,N
43.9992,-112.09721,341,0.39,0.36,2019-08-20,09:18,N,nominal,1.0NRT,285.7,9.3,N
44.0025,-112.09628,308.7,0.39,0.36,2019-08-20,09:18,N,nominal,1.0NRT,279.7,1.1,N
40.41033,-95.59855,307.3,0.59,0.7,2019-08-20,09:18,N,nominal,1.0NRT,292.7,1.3,N
45.22881,-123.16291,301.1,0.36,0.57,2019-08-20,09:18,N,nominal,1.0NRT,287.9,1.1,N
45.22903,-123.16763,305,0.36,0.57,2019-08-20,09:18,N,nominal,1.0NRT,288.4,1.4,N
40.41098,-95.60043,304.9,0.59,0.7,2019-08-20,09:18,N,nominal,1.0NRT,292.7,1.2,N
45.1713,-117.40117,309.8,0.38,0.43,2019-08-20,09:18,N,nominal,1.0NRT,287.6,1.9,N
45.18563,-117.46767,296.9,0.39,0.44,2019-08-20,09:18,N,nominal,1.0NRT,284.1,0.7,N
45.18952,-117.46548,298.9,0.39,0.44,2019-08-20,09:18,N,nominal,1.0NRT,287.8,1.1,N
45.19007,-117.47157,327,0.39,0.44,2019-08-20,09:18,N,nominal,1.0NRT,286.7,2.7,N
45.19333,-117.46238,299.8,0.39,0.44,2019-08-20,09:18,N,nominal,1.0NRT,286.2,1.1,N
45.1972,-117.45999,301.6,0.39,0.44,2019-08-20,09:18,N,nominal,1.0NRT,284.9,0.7,N
45.362,-114.4506,302,0.45,0.39,2019-08-20,09:18,N,nominal,1.0NRT,265,0.6,N
46.63146,-123.29253,299.8,0.37,0.58,2019-08-20,09:18,N,nominal,1.0NRT,282,0.7,N
46.01187,-112.27672,329.1,0.4,0.37,2019-08-20,09:18,N,nominal,1.0NRT,288.5,3.4,N
46.01257,-112.28178,329.7,0.4,0.37,2019-08-20,09:18,N,nominal,1.0NRT,286.4,2.8,N
46.01521,-112.27576,310.2,0.4,0.37,2019-08-20,09:18,N,nominal,1.0NRT,286.6,1.8,N
54.69645,-110.73466,297.5,0.49,0.65,2019-08-20,10:54,N,nominal,1.0NRT,275,1.3,N
57.00355,-111.4777,301,0.38,0.59,2019-08-20,10:54,N,nominal,1.0NRT,281.2,1,N
55.5259,-110.86971,304.3,0.45,0.63,2019-08-20,10:54,N,nominal,1.0NRT,276.9,0.8,N
57.00803,-111.47183,296.1,0.38,0.59,2019-08-20,10:54,N,nominal,1.0NRT,279.2,1,N
57.04375,-111.61491,299.9,0.38,0.58,2019-08-20,10:54,N,nominal,1.0NRT,283.4,1,N
57.03912,-111.62025,296.5,0.38,0.58,2019-08-20,10:54,N,nominal,1.0NRT,280.7,1,N
61.88608,-146.40689,318.8,0.37,0.58,2019-08-20,10:54,N,nominal,1.0NRT,275.2,3.5,N
61.88599,-146.40103,318.6,0.37,0.58,2019-08-20,10:54,N,nominal,1.0NRT,275.2,2.8,N
47.56834,-122.36788,319.8,0.63,0.54,2019-08-20,11:00,N,nominal,1.0NRT,285.6,2.2,N
47.56868,-122.36707,320.9,0.63,0.54,2019-08-20,11:00,N,nominal,1.0NRT,286.1,3.2,N
47.56671,-122.34003,302.7,0.63,0.54,2019-08-20,11:00,N,nominal,1.0NRT,286.1,1,N
44.28035,-118.45567,296,0.59,0.7,2019-08-20,11:00,N,nominal,1.0NRT,284.3,1.4,N
45.22861,-123.16465,327.8,0.34,0.56,2019-08-20,11:00,N,nominal,1.0NRT,288.5,2.2,N
54.36217,-118.53385,298.1,0.55,0.51,2019-08-20,11:00,N,nominal,1.0NRT,279,1,N
47.5662,-122.34079,301.9,0.63,0.54,2019-08-20,11:00,N,nominal,1.0NRT,286.2,1.4,N
53.26016,-109.94639,297.4,0.6,0.7,2019-08-20,11:00,N,nominal,1.0NRT,279.6,1.8,N
53.2634,-109.93742,305.6,0.6,0.7,2019-08-20,11:00,N,nominal,1.0NRT,279.6,1.4,N
49.26848,-124.71908,311.2,0.45,0.47,2019-08-20,11:00,N,nominal,1.0NRT,282.1,1.1,N
45.83836,-73.24703,339.6,0.45,0.39,2019-08-20,17:24,N,nominal,1.0NRT,308.2,8.9,D
40.61161,-75.32295,334.7,0.46,0.47,2019-08-20,17:24,N,low,1.0NRT,307.7,6.7,D
40.61285,-75.31758,333.3,0.46,0.47,2019-08-20,17:24,N,low,1.0NRT,306.9,6.7,D
40.58064,-75.47173,328.3,0.46,0.47,2019-08-20,17:24,N,low,1.0NRT,303.2,4.2,D
40.61197,-75.33366,329,0.46,0.47,2019-08-20,17:24,N,low,1.0NRT,303.2,7.7,D
40.61019,-75.32133,334.5,0.46,0.47,2019-08-20,17:24,N,low,1.0NRT,308.6,15.9,D
40.0657,-76.76047,330,0.55,0.51,2019-08-20,17:24,N,nominal,1.0NRT,302,5.2,D
46.51726,-84.39896,329.1,0.42,0.61,2019-08-20,17:24,N,nominal,1.0NRT,297.3,4.8,D
46.3905,-84.95813,334.2,0.44,0.63,2019-08-20,17:24,N,nominal,1.0NRT,295.2,5.7,D
51.21081,-94.63354,336.1,0.71,0.75,2019-08-20,17:24,N,nominal,1.0NRT,289.2,5.8,D
46.57448,-80.80075,328.1,0.58,0.52,2019-08-20,17:24,N,nominal,1.0NRT,301.8,1.9,D
44.6033,-84.0528,330.3,0.46,0.63,2019-08-20,17:24,N,nominal,1.0NRT,271.7,7.1,D
44.60589,-84.06351,367,0.46,0.63,2019-08-20,17:24,N,low,1.0NRT,273.9,9,D
44.60761,-84.05796,346.6,0.46,0.63,2019-08-20,17:24,N,nominal,1.0NRT,272.4,9,D
44.60542,-84.06709,328.7,0.46,0.64,2019-08-20,17:24,N,nominal,1.0NRT,270.4,7.2,D
44.60711,-84.06154,356.4,0.46,0.64,2019-08-20,17:24,N,nominal,1.0NRT,272.5,7.2,D
44.60161,-84.05836,336.4,0.46,0.64,2019-08-20,17:24,N,nominal,1.0NRT,269.5,7,D
45.08109,-75.73535,327.3,0.57,0.43,2019-08-20,17:24,N,low,1.0NRT,302.2,4.9,D
45.24208,-74.8061,333.4,0.52,0.41,2019-08-20,17:24,N,nominal,1.0NRT,300.4,5.4,D
45.25679,-74.5632,335,0.51,0.41,2019-08-20,17:24,N,nominal,1.0NRT,301.1,10.9,D
45.77448,-65.39365,331.8,0.43,0.38,2019-08-20,17:24,N,nominal,1.0NRT,299.9,3,D
43.27347,-75.5702,334.2,0.41,0.45,2019-08-20,17:24,N,nominal,1.0NRT,300.1,2.2,D
43.1756,-75.31515,328.7,0.4,0.44,2019-08-20,17:24,N,low,1.0NRT,299.6,3.3,D
41.2174,-80.51071,325.7,0.39,0.6,2019-08-20,17:24,N,low,1.0NRT,295.8,6.2,D
40.39582,-79.86047,326.3,0.39,0.59,2019-08-20,17:24,N,nominal,1.0NRT,291.1,4.5,D
40.39185,-79.85361,333.1,0.39,0.59,2019-08-20,17:24,N,nominal,1.0NRT,289.5,5,D
40.17139,-77.24138,328.1,0.58,0.52,2019-08-20,17:24,N,low,1.0NRT,300.5,5.6,D
45.422,-74.96919,328.4,0.52,0.42,2019-08-20,17:24,N,nominal,1.0NRT,299.5,2.3,D
42.46651,-94.71086,334.6,0.39,0.36,2019-08-20,19:00,N,nominal,1.0NRT,296.6,2.4,D
40.7562,-81.4339,333.6,0.33,0.56,2019-08-20,19:00,N,nominal,1.0NRT,292.3,3,D
40.75514,-81.43329,333.3,0.33,0.56,2019-08-20,19:00,N,nominal,1.0NRT,291.9,3.4,D
42.4632,-94.70986,329.4,0.39,0.36,2019-08-20,19:00,N,nominal,1.0NRT,296.8,1.5,D
43.82518,-81.39462,327,0.36,0.57,2019-08-20,19:00,N,nominal,1.0NRT,285.1,1.4,D
42.34047,-94.58135,327.1,0.39,0.36,2019-08-20,19:00,N,nominal,1.0NRT,296.5,1.3,D
43.27242,-79.79473,329.8,0.42,0.61,2019-08-20,19:00,N,nominal,1.0NRT,286.4,2.1,D
41.48345,-90.82529,332.3,0.4,0.37,2019-08-20,19:00,N,nominal,1.0NRT,293.1,3.9,D
42.31636,-76.76447,329.2,0.6,0.7,2019-08-20,19:00,N,nominal,1.0NRT,290.6,2.4,D
41.14797,-80.77434,329.4,0.36,0.58,2019-08-20,19:00,N,nominal,1.0NRT,293.8,2.8,D
47.84734,-103.22998,332.5,0.4,0.44,2019-08-20,19:06,N,nominal,1.0NRT,298.2,2,D
48.0373,-102.86979,339.1,0.38,0.44,2019-08-20,19:06,N,nominal,1.0NRT,299.1,3.3,D
48.11102,-102.57803,336.3,0.56,0.43,2019-08-20,19:06,N,nominal,1.0NRT,298.9,3.7,D
48.11192,-102.88763,340.6,0.38,0.43,2019-08-20,19:06,N,nominal,1.0NRT,300.1,2.6,D
49.45688,-100.69005,333,0.46,0.39,2019-08-20,19:06,N,nominal,1.0NRT,299.8,5.1,D
50.15456,-97.77025,327.7,0.39,0.36,2019-08-20,19:06,N,nominal,1.0NRT,296.2,2.6,D
50.5429,-97.89188,339.8,0.39,0.36,2019-08-20,19:06,N,nominal,1.0NRT,305.7,19.8,D
50.54616,-97.89323,336.5,0.39,0.36,2019-08-20,19:06,N,nominal,1.0NRT,299.6,21.7,D
50.54525,-97.89864,343.6,0.39,0.36,2019-08-20,19:06,N,nominal,1.0NRT,303.6,21.7,D
50.64171,-99.04599,333.7,0.4,0.37,2019-08-20,19:06,N,low,1.0NRT,305.2,3.7,D
50.64072,-99.05157,333.2,0.4,0.37,2019-08-20,19:06,N,low,1.0NRT,305.1,3.7,D
50.64501,-99.04743,331.6,0.4,0.37,2019-08-20,19:06,N,low,1.0NRT,306,3.6,D
50.64832,-99.04889,332.8,0.4,0.37,2019-08-20,19:06,N,low,1.0NRT,306.5,3.6,D
50.64829,-99.0509,333,0.4,0.37,2019-08-20,19:06,N,nominal,1.0NRT,307.5,3.8,D
51.36243,-98.69195,327.6,0.39,0.37,2019-08-20,19:06,N,nominal,1.0NRT,299,2,D
46.61068,-116.50173,332.1,0.78,0.78,2019-08-20,19:06,N,nominal,1.0NRT,300.9,6.3,D
46.61687,-116.50745,350,0.78,0.78,2019-08-20,19:06,N,nominal,1.0NRT,298.1,6.3,D
50.51587,-104.63075,339.8,0.39,0.44,2019-08-20,19:06,N,nominal,1.0NRT,303.2,2.7,D
50.51632,-104.62774,339.3,0.39,0.44,2019-08-20,19:06,N,nominal,1.0NRT,301.7,4.5,D
51.2629,-101.75998,336.4,0.46,0.39,2019-08-20,19:06,N,nominal,1.0NRT,299.5,5.6,D
52.84254,-95.82675,334.8,0.39,0.36,2019-08-20,19:06,N,nominal,1.0NRT,294.2,4.5,D
52.84584,-95.82801,343.9,0.39,0.36,2019-08-20,19:06,N,nominal,1.0NRT,294.1,4.5,D
51.04019,-106.16669,325.6,0.44,0.46,2019-08-20,19:06,N,nominal,1.0NRT,294,2.3,D
52.22421,-100.93703,336.5,0.42,0.38,2019-08-20,19:06,N,nominal,1.0NRT,297.9,3.6,D
54.33499,-109.33002,339.9,0.46,0.47,2019-08-20,19:06,N,nominal,1.0NRT,294.4,8.7,D
54.33328,-109.33659,337.7,0.46,0.47,2019-08-20,19:06,N,nominal,1.0NRT,292.5,9.1,D
54.33901,-109.33305,330.2,0.46,0.47,2019-08-20,19:06,N,nominal,1.0NRT,289.8,8.7,D
56.10481,-118.97201,325.3,0.42,0.61,2019-08-20,19:06,N,nominal,1.0NRT,283.4,3,D
42.51623,-96.31247,332.8,0.42,0.38,2019-08-20,19:06,N,nominal,1.0NRT,298.3,2.9,D
43.20693,-94.50064,327.4,0.39,0.36,2019-08-20,19:06,N,nominal,1.0NRT,295,1.3,D
43.26781,-94.52908,326.7,0.39,0.36,2019-08-20,19:06,N,nominal,1.0NRT,295,1.2,D
43.34521,-95.44015,329.7,0.4,0.37,2019-08-20,19:06,N,nominal,1.0NRT,297.8,1.7,D
40.37958,-110.08633,338.2,0.66,0.73,2019-08-20,19:06,N,nominal,1.0NRT,306.2,3.3,D
43.5714,-105.3582,331.3,0.32,0.55,2019-08-20,19:06,N,low,1.0NRT,302.5,1,D
45.95415,-94.06039,342.3,0.38,0.36,2019-08-20,19:06,N,nominal,1.0NRT,295.2,3.5,D
42.68191,-111.59505,336.5,0.66,0.73,2019-08-20,19:06,N,low,1.0NRT,310.4,5.6,D
42.68425,-111.59691,337.6,0.66,0.73,2019-08-20,19:06,N,low,1.0NRT,309.6,13.2,D
45.20258,-106.50987,367,0.33,0.55,2019-08-20,19:06,N,high,1.0NRT,310.8,35.7,D
45.20357,-106.50626,341.1,0.33,0.55,2019-08-20,19:06,N,nominal,1.0NRT,306.1,16.2,D
45.20159,-106.51351,338.6,0.33,0.55,2019-08-20,19:06,N,nominal,1.0NRT,305.3,35.7,D
45.20842,-106.50864,367,0.33,0.55,2019-08-20,19:06,N,high,1.0NRT,308.5,16.2,D
45.20743,-106.51228,367,0.33,0.55,2019-08-20,19:06,N,high,1.0NRT,316.1,35.7,D
45.21327,-106.51105,367,0.33,0.55,2019-08-20,19:06,N,high,1.0NRT,305.2,28.8,D
45.21225,-106.51476,356.3,0.33,0.55,2019-08-20,19:06,N,nominal,1.0NRT,317.5,34.3,D
45.21122,-106.51855,346.2,0.33,0.55,2019-08-20,19:06,N,nominal,1.0NRT,308.7,34.3,D
45.21608,-106.52093,347.5,0.33,0.55,2019-08-20,19:06,N,nominal,1.0NRT,302.5,34.3,D
45.21503,-106.52479,354.5,0.33,0.55,2019-08-20,19:06,N,nominal,1.0NRT,306.8,26,D
47.58848,-102.90321,337.2,0.4,0.44,2019-08-20,19:06,N,nominal,1.0NRT,299.4,2.6,D
47.91923,-102.85754,328.7,0.39,0.44,2019-08-20,19:06,N,nominal,1.0NRT,298.3,2.2,D
47.85009,-103.23701,328.9,0.4,0.44,2019-08-20,19:06,N,nominal,1.0NRT,298,1.5,D
45.3573,-114.43926,331.7,0.49,0.4,2019-08-20,20:42,N,nominal,1.0NRT,295.1,2.5,D
44.29128,-118.45718,332.6,0.39,0.36,2019-08-20,20:42,N,nominal,1.0NRT,301.3,2.7,D
44.28728,-118.46104,344.2,0.39,0.36,2019-08-20,20:42,N,nominal,1.0NRT,312,60.2,D
44.28401,-118.46007,367,0.39,0.36,2019-08-20,20:42,N,high,1.0NRT,353.8,60.2,D
44.28472,-118.45526,367,0.39,0.36,2019-08-20,20:42,N,high,1.0NRT,348.9,295.5,D
45.21339,-106.51849,335.2,0.38,0.58,2019-08-20,20:42,N,nominal,1.0NRT,299.9,5.6,D
45.21359,-106.51324,339.4,0.38,0.58,2019-08-20,20:42,N,nominal,1.0NRT,302.1,5.6,D
45.2132,-106.52368,367,0.38,0.58,2019-08-20,20:42,N,high,1.0NRT,302.4,7.8,D
45.20815,-106.51284,339.3,0.38,0.58,2019-08-20,20:42,N,nominal,1.0NRT,302.4,7.6,D
45.21218,-106.52274,354.8,0.38,0.58,2019-08-20,20:42,N,nominal,1.0NRT,302.3,5.8,D
45.2124,-106.51756,338.4,0.38,0.58,2019-08-20,20:42,N,nominal,1.0NRT,299.5,5.8,D
45.21263,-106.51229,342.6,0.38,0.58,2019-08-20,20:42,N,nominal,1.0NRT,302.3,4.1,D
45.20718,-106.51195,341,0.38,0.58,2019-08-20,20:42,N,nominal,1.0NRT,301.9,4.1,D
45.20742,-106.50642,332.2,0.38,0.58,2019-08-20,20:42,N,low,1.0NRT,302.3,4.1,D
43.56981,-116.93332,346.4,0.4,0.37,2019-08-20,20:42,N,nominal,1.0NRT,314.3,11.4,D
43.56579,-116.9374,337.1,0.4,0.37,2019-08-20,20:42,N,low,1.0NRT,311.2,7,D
43.56645,-116.93246,343.3,0.4,0.37,2019-08-20,20:42,N,nominal,1.0NRT,309.5,7,D
43.01213,-111.28642,340.9,0.42,0.45,2019-08-20,20:42,N,nominal,1.0NRT,303.7,12.8,D
43.00797,-111.28565,348,0.42,0.45,2019-08-20,20:42,N,nominal,1.0NRT,302.4,6.4,D
42.10464,-113.38164,345.1,0.5,0.41,2019-08-20,20:42,N,nominal,1.0NRT,320,132.6,D
42.10158,-113.37484,367,0.5,0.41,2019-08-20,20:42,N,low,1.0NRT,325.7,132.6,D
42.10092,-113.3809,367,0.5,0.41,2019-08-20,20:42,N,high,1.0NRT,363.9,132.6,D
42.09719,-113.38017,367,0.5,0.41,2019-08-20,20:42,N,high,1.0NRT,346.2,94.6,D
40.95565,-110.43079,346.7,0.44,0.46,2019-08-20,20:42,N,nominal,1.0NRT,307.1,50.9,D
40.38286,-110.08202,345.4,0.45,0.47,2019-08-20,20:42,N,nominal,1.0NRT,319.5,9.3,D
45.36326,-114.45396,349.8,0.49,0.4,2019-08-20,20:42,N,nominal,1.0NRT,306.8,19.8,D
45.36103,-114.4399,333.7,0.49,0.4,2019-08-20,20:42,N,nominal,1.0NRT,300.5,5.5,D
45.19554,-117.45505,347.6,0.4,0.37,2019-08-20,20:48,N,nominal,1.0NRT,313.4,36.9,D
45.19952,-117.45125,343.9,0.4,0.37,2019-08-20,20:48,N,nominal,1.0NRT,305.4,105,D
45.19757,-117.46571,332.3,0.4,0.37,2019-08-20,20:48,N,nominal,1.0NRT,307.1,86.5,D
45.20219,-117.45712,367,0.4,0.37,2019-08-20,20:48,N,high,1.0NRT,332.4,105,D
45.20152,-117.46206,367,0.4,0.37,2019-08-20,20:48,N,high,1.0NRT,336.5,86.5,D
45.20285,-117.45219,338.8,0.4,0.37,2019-08-20,20:48,N,nominal,1.0NRT,295.1,105,D
44.70578,-121.13939,342.3,0.4,0.37,2019-08-20,20:48,N,low,1.0NRT,314.6,10.6,D
44.71736,-121.13282,338.7,0.4,0.37,2019-08-20,20:48,N,nominal,1.0NRT,313.5,3.4,D
44.71652,-121.13775,336.5,0.4,0.37,2019-08-20,20:48,N,low,1.0NRT,311.5,3.3,D
46.01027,-112.27762,344.2,0.41,0.45,2019-08-20,20:48,N,nominal,1.0NRT,295.4,40.9,D
46.01436,-112.27864,355.6,0.41,0.45,2019-08-20,20:48,N,nominal,1.0NRT,306.9,40.9,D
46.01846,-112.27959,344.6,0.41,0.45,2019-08-20,20:48,N,nominal,1.0NRT,298.2,6.2,D
44.79914,-122.66292,345.7,0.42,0.38,2019-08-20,20:48,N,nominal,1.0NRT,307.3,38.8,D
44.79818,-122.66823,343.4,0.42,0.38,2019-08-20,20:48,N,nominal,1.0NRT,305.7,34.6,D
44.80156,-122.66953,367,0.42,0.38,2019-08-20,20:48,N,high,1.0NRT,340,144.8,D
44.80253,-122.66423,355,0.42,0.38,2019-08-20,20:48,N,nominal,1.0NRT,304.3,60.6,D
44.80592,-122.6655,353.5,0.42,0.38,2019-08-20,20:48,N,nominal,1.0NRT,300.4,60.6,D
44.80399,-122.67612,335.7,0.42,0.38,2019-08-20,20:48,N,nominal,1.0NRT,304.3,144.8,D
44.81421,-122.705,337.9,0.43,0.38,2019-08-20,20:48,N,nominal,1.0NRT,302.1,2.8,D
44.81763,-122.70614,352.2,0.43,0.38,2019-08-20,20:48,N,nominal,1.0NRT,313.4,19.7,D
44.82104,-122.70734,340.1,0.43,0.38,2019-08-20,20:48,N,nominal,1.0NRT,300.5,19.7,D
44.82344,-122.71398,334.7,0.43,0.38,2019-08-20,20:48,N,nominal,1.0NRT,301.7,5.1,D
44.82683,-122.71529,334.7,0.43,0.38,2019-08-20,20:48,N,nominal,1.0NRT,298.8,5.1,D
44.82584,-122.72063,332.6,0.43,0.38,2019-08-20,20:48,N,nominal,1.0NRT,298.3,4.4,D
44.85512,-122.67991,332,0.42,0.38,2019-08-20,20:48,N,nominal,1.0NRT,278.2,3.2,D
44.85415,-122.6852,335.8,0.42,0.38,2019-08-20,20:48,N,nominal,1.0NRT,287.3,3.9,D
44.84625,-122.72805,332.4,0.43,0.38,2019-08-20,20:48,N,nominal,1.0NRT,300.5,3.4,D
44.85754,-122.68649,346.5,0.42,0.38,2019-08-20,20:48,N,nominal,1.0NRT,300.4,40.8,D
44.84966,-122.72929,355.3,0.43,0.38,2019-08-20,20:48,N,nominal,1.0NRT,305.4,15.8,D
44.84867,-122.73462,328.3,0.43,0.38,2019-08-20,20:48,N,nominal,1.0NRT,296.4,15.8,D
44.86092,-122.68777,348.3,0.42,0.38,2019-08-20,20:48,N,nominal,1.0NRT,292.1,40.8,D
44.85306,-122.73051,338.9,0.43,0.38,2019-08-20,20:48,N,nominal,1.0NRT,292.1,15.8,D
44.84026,-122.79985,348,0.43,0.38,2019-08-20,20:48,N,nominal,1.0NRT,292.3,26.7,D
44.87536,-122.80683,347.3,0.43,0.38,2019-08-20,20:48,N,nominal,1.0NRT,290,4.3,D
45.06602,-122.63235,328.3,0.42,0.38,2019-08-20,20:48,N,nominal,1.0NRT,288.2,4.1,D
46.06564,-116.29341,348.9,0.43,0.38,2019-08-20,20:48,N,nominal,1.0NRT,316.4,14.5,D
46.1115,-116.18292,348.7,0.44,0.38,2019-08-20,20:48,N,nominal,1.0NRT,317.8,31.1,D
46.1185,-116.1847,341.6,0.44,0.38,2019-08-20,20:48,N,low,1.0NRT,311.9,5.2,D
46.26117,-116.24833,347.7,0.44,0.38,2019-08-20,20:48,N,nominal,1.0NRT,309.2,29.5,D
46.26467,-116.24919,347.7,0.44,0.38,2019-08-20,20:48,N,nominal,1.0NRT,321.2,29.5,D
46.26817,-116.25005,345.5,0.44,0.38,2019-08-20,20:48,N,nominal,1.0NRT,310.2,17.8,D
46.02982,-118.68213,342.4,0.39,0.36,2019-08-20,20:48,N,nominal,1.0NRT,313.3,4.2,D
46.59577,-116.48295,355.6,0.43,0.38,2019-08-20,20:48,N,nominal,1.0NRT,309.6,53.2,D
46.59509,-116.48855,367,0.43,0.38,2019-08-20,20:48,N,low,1.0NRT,330.9,53.2,D
47.82746,-102.60805,336.3,0.59,0.7,2019-08-20,20:48,N,nominal,1.0NRT,294.1,4.7,D
47.39856,-114.30624,337.2,0.52,0.42,2019-08-20,20:48,N,low,1.0NRT,310.2,26.6,D
47.39787,-114.31308,338.9,0.52,0.42,2019-08-20,20:48,N,low,1.0NRT,313.7,34.8,D
46.73556,-119.8731,343.3,0.38,0.36,2019-08-20,20:48,N,low,1.0NRT,313.7,53.9,D
48.09079,-103.2783,326.6,0.55,0.68,2019-08-20,20:48,N,nominal,1.0NRT,291.9,3.2,D
48.09114,-103.27663,326.1,0.55,0.68,2019-08-20,20:48,N,nominal,1.0NRT,291.5,3,D
48.10967,-102.57874,337.9,0.6,0.7,2019-08-20,20:48,N,nominal,1.0NRT,293.6,4.1,D
48.2529,-102.86536,367,0.58,0.7,2019-08-20,20:48,N,high,1.0NRT,298.4,31.1,D
47.44743,-117.0134,338.5,0.43,0.38,2019-08-20,20:48,N,nominal,1.0NRT,306.6,6.3,D
47.44674,-117.01905,351.8,0.43,0.38,2019-08-20,20:48,N,nominal,1.0NRT,313,15.4,D
47.45089,-117.01435,350.2,0.43,0.38,2019-08-20,20:48,N,nominal,1.0NRT,308.6,6.3,D
47.4502,-117.01998,354.6,0.43,0.38,2019-08-20,20:48,N,nominal,1.0NRT,314.3,15.4,D
47.4627,-118.89475,346.2,0.39,0.36,2019-08-20,20:48,N,low,1.0NRT,317.5,12,D
47.46602,-118.89577,347.8,0.39,0.36,2019-08-20,20:48,N,nominal,1.0NRT,318,6.3,D
47.95668,-116.28913,345.7,0.45,0.39,2019-08-20,20:48,N,nominal,1.0NRT,302.3,11.4,D
49.02335,-101.94357,354.1,0.64,0.72,2019-08-20,20:48,N,nominal,1.0NRT,294.4,8.7,D
49.02342,-101.95252,338.8,0.64,0.72,2019-08-20,20:48,N,nominal,1.0NRT,294.8,8.7,D
49.02431,-101.94731,367,0.64,0.72,2019-08-20,20:48,N,high,1.0NRT,297.7,18.2,D
45.75289,-122.64658,334,0.41,0.37,2019-08-20,20:48,N,nominal,1.0NRT,297.1,5.1,D
49.45569,-100.6952,327.3,0.73,0.76,2019-08-20,20:48,N,nominal,1.0NRT,292.1,5.8,D
48.95137,-116.47128,367,0.46,0.39,2019-08-20,20:48,N,high,1.0NRT,314.2,31,D
48.95065,-116.47752,367,0.46,0.39,2019-08-20,20:48,N,high,1.0NRT,314.7,12.1,D
48.94995,-116.48376,352,0.46,0.39,2019-08-20,20:48,N,nominal,1.0NRT,313.2,12.1,D
48.94924,-116.49,342.8,0.46,0.39,2019-08-20,20:48,N,nominal,1.0NRT,311,4.7,D
48.95353,-116.48468,367,0.46,0.39,2019-08-20,20:48,N,high,1.0NRT,310.5,13.2,D
48.95424,-116.47845,345.5,0.46,0.39,2019-08-20,20:48,N,nominal,1.0NRT,308.3,13.2,D
48.95282,-116.4909,346.2,0.46,0.39,2019-08-20,20:48,N,nominal,1.0NRT,308.6,3.8,D
48.95211,-116.49712,335.2,0.46,0.39,2019-08-20,20:48,N,nominal,1.0NRT,309.5,3.8,D
50.63865,-111.04539,340.5,0.51,0.5,2019-08-20,20:48,N,nominal,1.0NRT,307.4,14.1,D
50.64326,-111.04606,367,0.51,0.5,2019-08-20,20:48,N,high,1.0NRT,309.5,14.1,D
50.64278,-111.05347,356.3,0.51,0.5,2019-08-20,20:48,N,nominal,1.0NRT,311.1,14.9,D
50.64739,-111.0541,350.9,0.51,0.5,2019-08-20,20:48,N,nominal,1.0NRT,315.2,59.9,D
50.64692,-111.06149,300.2,0.51,0.5,2019-08-20,20:48,N,low,1.0NRT,306.4,59.9,D
50.64221,-111.04631,367,0.52,0.5,2019-08-20,20:48,N,high,1.0NRT,311.4,35.7,D
50.64177,-111.05374,340.4,0.51,0.5,2019-08-20,20:48,N,nominal,1.0NRT,306.6,35.7,D
50.64638,-111.0544,367,0.51,0.5,2019-08-20,20:48,N,high,1.0NRT,320.9,35.7,D
52.21112,-115.0401,335.2,0.55,0.43,2019-08-20,20:48,N,nominal,1.0NRT,295.8,7.8,D
53.03871,-110.59212,327.9,0.57,0.52,2019-08-20,20:48,N,nominal,1.0NRT,292.6,3.4,D
54.33508,-109.33488,367,0.33,0.55,2019-08-20,20:48,N,high,1.0NRT,292.4,8.9,D
54.33527,-109.32972,342.8,0.33,0.55,2019-08-20,20:48,N,nominal,1.0NRT,289.3,8.9,D
54.4201,-117.75579,340.9,0.48,0.4,2019-08-20,20:48,N,nominal,1.0NRT,302.7,29.9,D
54.87337,-118.47133,332.5,0.46,0.39,2019-08-20,20:48,N,nominal,1.0NRT,295.1,2.9,D
55.24781,-114.51335,333.3,0.42,0.45,2019-08-20,20:48,N,nominal,1.0NRT,292.5,2.6,D
45.35788,-114.44116,338.4,0.49,0.4,2019-08-20,20:48,N,nominal,1.0NRT,301.3,5.1,D
45.36023,-114.45489,332.1,0.49,0.4,2019-08-20,20:48,N,low,1.0NRT,305.6,7.7,D
45.36385,-114.45646,350.8,0.49,0.4,2019-08-20,20:48,N,nominal,1.0NRT,306.7,7.7,D
44.50303,-121.20715,338.5,0.4,0.37,2019-08-20,20:48,N,nominal,1.0NRT,307.9,2.2,D
46.16478,-102.79685,367,0.58,0.69,2019-08-20,20:48,N,high,1.0NRT,294.7,10.5,D
45.1689,-117.3951,352.2,0.4,0.37,2019-08-20,20:48,N,nominal,1.0NRT,314.5,10.2,D
45.17225,-117.39603,349.7,0.4,0.37,2019-08-20,20:48,N,nominal,1.0NRT,310.2,21.9,D
45.17161,-117.40086,350.7,0.4,0.37,2019-08-20,20:48,N,nominal,1.0NRT,315.6,9.8,D
45.1697,-117.41512,348.5,0.4,0.37,2019-08-20,20:48,N,nominal,1.0NRT,310.5,12.1,D
45.17495,-117.40182,350.6,0.4,0.37,2019-08-20,20:48,N,nominal,1.0NRT,300,9.8,D
45.1743,-117.40665,334.9,0.4,0.37,2019-08-20,20:48,N,nominal,1.0NRT,301.8,9.8,D
45.17366,-117.41143,338.8,0.4,0.37,2019-08-20,20:48,N,nominal,1.0NRT,308.4,12.1,D
45.17237,-117.42106,336.1,0.4,0.37,2019-08-20,20:48,N,low,1.0NRT,308.1,6.7,D
45.17829,-117.40282,337.8,0.4,0.37,2019-08-20,20:48,N,nominal,1.0NRT,307.4,65.9,D
45.18758,-117.43695,339.1,0.4,0.37,2019-08-20,20:48,N,nominal,1.0NRT,308.8,5.2,D
45.18701,-117.46695,339.3,0.4,0.37,2019-08-20,20:48,N,nominal,1.0NRT,308.8,6.1,D
45.18635,-117.47185,331.2,0.4,0.37,2019-08-20,20:48,N,low,1.0NRT,304.9,6.1,D
45.19095,-117.46342,333.7,0.4,0.37,2019-08-20,20:48,N,nominal,1.0NRT,307.3,64.9,D
45.19033,-117.46808,336.2,0.4,0.37,2019-08-20,20:48,N,low,1.0NRT,309.1,6.3,D
45.18969,-117.47286,347.6,0.4,0.37,2019-08-20,20:48,N,nominal,1.0NRT,309.8,6.3,D
45.19489,-117.45988,367,0.4,0.37,2019-08-20,20:48,N,high,1.0NRT,351.3,64.9,D
45.19886,-117.4561,367,0.4,0.37,2019-08-20,20:48,N,high,1.0NRT,360.1,105,D
45.1982,-117.46099,367,0.4,0.37,2019-08-20,20:48,N,high,1.0NRT,363.8,86.5,D
