latitude,longitude,bright_ti4,scan,track,acq_date,acq_time,satellite,confidence,version,bright_ti5,frp,daynight
47.79764,-53.99024,302.6,0.52,0.41,2019-08-25,06:00,N,nominal,1.0NRT,280.6,1,N
45.27905,-66.01206,299.3,0.47,0.4,2019-08-25,06:06,N,nominal,1.0NRT,285.2,1.2,N
45.27974,-66.01812,305.8,0.47,0.4,2019-08-25,06:06,N,nominal,1.0NRT,284.1,1.2,N
46.04275,-73.13911,301.2,0.33,0.55,2019-08-25,06:06,N,nominal,1.0NRT,285.2,1.5,N
46.04298,-73.14355,319.7,0.33,0.55,2019-08-25,06:06,N,nominal,1.0NRT,287.5,1.5,N
46.04403,-73.13712,295.2,0.33,0.55,2019-08-25,06:06,N,nominal,1.0NRT,284.7,1.3,N
46.04424,-73.14154,315.8,0.33,0.55,2019-08-25,06:06,N,nominal,1.0NRT,287.7,1.5,N
46.04444,-73.14598,297.7,0.33,0.55,2019-08-25,06:06,N,nominal,1.0NRT,287.6,1.5,N
42.80507,-80.10574,309,0.7,0.75,2019-08-25,06:06,N,nominal,1.0NRT,284.8,4.8,N
40.39756,-79.8568,313.6,0.66,0.73,2019-08-25,06:06,N,nominal,1.0NRT,285.4,1.7,N
40.39067,-79.85753,311.3,0.66,0.73,2019-08-25,06:06,N,nominal,1.0NRT,286.5,1.7,N
40.39062,-79.84905,297.8,0.66,0.73,2019-08-25,06:06,N,nominal,1.0NRT,284.1,1.7,N
40.39775,-79.8537,306.3,0.66,0.73,2019-08-25,06:06,N,nominal,1.0NRT,284.3,2,N
40.39087,-79.85467,313.6,0.66,0.73,2019-08-25,06:06,N,nominal,1.0NRT,285.7,4.2,N
40.30222,-79.8774,298.6,0.66,0.73,2019-08-25,06:06,N,nominal,1.0NRT,286.5,1.7,N
42.80505,-80.09672,325.6,0.7,0.75,2019-08-25,06:06,N,nominal,1.0NRT,285.6,2.9,N
42.81206,-80.09663,301,0.7,0.75,2019-08-25,06:06,N,nominal,1.0NRT,284.8,2.9,N
42.80241,-80.09748,317.1,0.7,0.75,2019-08-25,06:06,N,nominal,1.0NRT,285.1,3.3,N
42.80239,-80.10651,310.8,0.7,0.75,2019-08-25,06:06,N,nominal,1.0NRT,285.1,3.3,N
42.80944,-80.09733,316.4,0.7,0.75,2019-08-25,06:06,N,nominal,1.0NRT,285.1,2.2,N
42.80942,-80.10632,297.6,0.7,0.75,2019-08-25,06:06,N,nominal,1.0NRT,283.7,2.2,N
42.82882,-77.80588,324.6,0.54,0.68,2019-08-25,06:06,N,nominal,1.0NRT,282.1,3.7,N
44.69655,-70.06494,306.8,0.46,0.47,2019-08-25,06:06,N,nominal,1.0NRT,280.5,1.6,N
44.70091,-70.06415,309.1,0.46,0.47,2019-08-25,06:06,N,nominal,1.0NRT,280.8,1.7,N
45.44332,-74.60182,313.9,0.39,0.59,2019-08-25,06:06,N,nominal,1.0NRT,281.7,2.4,N
45.44352,-74.6069,334.4,0.39,0.59,2019-08-25,06:06,N,nominal,1.0NRT,282.5,4.6,N
45.64211,-73.52471,302.2,0.34,0.56,2019-08-25,06:06,N,nominal,1.0NRT,288.3,0.8,N
42.79805,-80.10587,303.4,0.7,0.75,2019-08-25,06:06,N,nominal,1.0NRT,285.1,2.6,N
41.43772,-75.59534,296.3,0.41,0.6,2019-08-25,06:06,N,nominal,1.0NRT,283.9,0.3,N
41.43538,-75.59526,300.9,0.41,0.6,2019-08-25,06:06,N,nominal,1.0NRT,283.9,0.5,N
40.89424,-77.71045,309.1,0.52,0.67,2019-08-25,06:06,N,nominal,1.0NRT,282.7,1,N
40.888,-77.7105,299.2,0.52,0.67,2019-08-25,06:06,N,nominal,1.0NRT,282,1,N
40.89061,-77.71198,318.8,0.52,0.67,2019-08-25,06:06,N,nominal,1.0NRT,284.6,2.6,N
40.83221,-80.32159,298.1,0.7,0.75,2019-08-25,06:06,N,nominal,1.0NRT,283.6,0.8,N
40.83459,-80.31908,297.6,0.7,0.75,2019-08-25,06:06,N,nominal,1.0NRT,283.3,0.7,N
45.64167,-73.52322,300.7,0.34,0.56,2019-08-25,06:06,N,nominal,1.0NRT,288.1,0.9,N
45.779,-73.91335,296.4,0.36,0.57,2019-08-25,06:06,N,nominal,1.0NRT,281.9,0.3,N
45.83785,-73.24619,304.4,0.33,0.56,2019-08-25,06:06,N,nominal,1.0NRT,286.1,1.2,N
45.83808,-73.25063,318.9,0.33,0.56,2019-08-25,06:06,N,nominal,1.0NRT,287,1.2,N
45.83418,-73.25114,303.3,0.33,0.56,2019-08-25,06:06,N,nominal,1.0NRT,284.7,1,N
45.83936,-73.25063,311.5,0.33,0.56,2019-08-25,06:06,N,nominal,1.0NRT,287,1,N
45.83915,-73.24618,298.6,0.33,0.56,2019-08-25,06:06,N,nominal,1.0NRT,285,1,N
47.27008,-102.86308,299.2,0.54,0.68,2019-08-25,07:42,N,nominal,1.0NRT,286.2,0.6,N
43.27134,-79.80872,319.4,0.41,0.45,2019-08-25,07:42,N,nominal,1.0NRT,290,2.7,N
43.2702,-79.80374,308.1,0.41,0.45,2019-08-25,07:42,N,nominal,1.0NRT,289.3,1.5,N
43.12354,-79.17364,297.8,0.45,0.47,2019-08-25,07:42,N,nominal,1.0NRT,284.9,0.7,N
43.2662,-79.80546,317.3,0.41,0.45,2019-08-25,07:42,N,nominal,1.0NRT,289.1,1.5,N
43.2622,-79.80717,325.3,0.41,0.45,2019-08-25,07:42,N,nominal,1.0NRT,291,2.3,N
43.26334,-79.81212,301,0.41,0.45,2019-08-25,07:42,N,nominal,1.0NRT,287,2.4,N
43.29002,-79.98568,299.7,0.41,0.45,2019-08-25,07:42,N,nominal,1.0NRT,285.5,1.4,N
44.52519,-88.01431,300.4,0.39,0.36,2019-08-25,07:42,N,nominal,1.0NRT,287.1,1,N
48.13647,-102.74271,300.8,0.54,0.68,2019-08-25,07:42,N,nominal,1.0NRT,285,1.7,N
46.52388,-84.37381,298,0.4,0.37,2019-08-25,07:42,N,nominal,1.0NRT,286,1,N
46.523,-84.36874,315.9,0.4,0.37,2019-08-25,07:42,N,nominal,1.0NRT,287.5,1.6,N
46.52059,-84.37502,335.3,0.4,0.37,2019-08-25,07:42,N,nominal,1.0NRT,292.3,3.3,N
46.52147,-84.38008,298.4,0.4,0.37,2019-08-25,07:42,N,nominal,1.0NRT,285.2,3.3,N
48.11149,-102.88811,322.5,0.55,0.68,2019-08-25,07:42,N,nominal,1.0NRT,286.5,2.3,N
48.11152,-102.90344,296.5,0.55,0.68,2019-08-25,07:42,N,nominal,1.0NRT,285.7,2,N
42.72197,-83.26104,298.1,0.46,0.39,2019-08-25,07:42,N,nominal,1.0NRT,284.5,0.4,N
40.63729,-74.22163,303.6,0.45,0.63,2019-08-25,07:42,N,nominal,1.0NRT,288.7,1.8,N
43.70387,-88.38444,308.4,0.39,0.36,2019-08-25,07:42,N,nominal,1.0NRT,286.1,1.4,N
43.18673,-84.84443,331.8,0.41,0.37,2019-08-25,07:42,N,nominal,1.0NRT,284.9,3.4,N
42.9439,-82.41274,309.9,0.49,0.4,2019-08-25,07:42,N,nominal,1.0NRT,286.7,1,N
42.94873,-82.41724,301.6,0.49,0.4,2019-08-25,07:42,N,nominal,1.0NRT,288.9,2.1,N
42.81725,-81.32411,297,0.55,0.42,2019-08-25,07:42,N,nominal,1.0NRT,284.4,0.8,N
41.43554,-75.59233,295.7,0.36,0.58,2019-08-25,07:42,N,nominal,1.0NRT,282.8,0.5,N
42.96606,-81.87018,297.4,0.52,0.41,2019-08-25,07:42,N,nominal,1.0NRT,284.1,0.7,N
44.16905,-87.70208,299.2,0.39,0.36,2019-08-25,07:42,N,nominal,1.0NRT,284.7,0.4,N
42.79771,-80.09988,299.6,0.41,0.45,2019-08-25,07:42,N,nominal,1.0NRT,287.1,1.2,N
42.80171,-80.09822,299.5,0.41,0.45,2019-08-25,07:42,N,nominal,1.0NRT,285.9,2.5,N
42.80282,-80.1031,335.1,0.41,0.45,2019-08-25,07:42,N,nominal,1.0NRT,286.8,2.5,N
42.80682,-80.10145,311.6,0.41,0.45,2019-08-25,07:42,N,nominal,1.0NRT,286.2,2.5,N
42.80571,-80.09657,334,0.41,0.45,2019-08-25,07:42,N,nominal,1.0NRT,289.6,2.5,N
42.8086,-80.08998,312.4,0.41,0.45,2019-08-25,07:42,N,nominal,1.0NRT,286.5,1.2,N
42.80971,-80.09489,301.1,0.41,0.45,2019-08-25,07:42,N,nominal,1.0NRT,285.8,0.9,N
42.81082,-80.09979,296,0.41,0.45,2019-08-25,07:42,N,nominal,1.0NRT,284.8,0.9,N
46.51817,-84.38129,301.5,0.4,0.37,2019-08-25,07:42,N,nominal,1.0NRT,281.9,3.3,N
46.51665,-84.39264,327.8,0.4,0.37,2019-08-25,07:42,N,nominal,1.0NRT,287.6,1.8,N
48.09866,-103.28685,306.7,0.57,0.69,2019-08-25,07:42,N,nominal,1.0NRT,285.9,1.9,N
46.51335,-84.39384,308.8,0.4,0.37,2019-08-25,07:42,N,nominal,1.0NRT,284.6,1.8,N
48.08592,-103.14496,304.3,0.56,0.69,2019-08-25,07:42,N,nominal,1.0NRT,286.2,0.6,N
48.11022,-102.88966,311.7,0.55,0.68,2019-08-25,07:42,N,nominal,1.0NRT,285.9,2.4,N
48.09924,-103.28828,298.9,0.57,0.69,2019-08-25,07:42,N,nominal,1.0NRT,285.4,1.1,N
48.09922,-103.28051,303.9,0.57,0.69,2019-08-25,07:42,N,nominal,1.0NRT,285.6,1.1,N
48.08585,-103.14648,296.6,0.56,0.69,2019-08-25,07:42,N,nominal,1.0NRT,285.7,0.8,N
47.85488,-96.49725,303.8,0.55,0.51,2019-08-25,07:42,N,nominal,1.0NRT,267.6,4.3,N
48.0521,-102.76046,298.4,0.54,0.68,2019-08-25,07:42,N,nominal,1.0NRT,285.4,0.9,N
48.02127,-103.12432,297.2,0.56,0.69,2019-08-25,07:42,N,nominal,1.0NRT,286.1,0.6,N
48.0206,-102.82819,302,0.54,0.68,2019-08-25,07:42,N,nominal,1.0NRT,285,1.1,N
48.00733,-102.68034,300.4,0.54,0.67,2019-08-25,07:42,N,nominal,1.0NRT,284.1,0.8,N
48.01966,-102.83205,306,0.54,0.68,2019-08-25,07:42,N,nominal,1.0NRT,285.1,1,N
48.01196,-102.67654,298.2,0.53,0.67,2019-08-25,07:42,N,nominal,1.0NRT,283.3,0.8,N
47.96199,-102.77341,295.4,0.54,0.68,2019-08-25,07:42,N,nominal,1.0NRT,285,0.5,N
47.90531,-102.93327,296.7,0.55,0.68,2019-08-25,07:42,N,nominal,1.0NRT,285.5,0.4,N
47.87914,-102.68639,303.5,0.54,0.67,2019-08-25,07:42,N,nominal,1.0NRT,286.1,1,N
47.92274,-102.8621,298.8,0.55,0.68,2019-08-25,07:42,N,nominal,1.0NRT,286.2,0.8,N
47.90412,-102.93155,300.6,0.55,0.68,2019-08-25,07:42,N,nominal,1.0NRT,285.7,0.6,N
47.87869,-102.95496,298.4,0.55,0.68,2019-08-25,07:42,N,nominal,1.0NRT,285.4,0.6,N
47.87681,-102.68484,309.5,0.53,0.67,2019-08-25,07:42,N,nominal,1.0NRT,285.7,1.4,N
47.87307,-103.1181,295.6,0.56,0.69,2019-08-25,07:42,N,nominal,1.0NRT,285.2,0.2,N
47.84686,-102.9937,297.2,0.55,0.68,2019-08-25,07:42,N,nominal,1.0NRT,285.8,0.7,N
47.84622,-102.85703,308.5,0.54,0.68,2019-08-25,07:42,N,nominal,1.0NRT,285.1,1.9,N
47.84618,-102.84964,299.8,0.54,0.68,2019-08-25,07:42,N,nominal,1.0NRT,285.1,1.1,N
47.83184,-102.58239,333.7,0.53,0.67,2019-08-25,07:42,N,nominal,1.0NRT,286.6,3.5,N
47.83189,-102.59001,300.2,0.53,0.67,2019-08-25,07:42,N,nominal,1.0NRT,286,3.6,N
47.8258,-102.62126,299.1,0.53,0.67,2019-08-25,07:42,N,nominal,1.0NRT,286.2,2.4,N
47.82574,-102.61315,319.2,0.53,0.67,2019-08-25,07:42,N,nominal,1.0NRT,285.9,2,N
47.78815,-102.66438,299,0.53,0.67,2019-08-25,07:42,N,nominal,1.0NRT,285.5,0.4,N
47.81676,-102.57311,301.1,0.53,0.67,2019-08-25,07:42,N,nominal,1.0NRT,286,0.8,N
47.73543,-102.6394,305.5,0.53,0.67,2019-08-25,07:42,N,nominal,1.0NRT,286,1.3,N
47.73164,-103.19515,296.8,0.56,0.69,2019-08-25,07:42,N,nominal,1.0NRT,285.9,0.8,N
47.73091,-102.96195,297.5,0.55,0.68,2019-08-25,07:42,N,nominal,1.0NRT,286.1,0.7,N
47.72989,-102.75931,298,0.54,0.68,2019-08-25,07:42,N,nominal,1.0NRT,285.6,0.5,N
47.7288,-102.59579,300.6,0.53,0.67,2019-08-25,07:42,N,nominal,1.0NRT,286,0.8,N
47.72875,-102.58857,297,0.53,0.67,2019-08-25,07:42,N,nominal,1.0NRT,285.7,0.5,N
47.70413,-102.68562,298.4,0.53,0.67,2019-08-25,07:42,N,nominal,1.0NRT,286.1,0.8,N
47.69753,-102.63456,299.2,0.53,0.67,2019-08-25,07:42,N,nominal,1.0NRT,285.7,0.5,N
47.67208,-102.59106,305.7,0.53,0.67,2019-08-25,07:42,N,nominal,1.0NRT,285.9,1,N
47.70153,-102.68723,298.2,0.53,0.67,2019-08-25,07:42,N,nominal,1.0NRT,286,0.9,N
47.67528,-102.58537,304.2,0.53,0.67,2019-08-25,07:42,N,nominal,1.0NRT,285.9,0.5,N
47.67406,-102.46826,299.6,0.52,0.67,2019-08-25,07:42,N,nominal,1.0NRT,285.8,0.3,N
47.6311,-102.57144,297.4,0.53,0.67,2019-08-25,07:42,N,nominal,1.0NRT,286.2,0.9,N
47.59355,-102.6021,305.4,0.53,0.67,2019-08-25,07:42,N,nominal,1.0NRT,286.2,0.6,N
47.58867,-102.90661,304.2,0.55,0.68,2019-08-25,07:42,N,nominal,1.0NRT,287.2,1,N
47.58725,-102.60226,304.2,0.53,0.67,2019-08-25,07:42,N,nominal,1.0NRT,286.3,0.8,N
47.59097,-102.60625,298.3,0.53,0.67,2019-08-25,07:42,N,nominal,1.0NRT,285.9,0.7,N
47.59089,-102.59912,304,0.53,0.67,2019-08-25,07:42,N,nominal,1.0NRT,286.3,0.7,N
47.58742,-102.90279,297.6,0.55,0.68,2019-08-25,07:42,N,nominal,1.0NRT,286.3,0.7,N
47.58736,-102.89453,301.6,0.55,0.68,2019-08-25,07:42,N,nominal,1.0NRT,286.7,0.7,N
47.53507,-102.70502,303.8,0.53,0.67,2019-08-25,07:42,N,nominal,1.0NRT,286.5,1.2,N
47.52914,-102.76189,302.8,0.54,0.68,2019-08-25,07:42,N,nominal,1.0NRT,286.1,0.8,N
47.52346,-102.87165,297.3,0.54,0.68,2019-08-25,07:42,N,nominal,1.0NRT,286.6,0.6,N
47.4442,-102.74825,306.4,0.54,0.68,2019-08-25,07:42,N,nominal,1.0NRT,285.9,1,N
47.44415,-102.74095,313.7,0.54,0.68,2019-08-25,07:42,N,nominal,1.0NRT,286.3,1,N
47.41877,-102.73382,297.6,0.54,0.68,2019-08-25,07:42,N,nominal,1.0NRT,286.2,1.2,N
47.41872,-102.72645,304,0.54,0.67,2019-08-25,07:42,N,nominal,1.0NRT,286.6,1.2,N
47.41233,-102.71918,305.1,0.53,0.67,2019-08-25,07:42,N,nominal,1.0NRT,286.2,1,N
45.97451,-85.87526,304.6,0.38,0.36,2019-08-25,07:42,N,nominal,1.0NRT,287.6,0.6,N
45.97256,-85.87737,303.9,0.39,0.36,2019-08-25,07:42,N,nominal,1.0NRT,286.6,0.4,N
45.07324,-83.40138,304,0.43,0.38,2019-08-25,07:42,N,nominal,1.0NRT,286.2,1,N
45.06984,-83.40268,307.4,0.43,0.38,2019-08-25,07:42,N,nominal,1.0NRT,286.2,1,N
45.31546,-85.30004,297.1,0.39,0.36,2019-08-25,07:42,N,nominal,1.0NRT,286.6,0.6,N
43.49225,-79.62319,297,0.42,0.45,2019-08-25,07:42,N,nominal,1.0NRT,286.3,0.9,N
42.82991,-77.80508,333.3,0.52,0.5,2019-08-25,07:42,N,nominal,1.0NRT,282.6,5.6,N
43.2742,-79.802,308.4,0.41,0.45,2019-08-25,07:42,N,nominal,1.0NRT,288.7,1.5,N
43.27306,-79.79703,314.5,0.41,0.45,2019-08-25,07:42,N,nominal,1.0NRT,289.1,1.5,N
43.06873,-80.85496,310,0.57,0.43,2019-08-25,07:42,N,nominal,1.0NRT,284.9,2.3,N
45.28086,-66.01221,301.1,0.75,0.77,2019-08-25,07:42,N,nominal,1.0NRT,283,1.9,N
45.27561,-66.01113,296.5,0.75,0.77,2019-08-25,07:42,N,nominal,1.0NRT,281.2,1.1,N
46.04509,-73.1426,306.4,0.35,0.57,2019-08-25,07:42,N,nominal,1.0NRT,288.1,2.6,N
46.04389,-73.13835,305.5,0.35,0.57,2019-08-25,07:42,N,nominal,1.0NRT,287.6,1.8,N
45.83918,-73.2453,295.9,0.35,0.57,2019-08-25,07:42,N,nominal,1.0NRT,285.3,0.8,N
45.64309,-73.52263,300.5,0.35,0.56,2019-08-25,07:42,N,nominal,1.0NRT,287.9,0.7,N
45.33949,-73.52211,299,0.35,0.57,2019-08-25,07:42,N,nominal,1.0NRT,284.4,0.6,N
45.10883,-73.01018,295.6,0.38,0.59,2019-08-25,07:42,N,nominal,1.0NRT,282.9,0.8,N
45.44325,-74.60374,304,0.63,0.54,2019-08-25,07:42,N,nominal,1.0NRT,281.1,2.6,N
45.44682,-74.59973,295.5,0.63,0.54,2019-08-25,07:42,N,nominal,1.0NRT,281,0.8,N
45.4421,-74.60235,295.4,0.63,0.54,2019-08-25,07:42,N,nominal,1.0NRT,281,0.5,N
46.57759,-80.78918,332.1,0.49,0.4,2019-08-25,07:42,N,nominal,1.0NRT,282.8,7.3,N
46.57623,-80.78968,333.2,0.49,0.4,2019-08-25,07:42,N,nominal,1.0NRT,283.6,5.5,N
46.49032,-81.02815,302.1,0.48,0.4,2019-08-25,07:42,N,nominal,1.0NRT,285.7,1.3,N
45.78517,-77.92392,300.2,0.44,0.46,2019-08-25,07:42,N,nominal,1.0NRT,283.1,0.9,N
45.78391,-77.91862,298.6,0.44,0.46,2019-08-25,07:42,N,nominal,1.0NRT,284.2,1,N
48.40067,-103.46329,298.4,0.58,0.7,2019-08-25,07:42,N,nominal,1.0NRT,285.1,1,N
48.40259,-103.45913,302.6,0.58,0.7,2019-08-25,07:42,N,nominal,1.0NRT,285.4,0.9,N
48.40255,-103.36852,300.2,0.58,0.69,2019-08-25,07:42,N,nominal,1.0NRT,284.8,0.6,N
48.37638,-103.4767,297.7,0.58,0.7,2019-08-25,07:42,N,nominal,1.0NRT,284.8,0.4,N
48.36954,-103.61886,312.6,0.59,0.7,2019-08-25,07:42,N,nominal,1.0NRT,284.3,1.6,N
48.31142,-103.30396,297.1,0.57,0.69,2019-08-25,07:42,N,nominal,1.0NRT,284.2,0.6,N
48.31196,-103.3017,303.8,0.57,0.69,2019-08-25,07:42,N,nominal,1.0NRT,284.3,0.9,N
48.25337,-103.41696,298.4,0.58,0.7,2019-08-25,07:42,N,nominal,1.0NRT,285.2,0.9,N
48.17014,-103.30706,304.3,0.57,0.69,2019-08-25,07:42,N,nominal,1.0NRT,285.4,0.9,N
48.17011,-103.28414,299.9,0.57,0.69,2019-08-25,07:42,N,nominal,1.0NRT,285.2,0.9,N
48.14946,-102.80344,300.5,0.54,0.68,2019-08-25,07:42,N,nominal,1.0NRT,286.1,2.6,N
48.14943,-102.79563,305,0.54,0.68,2019-08-25,07:42,N,nominal,1.0NRT,285.8,1.6,N
42.47898,-87.88228,300.6,0.38,0.36,2019-08-25,07:48,N,nominal,1.0NRT,282.9,0.4,N
40.79469,-79.69901,301.1,0.48,0.48,2019-08-25,07:48,N,nominal,1.0NRT,283.4,0.5,N
41.46839,-83.3694,298,0.48,0.4,2019-08-25,07:48,N,nominal,1.0NRT,286.1,1.4,N
41.46726,-83.36377,317.8,0.48,0.4,2019-08-25,07:48,N,nominal,1.0NRT,288.5,1.4,N
41.46008,-83.36635,317.2,0.48,0.4,2019-08-25,07:48,N,nominal,1.0NRT,287.3,2.3,N
41.56647,-84.04472,329.1,0.45,0.39,2019-08-25,07:48,N,nominal,1.0NRT,287.9,3.4,N
41.56852,-84.05536,312.3,0.45,0.39,2019-08-25,07:48,N,nominal,1.0NRT,287.7,2.2,N
41.22665,-83.20885,311.4,0.49,0.4,2019-08-25,07:48,N,nominal,1.0NRT,286,1.7,N
41.22303,-83.21017,307.1,0.49,0.4,2019-08-25,07:48,N,nominal,1.0NRT,285.2,1.5,N
40.773,-81.41497,298.1,0.4,0.44,2019-08-25,07:48,N,nominal,1.0NRT,287.4,0.7,N
40.39464,-79.85387,338.8,0.48,0.48,2019-08-25,07:48,N,nominal,1.0NRT,288.4,2.1,N
40.39337,-79.84848,295,0.48,0.48,2019-08-25,07:48,N,nominal,1.0NRT,284.7,2.1,N
40.39035,-79.85553,301.2,0.48,0.48,2019-08-25,07:48,N,nominal,1.0NRT,288.6,1.6,N
40.45313,-80.28449,299.1,0.46,0.47,2019-08-25,07:48,N,nominal,1.0NRT,283.3,0.7,N
41.37293,-84.92232,301.7,0.43,0.38,2019-08-25,07:48,N,nominal,1.0NRT,287.5,1.2,N
41.36858,-84.91841,300.8,0.43,0.38,2019-08-25,07:48,N,nominal,1.0NRT,286.3,1.2,N
41.36609,-84.92456,319.1,0.43,0.38,2019-08-25,07:48,N,nominal,1.0NRT,286.4,1.6,N
41.36516,-84.91953,307.2,0.43,0.38,2019-08-25,07:48,N,nominal,1.0NRT,285.7,1.6,N
40.30352,-79.87925,301.7,0.48,0.48,2019-08-25,07:48,N,nominal,1.0NRT,286.8,1.4,N
40.30223,-79.87376,303.2,0.48,0.48,2019-08-25,07:48,N,nominal,1.0NRT,288,2.2,N
41.16302,-84.41219,299.6,0.45,0.39,2019-08-25,07:48,N,nominal,1.0NRT,284.6,0.4,N
41.64426,-87.13659,297.6,0.39,0.36,2019-08-25,07:48,N,nominal,1.0NRT,271.4,1.4,N
41.64098,-87.13756,321.3,0.39,0.36,2019-08-25,07:48,N,nominal,1.0NRT,271.7,1.4,N
41.64174,-87.14215,304.9,0.39,0.36,2019-08-25,07:48,N,nominal,1.0NRT,274.5,2.7,N
41.64022,-87.13296,319.3,0.39,0.36,2019-08-25,07:48,N,nominal,1.0NRT,268.2,1.4,N
41.63845,-87.14312,330.1,0.39,0.36,2019-08-25,07:48,N,nominal,1.0NRT,274,2.4,N
41.47632,-81.66425,330.6,0.56,0.43,2019-08-25,07:48,N,nominal,1.0NRT,288.8,2.7,N
41.6377,-87.13853,316.2,0.39,0.36,2019-08-25,07:48,N,nominal,1.0NRT,267.3,1.4,N
41.63694,-87.13393,313.6,0.39,0.36,2019-08-25,07:48,N,nominal,1.0NRT,263.4,1.4,N
41.63618,-87.12933,297.8,0.39,0.36,2019-08-25,07:48,N,nominal,1.0NRT,264.7,0.8,N
41.68024,-87.41946,301.2,0.39,0.36,2019-08-25,07:48,N,nominal,1.0NRT,269.1,0.9,N
41.63517,-87.14409,301.8,0.39,0.36,2019-08-25,07:48,N,nominal,1.0NRT,265.8,2.4,N
41.63441,-87.13949,299.7,0.39,0.36,2019-08-25,07:48,N,nominal,1.0NRT,262.9,1.4,N
41.6777,-87.425,299.6,0.39,0.36,2019-08-25,07:48,N,nominal,1.0NRT,267.3,2.3,N
41.67695,-87.42042,299.6,0.39,0.36,2019-08-25,07:48,N,nominal,1.0NRT,268.2,2.3,N
41.67442,-87.42594,337.6,0.39,0.36,2019-08-25,07:48,N,nominal,1.0NRT,271.4,2.3,N
41.67516,-87.43053,302.1,0.39,0.36,2019-08-25,07:48,N,nominal,1.0NRT,268.9,2.7,N
41.67263,-87.43605,300.7,0.39,0.36,2019-08-25,07:48,N,nominal,1.0NRT,271.6,0.7,N
41.67188,-87.43147,299.3,0.39,0.36,2019-08-25,07:48,N,nominal,1.0NRT,271.1,0.7,N
41.67381,-87.46449,302.7,0.39,0.36,2019-08-25,07:48,N,nominal,1.0NRT,267.7,0.8,N
41.67232,-87.45533,299.6,0.39,0.36,2019-08-25,07:48,N,nominal,1.0NRT,266.9,0.6,N
41.67052,-87.46544,298.4,0.39,0.36,2019-08-25,07:48,N,nominal,1.0NRT,266.2,0.6,N
41.66978,-87.46085,299.8,0.39,0.36,2019-08-25,07:48,N,nominal,1.0NRT,265.7,0.6,N
41.66384,-87.4242,295.5,0.39,0.36,2019-08-25,07:48,N,nominal,1.0NRT,269.7,1,N
40.31104,-80.60593,313.5,0.44,0.46,2019-08-25,07:48,N,nominal,1.0NRT,287.9,2.3,N
41.64043,-87.40698,308.3,0.39,0.36,2019-08-25,07:48,N,nominal,1.0NRT,273.6,1.5,N
41.63044,-87.36669,300.7,0.39,0.36,2019-08-25,07:48,N,nominal,1.0NRT,275.5,1.4,N
41.62841,-87.36919,303.6,0.39,0.36,2019-08-25,07:48,N,nominal,1.0NRT,272.4,0.9,N
41.62767,-87.36461,314.8,0.39,0.36,2019-08-25,07:48,N,nominal,1.0NRT,273.6,0.9,N
41.6217,-87.32793,312.8,0.39,0.36,2019-08-25,07:48,N,nominal,1.0NRT,274.3,1.4,N
41.62439,-87.36556,296.3,0.39,0.36,2019-08-25,07:48,N,nominal,1.0NRT,270.9,0.9,N
41.61842,-87.3289,312.3,0.39,0.36,2019-08-25,07:48,N,nominal,1.0NRT,274.7,1.4,N
41.61439,-87.32526,328.2,0.39,0.36,2019-08-25,07:48,N,nominal,1.0NRT,276.3,1.2,N
41.61514,-87.32984,305.6,0.39,0.36,2019-08-25,07:48,N,nominal,1.0NRT,275.3,1.2,N
40.3128,-80.60644,308.9,0.44,0.46,2019-08-25,07:48,N,nominal,1.0NRT,286.3,1.9,N
41.65923,-87.62381,300,0.38,0.36,2019-08-25,07:48,N,nominal,1.0NRT,276.4,0.5,N
41.61185,-87.3308,295.9,0.39,0.36,2019-08-25,07:48,N,nominal,1.0NRT,274.2,1.2,N
41.61111,-87.32622,301.2,0.39,0.36,2019-08-25,07:48,N,nominal,1.0NRT,275,1.2,N
42.93461,-105.46636,299.1,0.7,0.75,2019-08-25,07:48,N,nominal,1.0NRT,283.6,1.5,N
42.9304,-105.46268,298,0.7,0.75,2019-08-25,07:48,N,nominal,1.0NRT,283.1,1.6,N
41.11873,-85.35285,329,0.42,0.38,2019-08-25,07:48,N,nominal,1.0NRT,285.9,3.8,N
41.78623,-89.71188,296.1,0.4,0.37,2019-08-25,07:48,N,nominal,1.0NRT,282,0.8,N
41.73183,-89.40202,300.5,0.39,0.36,2019-08-25,07:48,N,nominal,1.0NRT,280.8,0.6,N
40.07864,-81.77071,295.8,0.39,0.44,2019-08-25,07:48,N,nominal,1.0NRT,281.6,0.4,N
41.17881,-87.85943,304.5,0.38,0.36,2019-08-25,07:48,N,nominal,1.0NRT,261.2,0.9,N
41.17809,-87.85489,296.7,0.38,0.36,2019-08-25,07:48,N,nominal,1.0NRT,260.9,0.9,N
40.73611,-86.43534,295.3,0.4,0.37,2019-08-25,07:48,N,nominal,1.0NRT,278.4,0.4,N
40.7353,-86.43067,295.3,0.4,0.37,2019-08-25,07:48,N,nominal,1.0NRT,278.5,0.4,N
40.45295,-87.68665,300.5,0.39,0.36,2019-08-25,07:48,N,nominal,1.0NRT,285.2,0.6,N
40.88938,-77.70885,311.9,0.59,0.53,2019-08-25,07:48,N,nominal,1.0NRT,283.3,2.4,N
40.47131,-75.89042,299.2,0.37,0.58,2019-08-25,07:48,N,nominal,1.0NRT,285.1,0.6,N
42.29341,-83.16955,299.6,0.47,0.4,2019-08-25,07:48,N,nominal,1.0NRT,288.9,1.9,N
42.2923,-83.16392,325.1,0.47,0.4,2019-08-25,07:48,N,nominal,1.0NRT,290.1,1.9,N
42.29588,-83.16263,299.8,0.47,0.4,2019-08-25,07:48,N,nominal,1.0NRT,288,0.8,N
42.29699,-83.16825,300.7,0.47,0.4,2019-08-25,07:48,N,nominal,1.0NRT,287.6,0.8,N
42.29944,-83.16135,309.4,0.47,0.4,2019-08-25,07:48,N,nominal,1.0NRT,289.2,0.8,N
42.29833,-83.1557,325.8,0.47,0.4,2019-08-25,07:48,N,nominal,1.0NRT,295.9,58.2,N
41.13194,-80.68813,295.7,0.42,0.45,2019-08-25,07:48,N,nominal,1.0NRT,284.4,1,N
42.29283,-83.16862,301.5,0.47,0.4,2019-08-25,07:48,N,nominal,1.0NRT,288.9,1,N
42.2917,-83.163,320.2,0.47,0.4,2019-08-25,07:48,N,nominal,1.0NRT,289.9,1.6,N
42.29527,-83.16172,302.3,0.47,0.4,2019-08-25,07:48,N,nominal,1.0NRT,288.8,1.6,N
42.29753,-83.17294,300.9,0.47,0.4,2019-08-25,07:48,N,nominal,1.0NRT,288.7,1,N
42.29884,-83.16044,310.3,0.47,0.4,2019-08-25,07:48,N,nominal,1.0NRT,289.5,17.2,N
42.29771,-83.1548,338.9,0.47,0.4,2019-08-25,07:48,N,nominal,1.0NRT,297,17.2,N
42.30127,-83.15351,303.6,0.47,0.4,2019-08-25,07:48,N,nominal,1.0NRT,288.3,17.2,N
41.13305,-80.693,306,0.42,0.45,2019-08-25,07:48,N,nominal,1.0NRT,285.5,1.1,N
41.44942,-81.67457,312.8,0.56,0.43,2019-08-25,07:48,N,nominal,1.0NRT,286.6,1.3,N
41.45327,-81.67311,306.4,0.56,0.43,2019-08-25,07:48,N,nominal,1.0NRT,286.3,1.3,N
41.45467,-81.67957,297.4,0.56,0.43,2019-08-25,07:48,N,nominal,1.0NRT,285.6,2.6,N
41.45851,-81.67809,324.8,0.56,0.43,2019-08-25,07:48,N,nominal,1.0NRT,288.1,5.4,N
41.46095,-81.67014,296.7,0.56,0.43,2019-08-25,07:48,N,nominal,1.0NRT,286.2,1.6,N
41.46235,-81.67663,340.4,0.56,0.43,2019-08-25,07:48,N,nominal,1.0NRT,290.7,5.4,N
41.47003,-81.67365,296.5,0.56,0.43,2019-08-25,07:48,N,nominal,1.0NRT,286.3,0.9,N
41.47247,-81.66568,304.9,0.56,0.43,2019-08-25,07:48,N,nominal,1.0NRT,287.3,2.7,N
41.47388,-81.67219,299.8,0.56,0.43,2019-08-25,07:48,N,nominal,1.0NRT,287.6,1,N
44.2958,-118.46292,296.8,0.53,0.42,2019-08-25,09:24,N,nominal,1.0NRT,280.3,5.8,N
47.83358,-102.57892,337.5,0.42,0.45,2019-08-25,09:24,N,nominal,1.0NRT,290.3,2,N
47.87203,-102.6665,298,0.41,0.45,2019-08-25,09:24,N,nominal,1.0NRT,282,0.6,N
47.87587,-102.68288,310.6,0.41,0.45,2019-08-25,09:24,N,nominal,1.0NRT,281.9,1.3,N
47.84451,-102.53055,305.7,0.42,0.45,2019-08-25,09:24,N,nominal,1.0NRT,288.4,1,N
47.89414,-102.68513,297,0.41,0.45,2019-08-25,09:24,N,nominal,1.0NRT,281.8,0.3,N
47.95993,-102.76802,299.6,0.41,0.45,2019-08-25,09:24,N,nominal,1.0NRT,278.8,0.6,N
48.09702,-103.28288,313.5,0.39,0.44,2019-08-25,09:24,N,nominal,1.0NRT,280.5,1,N
48.10085,-103.28088,300.3,0.39,0.44,2019-08-25,09:24,N,nominal,1.0NRT,280.9,1,N
47.99339,-102.79786,295.1,0.41,0.45,2019-08-25,09:24,N,nominal,1.0NRT,280.3,0.6,N
48.08228,-103.14356,313.6,0.39,0.44,2019-08-25,09:24,N,nominal,1.0NRT,284.9,1.6,N
48.08463,-103.15381,296.4,0.39,0.44,2019-08-25,09:24,N,nominal,1.0NRT,283,0.3,N
48.02278,-102.82962,300.4,0.41,0.45,2019-08-25,09:24,N,nominal,1.0NRT,280.9,0.5,N
47.90692,-102.27981,299,0.43,0.46,2019-08-25,09:24,N,nominal,1.0NRT,287.9,0.3,N
48.00912,-102.67622,306.4,0.41,0.45,2019-08-25,09:24,N,nominal,1.0NRT,287.2,0.7,N
48.05446,-102.87177,305.7,0.4,0.44,2019-08-25,09:24,N,nominal,1.0NRT,283.2,0.6,N
48.1722,-103.30532,295.9,0.38,0.44,2019-08-25,09:24,N,nominal,1.0NRT,283.4,0.3,N
48.17019,-103.27802,309,0.39,0.44,2019-08-25,09:24,N,nominal,1.0NRT,283.8,0.8,N
48.0521,-102.75375,296.8,0.41,0.45,2019-08-25,09:24,N,nominal,1.0NRT,286.6,0.6,N
47.96283,-102.36044,298.9,0.42,0.46,2019-08-25,09:24,N,nominal,1.0NRT,288.1,0.3,N
48.11333,-102.90236,303.6,0.4,0.44,2019-08-25,09:24,N,nominal,1.0NRT,283.4,0.5,N
48.11361,-102.88477,322.6,0.4,0.44,2019-08-25,09:24,N,nominal,1.0NRT,286.4,2.3,N
48.25211,-103.41203,305.5,0.57,0.43,2019-08-25,09:24,N,nominal,1.0NRT,282.4,1,N
48.04963,-102.48029,302.4,0.42,0.45,2019-08-25,09:24,N,nominal,1.0NRT,287.9,0.3,N
48.25239,-103.31925,295.5,0.38,0.43,2019-08-25,09:24,N,nominal,1.0NRT,282.8,0.4,N
47.94719,-101.97428,338.7,0.44,0.46,2019-08-25,09:24,N,nominal,1.0NRT,288.8,6.7,N
48.07854,-102.48953,299.4,0.42,0.45,2019-08-25,09:24,N,nominal,1.0NRT,287.8,0.7,N
48.13658,-102.73842,308,0.41,0.45,2019-08-25,09:24,N,nominal,1.0NRT,287.6,0.8,N
48.1499,-102.79599,319.6,0.4,0.44,2019-08-25,09:24,N,nominal,1.0NRT,286.7,1.1,N
48.15385,-102.7941,301.4,0.4,0.44,2019-08-25,09:24,N,nominal,1.0NRT,286.2,1.1,N
48.10766,-102.57606,296.9,0.41,0.45,2019-08-25,09:24,N,nominal,1.0NRT,283,1.2,N
48.10892,-102.58144,304.5,0.41,0.45,2019-08-25,09:24,N,nominal,1.0NRT,282.6,1.6,N
48.16776,-102.81647,302.8,0.4,0.44,2019-08-25,09:24,N,nominal,1.0NRT,286.1,0.3,N
48.11287,-102.57941,329.6,0.41,0.45,2019-08-25,09:24,N,nominal,1.0NRT,283.7,1.6,N
48.11032,-102.58009,337.2,0.41,0.45,2019-08-25,09:24,N,nominal,1.0NRT,283.6,4,N
48.17028,-102.81445,304.1,0.4,0.44,2019-08-25,09:24,N,nominal,1.0NRT,286.9,0.9,N
48.14853,-102.57282,304.4,0.41,0.45,2019-08-25,09:24,N,nominal,1.0NRT,286,0.7,N
48.22926,-102.74792,299.2,0.4,0.44,2019-08-25,09:24,N,nominal,1.0NRT,286.3,0.5,N
48.23046,-102.75305,296.6,0.4,0.44,2019-08-25,09:24,N,nominal,1.0NRT,285.7,0.5,N
48.37197,-102.63695,297.7,0.4,0.45,2019-08-25,09:24,N,nominal,1.0NRT,286,0.6,N
51.07056,-115.13225,301.4,0.48,0.4,2019-08-25,09:24,N,nominal,1.0NRT,280.1,0.9,N
49.24388,-102.4791,297.6,0.39,0.44,2019-08-25,09:24,N,nominal,1.0NRT,286.3,0.3,N
49.28245,-102.36472,300.4,0.39,0.44,2019-08-25,09:24,N,nominal,1.0NRT,286.6,0.4,N
52.46364,-114.34972,312.3,0.47,0.4,2019-08-25,09:24,N,nominal,1.0NRT,278.6,1.4,N
54.63256,-118.77824,296.6,0.47,0.48,2019-08-25,09:24,N,nominal,1.0NRT,267.1,0.4,N
54.93121,-118.34066,302.2,0.46,0.47,2019-08-25,09:24,N,nominal,1.0NRT,279.9,0.6,N
54.93119,-118.34147,302.3,0.46,0.47,2019-08-25,09:24,N,nominal,1.0NRT,280,0.6,N
54.93895,-118.32502,304.5,0.46,0.47,2019-08-25,09:24,N,nominal,1.0NRT,279.4,1.1,N
51.24363,-94.64799,321.9,0.35,0.57,2019-08-25,09:24,N,nominal,1.0NRT,248.6,4.8,N
57.00336,-111.47943,300.1,0.44,0.38,2019-08-25,09:24,N,nominal,1.0NRT,285.8,1.1,N
57.00688,-111.47814,299.2,0.44,0.38,2019-08-25,09:24,N,nominal,1.0NRT,285.1,1.1,N
57.03939,-111.63223,301,0.45,0.39,2019-08-25,09:24,N,nominal,1.0NRT,286.6,1.1,N
57.04206,-111.62355,296.1,0.44,0.39,2019-08-25,09:24,N,nominal,1.0NRT,285.4,1.3,N
57.04473,-111.61485,299.3,0.44,0.39,2019-08-25,09:24,N,nominal,1.0NRT,286.2,1.5,N
54.21499,-86.10418,298.2,0.55,0.68,2019-08-25,09:24,N,nominal,1.0NRT,282.3,0.4,N
40.5114,-106.38437,304.6,0.42,0.45,2019-08-25,09:24,N,nominal,1.0NRT,279.6,0.8,N
41.87575,-112.1918,299.9,0.39,0.36,2019-08-25,09:24,N,nominal,1.0NRT,285.5,0.2,N
41.88256,-110.08556,298.6,0.43,0.38,2019-08-25,09:24,N,nominal,1.0NRT,283.4,1.1,N
41.2687,-105.60648,298.5,0.44,0.46,2019-08-25,09:24,N,nominal,1.0NRT,277.8,0.9,N
43.14753,-115.66524,304.4,0.42,0.37,2019-08-25,09:24,N,nominal,1.0NRT,288.4,1,N
43.17207,-115.71746,300.8,0.42,0.38,2019-08-25,09:24,N,nominal,1.0NRT,287.5,0.5,N
42.68309,-111.58891,343.4,0.39,0.36,2019-08-25,09:24,N,nominal,1.0NRT,288.3,5.6,N
42.6839,-111.59362,324.4,0.39,0.36,2019-08-25,09:24,N,nominal,1.0NRT,284.3,5.6,N
42.68638,-111.5879,314.4,0.39,0.36,2019-08-25,09:24,N,nominal,1.0NRT,286.3,2.7,N
42.68718,-111.59259,327.4,0.39,0.36,2019-08-25,09:24,N,nominal,1.0NRT,285.7,2.7,N
43.69785,-116.28754,301.1,0.44,0.38,2019-08-25,09:24,N,nominal,1.0NRT,285.7,0.5,N
44.26415,-118.42399,337.3,0.53,0.42,2019-08-25,09:24,N,nominal,1.0NRT,288.5,5.6,N
44.2648,-118.43025,340,0.53,0.42,2019-08-25,09:24,N,nominal,1.0NRT,289.5,5.6,N
44.26803,-118.42345,323.1,0.53,0.42,2019-08-25,09:24,N,nominal,1.0NRT,289.2,5.6,N
44.26867,-118.42955,330.2,0.53,0.42,2019-08-25,09:24,N,nominal,1.0NRT,293.1,5.6,N
44.2693,-118.43566,331.5,0.53,0.42,2019-08-25,09:24,N,nominal,1.0NRT,288.4,5.6,N
44.27127,-118.41673,303.2,0.53,0.42,2019-08-25,09:24,N,nominal,1.0NRT,285,2.4,N
44.27191,-118.42287,314.8,0.53,0.42,2019-08-25,09:24,N,nominal,1.0NRT,286.8,2.4,N
44.27254,-118.42894,313,0.53,0.42,2019-08-25,09:24,N,nominal,1.0NRT,288,2.4,N
44.27318,-118.43504,319.9,0.53,0.42,2019-08-25,09:24,N,nominal,1.0NRT,289.1,3.1,N
44.26996,-118.40421,329.4,0.53,0.42,2019-08-25,09:24,N,nominal,1.0NRT,287.4,3.7,N
44.27383,-118.4413,343.6,0.53,0.42,2019-08-25,09:24,N,nominal,1.0NRT,289.1,3.1,N
44.27381,-118.40345,319,0.53,0.42,2019-08-25,09:24,N,nominal,1.0NRT,288.6,3.7,N
44.27513,-118.41603,311.4,0.53,0.42,2019-08-25,09:24,N,nominal,1.0NRT,286.3,2.4,N
44.27641,-118.42831,312.2,0.53,0.42,2019-08-25,09:24,N,nominal,1.0NRT,287.1,2.4,N
44.27706,-118.43447,309.5,0.53,0.42,2019-08-25,09:24,N,nominal,1.0NRT,287.7,3.1,N
44.27771,-118.44075,297.4,0.53,0.42,2019-08-25,09:24,N,nominal,1.0NRT,285.1,3.1,N
44.27447,-118.40977,321.1,0.53,0.42,2019-08-25,09:24,N,nominal,1.0NRT,287.7,2.4,N
44.28029,-118.4277,305.8,0.53,0.42,2019-08-25,09:24,N,nominal,1.0NRT,283.8,1.5,N
44.28093,-118.43384,312.8,0.53,0.42,2019-08-25,09:24,N,nominal,1.0NRT,284.9,1.9,N
44.28158,-118.44002,298.9,0.53,0.42,2019-08-25,09:24,N,nominal,1.0NRT,283.9,1.9,N
44.28416,-118.42711,309.6,0.53,0.42,2019-08-25,09:24,N,nominal,1.0NRT,284.3,1.5,N
44.2848,-118.43317,313.1,0.53,0.42,2019-08-25,09:24,N,nominal,1.0NRT,285.5,1.9,N
44.28804,-118.42648,304.8,0.53,0.42,2019-08-25,09:24,N,nominal,1.0NRT,284.4,1.7,N
44.28867,-118.43249,296.4,0.53,0.42,2019-08-25,09:24,N,nominal,1.0NRT,283.2,0.8,N
44.28992,-118.44444,308.2,0.53,0.42,2019-08-25,09:24,N,nominal,1.0NRT,282.4,2.3,N
44.29055,-118.45052,312.8,0.53,0.42,2019-08-25,09:24,N,nominal,1.0NRT,282.8,2.3,N
44.29121,-118.45685,303.7,0.53,0.42,2019-08-25,09:24,N,nominal,1.0NRT,281.9,5.8,N
44.2919,-118.46343,311.2,0.53,0.42,2019-08-25,09:24,N,nominal,1.0NRT,281.1,5.8,N
44.29127,-118.41975,314.3,0.53,0.42,2019-08-25,09:24,N,nominal,1.0NRT,284.7,1.7,N
44.2919,-118.42583,300.9,0.53,0.42,2019-08-25,09:24,N,nominal,1.0NRT,284.1,1.7,N
44.29441,-118.44975,325.5,0.53,0.42,2019-08-25,09:24,N,nominal,1.0NRT,282,2.3,N
44.29509,-118.45616,347.6,0.53,0.42,2019-08-25,09:24,N,nominal,1.0NRT,287.3,5.8,N
44.29514,-118.4191,298.1,0.53,0.42,2019-08-25,09:24,N,nominal,1.0NRT,283.6,1.5,N
44.29578,-118.42519,316.1,0.53,0.42,2019-08-25,09:24,N,nominal,1.0NRT,285.4,1.5,N
44.29832,-118.44942,314.8,0.53,0.42,2019-08-25,09:24,N,nominal,1.0NRT,282.7,2.5,N
44.29964,-118.4245,306.2,0.53,0.42,2019-08-25,09:24,N,nominal,1.0NRT,284.7,1.5,N
44.30029,-118.43057,320.1,0.53,0.42,2019-08-25,09:24,N,nominal,1.0NRT,285.7,4,N
44.29635,-118.46179,308.5,0.53,0.42,2019-08-25,09:24,N,nominal,1.0NRT,280.6,3.5,N
44.29261,-118.42476,322.5,0.53,0.42,2019-08-25,09:24,N,nominal,1.0NRT,286,2.2,N
44.29504,-118.44869,328,0.53,0.42,2019-08-25,09:24,N,nominal,1.0NRT,282.7,6.8,N
44.29568,-118.45507,342.8,0.53,0.42,2019-08-25,09:24,N,nominal,1.0NRT,286,6.8,N
44.29648,-118.42409,308.6,0.53,0.42,2019-08-25,09:24,N,nominal,1.0NRT,284.6,2.2,N
44.29709,-118.4301,308.6,0.53,0.42,2019-08-25,09:24,N,nominal,1.0NRT,284.5,2.2,N
44.29894,-118.44839,301.4,0.53,0.42,2019-08-25,09:24,N,nominal,1.0NRT,281.9,6.8,N
44.30096,-118.4295,321.7,0.53,0.42,2019-08-25,09:24,N,nominal,1.0NRT,286,3.8,N
44.54222,-117.41916,298.9,0.49,0.4,2019-08-25,09:24,N,nominal,1.0NRT,288.5,0.7,N
43.92817,-112.15971,303.5,0.38,0.36,2019-08-25,09:24,N,nominal,1.0NRT,281.7,0.6,N
44.53469,-114.97914,313.9,0.41,0.37,2019-08-25,09:24,N,nominal,1.0NRT,283.9,1.3,N
44.53545,-114.9847,307.1,0.41,0.37,2019-08-25,09:24,N,nominal,1.0NRT,281.7,1.1,N
44.5381,-114.97832,304.5,0.41,0.37,2019-08-25,09:24,N,nominal,1.0NRT,284.9,1.3,N
44.53885,-114.98389,301.3,0.41,0.37,2019-08-25,09:24,N,nominal,1.0NRT,281.7,1.1,N
44.53956,-114.98913,301.7,0.41,0.37,2019-08-25,09:24,N,nominal,1.0NRT,281.3,1.1,N
44.53798,-114.98257,316.4,0.41,0.37,2019-08-25,09:24,N,nominal,1.0NRT,285.6,1.6,N
44.53867,-114.98793,301.4,0.41,0.37,2019-08-25,09:24,N,nominal,1.0NRT,280.2,1.1,N
44.54138,-114.98174,298.1,0.41,0.37,2019-08-25,09:24,N,nominal,1.0NRT,283.3,1.6,N
42.93352,-105.48104,300.9,0.41,0.45,2019-08-25,09:24,N,nominal,1.0NRT,284.9,0.4,N
45.16472,-117.40768,295.7,0.5,0.41,2019-08-25,09:24,N,nominal,1.0NRT,281.9,1,N
45.19912,-117.47878,316.1,0.5,0.41,2019-08-25,09:24,N,nominal,1.0NRT,283.4,2.2,N
43.53278,-105.53738,295.7,0.39,0.44,2019-08-25,09:24,N,nominal,1.0NRT,284.2,0.5,N
43.5462,-105.52084,296.5,0.4,0.44,2019-08-25,09:24,N,nominal,1.0NRT,282.8,0.3,N
45.29555,-115.5349,295.3,0.43,0.38,2019-08-25,09:24,N,nominal,1.0NRT,281.5,0.4,N
43.87992,-105.30822,302.5,0.4,0.44,2019-08-25,09:24,N,nominal,1.0NRT,284.3,0.6,N
45.94426,-111.47465,308.4,0.38,0.36,2019-08-25,09:24,N,nominal,1.0NRT,287.7,0.8,N
45.63177,-109.23144,306.9,0.41,0.37,2019-08-25,09:24,N,nominal,1.0NRT,285.1,0.6,N
46.3289,-111.61612,303.2,0.38,0.36,2019-08-25,09:24,N,nominal,1.0NRT,285.5,0.7,N
45.8138,-108.4308,299.3,0.43,0.38,2019-08-25,09:24,N,nominal,1.0NRT,288.5,0.7,N
46.54338,-111.92181,299.3,0.38,0.36,2019-08-25,09:24,N,nominal,1.0NRT,283.6,0.6,N
47.95673,-116.2827,300.2,0.48,0.4,2019-08-25,09:24,N,nominal,1.0NRT,277.4,0.5,N
47.41063,-102.71947,300.8,0.42,0.45,2019-08-25,09:24,N,nominal,1.0NRT,283.4,0.9,N
47.41445,-102.73559,295.6,0.42,0.45,2019-08-25,09:24,N,nominal,1.0NRT,282.1,0.4,N
47.4159,-102.72279,303,0.42,0.45,2019-08-25,09:24,N,nominal,1.0NRT,284,0.8,N
47.41717,-102.72817,297.9,0.42,0.45,2019-08-25,09:24,N,nominal,1.0NRT,283.9,0.8,N
47.41845,-102.73356,295.9,0.42,0.45,2019-08-25,09:24,N,nominal,1.0NRT,283.8,0.4,N
47.44344,-102.74461,304,0.42,0.45,2019-08-25,09:24,N,nominal,1.0NRT,282.6,1.8,N
47.44616,-102.73717,314,0.42,0.45,2019-08-25,09:24,N,nominal,1.0NRT,284.7,0.9,N
47.52795,-102.75916,298.2,0.42,0.45,2019-08-25,09:24,N,nominal,1.0NRT,285.3,0.3,N
47.53194,-102.75717,300.6,0.42,0.45,2019-08-25,09:24,N,nominal,1.0NRT,286.1,0.3,N
47.53617,-102.69936,319.6,0.42,0.45,2019-08-25,09:24,N,nominal,1.0NRT,288.2,1.3,N
47.58798,-102.90114,306.1,0.41,0.45,2019-08-25,09:24,N,nominal,1.0NRT,287.4,0.8,N
47.58917,-102.90622,298.6,0.41,0.45,2019-08-25,09:24,N,nominal,1.0NRT,287.2,0.8,N
47.5883,-102.88354,300,0.41,0.45,2019-08-25,09:24,N,nominal,1.0NRT,287.3,0.5,N
47.7011,-103.27723,295.2,0.4,0.44,2019-08-25,09:24,N,nominal,1.0NRT,279.8,0.2,N
47.58958,-102.59865,308.3,0.42,0.45,2019-08-25,09:24,N,nominal,1.0NRT,286.9,0.4,N
47.63226,-102.57038,302,0.42,0.46,2019-08-25,09:24,N,nominal,1.0NRT,287.6,0.6,N
47.73121,-102.9555,303.1,0.41,0.45,2019-08-25,09:24,N,nominal,1.0NRT,281.1,0.6,N
47.71812,-102.88005,295.3,0.41,0.45,2019-08-25,09:24,N,nominal,1.0NRT,279.2,0.3,N
47.76019,-102.99244,298.6,0.4,0.45,2019-08-25,09:24,N,nominal,1.0NRT,273.9,0.5,N
47.67231,-102.58525,304,0.42,0.45,2019-08-25,09:24,N,nominal,1.0NRT,287.5,0.3,N
47.67628,-102.58309,298.2,0.42,0.45,2019-08-25,09:24,N,nominal,1.0NRT,286.9,0.3,N
47.70074,-102.68551,305.2,0.42,0.45,2019-08-25,09:24,N,nominal,1.0NRT,287.2,0.6,N
47.70114,-102.6309,302.2,0.42,0.45,2019-08-25,09:24,N,nominal,1.0NRT,287.6,0.6,N
47.73159,-102.75916,299.3,0.41,0.45,2019-08-25,09:24,N,nominal,1.0NRT,282.9,0.4,N
47.67564,-102.46763,298.7,0.43,0.46,2019-08-25,09:24,N,nominal,1.0NRT,287.8,0.4,N
47.73417,-102.63828,311.8,0.42,0.45,2019-08-25,09:24,N,nominal,1.0NRT,287.4,1.1,N
47.73189,-102.59084,319.5,0.42,0.45,2019-08-25,09:24,N,nominal,1.0NRT,288.2,1.9,N
47.76243,-102.70145,299.3,0.42,0.45,2019-08-25,09:24,N,nominal,1.0NRT,286.3,0.5,N
47.74542,-102.55334,301.2,0.42,0.45,2019-08-25,09:24,N,nominal,1.0NRT,287.9,0.4,N
47.79009,-102.68669,298.2,0.42,0.45,2019-08-25,09:24,N,nominal,1.0NRT,285.3,0.4,N
47.79189,-102.68497,299.5,0.42,0.45,2019-08-25,09:24,N,nominal,1.0NRT,285.1,0.4,N
47.84525,-102.85355,313.7,0.41,0.45,2019-08-25,09:24,N,nominal,1.0NRT,276.8,1.2,N
47.82392,-102.61352,309.3,0.42,0.45,2019-08-25,09:24,N,nominal,1.0NRT,287.7,1.1,N
47.81775,-102.56868,302,0.42,0.45,2019-08-25,09:24,N,nominal,1.0NRT,288.1,0.3,N
47.90267,-102.92941,300.7,0.4,0.45,2019-08-25,09:24,N,nominal,1.0NRT,274.4,0.8,N
47.82794,-102.61165,329,0.42,0.45,2019-08-25,09:24,N,nominal,1.0NRT,289.1,1.9,N
47.82959,-102.58095,326.6,0.42,0.45,2019-08-25,09:24,N,nominal,1.0NRT,287.6,2,N
47.8169,-102.50851,300.6,0.42,0.45,2019-08-25,09:24,N,nominal,1.0NRT,288.6,0.8,N
47.82467,-102.54127,302.8,0.42,0.45,2019-08-25,09:24,N,nominal,1.0NRT,288.5,0.7,N
40.72121,-112.20525,305.7,0.39,0.36,2019-08-25,09:30,N,nominal,1.0NRT,291.6,0.9,N
40.38284,-110.08167,327.6,0.45,0.39,2019-08-25,09:30,N,nominal,1.0NRT,290,2.4,N
40.74586,-112.03611,300.7,0.4,0.37,2019-08-25,09:30,N,nominal,1.0NRT,289.6,0.3,N
40.91492,-112.73161,318.2,0.39,0.36,2019-08-25,09:30,N,nominal,1.0NRT,297.8,2.3,N
41.06363,-111.53127,297.8,0.4,0.37,2019-08-25,09:30,N,nominal,1.0NRT,285.6,0.7,N
40.94064,-117.86279,301.9,0.47,0.39,2019-08-25,09:30,N,nominal,1.0NRT,291.3,0.8,N
40.82291,-114.25481,319.5,0.39,0.36,2019-08-25,09:30,N,nominal,1.0NRT,294.5,1.8,N
40.3557,-110.24497,300.9,0.44,0.38,2019-08-25,09:30,N,nominal,1.0NRT,286.7,0.5,N
58.10032,-116.7059,299,0.53,0.5,2019-08-25,11:00,N,nominal,1.0NRT,280.7,1.8,N
57.00336,-111.47881,299.2,0.43,0.62,2019-08-25,11:00,N,nominal,1.0NRT,282.8,1.4,N
63.48544,-134.91585,295.1,0.47,0.4,2019-08-25,11:00,N,nominal,1.0NRT,277.3,1.2,N
63.50798,-134.80389,295.8,0.47,0.4,2019-08-25,11:00,N,nominal,1.0NRT,274.3,0.7,N
63.50896,-134.81331,298.7,0.47,0.4,2019-08-25,11:00,N,nominal,1.0NRT,273.5,2.5,N
57.03692,-111.62982,295.2,0.42,0.61,2019-08-25,11:00,N,nominal,1.0NRT,282.6,2,N
57.04436,-111.61224,295.3,0.42,0.61,2019-08-25,11:00,N,nominal,1.0NRT,283.1,2,N
45.19821,-117.4805,324.7,0.71,0.75,2019-08-25,11:06,N,nominal,1.0NRT,280.6,5.5,N
44.29427,-118.4593,300.5,0.69,0.74,2019-08-25,11:06,N,nominal,1.0NRT,279.9,3.3,N
60.6754,-149.9957,298.9,0.43,0.62,2019-08-25,11:06,N,nominal,1.0NRT,278,1.9,N
60.59437,-149.93929,305.7,0.42,0.61,2019-08-25,11:06,N,nominal,1.0NRT,274.9,1.6,N
60.58858,-149.92575,310.1,0.42,0.61,2019-08-25,11:06,N,nominal,1.0NRT,276.3,1.6,N
60.56559,-149.94905,304.3,0.42,0.61,2019-08-25,11:06,N,nominal,1.0NRT,281.3,1.4,N
60.55975,-149.89943,300.6,0.42,0.61,2019-08-25,11:06,N,nominal,1.0NRT,278.4,2.1,N
60.554,-149.90053,319.9,0.42,0.61,2019-08-25,11:06,N,nominal,1.0NRT,282.3,2.1,N
60.55429,-149.90349,306.3,0.42,0.61,2019-08-25,11:06,N,nominal,1.0NRT,282.7,4.3,N
60.55424,-149.89609,316.4,0.42,0.61,2019-08-25,11:06,N,nominal,1.0NRT,278.6,2.3,N
56.33614,-120.08691,302.9,0.47,0.48,2019-08-25,11:06,N,nominal,1.0NRT,275.9,1,N
56.33655,-120.08408,298.8,0.47,0.48,2019-08-25,11:06,N,nominal,1.0NRT,275.4,0.2,N
54.93702,-118.32278,307.2,0.61,0.53,2019-08-25,11:06,N,nominal,1.0NRT,279.7,1,N
54.08203,-128.52441,295.5,0.45,0.39,2019-08-25,11:06,N,nominal,1.0NRT,279.5,0.8,N
54.08072,-128.51802,306.2,0.45,0.39,2019-08-25,11:06,N,nominal,1.0NRT,277,0.8,N
45.19808,-117.47986,327.1,0.7,0.75,2019-08-25,11:06,N,nominal,1.0NRT,281,5.3,N
44.29078,-118.44944,300.1,0.69,0.74,2019-08-25,11:06,N,nominal,1.0NRT,281.7,3.1,N
44.27465,-118.44771,297.1,0.69,0.74,2019-08-25,11:06,N,nominal,1.0NRT,282.8,2.5,N
44.27129,-118.43824,296,0.69,0.74,2019-08-25,11:06,N,nominal,1.0NRT,283.1,2.8,N
44.29255,-118.45573,315.1,0.69,0.74,2019-08-25,11:06,N,nominal,1.0NRT,281.3,3,N
44.27299,-118.44398,302.7,0.69,0.74,2019-08-25,11:06,N,nominal,1.0NRT,283.5,2.5,N
60.55218,-149.92111,318.9,0.43,0.38,2019-08-25,12:42,N,nominal,1.0NRT,284.7,2.7,N
60.67531,-149.99754,314.2,0.42,0.38,2019-08-25,12:42,N,nominal,1.0NRT,280,2.2,N
60.58923,-149.9164,298.5,0.43,0.38,2019-08-25,12:42,N,nominal,1.0NRT,277,0.8,N
60.58745,-149.92644,297.4,0.42,0.38,2019-08-25,12:42,N,nominal,1.0NRT,278.1,1.5,N
60.58598,-149.9191,314.7,0.43,0.38,2019-08-25,12:42,N,nominal,1.0NRT,277.7,0.8,N
60.57646,-149.89067,296.4,0.43,0.38,2019-08-25,12:42,N,nominal,1.0NRT,281.9,0.9,N
60.57321,-149.8934,296.8,0.43,0.38,2019-08-25,12:42,N,nominal,1.0NRT,281.6,0.9,N
60.57164,-149.88562,302.8,0.43,0.38,2019-08-25,12:42,N,nominal,1.0NRT,280.6,0.9,N
60.57475,-149.91995,303.7,0.43,0.38,2019-08-25,12:42,N,nominal,1.0NRT,277.3,0.6,N
60.56342,-149.90144,298.2,0.43,0.38,2019-08-25,12:42,N,nominal,1.0NRT,281.4,1.1,N
60.55534,-149.89911,344.6,0.43,0.38,2019-08-25,12:42,N,nominal,1.0NRT,288.7,4.8,N
60.55686,-149.9066,315.8,0.43,0.38,2019-08-25,12:42,N,nominal,1.0NRT,287.1,4.8,N
60.55862,-149.89645,306.5,0.43,0.38,2019-08-25,12:42,N,nominal,1.0NRT,277.1,1.1,N
60.55754,-149.8961,298.7,0.63,0.72,2019-08-25,14:24,N,nominal,1.0NRT,276,0.4,N
60.58561,-149.91443,297.9,0.63,0.72,2019-08-25,14:24,N,nominal,1.0NRT,275.4,1.7,N
46.52007,-84.39436,367,0.35,0.57,2019-08-25,17:30,N,high,1.0NRT,298.3,10,D
41.59773,-76.02102,327.5,0.4,0.44,2019-08-25,17:30,N,nominal,1.0NRT,289.3,3.1,D
43.70989,-65.27241,346.2,0.47,0.4,2019-08-25,17:30,N,nominal,1.0NRT,299.5,37.8,D
41.45073,-81.67737,354.5,0.37,0.58,2019-08-25,17:30,N,nominal,1.0NRT,305.3,4.8,D
41.46327,-81.67376,328.5,0.37,0.58,2019-08-25,17:30,N,low,1.0NRT,300.8,5.2,D
42.80354,-80.10112,338.5,0.57,0.52,2019-08-25,17:30,N,nominal,1.0NRT,302,13.4,D
42.80244,-80.10207,339.2,0.57,0.52,2019-08-25,17:30,N,nominal,1.0NRT,301.2,8.1,D
42.285,-83.11504,327.6,0.41,0.61,2019-08-25,17:30,N,nominal,1.0NRT,297.1,1.7,D
43.26469,-79.81087,334.9,0.54,0.51,2019-08-25,17:30,N,nominal,1.0NRT,302.2,6.1,D
43.27079,-79.80649,344.9,0.54,0.51,2019-08-25,17:30,N,nominal,1.0NRT,301.9,10.7,D
41.64083,-87.13811,334.3,0.66,0.73,2019-08-25,17:30,N,nominal,1.0NRT,296.9,6,D
41.6383,-87.14574,330.8,0.66,0.73,2019-08-25,17:30,N,nominal,1.0NRT,297,6,D
41.63581,-87.13681,332.6,0.66,0.73,2019-08-25,17:30,N,nominal,1.0NRT,297.5,10.5,D
41.64206,-87.14063,327.4,0.66,0.73,2019-08-25,17:30,N,nominal,1.0NRT,296.2,10.5,D
44.97356,-75.56444,336.4,0.49,0.4,2019-08-25,17:30,N,nominal,1.0NRT,295.9,3.2,D
44.97447,-75.56673,334.2,0.49,0.4,2019-08-25,17:30,N,nominal,1.0NRT,298,5.4,D
46.33895,-67.75373,326.7,0.42,0.38,2019-08-25,17:30,N,nominal,1.0NRT,300.5,2.3,D
45.13794,-75.77172,347.8,0.49,0.41,2019-08-25,17:30,N,nominal,1.0NRT,299.7,5.5,D
45.63849,-73.69701,328.4,0.42,0.38,2019-08-25,17:30,N,nominal,1.0NRT,299.2,0.8,D
45.83971,-73.24898,336.5,0.41,0.37,2019-08-25,17:30,N,nominal,1.0NRT,305.9,4.8,D
46.04317,-73.14043,342.8,0.41,0.37,2019-08-25,17:30,N,nominal,1.0NRT,308.5,3.4,D
46.0465,-73.14164,327,0.41,0.37,2019-08-25,17:30,N,low,1.0NRT,299.2,3.4,D
45.785,-77.919,339.2,0.39,0.44,2019-08-25,17:30,N,nominal,1.0NRT,297.7,4.7,D
45.78391,-77.92395,335.1,0.39,0.44,2019-08-25,17:30,N,nominal,1.0NRT,295.7,4.7,D
45.78777,-77.9258,338.8,0.39,0.44,2019-08-25,17:30,N,nominal,1.0NRT,294,4.7,D
45.07201,-83.40601,330.5,0.35,0.57,2019-08-25,17:30,N,nominal,1.0NRT,299.6,3.7,D
46.57777,-80.79362,338.7,0.49,0.49,2019-08-25,17:30,N,low,1.0NRT,309.4,28.7,D
47.58289,-79.63001,336.9,0.41,0.45,2019-08-25,17:30,N,nominal,1.0NRT,295.9,1.2,D
47.58685,-79.632,336.4,0.41,0.45,2019-08-25,17:30,N,nominal,1.0NRT,294.8,1.4,D
41.61825,-87.33321,340.6,0.41,0.45,2019-08-25,19:06,N,nominal,1.0NRT,298.4,5.3,D
41.64075,-87.13254,332.2,0.42,0.45,2019-08-25,19:06,N,nominal,1.0NRT,293.1,3.4,D
41.64029,-87.13763,327.9,0.42,0.45,2019-08-25,19:06,N,nominal,1.0NRT,291.7,3.4,D
41.62285,-87.32886,330.3,0.41,0.45,2019-08-25,19:06,N,nominal,1.0NRT,297.5,3.3,D
41.64448,-87.13822,329.9,0.42,0.45,2019-08-25,19:06,N,nominal,1.0NRT,289.6,3.1,D
42.80474,-80.09796,334.2,0.49,0.65,2019-08-25,19:06,N,nominal,1.0NRT,300.8,5.2,D
42.811,-80.09201,325.5,0.49,0.65,2019-08-25,19:06,N,low,1.0NRT,298.8,5.2,D
42.8052,-80.09972,332.2,0.49,0.65,2019-08-25,19:06,N,nominal,1.0NRT,300.3,6.2,D
41.63656,-87.13194,329.1,0.42,0.45,2019-08-25,19:06,N,nominal,1.0NRT,291.8,3.4,D
41.63564,-87.14208,335.2,0.42,0.45,2019-08-25,19:06,N,nominal,1.0NRT,290.9,5.7,D
41.6187,-87.32824,326.9,0.41,0.45,2019-08-25,19:06,N,low,1.0NRT,299.1,3.3,D
46.51828,-84.39346,340.4,0.32,0.54,2019-08-25,19:12,N,nominal,1.0NRT,303.2,5.5,D
46.51918,-84.37641,367,0.32,0.55,2019-08-25,19:12,N,high,1.0NRT,304.2,11.1,D
46.48889,-81.03367,335.5,0.46,0.64,2019-08-25,19:12,N,nominal,1.0NRT,305.2,4.9,D
43.26267,-79.80906,339.1,0.51,0.66,2019-08-25,19:12,N,nominal,1.0NRT,298.9,6.6,D
43.26886,-79.80928,336.2,0.51,0.66,2019-08-25,19:12,N,nominal,1.0NRT,297.6,7.5,D
40.38101,-110.08456,336.7,0.56,0.69,2019-08-25,19:12,N,nominal,1.0NRT,307.8,4.1,D
45.06989,-83.40474,331.6,0.35,0.56,2019-08-25,19:12,N,nominal,1.0NRT,302.2,2.9,D
42.34251,-106.86928,367,0.35,0.56,2019-08-25,19:12,N,high,1.0NRT,303.3,34.8,D
42.33982,-106.87927,347.2,0.35,0.56,2019-08-25,19:12,N,nominal,1.0NRT,301.9,14.1,D
42.34128,-106.87385,367,0.35,0.56,2019-08-25,19:12,N,low,1.0NRT,325.3,34.8,D
42.34847,-106.86784,367,0.35,0.56,2019-08-25,19:12,N,high,1.0NRT,298.9,29.6,D
42.34607,-106.8768,367,0.35,0.56,2019-08-25,19:12,N,high,1.0NRT,310.6,34.8,D
42.34457,-106.88239,367,0.35,0.56,2019-08-25,19:12,N,high,1.0NRT,314.4,14.1,D
42.34312,-106.8878,367,0.35,0.56,2019-08-25,19:12,N,high,1.0NRT,303.9,14.1,D
42.34742,-106.87176,353.5,0.35,0.56,2019-08-25,19:12,N,nominal,1.0NRT,316.6,34.8,D
42.35334,-106.87051,367,0.35,0.56,2019-08-25,19:12,N,high,1.0NRT,308,36.8,D
42.35202,-106.87542,367,0.35,0.56,2019-08-25,19:12,N,high,1.0NRT,303.6,23.5,D
42.35048,-106.88122,367,0.35,0.56,2019-08-25,19:12,N,high,1.0NRT,307.4,23.5,D
42.34901,-106.88668,367,0.35,0.56,2019-08-25,19:12,N,high,1.0NRT,312.4,9.7,D
42.34769,-106.89161,355.5,0.35,0.56,2019-08-25,19:12,N,nominal,1.0NRT,308.1,9.7,D
42.34638,-106.89648,349.5,0.35,0.56,2019-08-25,19:12,N,nominal,1.0NRT,304.9,6.6,D
42.359,-106.87022,367,0.35,0.56,2019-08-25,19:12,N,high,1.0NRT,300.3,36.8,D
42.35773,-106.87495,338.3,0.35,0.56,2019-08-25,19:12,N,nominal,1.0NRT,310.5,36.8,D
42.35624,-106.88053,342.1,0.35,0.56,2019-08-25,19:12,N,nominal,1.0NRT,304.8,23.5,D
42.35339,-106.89121,335.1,0.35,0.56,2019-08-25,19:12,N,nominal,1.0NRT,301.6,9.7,D
46.48903,-81.02741,333.8,0.46,0.64,2019-08-25,19:12,N,nominal,1.0NRT,304.9,4.9,D
42.3521,-106.89605,332.7,0.35,0.56,2019-08-25,19:12,N,nominal,1.0NRT,301.9,9.7,D
53.96287,-110.68797,353.9,0.46,0.47,2019-08-25,19:12,N,nominal,1.0NRT,290.4,20.3,D
44.53217,-114.97817,349.9,0.69,0.74,2019-08-25,19:12,N,nominal,1.0NRT,296.4,12.6,D
47.82724,-102.61441,331.5,0.5,0.41,2019-08-25,19:12,N,nominal,1.0NRT,292.8,6.4,D
47.94709,-101.973,333.6,0.47,0.4,2019-08-25,19:12,N,nominal,1.0NRT,294.5,4,D
45.55854,-108.47129,329.5,0.33,0.55,2019-08-25,19:12,N,nominal,1.0NRT,296.4,4.7,D
42.85531,-114.77892,333.2,0.76,0.77,2019-08-25,19:12,N,nominal,1.0NRT,295.2,9.9,D
42.85855,-114.76991,338.6,0.76,0.77,2019-08-25,19:12,N,nominal,1.0NRT,293.5,11.3,D
45.03619,-106.82375,348.2,0.58,0.52,2019-08-25,19:12,N,nominal,1.0NRT,304.5,13.9,D
45.03162,-106.82137,329.6,0.58,0.52,2019-08-25,19:12,N,low,1.0NRT,302.7,2.6,D
46.52187,-84.37721,367,0.32,0.55,2019-08-25,19:12,N,high,1.0NRT,304.5,10.1,D
42.34632,-106.88782,351.9,0.41,0.61,2019-08-25,20:48,N,nominal,1.0NRT,307.8,13,D
42.35218,-106.88322,367,0.41,0.61,2019-08-25,20:48,N,high,1.0NRT,309,23.7,D
42.35203,-106.88693,367,0.41,0.61,2019-08-25,20:48,N,high,1.0NRT,307.4,13,D
42.35188,-106.89085,367,0.41,0.61,2019-08-25,20:48,N,high,1.0NRT,308.3,13,D
42.35379,-106.84281,330.1,0.42,0.61,2019-08-25,20:48,N,nominal,1.0NRT,296.1,13.6,D
42.35355,-106.84878,340.4,0.42,0.61,2019-08-25,20:48,N,nominal,1.0NRT,295.9,185.1,D
42.35308,-106.86064,347.1,0.41,0.61,2019-08-25,20:48,N,nominal,1.0NRT,311.5,246.1,D
42.35282,-106.86711,334.8,0.41,0.61,2019-08-25,20:48,N,nominal,1.0NRT,309.6,246.1,D
42.35261,-106.87232,347.1,0.41,0.61,2019-08-25,20:48,N,nominal,1.0NRT,304.7,55.8,D
42.35247,-106.87597,337.3,0.41,0.61,2019-08-25,20:48,N,nominal,1.0NRT,307,55.8,D
42.35232,-106.87958,340,0.41,0.61,2019-08-25,20:48,N,nominal,1.0NRT,307.6,23.7,D
42.35854,-106.86603,367,0.41,0.61,2019-08-25,20:48,N,high,1.0NRT,301.6,16.3,D
42.35833,-106.87117,351.9,0.41,0.61,2019-08-25,20:48,N,nominal,1.0NRT,302.5,6.4,D
42.35818,-106.87505,336.8,0.41,0.61,2019-08-25,20:48,N,nominal,1.0NRT,304.7,6.4,D
40.38406,-110.0852,344.8,0.54,0.51,2019-08-25,20:48,N,nominal,1.0NRT,312.2,5.4,D
42.34197,-106.85416,367,0.42,0.61,2019-08-25,20:48,N,high,1.0NRT,303,25.2,D
42.34127,-106.87188,367,0.41,0.61,2019-08-25,20:48,N,high,1.0NRT,307.3,23.4,D
42.34111,-106.876,367,0.41,0.61,2019-08-25,20:48,N,high,1.0NRT,315.1,23.4,D
42.34219,-106.84862,335.9,0.42,0.61,2019-08-25,20:48,N,nominal,1.0NRT,300.6,25.2,D
42.34173,-106.86024,353.5,0.41,0.61,2019-08-25,20:48,N,nominal,1.0NRT,305.2,56,D
42.34149,-106.86649,357.4,0.41,0.61,2019-08-25,20:48,N,nominal,1.0NRT,312.2,56,D
42.34096,-106.8799,342.9,0.41,0.61,2019-08-25,20:48,N,nominal,1.0NRT,304,5.9,D
42.3408,-106.88387,336.8,0.41,0.61,2019-08-25,20:48,N,nominal,1.0NRT,301.5,5.9,D
42.3479,-106.84812,367,0.42,0.61,2019-08-25,20:48,N,high,1.0NRT,301.4,185.1,D
42.34741,-106.86027,367,0.41,0.61,2019-08-25,20:48,N,high,1.0NRT,372.1,246.1,D
42.34715,-106.86691,367,0.41,0.61,2019-08-25,20:48,N,high,1.0NRT,353.9,246.1,D
42.34677,-106.87638,367,0.41,0.61,2019-08-25,20:48,N,high,1.0NRT,312.2,55.8,D
42.34662,-106.88018,367,0.41,0.61,2019-08-25,20:48,N,high,1.0NRT,311.8,23.7,D
42.34647,-106.88397,367,0.41,0.61,2019-08-25,20:48,N,high,1.0NRT,315.9,23.7,D
42.34616,-106.89178,341.2,0.41,0.61,2019-08-25,20:48,N,nominal,1.0NRT,305.7,13,D
42.346,-106.89594,347.5,0.41,0.61,2019-08-25,20:48,N,nominal,1.0NRT,302.4,9.4,D
42.34766,-106.85392,351.6,0.42,0.61,2019-08-25,20:48,N,low,1.0NRT,344,185.1,D
42.35332,-106.85471,367,0.42,0.61,2019-08-25,20:48,N,high,1.0NRT,297.1,185.1,D
42.35788,-106.88252,338.7,0.41,0.61,2019-08-25,20:48,N,nominal,1.0NRT,303.5,7.6,D
42.05362,-121.82048,340.8,0.4,0.37,2019-08-25,20:48,N,low,1.0NRT,314.2,35.8,D
42.49796,-120.25791,348.7,0.38,0.36,2019-08-25,20:48,N,nominal,1.0NRT,316.9,17,D
42.50123,-120.25883,355.5,0.38,0.36,2019-08-25,20:48,N,nominal,1.0NRT,320.4,17,D
44.2665,-118.42895,351.1,0.41,0.37,2019-08-25,20:54,N,nominal,1.0NRT,303.8,20,D
45.02887,-106.83154,367,0.43,0.62,2019-08-25,20:54,N,high,1.0NRT,302.6,11,D
45.0292,-106.81999,344.6,0.43,0.62,2019-08-25,20:54,N,nominal,1.0NRT,302,10,D
45.02903,-106.82584,356.5,0.43,0.62,2019-08-25,20:54,N,nominal,1.0NRT,304.5,10,D
44.5322,-114.98733,367,0.53,0.42,2019-08-25,20:54,N,high,1.0NRT,354.9,257,D
44.53341,-114.97544,331.4,0.53,0.42,2019-08-25,20:54,N,nominal,1.0NRT,291.2,11.7,D
44.53282,-114.98125,367,0.53,0.42,2019-08-25,20:54,N,low,1.0NRT,325.4,257,D
44.5367,-114.98155,350.6,0.53,0.42,2019-08-25,20:54,N,nominal,1.0NRT,309,56.6,D
44.53527,-114.99545,337.7,0.53,0.42,2019-08-25,20:54,N,nominal,1.0NRT,287.9,13.1,D
44.52924,-115.05413,341,0.52,0.42,2019-08-25,20:54,N,nominal,1.0NRT,297.6,10.7,D
44.53606,-114.98785,367,0.53,0.42,2019-08-25,20:54,N,low,1.0NRT,325.1,56.6,D
44.54058,-114.98192,339.5,0.53,0.42,2019-08-25,20:54,N,nominal,1.0NRT,296,56.6,D
44.53993,-114.98824,346.9,0.53,0.42,2019-08-25,20:54,N,nominal,1.0NRT,291.5,56.6,D
44.25779,-118.41586,332.2,0.41,0.37,2019-08-25,20:54,N,nominal,1.0NRT,298.6,26.1,D
44.26046,-118.422,356,0.41,0.37,2019-08-25,20:54,N,nominal,1.0NRT,305.1,32.7,D
44.26313,-118.42809,367,0.41,0.37,2019-08-25,20:54,N,high,1.0NRT,327.4,74.6,D
44.26383,-118.42288,350.4,0.41,0.37,2019-08-25,20:54,N,nominal,1.0NRT,299.7,32.7,D
44.27071,-118.39763,331.1,0.41,0.37,2019-08-25,20:54,N,nominal,1.0NRT,294.7,28.3,D
44.27002,-118.40276,345.7,0.41,0.37,2019-08-25,20:54,N,nominal,1.0NRT,310.2,28.3,D
44.26721,-118.42369,332.5,0.41,0.37,2019-08-25,20:54,N,nominal,1.0NRT,298,4.1,D
45.05275,-123.60882,348.1,0.41,0.37,2019-08-25,20:54,N,nominal,1.0NRT,307.1,5.1,D
45.16698,-123.13479,336.2,0.4,0.37,2019-08-25,20:54,N,nominal,1.0NRT,307.5,1.6,D
45.1703,-123.13592,349.4,0.4,0.37,2019-08-25,20:54,N,nominal,1.0NRT,308.1,4.2,D
46.34462,-118.40995,350.9,0.42,0.38,2019-08-25,20:54,N,nominal,1.0NRT,318.9,13.1,D
46.34806,-118.41085,367,0.42,0.38,2019-08-25,20:54,N,high,1.0NRT,317.7,13.1,D
46.34739,-118.41628,351,0.42,0.38,2019-08-25,20:54,N,nominal,1.0NRT,315.6,13.1,D
46.3515,-118.4118,341.1,0.42,0.38,2019-08-25,20:54,N,nominal,1.0NRT,310.7,4.3,D
46.41064,-120.33035,330,0.39,0.36,2019-08-25,20:54,N,low,1.0NRT,303.8,3.6,D
48.03252,-102.86407,342.6,0.68,0.74,2019-08-25,20:54,N,nominal,1.0NRT,292.1,7.3,D
48.03947,-102.86382,367,0.68,0.74,2019-08-25,20:54,N,high,1.0NRT,293.5,15.4,D
48.03714,-102.86514,367,0.68,0.74,2019-08-25,20:54,N,high,1.0NRT,294.5,16.3,D
48.10967,-102.57732,327.7,0.7,0.75,2019-08-25,20:54,N,nominal,1.0NRT,286.7,3.5,D
47.56749,-122.34331,330.7,0.38,0.36,2019-08-25,20:54,N,low,1.0NRT,303.3,2.1,D
47.57007,-122.37075,335.7,0.38,0.36,2019-08-25,20:54,N,nominal,1.0NRT,303.6,6.1,D
44.27408,-118.39851,331.5,0.41,0.37,2019-08-25,20:54,N,nominal,1.0NRT,295.6,28.3,D
44.2713,-118.41925,343.6,0.41,0.37,2019-08-25,20:54,N,nominal,1.0NRT,303.1,4.1,D
44.27059,-118.42454,341.6,0.41,0.37,2019-08-25,20:54,N,nominal,1.0NRT,300.5,4.1,D
44.26917,-118.43508,341.9,0.41,0.37,2019-08-25,20:54,N,nominal,1.0NRT,297.6,20,D
44.27312,-118.40623,331.9,0.41,0.37,2019-08-25,20:54,N,nominal,1.0NRT,299.3,10.7,D
44.27177,-118.41667,333.5,0.41,0.37,2019-08-25,20:54,N,nominal,1.0NRT,300.2,3.5,D
44.27108,-118.42191,341.2,0.41,0.37,2019-08-25,20:54,N,nominal,1.0NRT,301.5,3.5,D
44.27039,-118.42722,339.7,0.41,0.37,2019-08-25,20:54,N,nominal,1.0NRT,301.6,6.1,D
44.2697,-118.4325,339.9,0.41,0.37,2019-08-25,20:54,N,nominal,1.0NRT,299.5,6.1,D
44.27718,-118.40195,333,0.41,0.37,2019-08-25,20:54,N,nominal,1.0NRT,298.8,56,D
44.2765,-118.4071,352.9,0.41,0.37,2019-08-25,20:54,N,nominal,1.0NRT,299,10.7,D
44.27582,-118.41232,343.7,0.41,0.37,2019-08-25,20:54,N,nominal,1.0NRT,298,10.7,D
44.27514,-118.41753,332.7,0.41,0.37,2019-08-25,20:54,N,nominal,1.0NRT,296.5,3.5,D
44.2724,-118.43859,346.3,0.41,0.37,2019-08-25,20:54,N,nominal,1.0NRT,298.3,4.9,D
44.27172,-118.44381,334.3,0.41,0.37,2019-08-25,20:54,N,nominal,1.0NRT,296.2,4.9,D
44.27509,-118.44462,344.9,0.41,0.37,2019-08-25,20:54,N,nominal,1.0NRT,294.5,13,D
44.27779,-118.45061,334.5,0.41,0.37,2019-08-25,20:54,N,nominal,1.0NRT,298.2,3,D
44.28459,-118.42536,330.8,0.41,0.37,2019-08-25,20:54,N,nominal,1.0NRT,296.6,6.2,D
44.28389,-118.43064,348.2,0.41,0.37,2019-08-25,20:54,N,nominal,1.0NRT,299.4,15.3,D
44.27982,-118.46178,330.5,0.41,0.37,2019-08-25,20:54,N,nominal,1.0NRT,295.5,3.5,D
44.28796,-118.42622,345.6,0.41,0.37,2019-08-25,20:54,N,nominal,1.0NRT,299,6.2,D
44.29203,-118.42178,335.6,0.41,0.37,2019-08-25,20:54,N,nominal,1.0NRT,296.5,3.7,D
44.29541,-118.42265,335.9,0.41,0.37,2019-08-25,20:54,N,nominal,1.0NRT,294.4,3.7,D
44.29471,-118.42799,331.6,0.41,0.37,2019-08-25,20:54,N,nominal,1.0NRT,298.4,3.7,D
44.29192,-118.44925,352.7,0.41,0.37,2019-08-25,20:54,N,nominal,1.0NRT,305.4,12.9,D
44.29124,-118.45447,337.1,0.41,0.37,2019-08-25,20:54,N,nominal,1.0NRT,298.2,5.4,D
44.29056,-118.4596,356.2,0.41,0.37,2019-08-25,20:54,N,nominal,1.0NRT,301.8,5.4,D
44.29878,-118.42354,338.1,0.41,0.37,2019-08-25,20:54,N,nominal,1.0NRT,295.1,11.6,D
44.29808,-118.42887,336.8,0.41,0.37,2019-08-25,20:54,N,nominal,1.0NRT,297,11.6,D
44.29739,-118.43418,333.6,0.41,0.37,2019-08-25,20:54,N,nominal,1.0NRT,300.3,6.4,D
44.29598,-118.44486,336.9,0.41,0.37,2019-08-25,20:54,N,nominal,1.0NRT,303.5,11.7,D
44.29461,-118.45533,351.5,0.41,0.37,2019-08-25,20:54,N,nominal,1.0NRT,307.7,9.5,D
44.29393,-118.46043,356.2,0.41,0.37,2019-08-25,20:54,N,nominal,1.0NRT,307.3,9.5,D
44.30146,-118.42973,355.4,0.41,0.37,2019-08-25,20:54,N,nominal,1.0NRT,305.5,11.6,D
45.19775,-117.47823,338.5,0.44,0.38,2019-08-25,20:54,N,nominal,1.0NRT,300.2,4.3,D
45.20121,-117.47933,336.7,0.44,0.38,2019-08-25,20:54,N,nominal,1.0NRT,300.3,5.1,D
45.06574,-119.41148,333.4,0.4,0.37,2019-08-25,20:54,N,low,1.0NRT,306.8,1.7,D
45.12996,-122.90074,350.1,0.4,0.37,2019-08-25,20:54,N,nominal,1.0NRT,306.8,4.2,D
45.08574,-123.42113,340.6,0.4,0.37,2019-08-25,20:54,N,nominal,1.0NRT,304.5,4,D
60.59557,-149.94351,327.9,0.37,0.58,2019-08-25,21:00,N,nominal,1.0NRT,284.1,3.7,D
60.59367,-149.94882,351.9,0.37,0.58,2019-08-25,21:00,N,nominal,1.0NRT,286.8,3.7,D
60.67243,-149.99947,335.1,0.36,0.58,2019-08-25,21:00,N,nominal,1.0NRT,292.5,4.9,D
60.55834,-149.89807,367,0.37,0.58,2019-08-25,21:00,N,high,1.0NRT,292.8,4.8,D
60.55639,-149.90353,332.1,0.37,0.58,2019-08-25,21:00,N,nominal,1.0NRT,291.4,8.7,D
60.56519,-149.89766,326.2,0.37,0.58,2019-08-25,21:00,N,nominal,1.0NRT,290.4,4.8,D
60.56332,-149.90288,332.5,0.37,0.58,2019-08-25,21:00,N,nominal,1.0NRT,291.8,4.8,D
63.94499,-134.76476,330.3,0.4,0.37,2019-08-25,21:00,N,nominal,1.0NRT,290.7,5.3,D
60.56596,-149.95154,367,0.37,0.58,2019-08-25,21:00,N,high,1.0NRT,292.3,25,D
60.57689,-149.92101,344.4,0.37,0.58,2019-08-25,21:00,N,nominal,1.0NRT,282.2,4.4,D
60.58668,-149.91977,348,0.42,0.38,2019-08-25,22:36,N,nominal,1.0NRT,297.7,7,D
60.59008,-149.92155,327.2,0.42,0.38,2019-08-25,22:36,N,nominal,1.0NRT,284.3,7,D
60.67896,-149.99698,343.5,0.42,0.38,2019-08-25,22:36,N,nominal,1.0NRT,291.9,12.4,D
60.67559,-149.99501,342.2,0.42,0.38,2019-08-25,22:36,N,nominal,1.0NRT,290.7,7.6,D
