latitude,longitude,bright_ti4,scan,track,acq_date,acq_time,satellite,confidence,version,bright_ti5,frp,daynight
47.79803,-53.99406,297.6,0.57,0.52,2019-09-19,04:54,N,nominal,1.0NRT,276.4,1.4,N
48.18732,-64.91872,299.7,0.42,0.37,2019-09-19,06:36,N,nominal,1.0NRT,279.6,1.1,N
46.36911,-72.39119,297.7,0.43,0.38,2019-09-19,06:36,N,nominal,1.0NRT,278.1,0.7,N
45.27949,-66.0127,299.1,0.42,0.38,2019-09-19,06:36,N,nominal,1.0NRT,283,1.4,N
46.04613,-73.13895,296.4,0.45,0.39,2019-09-19,06:36,N,nominal,1.0NRT,284.7,1.9,N
46.04502,-73.13988,320.9,0.45,0.39,2019-09-19,06:36,N,nominal,1.0NRT,286.5,2,N
46.04216,-73.14663,304,0.45,0.39,2019-09-19,06:36,N,nominal,1.0NRT,285.2,2,N
46.04145,-73.14075,317.4,0.45,0.39,2019-09-19,06:36,N,nominal,1.0NRT,283.7,2,N
45.83886,-73.2459,301.6,0.45,0.39,2019-09-19,06:36,N,nominal,1.0NRT,282.3,1.2,N
45.83599,-73.25264,306.5,0.45,0.39,2019-09-19,06:36,N,nominal,1.0NRT,281.2,1.5,N
45.81952,-73.26871,296.7,0.45,0.39,2019-09-19,06:36,N,nominal,1.0NRT,282.6,1.1,N
45.78014,-73.91447,302.7,0.48,0.4,2019-09-19,06:36,N,nominal,1.0NRT,277.9,0.5,N
45.33788,-73.52125,298.4,0.46,0.39,2019-09-19,06:36,N,nominal,1.0NRT,279.6,0.6,N
45.06956,-83.4044,301.8,0.42,0.61,2019-09-19,06:36,N,nominal,1.0NRT,275.1,1.4,N
44.1672,-76.80332,301.5,0.4,0.44,2019-09-19,06:36,N,nominal,1.0NRT,285.7,1.8,N
43.24652,-70.95888,296.8,0.39,0.36,2019-09-19,06:36,N,nominal,1.0NRT,277.1,0.5,N
43.16104,-76.57774,301.7,0.57,0.43,2019-09-19,06:36,N,nominal,1.0NRT,282.8,1.1,N
43.26893,-79.8084,297.6,0.54,0.51,2019-09-19,06:36,N,nominal,1.0NRT,265.1,1.9,N
43.08041,-77.38292,297.2,0.41,0.45,2019-09-19,06:36,N,nominal,1.0NRT,283,0.5,N
42.70729,-73.85075,295.5,0.44,0.39,2019-09-19,06:36,N,nominal,1.0NRT,279.3,0.4,N
43.06831,-80.85902,299.5,0.61,0.54,2019-09-19,06:36,N,nominal,1.0NRT,284.3,1.3,N
43.1843,-84.84573,310.7,0.49,0.65,2019-09-19,06:36,N,nominal,1.0NRT,285.4,1.4,N
42.10479,-72.03451,295.9,0.4,0.37,2019-09-19,06:36,N,nominal,1.0NRT,276.7,0.5,N
43.18452,-84.844,309.3,0.49,0.65,2019-09-19,06:36,N,nominal,1.0NRT,285,1,N
42.96779,-81.87038,299,0.34,0.56,2019-09-19,06:36,N,nominal,1.0NRT,284.5,0.3,N
42.94272,-82.41865,296.8,0.37,0.58,2019-09-19,06:36,N,nominal,1.0NRT,285.9,0.5,N
42.9425,-82.41402,296.1,0.37,0.58,2019-09-19,06:36,N,nominal,1.0NRT,285.7,0.5,N
42.87555,-82.40686,296.5,0.37,0.58,2019-09-19,06:36,N,nominal,1.0NRT,286.4,0.7,N
42.04903,-73.97777,297.9,0.44,0.38,2019-09-19,06:36,N,nominal,1.0NRT,280.4,0.5,N
42.54437,-81.89292,303.1,0.34,0.56,2019-09-19,06:36,N,nominal,1.0NRT,283.5,0.3,N
42.54458,-81.89499,296.3,0.34,0.56,2019-09-19,06:36,N,nominal,1.0NRT,283.9,0.3,N
42.29843,-83.1556,324.2,0.39,0.6,2019-09-19,06:36,N,nominal,1.0NRT,285.4,2.2,N
42.29923,-83.17536,296.6,0.4,0.6,2019-09-19,06:36,N,nominal,1.0NRT,278.5,1.7,N
42.29345,-83.17091,301.7,0.4,0.6,2019-09-19,06:36,N,nominal,1.0NRT,269.6,1.4,N
42.29325,-83.16596,318.8,0.4,0.6,2019-09-19,06:36,N,nominal,1.0NRT,275.5,1.4,N
42.30038,-83.15298,307,0.39,0.6,2019-09-19,06:36,N,nominal,1.0NRT,285,1.9,N
42.29549,-83.16826,299,0.4,0.6,2019-09-19,06:36,N,nominal,1.0NRT,271.4,2.4,N
42.29527,-83.16331,295.6,0.39,0.6,2019-09-19,06:36,N,nominal,1.0NRT,274.1,2.6,N
42.2897,-83.16383,299,0.39,0.6,2019-09-19,06:36,N,nominal,1.0NRT,267.8,1.1,N
42.28167,-83.11028,300.6,0.39,0.59,2019-09-19,06:36,N,nominal,1.0NRT,288,1.4,N
41.43433,-75.59566,304.6,0.5,0.41,2019-09-19,06:36,N,nominal,1.0NRT,280.3,1,N
40.7915,-72.92618,301.7,0.4,0.37,2019-09-19,06:36,N,nominal,1.0NRT,280.4,0.4,N
41.6757,-83.45165,297,0.4,0.6,2019-09-19,06:36,N,nominal,1.0NRT,286.6,0.9,N
41.63261,-83.50047,298,0.41,0.6,2019-09-19,06:36,N,nominal,1.0NRT,287.4,1.1,N
41.67717,-87.41924,307.1,0.65,0.73,2019-09-19,06:36,N,nominal,1.0NRT,289.2,2.5,N
41.6706,-87.46847,314.6,0.65,0.73,2019-09-19,06:36,N,nominal,1.0NRT,287.9,4.2,N
41.67056,-87.46024,315.3,0.65,0.73,2019-09-19,06:36,N,nominal,1.0NRT,287.9,2.8,N
41.67052,-87.45206,307.5,0.65,0.73,2019-09-19,06:36,N,nominal,1.0NRT,288.5,2.8,N
41.66357,-87.42778,301.1,0.65,0.73,2019-09-19,06:36,N,nominal,1.0NRT,287.9,1.2,N
41.47554,-81.66631,299.9,0.33,0.55,2019-09-19,06:36,N,nominal,1.0NRT,287.3,0.9,N
41.4753,-81.66222,319.6,0.33,0.55,2019-09-19,06:36,N,nominal,1.0NRT,286.2,0.9,N
41.67625,-87.42495,298.1,0.65,0.73,2019-09-19,06:36,N,nominal,1.0NRT,287.6,3.1,N
41.66984,-87.4659,324,0.65,0.73,2019-09-19,06:36,N,nominal,1.0NRT,287.9,3.1,N
41.66976,-87.4577,314.1,0.65,0.73,2019-09-19,06:36,N,nominal,1.0NRT,288.3,3.1,N
41.66968,-87.44957,300.8,0.65,0.73,2019-09-19,06:36,N,nominal,1.0NRT,288,2.6,N
41.66261,-87.42534,302.6,0.65,0.73,2019-09-19,06:36,N,nominal,1.0NRT,287.7,1.8,N
41.46068,-81.67604,302.5,0.33,0.55,2019-09-19,06:36,N,nominal,1.0NRT,286.5,1.1,N
41.5675,-84.04762,324.5,0.43,0.62,2019-09-19,06:36,N,nominal,1.0NRT,287.1,2.9,N
41.64593,-87.13861,305.4,0.62,0.72,2019-09-19,06:36,N,nominal,1.0NRT,287.5,1.8,N
41.642,-87.4098,303.5,0.64,0.72,2019-09-19,06:36,N,nominal,1.0NRT,288.4,1.4,N
41.63929,-87.14658,305.9,0.63,0.72,2019-09-19,06:36,N,nominal,1.0NRT,287.5,2.3,N
41.63919,-87.1386,315.4,0.62,0.72,2019-09-19,06:36,N,nominal,1.0NRT,288.8,2.3,N
41.6391,-87.13073,309.3,0.62,0.72,2019-09-19,06:36,N,nominal,1.0NRT,287.8,3.3,N
41.63255,-87.14668,297.5,0.63,0.72,2019-09-19,06:36,N,nominal,1.0NRT,287.3,2.3,N
41.62802,-87.36968,302.5,0.64,0.72,2019-09-19,06:36,N,nominal,1.0NRT,288,1.1,N
41.62582,-87.14687,299.6,0.63,0.72,2019-09-19,06:36,N,nominal,1.0NRT,287.9,0.9,N
41.46608,-83.37085,300,0.4,0.6,2019-09-19,06:36,N,nominal,1.0NRT,285.2,2.3,N
41.46589,-83.3659,311.9,0.4,0.6,2019-09-19,06:36,N,nominal,1.0NRT,286.4,1.1,N
41.46029,-83.36636,303.4,0.4,0.6,2019-09-19,06:36,N,nominal,1.0NRT,285.7,1.1,N
41.46865,-83.37082,296.7,0.4,0.6,2019-09-19,06:36,N,nominal,1.0NRT,284.9,1.2,N
41.46841,-83.3659,316.3,0.4,0.6,2019-09-19,06:36,N,nominal,1.0NRT,287.6,1.2,N
41.45723,-83.36678,301.1,0.4,0.6,2019-09-19,06:36,N,nominal,1.0NRT,285,1.2,N
40.63628,-74.22092,307.4,0.44,0.38,2019-09-19,06:36,N,nominal,1.0NRT,290.6,2.3,N
41.21587,-80.50809,304.8,0.56,0.52,2019-09-19,06:36,N,nominal,1.0NRT,284.5,2.2,N
41.21672,-80.50942,306.2,0.56,0.52,2019-09-19,06:36,N,nominal,1.0NRT,284.3,1.7,N
41.37208,-84.91698,304.7,0.48,0.65,2019-09-19,06:36,N,nominal,1.0NRT,287.2,1.7,N
41.36622,-84.92333,309.2,0.48,0.65,2019-09-19,06:36,N,nominal,1.0NRT,286.4,1.7,N
40.89202,-77.7093,319.9,0.4,0.45,2019-09-19,06:36,N,nominal,1.0NRT,284.5,2.4,N
40.62381,-75.30574,295.6,0.47,0.4,2019-09-19,06:36,N,nominal,1.0NRT,283.1,0.6,N
40.48066,-74.32253,329.8,0.44,0.38,2019-09-19,06:36,N,nominal,1.0NRT,285.7,4,N
41.22402,-83.21107,301.7,0.39,0.59,2019-09-19,06:36,N,nominal,1.0NRT,285.2,1.2,N
41.17841,-87.85816,312.8,0.68,0.74,2019-09-19,06:36,N,nominal,1.0NRT,287.9,2.3,N
40.83472,-79.93472,317.1,0.52,0.5,2019-09-19,06:36,N,nominal,1.0NRT,282.6,1.7,N
40.23835,-74.11665,296,0.43,0.38,2019-09-19,06:36,N,nominal,1.0NRT,283.7,0.3,N
40.83215,-79.93447,322.7,0.52,0.5,2019-09-19,06:36,N,nominal,1.0NRT,283.2,2.7,N
40.75861,-81.43146,296.9,0.62,0.54,2019-09-19,06:36,N,nominal,1.0NRT,283.6,0.5,N
40.75359,-81.43198,296,0.62,0.54,2019-09-19,06:36,N,nominal,1.0NRT,283.4,0.5,N
40.79425,-82.52783,296.3,0.36,0.57,2019-09-19,06:36,N,nominal,1.0NRT,285.2,0.3,N
40.75463,-81.42964,309.2,0.62,0.54,2019-09-19,06:36,N,nominal,1.0NRT,283.4,2.1,N
40.79146,-82.52879,300.4,0.36,0.57,2019-09-19,06:36,N,nominal,1.0NRT,286.1,0.6,N
40.71938,-84.13007,299,0.43,0.62,2019-09-19,06:36,N,nominal,1.0NRT,287.8,1.4,N
40.40363,-79.24747,295.3,0.48,0.48,2019-09-19,06:36,N,nominal,1.0NRT,280.4,0.5,N
40.57065,-83.13937,300.2,0.38,0.59,2019-09-19,06:36,N,nominal,1.0NRT,286.1,0.6,N
40.13889,-77.50603,297.5,0.39,0.44,2019-09-19,06:36,N,nominal,1.0NRT,282.7,0.3,N
40.30667,-79.87755,302.1,0.51,0.5,2019-09-19,06:36,N,nominal,1.0NRT,290.5,1.8,N
40.30163,-79.87212,301.4,0.51,0.49,2019-09-19,06:36,N,nominal,1.0NRT,288.2,1.8,N
40.30278,-79.87836,301,0.51,0.49,2019-09-19,06:36,N,nominal,1.0NRT,285.8,1.3,N
40.30228,-79.87222,302,0.51,0.49,2019-09-19,06:36,N,nominal,1.0NRT,289.1,2,N
41.18007,-87.86167,308.2,0.68,0.74,2019-09-19,06:36,N,nominal,1.0NRT,287.8,2,N
40.37077,-75.94266,298.7,0.5,0.41,2019-09-19,06:36,N,nominal,1.0NRT,283.6,0.9,N
40.15181,-74.76803,296.2,0.45,0.39,2019-09-19,06:36,N,nominal,1.0NRT,282.8,0.3,N
49.75947,-97.18989,297.6,0.45,0.39,2019-09-19,08:12,N,nominal,1.0NRT,285.7,0.6,N
48.25343,-79.01995,310.5,0.37,0.58,2019-09-19,08:12,N,nominal,1.0NRT,282.4,1,N
50.26694,-99.10812,295.5,0.53,0.42,2019-09-19,08:12,N,nominal,1.0NRT,283.2,0.6,N
50.52053,-104.64175,305.7,0.6,0.53,2019-09-19,08:12,N,nominal,1.0NRT,282.4,2.2,N
50.51474,-104.62508,310.7,0.6,0.53,2019-09-19,08:12,N,nominal,1.0NRT,281,5.2,N
57.40451,-111.05608,297.9,0.58,0.7,2019-09-19,08:12,N,nominal,1.0NRT,278,0.8,N
57.40624,-111.0563,295.1,0.58,0.7,2019-09-19,08:12,N,nominal,1.0NRT,277.6,1,N
57.00971,-111.47836,301.7,0.6,0.71,2019-09-19,08:12,N,nominal,1.0NRT,281.1,2.5,N
57.00309,-111.47731,308.1,0.6,0.71,2019-09-19,08:12,N,nominal,1.0NRT,282,2.8,N
57.00639,-111.48306,313.6,0.6,0.71,2019-09-19,08:12,N,nominal,1.0NRT,282.1,3.8,N
57.0066,-111.47342,300.8,0.6,0.71,2019-09-19,08:12,N,nominal,1.0NRT,282.4,2.9,N
54.405,-109.35008,299.9,0.5,0.65,2019-09-19,08:12,N,nominal,1.0NRT,275,0.5,N
53.84428,-113.12253,299.3,0.7,0.75,2019-09-19,08:12,N,nominal,1.0NRT,277.5,1.2,N
42.30176,-83.16499,307.1,0.36,0.57,2019-09-19,08:18,N,nominal,1.0NRT,287.4,1.2,N
40.35295,-110.24622,313.7,0.47,0.64,2019-09-19,08:18,N,nominal,1.0NRT,281.2,1.9,N
40.35465,-110.24712,317.5,0.47,0.64,2019-09-19,08:18,N,nominal,1.0NRT,281.4,1.3,N
40.83016,-103.86872,299.1,0.44,0.46,2019-09-19,08:18,N,nominal,1.0NRT,282,0.8,N
40.04826,-96.07005,322.3,0.38,0.36,2019-09-19,08:18,N,nominal,1.0NRT,291.2,1.5,N
41.12749,-104.78523,298,0.5,0.49,2019-09-19,08:18,N,nominal,1.0NRT,283.6,0.3,N
41.54132,-109.13057,310.2,0.42,0.61,2019-09-19,08:18,N,nominal,1.0NRT,284.6,1.8,N
40.41312,-95.5957,309,0.39,0.36,2019-09-19,08:18,N,nominal,1.0NRT,293.3,1.4,N
41.77886,-107.10714,297.1,0.33,0.55,2019-09-19,08:18,N,nominal,1.0NRT,283.1,0.5,N
41.78064,-107.10882,300.7,0.33,0.55,2019-09-19,08:18,N,nominal,1.0NRT,285.3,1,N
42.68488,-111.5967,303.6,0.57,0.69,2019-09-19,08:18,N,nominal,1.0NRT,273.2,11.5,N
42.68475,-111.58923,367,0.57,0.69,2019-09-19,08:18,N,high,1.0NRT,279.1,13,N
42.68415,-111.59261,367,0.57,0.69,2019-09-19,08:18,N,high,1.0NRT,279.5,16.9,N
40.63458,-89.63591,309.4,0.39,0.44,2019-09-19,08:18,N,nominal,1.0NRT,290.3,2.5,N
40.64043,-89.64337,338.2,0.39,0.44,2019-09-19,08:18,N,nominal,1.0NRT,291,3.2,N
40.64433,-89.6419,315,0.39,0.44,2019-09-19,08:18,N,nominal,1.0NRT,290.8,1.4,N
43.21626,-105.80434,298.2,0.59,0.53,2019-09-19,08:18,N,nominal,1.0NRT,281.6,1.2,N
43.35775,-105.76003,300.8,0.58,0.52,2019-09-19,08:18,N,nominal,1.0NRT,281.8,0.9,N
40.93066,-88.65253,300.5,0.42,0.45,2019-09-19,08:18,N,nominal,1.0NRT,287.6,0.8,N
41.46179,-90.68273,310.5,0.5,0.41,2019-09-19,08:18,N,nominal,1.0NRT,289.8,1.6,N
40.92696,-87.34163,301.7,0.49,0.48,2019-09-19,08:18,N,nominal,1.0NRT,287.6,0.9,N
40.73262,-86.43433,297.9,0.55,0.51,2019-09-19,08:18,N,nominal,1.0NRT,286.8,0.7,N
40.73424,-86.434,297.5,0.55,0.51,2019-09-19,08:18,N,nominal,1.0NRT,286.7,0.8,N
41.17764,-87.85908,332,0.45,0.47,2019-09-19,08:18,N,nominal,1.0NRT,289.6,2.1,N
41.18182,-87.85737,308.5,0.45,0.47,2019-09-19,08:18,N,nominal,1.0NRT,290,2.1,N
41.80595,-90.30188,305.4,0.52,0.41,2019-09-19,08:18,N,nominal,1.0NRT,287.7,0.7,N
41.7301,-89.39946,299.2,0.56,0.43,2019-09-19,08:18,N,nominal,1.0NRT,288,0.6,N
40.71814,-84.12493,299.1,0.35,0.57,2019-09-19,08:18,N,nominal,1.0NRT,288.2,1.1,N
41.65785,-87.62439,304,0.45,0.47,2019-09-19,08:18,N,nominal,1.0NRT,289.3,0.9,N
44.11559,-103.28313,296.7,0.45,0.47,2019-09-19,08:18,N,nominal,1.0NRT,283.9,1.3,N
41.61629,-87.32758,302.5,0.47,0.48,2019-09-19,08:18,N,nominal,1.0NRT,290.1,1.9,N
41.61758,-87.33306,321.9,0.47,0.48,2019-09-19,08:18,N,nominal,1.0NRT,289.9,2.4,N
41.63965,-87.40772,316.3,0.47,0.47,2019-09-19,08:18,N,nominal,1.0NRT,290.3,3,N
41.6396,-87.4071,320.1,0.47,0.47,2019-09-19,08:18,N,nominal,1.0NRT,291.1,2,N
41.66387,-87.45055,302.8,0.46,0.47,2019-09-19,08:18,N,nominal,1.0NRT,290.2,1,N
41.66163,-87.4217,299.8,0.46,0.47,2019-09-19,08:18,N,nominal,1.0NRT,289.1,0.6,N
41.66293,-87.42716,313,0.46,0.47,2019-09-19,08:18,N,nominal,1.0NRT,290.1,2.2,N
41.66807,-87.44878,309.2,0.46,0.47,2019-09-19,08:18,N,nominal,1.0NRT,289.7,2,N
41.66935,-87.45418,319.1,0.46,0.47,2019-09-19,08:18,N,nominal,1.0NRT,289.6,2,N
41.67063,-87.45957,316.6,0.46,0.47,2019-09-19,08:18,N,nominal,1.0NRT,289.6,2.6,N
41.67191,-87.46493,337.3,0.46,0.47,2019-09-19,08:18,N,nominal,1.0NRT,290,2.6,N
41.67484,-87.45779,310.3,0.46,0.47,2019-09-19,08:18,N,nominal,1.0NRT,289.2,2.6,N
41.67391,-87.4344,300,0.46,0.47,2019-09-19,08:18,N,nominal,1.0NRT,289.8,0.7,N
41.67556,-87.42187,300.1,0.46,0.47,2019-09-19,08:18,N,nominal,1.0NRT,289.1,0.6,N
41.67977,-87.42008,316.7,0.46,0.47,2019-09-19,08:18,N,nominal,1.0NRT,293.6,1.6,N
41.68106,-87.42548,303,0.46,0.47,2019-09-19,08:18,N,nominal,1.0NRT,289.4,1.6,N
41.63691,-87.1415,306.8,0.48,0.48,2019-09-19,08:18,N,nominal,1.0NRT,270.5,1.1,N
42.14271,-89.07978,297.2,0.57,0.43,2019-09-19,08:18,N,nominal,1.0NRT,287.1,0.4,N
41.36499,-84.92003,332,0.62,0.54,2019-09-19,08:18,N,nominal,1.0NRT,286.7,4.4,N
41.36975,-84.91784,310,0.62,0.54,2019-09-19,08:18,N,nominal,1.0NRT,288.2,4.4,N
41.36599,-84.92078,328.5,0.62,0.54,2019-09-19,08:18,N,nominal,1.0NRT,287,4.4,N
41.37075,-84.9186,305.4,0.62,0.54,2019-09-19,08:18,N,nominal,1.0NRT,288,3.1,N
41.22415,-83.2098,295.4,0.38,0.59,2019-09-19,08:18,N,nominal,1.0NRT,284.1,1.2,N
40.75327,-81.44057,296.1,0.48,0.64,2019-09-19,08:18,N,nominal,1.0NRT,284.3,1,N
40.75724,-81.43218,298.1,0.48,0.65,2019-09-19,08:18,N,nominal,1.0NRT,283.6,0.8,N
40.30495,-79.87515,298,0.58,0.7,2019-09-19,08:18,N,nominal,1.0NRT,288,2.1,N
41.45818,-83.36568,311.4,0.37,0.58,2019-09-19,08:18,N,nominal,1.0NRT,285.4,1.4,N
41.46443,-83.36741,300,0.37,0.58,2019-09-19,08:18,N,nominal,1.0NRT,285.3,1.3,N
41.46949,-83.36484,308.9,0.37,0.58,2019-09-19,08:18,N,nominal,1.0NRT,287,1.1,N
41.63031,-83.49903,297.1,0.36,0.57,2019-09-19,08:18,N,nominal,1.0NRT,286.7,0.6,N
41.63144,-83.5032,300.2,0.36,0.57,2019-09-19,08:18,N,nominal,1.0NRT,288.2,0.6,N
41.44927,-81.67696,324.3,0.44,0.63,2019-09-19,08:18,N,nominal,1.0NRT,285.2,1.9,N
41.46019,-81.67127,300.7,0.44,0.63,2019-09-19,08:18,N,nominal,1.0NRT,283.7,1.4,N
41.46164,-81.67622,323,0.44,0.63,2019-09-19,08:18,N,nominal,1.0NRT,286.1,3,N
41.21356,-80.50961,298.2,0.51,0.66,2019-09-19,08:18,N,nominal,1.0NRT,281.7,1.1,N
45.81248,-108.43555,297.2,0.41,0.61,2019-09-19,08:18,N,nominal,1.0NRT,282.8,1.1,N
45.81433,-108.43494,298.7,0.41,0.61,2019-09-19,08:18,N,nominal,1.0NRT,284.1,1.1,N
42.24286,-83.13474,312.8,0.36,0.57,2019-09-19,08:18,N,nominal,1.0NRT,288.3,2,N
42.24265,-83.13743,328.2,0.36,0.57,2019-09-19,08:18,N,nominal,1.0NRT,288.3,2.3,N
42.25774,-83.12989,300.5,0.36,0.57,2019-09-19,08:18,N,nominal,1.0NRT,287,0.8,N
42.29173,-83.16997,308.8,0.36,0.57,2019-09-19,08:18,N,nominal,1.0NRT,288,1.5,N
42.29057,-83.1658,320,0.36,0.57,2019-09-19,08:18,N,nominal,1.0NRT,288.1,1.5,N
42.28051,-83.1088,299.3,0.36,0.57,2019-09-19,08:18,N,nominal,1.0NRT,287.4,1.1,N
42.29559,-83.16331,305.7,0.36,0.57,2019-09-19,08:18,N,nominal,1.0NRT,287.2,1.2,N
42.29674,-83.16747,308.9,0.36,0.57,2019-09-19,08:18,N,nominal,1.0NRT,287.5,1.2,N
42.29789,-83.17163,314,0.36,0.57,2019-09-19,08:18,N,nominal,1.0NRT,288.8,2.1,N
42.29828,-83.1524,307.8,0.36,0.57,2019-09-19,08:18,N,nominal,1.0NRT,288,2,N
42.90169,-82.45071,297.9,0.37,0.58,2019-09-19,08:18,N,nominal,1.0NRT,286.6,0.7,N
42.92707,-82.43742,306.5,0.37,0.58,2019-09-19,08:18,N,nominal,1.0NRT,286.1,1.8,N
42.92584,-82.43304,329,0.37,0.58,2019-09-19,08:18,N,nominal,1.0NRT,286.7,1.9,N
42.94368,-82.41354,305.6,0.37,0.58,2019-09-19,08:18,N,nominal,1.0NRT,285.6,0.8,N
42.94489,-82.4179,296,0.37,0.58,2019-09-19,08:18,N,nominal,1.0NRT,285.2,1,N
42.94157,-82.41523,303.1,0.37,0.58,2019-09-19,08:18,N,nominal,1.0NRT,285.6,0.5,N
42.94788,-82.4169,304.1,0.37,0.58,2019-09-19,08:18,N,nominal,1.0NRT,287.4,1.4,N
42.80202,-80.10308,310.4,0.48,0.65,2019-09-19,08:18,N,nominal,1.0NRT,285.4,2.3,N
42.80762,-80.09995,301.9,0.48,0.65,2019-09-19,08:18,N,nominal,1.0NRT,284.5,2.6,N
42.80591,-80.09433,336.7,0.48,0.65,2019-09-19,08:18,N,nominal,1.0NRT,287.3,3.2,N
42.8115,-80.09114,313.4,0.48,0.65,2019-09-19,08:18,N,nominal,1.0NRT,285.3,3.2,N
42.81322,-80.09678,300.8,0.48,0.65,2019-09-19,08:18,N,nominal,1.0NRT,284.8,2.6,N
43.06713,-80.85889,305.4,0.44,0.62,2019-09-19,08:18,N,nominal,1.0NRT,284.4,1.1,N
45.6923,-91.83834,300.2,0.41,0.37,2019-09-19,08:18,N,nominal,1.0NRT,289.1,0.4,N
43.06771,-80.85821,308.2,0.44,0.62,2019-09-19,08:18,N,nominal,1.0NRT,284.6,1.1,N
47.38412,-102.61033,307.1,0.45,0.47,2019-09-19,08:18,N,nominal,1.0NRT,281.3,1.1,N
47.38462,-102.61636,296.8,0.45,0.47,2019-09-19,08:18,N,nominal,1.0NRT,280,1.1,N
47.38477,-102.61,300.3,0.45,0.47,2019-09-19,08:18,N,nominal,1.0NRT,280.5,0.9,N
47.38523,-102.61604,308.1,0.45,0.47,2019-09-19,08:18,N,nominal,1.0NRT,280.9,1.4,N
47.47047,-102.80714,295.7,0.46,0.47,2019-09-19,08:18,N,nominal,1.0NRT,280.4,0.3,N
47.52809,-102.75866,306.4,0.46,0.47,2019-09-19,08:18,N,nominal,1.0NRT,281.2,1,N
43.29206,-79.98353,298,0.47,0.64,2019-09-19,08:18,N,nominal,1.0NRT,283.4,0.7,N
47.53708,-102.70184,304.8,0.46,0.47,2019-09-19,08:18,N,nominal,1.0NRT,282.4,0.8,N
43.25778,-79.80847,301.9,0.48,0.65,2019-09-19,08:18,N,nominal,1.0NRT,283.9,1.1,N
43.26334,-79.80518,309.6,0.48,0.65,2019-09-19,08:18,N,nominal,1.0NRT,285.9,2,N
43.26892,-79.80194,310.5,0.48,0.65,2019-09-19,08:18,N,nominal,1.0NRT,286.5,2,N
43.27067,-79.80762,317.4,0.48,0.65,2019-09-19,08:18,N,nominal,1.0NRT,285.4,4.1,N
43.27447,-79.7986,299,0.48,0.65,2019-09-19,08:18,N,nominal,1.0NRT,285.2,1.5,N
47.72924,-102.95451,299.6,0.47,0.48,2019-09-19,08:18,N,nominal,1.0NRT,282,0.5,N
47.73181,-102.95508,300.2,0.47,0.48,2019-09-19,08:18,N,nominal,1.0NRT,281.2,0.4,N
47.7355,-102.64156,300.1,0.46,0.47,2019-09-19,08:18,N,nominal,1.0NRT,282,1.2,N
47.78908,-103.38507,305.7,0.5,0.49,2019-09-19,08:18,N,nominal,1.0NRT,280.7,0.9,N
47.79362,-103.38451,300.2,0.5,0.49,2019-09-19,08:18,N,nominal,1.0NRT,279.4,0.9,N
47.76115,-102.68799,319.8,0.46,0.47,2019-09-19,08:18,N,nominal,1.0NRT,281.1,2.6,N
47.78814,-103.0508,297.3,0.48,0.48,2019-09-19,08:18,N,nominal,1.0NRT,281.3,0.6,N
47.76551,-102.68713,325,0.46,0.47,2019-09-19,08:18,N,nominal,1.0NRT,282.3,2.5,N
47.79226,-102.68907,304.1,0.46,0.47,2019-09-19,08:18,N,nominal,1.0NRT,280.9,0.4,N
47.84599,-103.04093,305.7,0.48,0.48,2019-09-19,08:18,N,nominal,1.0NRT,281.9,1.1,N
47.85687,-103.18607,311,0.49,0.48,2019-09-19,08:18,N,nominal,1.0NRT,281.3,2.5,N
47.84845,-103.01398,297.9,0.48,0.48,2019-09-19,08:18,N,nominal,1.0NRT,282,0.8,N
47.8454,-103.12764,297.2,0.48,0.48,2019-09-19,08:18,N,nominal,1.0NRT,282.6,0.8,N
47.84391,-103.04157,306.8,0.48,0.48,2019-09-19,08:18,N,nominal,1.0NRT,281.3,1.1,N
47.84652,-103.01461,298.4,0.48,0.48,2019-09-19,08:18,N,nominal,1.0NRT,281.5,0.4,N
47.85851,-103.18619,315.4,0.49,0.48,2019-09-19,08:18,N,nominal,1.0NRT,281.4,1.3,N
47.81978,-102.52708,296.4,0.45,0.47,2019-09-19,08:18,N,nominal,1.0NRT,282.8,0.5,N
47.82632,-102.61418,326.4,0.46,0.47,2019-09-19,08:18,N,nominal,1.0NRT,284.9,2.3,N
47.87362,-103.14288,306.8,0.48,0.48,2019-09-19,08:18,N,nominal,1.0NRT,281.7,1.4,N
47.83267,-102.58109,334.4,0.46,0.47,2019-09-19,08:18,N,nominal,1.0NRT,284.8,3.3,N
47.85467,-102.41012,297.6,0.45,0.47,2019-09-19,08:18,N,nominal,1.0NRT,282.9,0.5,N
47.88049,-102.68658,296.1,0.46,0.47,2019-09-19,08:18,N,nominal,1.0NRT,282.6,0.5,N
47.90339,-102.99214,303.7,0.48,0.48,2019-09-19,08:18,N,nominal,1.0NRT,281.8,1.1,N
47.93574,-103.44434,301.3,0.5,0.49,2019-09-19,08:18,N,nominal,1.0NRT,282.3,0.7,N
47.90304,-102.92659,296.8,0.47,0.48,2019-09-19,08:18,N,nominal,1.0NRT,281.4,0.7,N
47.8782,-102.43063,297.3,0.45,0.47,2019-09-19,08:18,N,nominal,1.0NRT,282.6,0.6,N
47.9058,-102.72706,296.1,0.46,0.47,2019-09-19,08:18,N,nominal,1.0NRT,282.1,1,N
47.90675,-102.73942,296.1,0.46,0.47,2019-09-19,08:18,N,nominal,1.0NRT,281.8,0.7,N
47.93166,-102.71655,298.4,0.46,0.47,2019-09-19,08:18,N,nominal,1.0NRT,281.4,0.5,N
47.93499,-102.71489,323.2,0.46,0.47,2019-09-19,08:18,N,nominal,1.0NRT,283.6,2.9,N
47.93212,-102.55677,333.6,0.46,0.47,2019-09-19,08:18,N,nominal,1.0NRT,285,3.4,N
47.99591,-103.38704,323.9,0.5,0.49,2019-09-19,08:18,N,nominal,1.0NRT,282,1.5,N
48.00814,-103.36475,303,0.5,0.49,2019-09-19,08:18,N,nominal,1.0NRT,281,0.8,N
48.02272,-103.11896,295.4,0.48,0.48,2019-09-19,08:18,N,nominal,1.0NRT,281.4,0.4,N
48.00767,-102.67708,306.5,0.46,0.47,2019-09-19,08:18,N,nominal,1.0NRT,282.1,0.9,N
46.72936,-92.07887,314.7,0.4,0.37,2019-09-19,08:18,N,nominal,1.0NRT,288.8,0.9,N
46.73265,-92.07764,304.4,0.4,0.37,2019-09-19,08:18,N,nominal,1.0NRT,288.6,0.9,N
48.04061,-102.58852,303.9,0.46,0.47,2019-09-19,08:18,N,nominal,1.0NRT,283.5,0.8,N
48.08972,-103.27711,314,0.49,0.49,2019-09-19,08:18,N,nominal,1.0NRT,283.1,2.1,N
48.09017,-103.28372,317,0.49,0.49,2019-09-19,08:18,N,nominal,1.0NRT,283.5,2.1,N
48.085,-103.14259,300.3,0.49,0.48,2019-09-19,08:18,N,nominal,1.0NRT,281.9,0.8,N
48.0638,-102.78241,309.4,0.47,0.48,2019-09-19,08:18,N,nominal,1.0NRT,283,1.1,N
48.05048,-102.48523,297.1,0.45,0.47,2019-09-19,08:18,N,nominal,1.0NRT,281.2,0.5,N
48.0779,-102.61343,296,0.46,0.47,2019-09-19,08:18,N,nominal,1.0NRT,281.9,0.4,N
48.07749,-102.49264,336.9,0.46,0.47,2019-09-19,08:18,N,nominal,1.0NRT,282.7,4.7,N
48.11169,-102.88589,312.8,0.47,0.48,2019-09-19,08:18,N,nominal,1.0NRT,283.8,1.7,N
48.11314,-102.90541,303,0.48,0.48,2019-09-19,08:18,N,nominal,1.0NRT,282.7,1,N
48.11042,-102.57565,310.9,0.46,0.47,2019-09-19,08:18,N,nominal,1.0NRT,281.3,1.1,N
48.1109,-102.58183,298.6,0.46,0.47,2019-09-19,08:18,N,nominal,1.0NRT,281.2,1.1,N
48.16929,-103.30376,307.2,0.5,0.49,2019-09-19,08:18,N,nominal,1.0NRT,282.6,1.5,N
48.1719,-103.2764,299.7,0.49,0.49,2019-09-19,08:18,N,nominal,1.0NRT,281.6,0.7,N
48.13635,-102.73841,300.3,0.47,0.48,2019-09-19,08:18,N,nominal,1.0NRT,282.2,0.7,N
48.1496,-102.79456,312.1,0.47,0.48,2019-09-19,08:18,N,nominal,1.0NRT,282.5,0.8,N
48.16957,-103.30497,310.1,0.5,0.49,2019-09-19,08:18,N,nominal,1.0NRT,282.7,0.9,N
48.17232,-103.27755,299.8,0.49,0.49,2019-09-19,08:18,N,nominal,1.0NRT,282,0.7,N
48.13947,-102.73875,297.1,0.47,0.48,2019-09-19,08:18,N,nominal,1.0NRT,282.6,0.9,N
48.15242,-102.79475,311.4,0.47,0.48,2019-09-19,08:18,N,nominal,1.0NRT,282.7,1.3,N
48.16423,-102.77274,295.1,0.47,0.48,2019-09-19,08:18,N,nominal,1.0NRT,281.6,0.5,N
48.1647,-102.7791,301.6,0.47,0.48,2019-09-19,08:18,N,nominal,1.0NRT,281.4,1,N
48.19665,-102.72804,306.7,0.47,0.48,2019-09-19,08:18,N,nominal,1.0NRT,281.9,0.5,N
48.22876,-102.91929,303.9,0.48,0.48,2019-09-19,08:18,N,nominal,1.0NRT,281.9,0.9,N
48.22947,-102.74906,306.9,0.47,0.48,2019-09-19,08:18,N,nominal,1.0NRT,281.5,0.5,N
45.06984,-83.40112,299.1,0.59,0.52,2019-09-19,08:18,N,nominal,1.0NRT,280.5,2.1,N
48.34369,-103.50137,296.2,0.51,0.49,2019-09-19,08:18,N,nominal,1.0NRT,281.8,0.9,N
48.28276,-102.46296,300,0.46,0.47,2019-09-19,08:18,N,nominal,1.0NRT,282.8,0.5,N
48.37009,-103.61906,301.5,0.51,0.5,2019-09-19,08:18,N,nominal,1.0NRT,280.9,0.9,N
48.37432,-103.47577,298.4,0.51,0.49,2019-09-19,08:18,N,nominal,1.0NRT,281.6,0.7,N
48.40076,-103.45728,305.2,0.51,0.49,2019-09-19,08:18,N,nominal,1.0NRT,281.9,1.1,N
48.40052,-103.32355,299.1,0.5,0.49,2019-09-19,08:18,N,nominal,1.0NRT,281.8,0.8,N
48.4035,-103.36532,296.7,0.5,0.49,2019-09-19,08:18,N,nominal,1.0NRT,281.8,0.7,N
48.40001,-103.45897,312.5,0.51,0.49,2019-09-19,08:18,N,nominal,1.0NRT,282.2,1.1,N
48.40044,-103.32499,299.2,0.5,0.49,2019-09-19,08:18,N,nominal,1.0NRT,282,0.6,N
48.40321,-103.36682,299.4,0.5,0.49,2019-09-19,08:18,N,nominal,1.0NRT,282.1,0.6,N
48.46082,-103.47025,297.2,0.51,0.49,2019-09-19,08:18,N,nominal,1.0NRT,281.2,1.5,N
49.28199,-102.365,302.9,0.46,0.47,2019-09-19,08:18,N,nominal,1.0NRT,284,0.9,N
49.539,-98.45448,319.2,0.49,0.4,2019-09-19,08:18,N,nominal,1.0NRT,284.9,1.8,N
47.81732,-117.835,327.8,0.39,0.36,2019-09-19,09:54,N,nominal,1.0NRT,281.2,2.5,N
47.76028,-102.68304,346.2,0.45,0.63,2019-09-19,09:54,N,nominal,1.0NRT,280.8,4.7,N
47.76213,-102.6888,304.1,0.45,0.63,2019-09-19,09:54,N,nominal,1.0NRT,280.4,4.5,N
47.73213,-102.63572,306.4,0.45,0.63,2019-09-19,09:54,N,nominal,1.0NRT,281.7,1.2,N
47.87372,-103.14236,307.9,0.42,0.61,2019-09-19,09:54,N,nominal,1.0NRT,282.3,1,N
47.84444,-103.13018,297,0.43,0.62,2019-09-19,09:54,N,nominal,1.0NRT,282.3,0.7,N
47.93641,-103.44246,301.4,0.41,0.61,2019-09-19,09:54,N,nominal,1.0NRT,282.2,0.6,N
47.93278,-103.4454,296.8,0.41,0.61,2019-09-19,09:54,N,nominal,1.0NRT,281.5,0.6,N
47.78616,-103.03386,305.1,0.43,0.62,2019-09-19,09:54,N,nominal,1.0NRT,281.6,0.7,N
47.72947,-102.9556,300,0.44,0.62,2019-09-19,09:54,N,nominal,1.0NRT,281.4,0.4,N
47.79187,-103.3848,315.9,0.42,0.61,2019-09-19,09:54,N,nominal,1.0NRT,279.8,1.3,N
47.53017,-102.75629,312.7,0.45,0.63,2019-09-19,09:54,N,nominal,1.0NRT,281.1,1.3,N
47.44639,-102.7385,301.6,0.46,0.63,2019-09-19,09:54,N,nominal,1.0NRT,280.6,1.2,N
47.38653,-102.61309,305.1,0.46,0.64,2019-09-19,09:54,N,nominal,1.0NRT,280.5,1.2,N
47.41602,-102.7255,295.3,0.46,0.63,2019-09-19,09:54,N,nominal,1.0NRT,280.6,0.7,N
48.88688,-122.73678,299.4,0.45,0.39,2019-09-19,09:54,N,nominal,1.0NRT,281.5,0.7,N
48.88615,-122.73067,295,0.45,0.39,2019-09-19,09:54,N,nominal,1.0NRT,282,0.7,N
48.4706,-122.55762,296.5,0.44,0.38,2019-09-19,09:54,N,nominal,1.0NRT,285.7,1.2,N
58.52314,-116.34173,305.2,0.4,0.37,2019-09-19,09:54,N,nominal,1.0NRT,269.4,0.9,N
58.52222,-116.33494,306.5,0.4,0.37,2019-09-19,09:54,N,nominal,1.0NRT,271.5,0.9,N
58.52361,-116.45044,296.4,0.4,0.37,2019-09-19,09:54,N,nominal,1.0NRT,264.9,0.7,N
58.52269,-116.44363,314.5,0.4,0.37,2019-09-19,09:54,N,nominal,1.0NRT,265.6,1.2,N
58.52028,-116.45209,304.8,0.4,0.37,2019-09-19,09:54,N,nominal,1.0NRT,265.2,1.5,N
58.51937,-116.44527,317.9,0.4,0.37,2019-09-19,09:54,N,nominal,1.0NRT,265.6,1.5,N
58.51605,-116.44691,313.7,0.4,0.37,2019-09-19,09:54,N,nominal,1.0NRT,265.6,1.5,N
58.23627,-115.82673,334.2,0.39,0.37,2019-09-19,09:54,N,nominal,1.0NRT,277.7,2.7,N
58.23299,-115.8284,320,0.39,0.37,2019-09-19,09:54,N,nominal,1.0NRT,277.7,2.7,N
58.21236,-115.83176,341.8,0.39,0.37,2019-09-19,09:54,N,nominal,1.0NRT,279.4,2.7,N
58.21329,-115.83837,304,0.39,0.37,2019-09-19,09:54,N,nominal,1.0NRT,275.6,2.7,N
58.21143,-115.82516,297.6,0.39,0.37,2019-09-19,09:54,N,nominal,1.0NRT,275.7,0.6,N
57.40466,-111.05376,303.6,0.4,0.37,2019-09-19,09:54,N,nominal,1.0NRT,278.2,0.6,N
58.00595,-116.51478,343.5,0.4,0.37,2019-09-19,09:54,N,nominal,1.0NRT,285.3,8.3,N
58.00505,-116.50809,320.7,0.4,0.37,2019-09-19,09:54,N,nominal,1.0NRT,280.7,8.3,N
58.00264,-116.51636,333.4,0.4,0.37,2019-09-19,09:54,N,nominal,1.0NRT,287.5,15.6,N
58.00174,-116.50968,310.4,0.4,0.37,2019-09-19,09:54,N,nominal,1.0NRT,287.8,15.6,N
57.99933,-116.51796,327.9,0.4,0.37,2019-09-19,09:54,N,nominal,1.0NRT,279.1,15.6,N
57.99841,-116.51128,343.2,0.4,0.37,2019-09-19,09:54,N,nominal,1.0NRT,287.6,15.6,N
57.9951,-116.51288,352.8,0.4,0.37,2019-09-19,09:54,N,nominal,1.0NRT,289.8,26.5,N
57.99179,-116.51447,347.6,0.4,0.37,2019-09-19,09:54,N,nominal,1.0NRT,286.8,26.5,N
57.99161,-116.92866,339.3,0.41,0.37,2019-09-19,09:54,N,nominal,1.0NRT,286.3,18.9,N
57.99071,-116.92188,352.8,0.41,0.37,2019-09-19,09:54,N,nominal,1.0NRT,293.5,18.9,N
57.9898,-116.91512,328.1,0.41,0.37,2019-09-19,09:54,N,nominal,1.0NRT,281.7,5,N
57.98827,-116.93023,335.8,0.41,0.37,2019-09-19,09:54,N,nominal,1.0NRT,281.9,18.9,N
57.98737,-116.92347,330.6,0.41,0.37,2019-09-19,09:54,N,nominal,1.0NRT,278.5,18.9,N
57.04376,-111.61452,295.3,0.4,0.37,2019-09-19,09:54,N,nominal,1.0NRT,282.7,1.6,N
57.03959,-111.63123,295.9,0.4,0.37,2019-09-19,09:54,N,nominal,1.0NRT,283.7,0.7,N
57.00722,-111.47386,320.7,0.4,0.37,2019-09-19,09:54,N,nominal,1.0NRT,284.6,2.8,N
57.00398,-111.47593,309.6,0.4,0.37,2019-09-19,09:54,N,nominal,1.0NRT,284.8,2.1,N
55.24688,-114.51547,328,0.39,0.36,2019-09-19,09:54,N,nominal,1.0NRT,275.3,3.1,N
53.84581,-113.11386,302.6,0.41,0.37,2019-09-19,09:54,N,nominal,1.0NRT,280.3,1.1,N
53.79636,-113.10052,301.1,0.41,0.37,2019-09-19,09:54,N,nominal,1.0NRT,280.5,1.3,N
54.36983,-116.84865,318.1,0.39,0.36,2019-09-19,09:54,N,nominal,1.0NRT,278.3,1.5,N
54.3698,-117.01115,316.1,0.39,0.36,2019-09-19,09:54,N,nominal,1.0NRT,278.2,1,N
54.20258,-116.81044,310.9,0.39,0.36,2019-09-19,09:54,N,nominal,1.0NRT,276.2,1.1,N
53.55986,-113.35808,312.8,0.41,0.37,2019-09-19,09:54,N,nominal,1.0NRT,279.6,1.2,N
53.52919,-113.38715,296,0.41,0.37,2019-09-19,09:54,N,nominal,1.0NRT,279.6,0.6,N
53.58789,-115.89015,313.5,0.38,0.36,2019-09-19,09:54,N,nominal,1.0NRT,273.8,1,N
52.8661,-115.63091,304.7,0.39,0.36,2019-09-19,09:54,N,nominal,1.0NRT,276.9,0.5,N
52.86287,-115.6324,295.8,0.39,0.36,2019-09-19,09:54,N,nominal,1.0NRT,275,0.5,N
49.28246,-102.36448,301.3,0.41,0.61,2019-09-19,09:54,N,nominal,1.0NRT,282.3,0.7,N
48.28133,-102.46127,312.9,0.44,0.62,2019-09-19,09:54,N,nominal,1.0NRT,281.2,1.8,N
48.46088,-103.46731,297.9,0.39,0.6,2019-09-19,09:54,N,nominal,1.0NRT,280.6,0.6,N
48.23036,-102.74931,306.6,0.43,0.62,2019-09-19,09:54,N,nominal,1.0NRT,280.3,1,N
48.1978,-102.72749,304.2,0.43,0.62,2019-09-19,09:54,N,nominal,1.0NRT,281.2,0.9,N
48.196,-102.72861,300.9,0.43,0.62,2019-09-19,09:54,N,nominal,1.0NRT,281.1,0.5,N
48.40134,-103.45421,305.7,0.4,0.6,2019-09-19,09:54,N,nominal,1.0NRT,280.3,0.6,N
48.3962,-103.45754,303.1,0.4,0.6,2019-09-19,09:54,N,nominal,1.0NRT,280.1,0.5,N
48.22869,-102.91476,303.3,0.42,0.61,2019-09-19,09:54,N,nominal,1.0NRT,281.1,0.7,N
48.10935,-102.57594,319.2,0.44,0.62,2019-09-19,09:54,N,nominal,1.0NRT,281,1.5,N
48.08137,-102.4878,295.7,0.45,0.63,2019-09-19,09:54,N,nominal,1.0NRT,281.9,0.8,N
48.16616,-102.77615,297.6,0.43,0.62,2019-09-19,09:54,N,nominal,1.0NRT,282,0.9,N
48.07605,-102.49149,313.4,0.45,0.63,2019-09-19,09:54,N,nominal,1.0NRT,281.8,0.8,N
48.37087,-103.47528,295.2,0.4,0.6,2019-09-19,09:54,N,nominal,1.0NRT,280.2,0.8,N
48.15189,-102.79178,311.3,0.43,0.62,2019-09-19,09:54,N,nominal,1.0NRT,282,1.1,N
48.04761,-102.48389,304.3,0.45,0.63,2019-09-19,09:54,N,nominal,1.0NRT,281.6,0.8,N
48.04587,-102.47845,298.5,0.45,0.63,2019-09-19,09:54,N,nominal,1.0NRT,280.9,0.8,N
48.34206,-103.50174,297.2,0.4,0.6,2019-09-19,09:54,N,nominal,1.0NRT,281.4,0.5,N
48.37026,-103.61324,296.5,0.39,0.59,2019-09-19,09:54,N,nominal,1.0NRT,279,0.4,N
48.04047,-102.58331,300.3,0.44,0.63,2019-09-19,09:54,N,nominal,1.0NRT,282.1,0.6,N
48.11139,-102.88583,316,0.43,0.62,2019-09-19,09:54,N,nominal,1.0NRT,283,1.8,N
48.04037,-102.58293,302,0.44,0.63,2019-09-19,09:54,N,nominal,1.0NRT,282.1,1.1,N
48.11509,-102.88268,305.4,0.43,0.62,2019-09-19,09:54,N,nominal,1.0NRT,282.4,0.8,N
48.11005,-102.88696,307.4,0.43,0.62,2019-09-19,09:54,N,nominal,1.0NRT,282.3,0.8,N
48.06438,-102.78204,312.8,0.43,0.62,2019-09-19,09:54,N,nominal,1.0NRT,281.6,1.2,N
48.04538,-102.72169,297.1,0.44,0.62,2019-09-19,09:54,N,nominal,1.0NRT,280.6,0.6,N
48.25362,-103.41126,301.4,0.4,0.6,2019-09-19,09:54,N,nominal,1.0NRT,280.9,0.7,N
48.01024,-102.67168,298.9,0.44,0.62,2019-09-19,09:54,N,nominal,1.0NRT,280.4,0.7,N
51.06019,-115.17323,296.8,0.4,0.37,2019-09-19,09:54,N,nominal,1.0NRT,278.7,1.3,N
48.16872,-103.27753,305.2,0.41,0.61,2019-09-19,09:54,N,nominal,1.0NRT,280.5,0.7,N
48.17027,-103.3026,327.6,0.41,0.61,2019-09-19,09:54,N,nominal,1.0NRT,281.9,3,N
48.10279,-103.08672,303.5,0.42,0.61,2019-09-19,09:54,N,nominal,1.0NRT,281,0.7,N
48.02084,-102.82693,305.6,0.43,0.62,2019-09-19,09:54,N,nominal,1.0NRT,279.5,0.5,N
47.93275,-102.55066,315,0.45,0.63,2019-09-19,09:54,N,nominal,1.0NRT,281.7,2.6,N
48.23091,-103.51826,295.6,0.4,0.6,2019-09-19,09:54,N,nominal,1.0NRT,281,0.5,N
47.88015,-102.42783,296.4,0.45,0.63,2019-09-19,09:54,N,nominal,1.0NRT,281.9,0.3,N
47.85447,-102.40763,298,0.46,0.63,2019-09-19,09:54,N,nominal,1.0NRT,280.8,0.5,N
47.93295,-102.71689,321.3,0.44,0.62,2019-09-19,09:54,N,nominal,1.0NRT,282,2.3,N
48.08255,-103.19558,317,0.42,0.61,2019-09-19,09:54,N,nominal,1.0NRT,282.8,1.6,N
48.09617,-103.28016,295.7,0.41,0.61,2019-09-19,09:54,N,nominal,1.0NRT,280.6,2.1,N
48.08934,-103.27831,341,0.41,0.61,2019-09-19,09:54,N,nominal,1.0NRT,283.8,2.1,N
47.90679,-102.73627,297.8,0.44,0.62,2019-09-19,09:54,N,nominal,1.0NRT,280.6,0.7,N
47.81986,-102.52482,297.5,0.45,0.63,2019-09-19,09:54,N,nominal,1.0NRT,281,0.7,N
47.83079,-102.57928,336.2,0.45,0.63,2019-09-19,09:54,N,nominal,1.0NRT,282.9,3.7,N
47.82704,-102.60827,322.9,0.45,0.63,2019-09-19,09:54,N,nominal,1.0NRT,282.7,1.8,N
47.90307,-102.92719,299.1,0.43,0.62,2019-09-19,09:54,N,nominal,1.0NRT,280.1,0.7,N
47.82179,-102.61036,308.4,0.45,0.63,2019-09-19,09:54,N,nominal,1.0NRT,282.1,1.5,N
47.90187,-102.92728,301,0.43,0.62,2019-09-19,09:54,N,nominal,1.0NRT,280.2,0.7,N
47.90297,-102.99212,298.1,0.43,0.62,2019-09-19,09:54,N,nominal,1.0NRT,280.4,0.8,N
48.00526,-103.36208,301.1,0.41,0.61,2019-09-19,09:54,N,nominal,1.0NRT,280.1,0.4,N
47.78509,-102.65879,301,0.45,0.63,2019-09-19,09:54,N,nominal,1.0NRT,280.4,1,N
47.99467,-103.38849,328.8,0.41,0.61,2019-09-19,09:54,N,nominal,1.0NRT,280.6,2.2,N
48.02281,-103.47958,295.8,0.41,0.6,2019-09-19,09:54,N,nominal,1.0NRT,282,0.6,N
43.35675,-105.76302,310.1,0.45,0.63,2019-09-19,10:00,N,nominal,1.0NRT,282.8,1,N
43.35671,-105.76377,308.1,0.45,0.63,2019-09-19,10:00,N,nominal,1.0NRT,282.2,1.1,N
43.21707,-105.80551,297.8,0.45,0.63,2019-09-19,10:00,N,nominal,1.0NRT,279.7,0.8,N
45.80291,-120.16437,311.2,0.38,0.36,2019-09-19,10:00,N,nominal,1.0NRT,280.6,1,N
45.5591,-123.14465,295.1,0.43,0.38,2019-09-19,10:00,N,nominal,1.0NRT,281.7,0.4,N
44.54093,-117.42289,296.1,0.41,0.37,2019-09-19,10:00,N,nominal,1.0NRT,279.8,0.9,N
45.2308,-123.16693,326.1,0.42,0.38,2019-09-19,10:00,N,nominal,1.0NRT,282.2,2,N
45.22734,-123.1678,303.5,0.42,0.38,2019-09-19,10:00,N,nominal,1.0NRT,281.6,0.9,N
45.11074,-123.29351,307.8,0.43,0.38,2019-09-19,10:00,N,nominal,1.0NRT,281.2,0.8,N
42.68564,-111.592,350.1,0.5,0.49,2019-09-19,10:00,N,nominal,1.0NRT,270.1,12.7,N
42.6842,-111.58616,318.9,0.5,0.49,2019-09-19,10:00,N,nominal,1.0NRT,268.9,4.3,N
41.54224,-109.1291,297,0.35,0.57,2019-09-19,10:00,N,nominal,1.0NRT,282.6,1.1,N
40.38064,-110.08329,298,0.34,0.56,2019-09-19,10:00,N,nominal,1.0NRT,282,0.6,N
40.35597,-110.24583,334,0.33,0.56,2019-09-19,10:00,N,nominal,1.0NRT,282,2.1,N
47.40293,-120.16985,296.6,0.39,0.36,2019-09-19,10:00,N,nominal,1.0NRT,280.8,0.4,N
40.91584,-112.73064,299.2,0.49,0.48,2019-09-19,10:00,N,nominal,1.0NRT,288.5,1.8,N
57.99623,-116.51075,347.6,0.47,0.64,2019-09-19,11:36,N,nominal,1.0NRT,265.4,2.5,N
54.20275,-116.80887,299,0.67,0.73,2019-09-19,11:36,N,nominal,1.0NRT,274.6,1.3,N
54.36814,-117.00564,304.2,0.65,0.73,2019-09-19,11:36,N,nominal,1.0NRT,274.9,1.2,N
54.37078,-116.84315,299.7,0.65,0.73,2019-09-19,11:36,N,nominal,1.0NRT,276.1,1,N
57.98622,-116.91475,298.1,0.46,0.64,2019-09-19,11:36,N,nominal,1.0NRT,274.7,6.4,N
57.9887,-116.92128,367,0.46,0.64,2019-09-19,11:36,N,high,1.0NRT,278.8,6.4,N
57.99116,-116.92781,367,0.46,0.63,2019-09-19,11:36,N,high,1.0NRT,276.8,18.8,N
57.9935,-116.91463,312.3,0.46,0.64,2019-09-19,11:36,N,nominal,1.0NRT,274.3,6.4,N
57.98708,-116.92316,342.2,0.46,0.63,2019-09-19,11:36,N,nominal,1.0NRT,275.3,6.4,N
57.98958,-116.9297,367,0.46,0.63,2019-09-19,11:36,N,high,1.0NRT,277.1,6.4,N
57.99438,-116.92304,315.5,0.46,0.63,2019-09-19,11:36,N,nominal,1.0NRT,274.2,6.4,N
57.99189,-116.91654,350.2,0.46,0.63,2019-09-19,11:36,N,nominal,1.0NRT,277.4,6.4,N
57.98889,-116.51108,295.2,0.47,0.64,2019-09-19,11:36,N,nominal,1.0NRT,264.2,2.5,N
57.99146,-116.51768,307.3,0.47,0.64,2019-09-19,11:36,N,nominal,1.0NRT,265.7,2.5,N
57.99363,-116.50407,296.4,0.47,0.64,2019-09-19,11:36,N,nominal,1.0NRT,254.3,2.5,N
57.9988,-116.5174,295.4,0.47,0.64,2019-09-19,11:36,N,nominal,1.0NRT,263.1,5.6,N
58.00616,-116.51717,301.3,0.47,0.64,2019-09-19,11:36,N,nominal,1.0NRT,263.4,4.3,N
58.00359,-116.51051,345.5,0.47,0.64,2019-09-19,11:36,N,nominal,1.0NRT,263.7,4.3,N
58.51622,-116.44445,305.6,0.45,0.63,2019-09-19,11:36,N,nominal,1.0NRT,269.5,2.1,N
58.52348,-116.44431,307.7,0.45,0.63,2019-09-19,11:36,N,nominal,1.0NRT,270.1,3.2,N
58.52227,-116.33036,296.6,0.45,0.63,2019-09-19,11:36,N,nominal,1.0NRT,273.3,0.9,N
57.00328,-111.47617,303.5,0.72,0.76,2019-09-19,11:36,N,nominal,1.0NRT,280.2,1.9,N
57.00832,-111.46685,295.5,0.72,0.76,2019-09-19,11:36,N,nominal,1.0NRT,280.2,1.5,N
40.44612,-76.22356,344.5,0.38,0.36,2019-09-19,18:00,N,nominal,1.0NRT,296.2,7.8,D
40.89133,-77.70882,331.9,0.39,0.36,2019-09-19,18:00,N,nominal,1.0NRT,302.2,2.9,D
40.40743,-81.32384,331.5,0.48,0.4,2019-09-19,18:00,N,nominal,1.0NRT,297.9,2.1,D
49.70499,-97.59429,348.1,0.46,0.64,2019-09-19,18:00,N,nominal,1.0NRT,291.8,4.1,D
49.70696,-97.58836,329,0.46,0.64,2019-09-19,18:00,N,nominal,1.0NRT,291,4.1,D
48.91734,-97.73882,326.3,0.5,0.66,2019-09-19,18:00,N,nominal,1.0NRT,294.1,2.4,D
46.72898,-92.07808,330.2,0.34,0.56,2019-09-19,18:00,N,nominal,1.0NRT,295.2,0.9,D
46.04422,-73.1407,325.4,0.5,0.41,2019-09-19,18:00,N,nominal,1.0NRT,292.1,5.2,D
45.83735,-73.2508,326.8,0.49,0.4,2019-09-19,18:00,N,nominal,1.0NRT,297.1,4.7,D
44.93749,-75.4237,334.5,0.41,0.37,2019-09-19,18:00,N,nominal,1.0NRT,281.4,2.8,D
43.18531,-84.84504,328.5,0.4,0.44,2019-09-19,18:00,N,nominal,1.0NRT,297.6,1.7,D
43.25777,-84.51386,326.9,0.39,0.44,2019-09-19,18:00,N,nominal,1.0NRT,294.8,1.3,D
44.05198,-78.04662,340.9,0.38,0.36,2019-09-19,18:00,N,nominal,1.0NRT,295.8,3.9,D
43.60934,-70.81031,329.3,0.39,0.44,2019-09-19,18:00,N,nominal,1.0NRT,291.8,3.2,D
41.56641,-84.04196,329.9,0.4,0.44,2019-09-19,18:00,N,nominal,1.0NRT,299.4,3.9,D
41.56538,-84.04665,337.6,0.4,0.44,2019-09-19,18:00,N,nominal,1.0NRT,299.8,5.5,D
42.80218,-80.10178,329.2,0.41,0.37,2019-09-19,18:00,N,low,1.0NRT,299.7,3.3,D
42.80643,-80.09789,337.9,0.41,0.37,2019-09-19,18:00,N,nominal,1.0NRT,304.3,6.4,D
42.25722,-83.12862,325.3,0.53,0.42,2019-09-19,18:00,N,low,1.0NRT,298.2,2.4,D
42.25469,-83.1291,325.9,0.53,0.42,2019-09-19,18:00,N,low,1.0NRT,298.6,3.2,D
41.18163,-87.85575,328.7,0.62,0.54,2019-09-19,18:00,N,nominal,1.0NRT,297.5,4.8,D
42.54126,-81.89362,336.7,0.47,0.4,2019-09-19,18:00,N,nominal,1.0NRT,298.1,4.4,D
42.29206,-83.16353,326.7,0.53,0.42,2019-09-19,18:00,N,nominal,1.0NRT,295.9,7.5,D
42.29846,-83.15232,336.7,0.53,0.42,2019-09-19,18:00,N,nominal,1.0NRT,296.3,9.8,D
43.16952,-81.96922,325.8,0.46,0.39,2019-09-19,18:00,N,nominal,1.0NRT,294.7,2.5,D
43.70661,-79.80234,340.2,0.4,0.37,2019-09-19,18:00,N,nominal,1.0NRT,299.5,2.9,D
40.27676,-74.10083,337.9,0.41,0.37,2019-09-19,18:00,N,nominal,1.0NRT,299.8,5.1,D
40.27979,-74.09949,337.8,0.41,0.37,2019-09-19,18:00,N,nominal,1.0NRT,302.5,3.2,D
40.39405,-79.85455,340.1,0.43,0.38,2019-09-19,18:00,N,nominal,1.0NRT,307.1,6.8,D
40.40561,-81.32542,330.8,0.48,0.4,2019-09-19,18:00,N,nominal,1.0NRT,297.9,3,D
41.43625,-75.59253,326.6,0.39,0.36,2019-09-19,18:00,N,low,1.0NRT,299.5,1.4,D
40.83292,-79.93313,333.4,0.43,0.38,2019-09-19,18:00,N,nominal,1.0NRT,301.6,6.1,D
40.3481,-83.70522,340.5,0.41,0.45,2019-09-19,18:00,N,nominal,1.0NRT,299,6.7,D
40.34708,-83.70995,340,0.41,0.45,2019-09-19,18:00,N,nominal,1.0NRT,298.9,6,D
40.64605,-83.76549,339.5,0.41,0.45,2019-09-19,18:00,N,nominal,1.0NRT,297.2,8.3,D
40.64502,-83.7702,339.3,0.41,0.45,2019-09-19,18:00,N,nominal,1.0NRT,297.3,8.3,D
40.64902,-83.77171,340.1,0.41,0.45,2019-09-19,18:00,N,nominal,1.0NRT,297.3,8.3,D
41.45002,-81.67702,334.9,0.48,0.4,2019-09-19,18:00,N,nominal,1.0NRT,304.9,3.8,D
41.45362,-81.67829,335.8,0.48,0.4,2019-09-19,18:00,N,nominal,1.0NRT,307.2,3.8,D
41.46195,-81.67514,356.1,0.48,0.4,2019-09-19,18:00,N,nominal,1.0NRT,305.4,10.3,D
43.18746,-71.49332,331.2,0.54,0.42,2019-09-19,18:00,N,nominal,1.0NRT,294.9,4.2,D
43.60529,-70.80968,342.6,0.39,0.44,2019-09-19,18:00,N,nominal,1.0NRT,295.8,4.4,D
41.36568,-84.92169,345.6,0.44,0.46,2019-09-19,18:00,N,nominal,1.0NRT,302.7,6.5,D
57.00775,-111.47783,328.2,0.69,0.74,2019-09-19,18:06,N,nominal,1.0NRT,288.1,5.2,D
48.69584,-97.15432,345.7,0.4,0.44,2019-09-19,19:42,N,nominal,1.0NRT,298.8,20.6,D
48.74794,-95.66869,339.3,0.47,0.48,2019-09-19,19:42,N,nominal,1.0NRT,299.3,12.7,D
48.05034,-102.4834,329.3,0.4,0.37,2019-09-19,19:42,N,nominal,1.0NRT,296.3,1.9,D
48.01052,-102.67731,327,0.4,0.37,2019-09-19,19:42,N,nominal,1.0NRT,295.9,1.6,D
47.93447,-102.71952,331,0.4,0.37,2019-09-19,19:42,N,nominal,1.0NRT,297.6,3.8,D
47.93254,-102.55289,330.8,0.4,0.37,2019-09-19,19:42,N,nominal,1.0NRT,297.6,2.1,D
47.82679,-102.61293,339.4,0.4,0.37,2019-09-19,19:42,N,nominal,1.0NRT,299.7,3.8,D
47.79265,-102.68553,329.1,0.4,0.37,2019-09-19,19:42,N,nominal,1.0NRT,296.5,2,D
47.7356,-102.63877,328.4,0.4,0.37,2019-09-19,19:42,N,nominal,1.0NRT,296.6,2.5,D
47.52485,-102.87193,337,0.39,0.37,2019-09-19,19:42,N,nominal,1.0NRT,297.1,3.8,D
47.9875,-96.73203,335.7,0.41,0.45,2019-09-19,19:42,N,nominal,1.0NRT,297.5,4.7,D
47.98846,-96.72084,329.3,0.41,0.45,2019-09-19,19:42,N,nominal,1.0NRT,298.1,2.5,D
43.59605,-111.74096,344.6,0.46,0.47,2019-09-19,19:42,N,nominal,1.0NRT,298.4,7.2,D
43.59736,-111.73541,344.6,0.46,0.47,2019-09-19,19:42,N,nominal,1.0NRT,299.9,7.2,D
42.6853,-111.59151,367,0.48,0.48,2019-09-19,19:42,N,high,1.0NRT,306.9,14.1,D
42.51479,-111.71877,342.6,0.49,0.48,2019-09-19,19:42,N,nominal,1.0NRT,304.8,30.2,D
42.51617,-111.71297,347.7,0.49,0.48,2019-09-19,19:42,N,nominal,1.0NRT,310.2,30.2,D
42.73439,-109.50673,340.8,0.38,0.43,2019-09-19,19:42,N,nominal,1.0NRT,301,4.1,D
44.01218,-96.31474,328.7,0.39,0.44,2019-09-19,19:42,N,nominal,1.0NRT,296.6,1.8,D
42.47291,-95.53621,327.3,0.41,0.45,2019-09-19,19:42,N,nominal,1.0NRT,288.8,2.3,D
42.47112,-95.5377,327.2,0.41,0.45,2019-09-19,19:42,N,nominal,1.0NRT,288.2,2.4,D
40.85459,-105.53951,334,0.44,0.38,2019-09-19,19:42,N,nominal,1.0NRT,301.9,4.5,D
40.10648,-104.36709,342,0.41,0.37,2019-09-19,19:42,N,nominal,1.0NRT,310.2,3.7,D
40.10643,-104.36912,344.1,0.41,0.37,2019-09-19,19:42,N,nominal,1.0NRT,310.5,3.4,D
40.10726,-104.36436,342.6,0.41,0.37,2019-09-19,19:42,N,nominal,1.0NRT,311.2,3.4,D
40.19538,-103.74869,340.6,0.4,0.37,2019-09-19,19:42,N,low,1.0NRT,312.1,3.7,D
48.91554,-95.97716,346,0.46,0.47,2019-09-19,19:42,N,nominal,1.0NRT,297.6,15.9,D
48.91644,-95.96452,340.1,0.46,0.47,2019-09-19,19:42,N,nominal,1.0NRT,300.3,65.3,D
48.91209,-95.96381,331.2,0.46,0.47,2019-09-19,19:42,N,nominal,1.0NRT,296.2,65.3,D
48.91472,-95.98175,335.1,0.45,0.47,2019-09-19,19:42,N,nominal,1.0NRT,294.3,4.1,D
48.91521,-95.97546,344.2,0.46,0.47,2019-09-19,19:42,N,nominal,1.0NRT,298.1,52.1,D
48.91618,-95.96284,338.3,0.46,0.47,2019-09-19,19:42,N,nominal,1.0NRT,296.2,24,D
48.91134,-95.96844,325.8,0.46,0.47,2019-09-19,19:42,N,low,1.0NRT,295.9,52.1,D
48.16784,-102.77734,328.4,0.4,0.37,2019-09-19,19:42,N,nominal,1.0NRT,297.4,2,D
48.09123,-103.28191,338.7,0.39,0.36,2019-09-19,19:42,N,nominal,1.0NRT,298.2,2.8,D
48.1145,-102.88838,329.4,0.4,0.37,2019-09-19,19:42,N,nominal,1.0NRT,294.5,1.8,D
48.00943,-103.36238,328.2,0.39,0.36,2019-09-19,19:42,N,nominal,1.0NRT,297.3,1.3,D
48.74748,-95.67514,337.4,0.47,0.48,2019-09-19,19:42,N,nominal,1.0NRT,294.9,7.9,D
48.75234,-95.66938,341.4,0.47,0.48,2019-09-19,19:42,N,nominal,1.0NRT,296.2,12.7,D
48.75188,-95.67583,340.4,0.47,0.48,2019-09-19,19:42,N,nominal,1.0NRT,298.7,7.9,D
48.70924,-96.31311,347.7,0.44,0.46,2019-09-19,19:42,N,nominal,1.0NRT,298.9,5.7,D
48.08057,-102.4924,333.2,0.4,0.37,2019-09-19,19:42,N,nominal,1.0NRT,296.3,4.4,D
48.69172,-97.15355,350.2,0.4,0.44,2019-09-19,19:42,N,nominal,1.0NRT,307.3,20.6,D
48.06583,-102.78261,337.1,0.4,0.37,2019-09-19,19:42,N,nominal,1.0NRT,295.5,3.2,D
48.11079,-102.57945,332.5,0.4,0.37,2019-09-19,19:42,N,nominal,1.0NRT,296.7,2.3,D
51.27952,-116.93288,340.5,0.48,0.48,2019-09-19,19:42,N,nominal,1.0NRT,287.8,5.9,D
53.82776,-101.22184,332.2,0.49,0.4,2019-09-19,19:42,N,nominal,1.0NRT,290.5,10.7,D
51.66792,-113.88203,332.2,0.54,0.42,2019-09-19,19:42,N,nominal,1.0NRT,287.3,4.3,D
51.16124,-100.88166,352.9,0.47,0.4,2019-09-19,19:42,N,nominal,1.0NRT,295,8.7,D
50.51702,-104.6312,334.7,0.39,0.36,2019-09-19,19:42,N,nominal,1.0NRT,297.1,2.8,D
45.7345,-121.38466,334.1,0.54,0.68,2019-09-19,19:42,N,nominal,1.0NRT,287.3,4.8,D
46.36975,-119.2505,336.7,0.42,0.61,2019-09-19,19:42,N,nominal,1.0NRT,294.8,3.8,D
46.45295,-118.32024,350.2,0.38,0.59,2019-09-19,19:42,N,nominal,1.0NRT,292.7,11.4,D
46.45436,-118.31539,337.5,0.38,0.59,2019-09-19,19:42,N,nominal,1.0NRT,291.7,9,D
46.45712,-118.30595,346.7,0.38,0.59,2019-09-19,19:42,N,nominal,1.0NRT,291.2,11.7,D
46.45153,-118.32507,367,0.38,0.59,2019-09-19,19:42,N,high,1.0NRT,293,11.4,D
46.45575,-118.31061,367,0.38,0.59,2019-09-19,19:42,N,high,1.0NRT,294.3,9,D
46.44648,-118.32198,208,0.38,0.59,2019-09-19,19:42,N,low,1.0NRT,305,80.9,D
46.44926,-118.31244,332.7,0.38,0.59,2019-09-19,19:42,N,nominal,1.0NRT,290.6,45.5,D
46.44786,-118.31724,367,0.38,0.59,2019-09-19,19:42,N,high,1.0NRT,320.2,80.9,D
49.56731,-98.17379,334.6,0.56,0.43,2019-09-19,19:42,N,nominal,1.0NRT,294.4,3,D
46.07824,-116.18276,337.3,0.63,0.54,2019-09-19,19:42,N,nominal,1.0NRT,288.9,6.1,D
48.45826,-103.46712,341.5,0.39,0.36,2019-09-19,19:42,N,nominal,1.0NRT,292.4,3.3,D
48.39963,-103.45669,329.6,0.39,0.36,2019-09-19,19:42,N,nominal,1.0NRT,296.6,2.2,D
48.37335,-103.61786,327.5,0.39,0.36,2019-09-19,19:42,N,nominal,1.0NRT,293.4,2,D
48.84003,-99.61269,336.3,0.49,0.4,2019-09-19,19:42,N,nominal,1.0NRT,295,4.1,D
48.91822,-97.74058,331.1,0.38,0.43,2019-09-19,19:42,N,nominal,1.0NRT,300.6,3.5,D
48.91869,-97.73528,340.1,0.38,0.43,2019-09-19,19:42,N,nominal,1.0NRT,299.6,6.5,D
48.91421,-97.73978,340.7,0.38,0.43,2019-09-19,19:42,N,nominal,1.0NRT,300.6,3.2,D
48.89005,-97.077,328.6,0.41,0.45,2019-09-19,19:42,N,low,1.0NRT,300.9,2.3,D
48.15026,-103.48828,327,0.39,0.36,2019-09-19,19:42,N,nominal,1.0NRT,296.8,2.4,D
48.22924,-102.92026,332.9,0.4,0.37,2019-09-19,19:42,N,nominal,1.0NRT,297.7,3.2,D
48.91989,-95.97787,338.2,0.46,0.47,2019-09-19,19:42,N,nominal,1.0NRT,296.9,5,D
56.01949,-120.65973,328.9,0.47,0.48,2019-09-19,19:48,N,nominal,1.0NRT,284.1,3.7,D
57.00551,-111.47653,325.2,0.39,0.37,2019-09-19,19:48,N,nominal,1.0NRT,295.1,3.5,D
55.54648,-114.86583,353.1,0.48,0.4,2019-09-19,19:48,N,nominal,1.0NRT,292.5,10.3,D
47.30606,-116.93697,333.5,0.35,0.57,2019-09-19,21:24,N,nominal,1.0NRT,286.5,5.2,D
43.5854,-111.87904,337.8,0.59,0.7,2019-09-19,21:24,N,nominal,1.0NRT,289.8,5.5,D
43.58685,-111.87485,337.4,0.59,0.7,2019-09-19,21:24,N,nominal,1.0NRT,290.7,7.3,D
45.57561,-123.46441,336.2,0.51,0.41,2019-09-19,21:24,N,nominal,1.0NRT,287,6.3,D
47.30588,-116.94174,339.3,0.35,0.57,2019-09-19,21:24,N,nominal,1.0NRT,286.3,4,D
48.69427,-116.37283,330.5,0.38,0.59,2019-09-19,21:24,N,nominal,1.0NRT,286.2,4.4,D
49.19871,-119.81157,335,0.54,0.51,2019-09-19,21:24,N,nominal,1.0NRT,290.1,3.9,D
45.57946,-123.46468,342.6,0.51,0.41,2019-09-19,21:24,N,nominal,1.0NRT,287.5,6.3,D
45.5833,-123.46499,333.9,0.51,0.41,2019-09-19,21:24,N,nominal,1.0NRT,282.7,6.9,D
46.19303,-118.82367,337.9,0.56,0.51,2019-09-19,21:24,N,nominal,1.0NRT,294.8,11.3,D
46.31153,-118.43616,344.3,0.58,0.52,2019-09-19,21:24,N,nominal,1.0NRT,301.6,15,D
46.31639,-118.43696,339.4,0.58,0.52,2019-09-19,21:24,N,nominal,1.0NRT,296.9,14.7,D
46.3217,-118.42993,341.9,0.58,0.52,2019-09-19,21:24,N,nominal,1.0NRT,294.7,16.3,D
46.51456,-122.53439,327.2,0.57,0.43,2019-09-19,21:24,N,nominal,1.0NRT,288.5,2.5,D
47.30257,-116.93671,335.7,0.35,0.57,2019-09-19,21:24,N,nominal,1.0NRT,284.2,5.6,D
59.48223,-134.30264,329.1,0.39,0.36,2019-09-19,21:30,N,nominal,1.0NRT,285.2,5.9,D
