latitude,longitude,bright_ti4,scan,track,acq_date,acq_time,satellite,confidence,version,bright_ti5,frp,daynight
40.92987,-88.6554,298.2,0.35,0.57,2019-09-23,07:00,N,nominal,1.0NRT,287.1,0.3,N
40.63454,-89.63635,301,0.39,0.59,2019-09-23,07:00,N,nominal,1.0NRT,286.6,0.3,N
44.16767,-87.70332,297.6,0.33,0.55,2019-09-23,07:00,N,nominal,1.0NRT,283.8,0.4,N
42.4958,-73.8179,303.1,0.42,0.37,2019-09-23,07:00,N,nominal,1.0NRT,285,0.6,N
42.04989,-73.978,311.9,0.42,0.37,2019-09-23,07:00,N,nominal,1.0NRT,281.5,1.3,N
41.43356,-75.5929,298.1,0.39,0.36,2019-09-23,07:00,N,nominal,1.0NRT,284.9,1.1,N
41.42618,-75.5903,301.1,0.39,0.36,2019-09-23,07:00,N,nominal,1.0NRT,286.4,0.5,N
41.3928,-75.73328,299.2,0.39,0.36,2019-09-23,07:00,N,nominal,1.0NRT,282.7,0.1,N
40.79218,-72.9271,302.1,0.46,0.39,2019-09-23,07:00,N,nominal,1.0NRT,287.7,0.4,N
40.6499,-74.10922,303.9,0.43,0.38,2019-09-23,07:00,N,nominal,1.0NRT,290.4,0.7,N
40.63504,-74.22397,305.4,0.42,0.38,2019-09-23,07:00,N,nominal,1.0NRT,291.9,2.6,N
40.63664,-74.21983,307.1,0.42,0.38,2019-09-23,07:00,N,nominal,1.0NRT,293.6,1.1,N
40.63574,-74.2149,302,0.42,0.38,2019-09-23,07:00,N,nominal,1.0NRT,290.9,1.1,N
40.808,-75.58782,307.4,0.39,0.37,2019-09-23,07:00,N,nominal,1.0NRT,291.5,1,N
40.72745,-75.30403,298.8,0.4,0.37,2019-09-23,07:00,N,nominal,1.0NRT,288.6,0.8,N
40.71476,-75.39903,301.4,0.4,0.37,2019-09-23,07:00,N,nominal,1.0NRT,290.5,0.5,N
40.48141,-74.38592,301.1,0.42,0.38,2019-09-23,07:00,N,nominal,1.0NRT,290.2,0.6,N
40.46781,-74.39023,301,0.42,0.38,2019-09-23,07:00,N,nominal,1.0NRT,290.6,0.2,N
40.62136,-75.30453,303.4,0.4,0.37,2019-09-23,07:00,N,nominal,1.0NRT,288.9,0.4,N
40.66827,-76.37919,303.5,0.39,0.36,2019-09-23,07:00,N,nominal,1.0NRT,286.8,0.5,N
40.47164,-75.89349,305.6,0.39,0.36,2019-09-23,07:00,N,nominal,1.0NRT,292,1.2,N
41.6805,-87.41908,309.9,0.61,0.53,2019-09-23,07:00,N,nominal,1.0NRT,288.6,3.9,N
41.67649,-87.4347,300.5,0.61,0.53,2019-09-23,07:00,N,nominal,1.0NRT,287.6,1.6,N
41.676,-87.42712,315.2,0.61,0.53,2019-09-23,07:00,N,nominal,1.0NRT,287.3,2,N
41.67553,-87.41964,301.6,0.61,0.53,2019-09-23,07:00,N,nominal,1.0NRT,287.4,2,N
41.67342,-87.46536,304.7,0.61,0.54,2019-09-23,07:00,N,nominal,1.0NRT,287.1,0.7,N
41.67294,-87.45779,315.1,0.61,0.54,2019-09-23,07:00,N,nominal,1.0NRT,287.1,2.1,N
41.67247,-87.45028,305.3,0.61,0.54,2019-09-23,07:00,N,nominal,1.0NRT,287.5,2.1,N
41.67152,-87.43532,297.2,0.61,0.53,2019-09-23,07:00,N,nominal,1.0NRT,286.9,1.6,N
41.67103,-87.42774,300,0.61,0.53,2019-09-23,07:00,N,nominal,1.0NRT,286.9,2,N
41.67056,-87.42025,318.2,0.61,0.53,2019-09-23,07:00,N,nominal,1.0NRT,287.1,2,N
41.66796,-87.45837,296.9,0.61,0.54,2019-09-23,07:00,N,nominal,1.0NRT,286.5,1.8,N
41.66748,-87.45086,316.8,0.61,0.54,2019-09-23,07:00,N,nominal,1.0NRT,287.2,1.8,N
41.66606,-87.42833,310.6,0.61,0.53,2019-09-23,07:00,N,nominal,1.0NRT,287.2,1.5,N
41.66558,-87.42087,300.6,0.61,0.53,2019-09-23,07:00,N,nominal,1.0NRT,287,1.5,N
41.6644,-87.4816,311,0.61,0.54,2019-09-23,07:00,N,nominal,1.0NRT,287.8,4.6,N
41.66393,-87.47405,316.2,0.61,0.54,2019-09-23,07:00,N,nominal,1.0NRT,287.7,2.8,N
41.66109,-87.42892,303.6,0.61,0.53,2019-09-23,07:00,N,nominal,1.0NRT,287.1,1.5,N
41.66061,-87.4215,298.5,0.61,0.53,2019-09-23,07:00,N,nominal,1.0NRT,286.4,1.5,N
41.65941,-87.48221,297.3,0.61,0.54,2019-09-23,07:00,N,nominal,1.0NRT,286.5,1.1,N
41.65894,-87.47466,298.6,0.61,0.54,2019-09-23,07:00,N,nominal,1.0NRT,286.7,0.7,N
40.02481,-74.2509,301.7,0.43,0.38,2019-09-23,07:00,N,nominal,1.0NRT,289.7,0.5,N
41.62802,-87.38027,297.4,0.61,0.53,2019-09-23,07:00,N,nominal,1.0NRT,281.6,1.6,N
41.62756,-87.37285,306,0.61,0.53,2019-09-23,07:00,N,nominal,1.0NRT,280.7,1.2,N
41.6271,-87.36543,300.5,0.61,0.53,2019-09-23,07:00,N,nominal,1.0NRT,277.3,1.2,N
41.62724,-87.37083,314,0.61,0.53,2019-09-23,07:00,N,nominal,1.0NRT,277.2,3.6,N
41.62674,-87.36341,297.3,0.6,0.53,2019-09-23,07:00,N,nominal,1.0NRT,277.4,1.1,N
40.79417,-79.69907,303.9,0.41,0.37,2019-09-23,07:00,N,nominal,1.0NRT,288.9,0.8,N
40.17422,-75.89871,304.7,0.39,0.36,2019-09-23,07:00,N,nominal,1.0NRT,290.9,0.5,N
41.46019,-90.68719,308.9,0.45,0.63,2019-09-23,07:00,N,nominal,1.0NRT,288,1.6,N
40.75704,-81.43179,307.9,0.47,0.4,2019-09-23,07:00,N,nominal,1.0NRT,289.1,1.1,N
41.47921,-90.83127,303.9,0.46,0.63,2019-09-23,07:00,N,nominal,1.0NRT,285.1,0.9,N
41.46189,-90.68768,305.1,0.45,0.63,2019-09-23,07:00,N,nominal,1.0NRT,286.6,1.5,N
40.13695,-77.50561,303.6,0.38,0.36,2019-09-23,07:00,N,nominal,1.0NRT,289.8,0.6,N
41.36925,-91.11627,295.3,0.47,0.64,2019-09-23,07:00,N,nominal,1.0NRT,284.5,0.4,N
41.18233,-87.85929,298.1,0.32,0.54,2019-09-23,07:00,N,nominal,1.0NRT,283.7,0.6,N
41.18197,-87.8535,296.5,0.64,0.54,2019-09-23,07:00,N,nominal,1.0NRT,283.2,0.6,N
40.45416,-80.28436,297.7,0.43,0.38,2019-09-23,07:00,N,nominal,1.0NRT,283.2,0.3,N
40.39382,-79.85571,338.8,0.41,0.37,2019-09-23,07:00,N,nominal,1.0NRT,291.9,3.3,N
41.17727,-87.85988,302.9,0.32,0.54,2019-09-23,07:00,N,nominal,1.0NRT,284,1.3,N
41.17691,-87.85407,304.6,0.64,0.54,2019-09-23,07:00,N,nominal,1.0NRT,278.8,1,N
40.4507,-80.28516,300.4,0.43,0.38,2019-09-23,07:00,N,nominal,1.0NRT,283.4,0.4,N
40.39448,-79.86059,297.9,0.41,0.37,2019-09-23,07:00,N,nominal,1.0NRT,283.7,0.6,N
40.39316,-79.8508,310.3,0.41,0.37,2019-09-23,07:00,N,nominal,1.0NRT,288.3,3.3,N
40.39106,-79.86135,297.3,0.41,0.37,2019-09-23,07:00,N,nominal,1.0NRT,283.4,0.6,N
40.30621,-79.87763,307.1,0.41,0.37,2019-09-23,07:00,N,nominal,1.0NRT,291.2,1.7,N
40.3028,-79.87844,305,0.41,0.37,2019-09-23,07:00,N,nominal,1.0NRT,289.9,1,N
40.30214,-79.87358,308.9,0.41,0.37,2019-09-23,07:00,N,nominal,1.0NRT,289.9,1.9,N
40.31601,-80.60494,310.6,0.43,0.38,2019-09-23,07:00,N,nominal,1.0NRT,289.7,1.7,N
40.31252,-80.60574,303.4,0.43,0.38,2019-09-23,07:00,N,nominal,1.0NRT,290,1.5,N
40.13073,-79.58727,299,0.41,0.37,2019-09-23,07:00,N,nominal,1.0NRT,288,0.3,N
40.14618,-79.8559,301.2,0.41,0.37,2019-09-23,07:00,N,nominal,1.0NRT,288.8,0.5,N
57.00695,-111.47702,297.4,0.35,0.57,2019-09-23,08:36,N,nominal,1.0NRT,268.4,0.9,N
48.02097,-103.11793,299.3,0.42,0.38,2019-09-23,08:42,N,nominal,1.0NRT,280.5,0.4,N
41.26759,-105.60237,307.3,0.43,0.38,2019-09-23,08:42,N,nominal,1.0NRT,278,2,N
42.68497,-111.59234,321.1,0.54,0.51,2019-09-23,08:42,N,nominal,1.0NRT,261.8,4.7,N
40.41159,-95.59933,300.4,0.41,0.45,2019-09-23,08:42,N,nominal,1.0NRT,287.6,0.6,N
41.00469,-96.1534,303,0.56,0.43,2019-09-23,08:42,N,nominal,1.0NRT,286.3,1.2,N
43.35498,-105.7618,311.6,0.46,0.39,2019-09-23,08:42,N,nominal,1.0NRT,278.6,1,N
43.35857,-105.76103,295,0.46,0.39,2019-09-23,08:42,N,nominal,1.0NRT,278.6,1,N
41.8892,-94.90488,297.2,0.41,0.45,2019-09-23,08:42,N,nominal,1.0NRT,283.1,0.4,N
41.46268,-90.68416,310.3,0.33,0.55,2019-09-23,08:42,N,nominal,1.0NRT,287.3,1.7,N
44.11475,-103.28266,309.2,0.4,0.37,2019-09-23,08:42,N,nominal,1.0NRT,281,1.3,N
42.1427,-89.07851,299.4,0.38,0.59,2019-09-23,08:42,N,nominal,1.0NRT,284.6,0.3,N
41.64137,-87.13197,315.5,0.48,0.65,2019-09-23,08:42,N,nominal,1.0NRT,285.1,3.2,N
41.64301,-87.13747,306.5,0.48,0.65,2019-09-23,08:42,N,nominal,1.0NRT,283.5,3.1,N
41.63842,-87.13363,301.8,0.48,0.65,2019-09-23,08:42,N,nominal,1.0NRT,283.7,1.1,N
41.6401,-87.13911,305.3,0.48,0.65,2019-09-23,08:42,N,nominal,1.0NRT,284.4,1.1,N
41.64568,-87.13595,297.6,0.48,0.65,2019-09-23,08:42,N,nominal,1.0NRT,282.6,1.6,N
45.8122,-108.4326,297.2,0.41,0.45,2019-09-23,08:42,N,nominal,1.0NRT,284.2,0.9,N
45.81276,-108.43204,297.6,0.41,0.45,2019-09-23,08:42,N,nominal,1.0NRT,284.3,1.3,N
46.87211,-103.28497,298.8,0.42,0.37,2019-09-23,08:42,N,nominal,1.0NRT,279.3,0.6,N
47.38375,-102.61126,304.3,0.41,0.37,2019-09-23,08:42,N,nominal,1.0NRT,279.7,0.5,N
47.4166,-102.7247,304.6,0.41,0.37,2019-09-23,08:42,N,nominal,1.0NRT,281,0.8,N
47.44579,-102.73764,314.5,0.41,0.37,2019-09-23,08:42,N,nominal,1.0NRT,281.9,0.8,N
47.4465,-102.74304,297.8,0.41,0.37,2019-09-23,08:42,N,nominal,1.0NRT,280.6,0.8,N
47.44722,-102.74845,295.9,0.41,0.37,2019-09-23,08:42,N,nominal,1.0NRT,280,0.5,N
47.47278,-102.80862,303.5,0.41,0.37,2019-09-23,08:42,N,nominal,1.0NRT,281.2,0.6,N
47.52361,-102.87282,327.3,0.41,0.37,2019-09-23,08:42,N,nominal,1.0NRT,283.7,2.2,N
47.54138,-102.87357,305.2,0.41,0.37,2019-09-23,08:42,N,nominal,1.0NRT,282.1,0.7,N
47.52956,-102.75826,313.3,0.41,0.37,2019-09-23,08:42,N,nominal,1.0NRT,281.4,1.4,N
47.53591,-102.70045,311.7,0.41,0.37,2019-09-23,08:42,N,nominal,1.0NRT,281.1,0.8,N
47.53471,-102.7,297.4,0.41,0.37,2019-09-23,08:42,N,nominal,1.0NRT,279.6,0.3,N
47.53811,-102.69903,300,0.41,0.37,2019-09-23,08:42,N,nominal,1.0NRT,280.9,0.3,N
47.58833,-102.89345,301.1,0.41,0.37,2019-09-23,08:42,N,nominal,1.0NRT,282.5,0.6,N
47.73485,-103.1902,296.7,0.42,0.38,2019-09-23,08:42,N,nominal,1.0NRT,281.7,0.2,N
47.72942,-102.95471,301.6,0.42,0.37,2019-09-23,08:42,N,nominal,1.0NRT,281.4,0.5,N
47.75912,-102.99216,304.3,0.42,0.37,2019-09-23,08:42,N,nominal,1.0NRT,280.6,0.8,N
47.78622,-103.03651,298.5,0.42,0.38,2019-09-23,08:42,N,nominal,1.0NRT,280.2,0.3,N
47.7884,-103.05324,296.8,0.42,0.38,2019-09-23,08:42,N,nominal,1.0NRT,280.1,0.5,N
47.7338,-102.64015,327.7,0.41,0.37,2019-09-23,08:42,N,nominal,1.0NRT,282.4,1.6,N
47.78913,-103.0588,327.8,0.42,0.38,2019-09-23,08:42,N,nominal,1.0NRT,282.8,2.4,N
47.76339,-102.68661,336.6,0.41,0.37,2019-09-23,08:42,N,nominal,1.0NRT,285.2,6.1,N
47.95405,-104.09955,295.1,0.45,0.39,2019-09-23,08:42,N,nominal,1.0NRT,281.5,0.2,N
47.78838,-102.66224,297,0.41,0.37,2019-09-23,08:42,N,nominal,1.0NRT,281.5,0.5,N
47.79128,-102.68416,302.6,0.41,0.37,2019-09-23,08:42,N,nominal,1.0NRT,281.6,0.7,N
47.792,-102.68963,303.4,0.41,0.37,2019-09-23,08:42,N,nominal,1.0NRT,281.3,0.7,N
47.84602,-102.9945,299.1,0.42,0.38,2019-09-23,08:42,N,nominal,1.0NRT,280.3,0.8,N
47.84892,-103.01684,301.9,0.42,0.38,2019-09-23,08:42,N,nominal,1.0NRT,279.9,0.6,N
47.87582,-103.14286,311.8,0.42,0.38,2019-09-23,08:42,N,nominal,1.0NRT,282.6,1.4,N
47.82404,-102.61228,308.9,0.41,0.37,2019-09-23,08:42,N,nominal,1.0NRT,280.8,1.1,N
47.82742,-102.61124,317.9,0.41,0.37,2019-09-23,08:42,N,nominal,1.0NRT,283.4,1.1,N
47.81693,-102.50684,305.8,0.41,0.37,2019-09-23,08:42,N,nominal,1.0NRT,282,0.9,N
47.83053,-102.58186,306.7,0.41,0.37,2019-09-23,08:42,N,nominal,1.0NRT,280.2,0.8,N
47.90384,-102.98856,300.6,0.42,0.38,2019-09-23,08:42,N,nominal,1.0NRT,280.3,0.8,N
47.90281,-102.92522,298.2,0.42,0.37,2019-09-23,08:42,N,nominal,1.0NRT,281.1,0.7,N
47.90353,-102.93078,296.8,0.42,0.37,2019-09-23,08:42,N,nominal,1.0NRT,280.4,0.5,N
47.91882,-102.85715,297.6,0.42,0.37,2019-09-23,08:42,N,nominal,1.0NRT,281.5,0.6,N
47.90639,-102.73487,306.2,0.41,0.37,2019-09-23,08:42,N,nominal,1.0NRT,281.2,0.8,N
47.88008,-102.43066,297.7,0.41,0.37,2019-09-23,08:42,N,nominal,1.0NRT,282.2,0.5,N
47.93218,-102.716,296.7,0.41,0.37,2019-09-23,08:42,N,nominal,1.0NRT,280.6,1.2,N
47.93557,-102.71494,319.7,0.41,0.37,2019-09-23,08:42,N,nominal,1.0NRT,283.4,1.2,N
47.93213,-102.55641,327.2,0.41,0.37,2019-09-23,08:42,N,nominal,1.0NRT,285,2.6,N
48.02025,-103.11867,305.3,0.42,0.38,2019-09-23,08:42,N,nominal,1.0NRT,280.5,0.9,N
47.97732,-102.6677,296.3,0.41,0.37,2019-09-23,08:42,N,nominal,1.0NRT,281,0.3,N
48.0101,-102.67529,308.1,0.41,0.37,2019-09-23,08:42,N,nominal,1.0NRT,281.3,1.1,N
48.08803,-103.28136,315.6,0.43,0.38,2019-09-23,08:42,N,nominal,1.0NRT,281.5,1.6,N
48.09149,-103.28038,318.2,0.43,0.38,2019-09-23,08:42,N,nominal,1.0NRT,283,1.7,N
48.09913,-103.2841,301.4,0.43,0.38,2019-09-23,08:42,N,nominal,1.0NRT,281.6,1,N
48.10188,-103.27744,305,0.43,0.38,2019-09-23,08:42,N,nominal,1.0NRT,281,1,N
48.04894,-102.75558,295.7,0.41,0.37,2019-09-23,08:42,N,nominal,1.0NRT,279.6,0.4,N
48.06353,-102.7858,312.1,0.42,0.37,2019-09-23,08:42,N,nominal,1.0NRT,281.1,1.1,N
48.06695,-102.78483,318.6,0.42,0.37,2019-09-23,08:42,N,nominal,1.0NRT,283.1,1.1,N
48.1542,-103.46513,300.7,0.43,0.38,2019-09-23,08:42,N,nominal,1.0NRT,281.6,1,N
48.04778,-102.48138,303.6,0.41,0.37,2019-09-23,08:42,N,nominal,1.0NRT,280.5,0.8,N
48.04699,-102.48039,303.3,0.41,0.37,2019-09-23,08:42,N,nominal,1.0NRT,280.3,0.5,N
48.18718,-103.58832,296.1,0.44,0.38,2019-09-23,08:42,N,nominal,1.0NRT,281.5,0.4,N
48.11393,-102.88605,322.9,0.42,0.38,2019-09-23,08:42,N,nominal,1.0NRT,284,2.1,N
48.17033,-103.30418,309.8,0.43,0.38,2019-09-23,08:42,N,nominal,1.0NRT,282.9,0.7,N
48.17095,-103.28039,302,0.43,0.38,2019-09-23,08:42,N,nominal,1.0NRT,282.3,0.7,N
48.07698,-102.49414,297.7,0.41,0.37,2019-09-23,08:42,N,nominal,1.0NRT,278.4,2.8,N
48.08036,-102.49312,327.3,0.41,0.37,2019-09-23,08:42,N,nominal,1.0NRT,280.7,2.8,N
48.10895,-102.57601,316.2,0.41,0.37,2019-09-23,08:42,N,nominal,1.0NRT,279.2,1.2,N
48.10968,-102.5815,304.8,0.41,0.37,2019-09-23,08:42,N,nominal,1.0NRT,278.6,0.7,N
48.22964,-103.52171,295,0.43,0.38,2019-09-23,08:42,N,nominal,1.0NRT,281.5,0.4,N
48.11307,-102.58047,298.6,0.41,0.37,2019-09-23,08:42,N,nominal,1.0NRT,278.4,0.7,N
48.13758,-102.74013,297.9,0.41,0.37,2019-09-23,08:42,N,nominal,1.0NRT,281.5,0.7,N
48.15168,-102.79377,299.4,0.42,0.37,2019-09-23,08:42,N,nominal,1.0NRT,282.4,0.5,N
48.15363,-102.78159,305.6,0.42,0.37,2019-09-23,08:42,N,nominal,1.0NRT,281.7,1.5,N
48.22652,-103.2944,295,0.43,0.38,2019-09-23,08:42,N,nominal,1.0NRT,280.7,0.3,N
48.16895,-102.81749,300.2,0.42,0.37,2019-09-23,08:42,N,nominal,1.0NRT,280.9,0.8,N
48.16727,-102.77745,318.2,0.42,0.37,2019-09-23,08:42,N,nominal,1.0NRT,282.7,2.2,N
48.14699,-102.57012,299.9,0.41,0.37,2019-09-23,08:42,N,nominal,1.0NRT,281.2,0.6,N
48.22244,-102.98265,297.4,0.42,0.38,2019-09-23,08:42,N,nominal,1.0NRT,280.1,0.4,N
48.19843,-102.73208,296.3,0.42,0.37,2019-09-23,08:42,N,nominal,1.0NRT,280.5,0.4,N
48.34197,-103.50116,303.8,0.43,0.38,2019-09-23,08:42,N,nominal,1.0NRT,281.4,0.7,N
48.37473,-103.47395,298.9,0.43,0.38,2019-09-23,08:42,N,nominal,1.0NRT,282.3,0.7,N
48.40155,-103.45959,299.9,0.43,0.38,2019-09-23,08:42,N,nominal,1.0NRT,281.2,0.5,N
48.28749,-102.50289,297.1,0.41,0.37,2019-09-23,08:42,N,nominal,1.0NRT,280.5,0.3,N
48.39968,-103.32697,300.1,0.43,0.38,2019-09-23,08:42,N,nominal,1.0NRT,280.8,0.7,N
48.4568,-103.46832,301.7,0.43,0.38,2019-09-23,08:42,N,nominal,1.0NRT,280.6,0.6,N
48.40054,-102.43395,295.2,0.41,0.37,2019-09-23,08:42,N,nominal,1.0NRT,281.4,0.5,N
49.28262,-102.36937,295.6,0.42,0.37,2019-09-23,08:42,N,nominal,1.0NRT,281.2,0.6,N
50.5142,-104.62968,305.9,0.5,0.41,2019-09-23,08:42,N,nominal,1.0NRT,280.1,1.6,N
50.51792,-104.62872,312,0.5,0.41,2019-09-23,08:42,N,nominal,1.0NRT,283.5,1.6,N
50.12919,-96.90429,297.3,0.4,0.37,2019-09-23,08:42,N,nominal,1.0NRT,281.4,0.5,N
46.48902,-81.03339,308.6,0.63,0.72,2019-09-23,08:42,N,nominal,1.0NRT,282.4,2.6,N
46.48454,-81.03122,299.5,0.63,0.72,2019-09-23,08:42,N,nominal,1.0NRT,281.9,2,N
46.48727,-81.03893,298.7,0.63,0.72,2019-09-23,08:42,N,nominal,1.0NRT,281.7,2.9,N
52.02101,-103.19472,314.7,0.46,0.39,2019-09-23,08:42,N,nominal,1.0NRT,279.6,6.2,N
52.02178,-103.20148,345.4,0.46,0.39,2019-09-23,08:42,N,nominal,1.0NRT,283,6.2,N
52.0215,-103.2008,352,0.46,0.39,2019-09-23,08:42,N,nominal,1.0NRT,282.5,9.1,N
52.02511,-103.19972,325.2,0.46,0.39,2019-09-23,08:42,N,nominal,1.0NRT,281.4,2.3,N
53.46042,-116.41814,296.2,0.53,0.67,2019-09-23,08:42,N,nominal,1.0NRT,276.4,0.6,N
54.37019,-116.84814,311.1,0.55,0.68,2019-09-23,08:42,N,nominal,1.0NRT,278.2,2.3,N
54.37082,-116.85189,323.3,0.55,0.68,2019-09-23,08:42,N,nominal,1.0NRT,278,2,N
54.36421,-118.53956,300.2,0.64,0.72,2019-09-23,08:42,N,nominal,1.0NRT,274.9,0.8,N
55.05968,-119.12559,296.5,0.68,0.74,2019-09-23,08:42,N,nominal,1.0NRT,275.3,0.6,N
48.09122,-103.28021,310.3,0.74,0.76,2019-09-23,10:18,N,nominal,1.0NRT,279.9,2.9,N
54.32694,-116.36798,296.7,0.47,0.4,2019-09-23,10:18,N,nominal,1.0NRT,276.6,0.8,N
54.3686,-116.84806,323.6,0.45,0.39,2019-09-23,10:18,N,nominal,1.0NRT,278.6,1.6,N
54.20209,-116.81211,305.7,0.46,0.39,2019-09-23,10:18,N,nominal,1.0NRT,277.2,1,N
54.3637,-118.53847,303.5,0.42,0.37,2019-09-23,10:18,N,nominal,1.0NRT,276.1,1,N
50.51575,-104.63274,301.3,0.54,0.68,2019-09-23,10:18,N,nominal,1.0NRT,280.4,1.2,N
47.58837,-102.89236,295.3,0.79,0.78,2019-09-23,10:18,N,nominal,1.0NRT,279.9,1.5,N
47.78936,-103.05936,304.5,0.77,0.77,2019-09-23,10:18,N,nominal,1.0NRT,279.1,1.2,N
47.78397,-103.05738,295.1,0.77,0.77,2019-09-23,10:18,N,nominal,1.0NRT,279.1,1.7,N
47.8752,-103.14032,302.8,0.76,0.77,2019-09-23,10:18,N,nominal,1.0NRT,279.3,1.3,N
47.7906,-102.68167,303.7,0.8,0.78,2019-09-23,10:18,N,nominal,1.0NRT,279.7,2.3,N
48.0217,-103.12123,295.5,0.75,0.77,2019-09-23,10:18,N,nominal,1.0NRT,278,0.6,N
52.01919,-103.19897,315.9,0.53,0.67,2019-09-23,10:18,N,nominal,1.0NRT,279,2.3,N
47.90555,-102.73557,295.7,0.78,0.78,2019-09-23,10:18,N,nominal,1.0NRT,279.4,0.8,N
47.93028,-102.71194,309.5,0.78,0.78,2019-09-23,10:18,N,nominal,1.0NRT,279.1,2.9,N
48.16586,-103.30302,303.8,0.73,0.76,2019-09-23,10:18,N,nominal,1.0NRT,279.6,1.9,N
47.93452,-102.71554,312.2,0.78,0.78,2019-09-23,10:18,N,nominal,1.0NRT,280.3,2.2,N
48.17216,-103.30357,302.7,0.73,0.76,2019-09-23,10:18,N,nominal,1.0NRT,279.7,1.6,N
47.92975,-102.55193,315.4,0.8,0.78,2019-09-23,10:18,N,nominal,1.0NRT,280.7,3.4,N
48.06254,-102.78303,317.8,0.77,0.77,2019-09-23,10:18,N,nominal,1.0NRT,280.6,2.7,N
48.10913,-102.90332,308,0.76,0.77,2019-09-23,10:18,N,nominal,1.0NRT,281,3.9,N
48.11155,-102.88789,314.3,0.76,0.77,2019-09-23,10:18,N,nominal,1.0NRT,280.5,3.8,N
53.28822,-122.16907,321.6,0.38,0.36,2019-09-23,10:18,N,nominal,1.0NRT,262,2.9,N
53.29285,-122.15483,326.5,0.38,0.36,2019-09-23,10:18,N,nominal,1.0NRT,261,3.2,N
50.51332,-104.6259,301.3,0.54,0.68,2019-09-23,10:18,N,nominal,1.0NRT,280.7,1.2,N
52.75598,-115.52611,315.5,0.54,0.42,2019-09-23,10:18,N,nominal,1.0NRT,278.5,1.5,N
48.07944,-102.48841,311.4,0.79,0.78,2019-09-23,10:18,N,nominal,1.0NRT,278.1,2.5,N
48.10684,-102.57903,305.8,0.78,0.78,2019-09-23,10:18,N,nominal,1.0NRT,277.1,1.4,N
48.1518,-102.7785,304.2,0.77,0.77,2019-09-23,10:18,N,nominal,1.0NRT,279.7,1.7,N
48.07922,-102.49458,300.3,0.79,0.78,2019-09-23,10:18,N,nominal,1.0NRT,277.2,1.9,N
48.16368,-102.77631,307.6,0.77,0.77,2019-09-23,10:18,N,nominal,1.0NRT,280.2,1.9,N
48.39819,-103.45112,296,0.71,0.75,2019-09-23,10:18,N,nominal,1.0NRT,279.5,0.9,N
48.07459,-102.61304,296.2,0.78,0.78,2019-09-23,10:18,N,nominal,1.0NRT,279,1.1,N
48.37371,-103.47226,296,0.71,0.75,2019-09-23,10:18,N,nominal,1.0NRT,279.1,0.4,N
48.11221,-102.88147,316.9,0.76,0.77,2019-09-23,10:18,N,nominal,1.0NRT,280.6,2.5,N
48.06644,-102.7864,300.3,0.77,0.77,2019-09-23,10:18,N,nominal,1.0NRT,280.1,2.6,N
48.06281,-102.77719,303.4,0.77,0.77,2019-09-23,10:18,N,nominal,1.0NRT,280.1,2,N
48.00465,-102.67291,299.6,0.78,0.78,2019-09-23,10:18,N,nominal,1.0NRT,278.7,0.7,N
58.23563,-115.83602,316.9,0.42,0.37,2019-09-23,10:18,N,nominal,1.0NRT,274.7,2.4,N
56.82043,-122.11665,295.6,0.39,0.36,2019-09-23,10:18,N,nominal,1.0NRT,273.9,1,N
56.81209,-122.10741,303.6,0.39,0.36,2019-09-23,10:18,N,nominal,1.0NRT,273.9,1.1,N
52.02406,-103.19714,321.8,0.53,0.67,2019-09-23,10:18,N,nominal,1.0NRT,280.5,2.5,N
52.01861,-103.20233,296.8,0.53,0.67,2019-09-23,10:18,N,nominal,1.0NRT,278.5,0.8,N
52.02169,-103.20595,297,0.53,0.67,2019-09-23,10:18,N,nominal,1.0NRT,279.7,2.3,N
42.68527,-111.58836,335.3,0.5,0.66,2019-09-23,10:24,N,nominal,1.0NRT,278,3.6,N
42.68704,-111.59402,302.9,0.5,0.66,2019-09-23,10:24,N,nominal,1.0NRT,272.7,3.6,N
42.68415,-111.5883,335.1,0.5,0.66,2019-09-23,10:24,N,nominal,1.0NRT,277.3,5.9,N
42.68589,-111.59399,310.4,0.5,0.66,2019-09-23,10:24,N,nominal,1.0NRT,272.4,5.5,N
40.13269,-122.83034,298.6,0.51,0.41,2019-09-23,10:24,N,nominal,1.0NRT,280.3,0.6,N
45.94615,-111.47457,303.4,0.4,0.6,2019-09-23,10:24,N,nominal,1.0NRT,280.2,0.9,N
46.90908,-120.89697,313.3,0.46,0.39,2019-09-23,10:24,N,nominal,1.0NRT,278,1.1,N
46.90783,-120.89077,298.2,0.46,0.39,2019-09-23,10:24,N,nominal,1.0NRT,278.4,1.1,N
46.64103,-122.86146,299.3,0.41,0.37,2019-09-23,10:24,N,nominal,1.0NRT,280.5,0.9,N
45.8013,-120.16755,302.1,0.51,0.41,2019-09-23,10:24,N,nominal,1.0NRT,279.8,0.6,N
45.55931,-122.7365,300.8,0.43,0.38,2019-09-23,10:24,N,nominal,1.0NRT,281.6,0.4,N
42.54241,-81.89282,335,0.4,0.37,2019-09-23,18:24,N,nominal,1.0NRT,292.9,2.8,D
41.64281,-87.13395,330.4,0.45,0.39,2019-09-23,18:24,N,nominal,1.0NRT,299.3,3.8,D
41.63736,-87.14333,343.7,0.45,0.39,2019-09-23,18:24,N,nominal,1.0NRT,305.1,16.3,D
41.63933,-87.13277,337,0.45,0.39,2019-09-23,18:24,N,nominal,1.0NRT,300.4,3.8,D
41.63585,-87.1316,332,0.45,0.39,2019-09-23,18:24,N,nominal,1.0NRT,301,5.2,D
42.28409,-83.10886,326.5,0.38,0.36,2019-09-23,18:24,N,low,1.0NRT,298.5,1.6,D
42.25693,-83.13039,336.3,0.38,0.36,2019-09-23,18:24,N,nominal,1.0NRT,300.1,4,D
41.17887,-87.85513,333.5,0.48,0.4,2019-09-23,18:24,N,nominal,1.0NRT,300.8,4.2,D
40.63483,-89.63786,339.8,0.39,0.44,2019-09-23,18:24,N,nominal,1.0NRT,297.8,5.7,D
41.56748,-84.04704,334.9,0.39,0.36,2019-09-23,18:24,N,nominal,1.0NRT,301.6,3.6,D
41.36698,-84.92133,329,0.4,0.37,2019-09-23,18:24,N,nominal,1.0NRT,291.8,2.3,D
41.3173,-85.02975,329.5,0.4,0.37,2019-09-23,18:24,N,nominal,1.0NRT,293.4,1.8,D
41.47623,-83.46124,328.6,0.38,0.36,2019-09-23,18:24,N,nominal,1.0NRT,297.3,1.6,D
41.46009,-83.36647,331.6,0.38,0.36,2019-09-23,18:24,N,nominal,1.0NRT,297.9,2.5,D
41.12098,-85.3508,336,0.4,0.37,2019-09-23,18:24,N,nominal,1.0NRT,302.2,4.4,D
40.88215,-85.46447,325.9,0.41,0.37,2019-09-23,18:24,N,nominal,1.0NRT,295.1,1,D
41.46276,-81.67567,338,0.4,0.37,2019-09-23,18:24,N,nominal,1.0NRT,300.5,3.4,D
41.46341,-81.67096,332,0.4,0.37,2019-09-23,18:24,N,nominal,1.0NRT,299.2,3.4,D
41.46224,-81.67217,338.9,0.4,0.37,2019-09-23,18:24,N,nominal,1.0NRT,301.1,6.4,D
40.45314,-87.68517,326.4,0.49,0.4,2019-09-23,18:24,N,nominal,1.0NRT,295.9,2.1,D
40.60187,-85.1705,336.9,0.41,0.37,2019-09-23,18:24,N,nominal,1.0NRT,296.8,2.3,D
40.45504,-83.57526,338,0.39,0.36,2019-09-23,18:24,N,nominal,1.0NRT,299.6,8.8,D
40.5463,-81.80383,332.4,0.39,0.36,2019-09-23,18:24,N,nominal,1.0NRT,296.9,1.5,D
40.21248,-82.80134,332.1,0.38,0.36,2019-09-23,18:24,N,nominal,1.0NRT,299.1,3.1,D
41.64183,-87.13923,336.6,0.45,0.39,2019-09-23,18:24,N,nominal,1.0NRT,301.7,16.3,D
41.61751,-87.32854,333.2,0.45,0.39,2019-09-23,18:24,N,nominal,1.0NRT,300.5,6,D
42.80145,-80.10513,333.3,0.44,0.38,2019-09-23,18:24,N,nominal,1.0NRT,290.7,3.8,D
41.66394,-87.42586,331,0.46,0.39,2019-09-23,18:24,N,low,1.0NRT,303.3,3.5,D
41.66291,-87.43124,330.1,0.46,0.39,2019-09-23,18:24,N,nominal,1.0NRT,303.8,3.5,D
41.66687,-87.44979,327.4,0.46,0.39,2019-09-23,18:24,N,low,1.0NRT,299.4,3.4,D
41.678,-87.43063,330,0.46,0.39,2019-09-23,18:24,N,nominal,1.0NRT,298.9,3.6,D
41.68254,-87.42645,339.3,0.46,0.39,2019-09-23,18:24,N,nominal,1.0NRT,301.5,10.3,D
43.01396,-81.57681,330.7,0.41,0.37,2019-09-23,18:24,N,nominal,1.0NRT,289.6,3.3,D
43.18681,-84.84601,328.8,0.39,0.36,2019-09-23,18:24,N,nominal,1.0NRT,292.8,2.5,D
42.99169,-86.08739,337.1,0.41,0.37,2019-09-23,18:24,N,nominal,1.0NRT,298,12.5,D
42.99503,-86.08848,332.9,0.41,0.37,2019-09-23,18:24,N,nominal,1.0NRT,292.8,12.5,D
41.58823,-96.1728,326.2,0.38,0.59,2019-09-23,18:24,N,nominal,1.0NRT,294.3,1.8,D
42.42757,-95.51911,327.8,0.33,0.56,2019-09-23,18:24,N,nominal,1.0NRT,296.2,2.4,D
42.90395,-95.44408,333.5,0.32,0.55,2019-09-23,18:24,N,nominal,1.0NRT,295.8,1.6,D
42.9025,-95.44379,334.3,0.32,0.55,2019-09-23,18:24,N,nominal,1.0NRT,296.2,1.9,D
46.48888,-81.03584,328.1,0.45,0.39,2019-09-23,18:24,N,low,1.0NRT,298.2,39.9,D
45.41971,-95.55776,331.8,0.56,0.51,2019-09-23,18:24,N,nominal,1.0NRT,294.8,3.4,D
45.42423,-95.56003,326.4,0.56,0.51,2019-09-23,18:24,N,nominal,1.0NRT,294.3,3.4,D
47.89455,-103.0035,326.6,0.49,0.65,2019-09-23,18:30,N,nominal,1.0NRT,293.3,1.8,D
47.93684,-102.721,326.6,0.48,0.64,2019-09-23,18:30,N,nominal,1.0NRT,293.2,3.2,D
48.1116,-102.88523,330.4,0.48,0.64,2019-09-23,18:30,N,nominal,1.0NRT,293.8,1.8,D
48.08184,-102.49374,330.1,0.46,0.64,2019-09-23,18:30,N,nominal,1.0NRT,292.5,3,D
47.93017,-102.55671,331.8,0.47,0.64,2019-09-23,18:30,N,nominal,1.0NRT,294.8,3.4,D
47.76068,-102.68583,334.1,0.48,0.65,2019-09-23,18:30,N,nominal,1.0NRT,294.2,3.8,D
47.93333,-102.55611,332.5,0.47,0.64,2019-09-23,18:30,N,nominal,1.0NRT,294.7,3.2,D
45.27999,-96.59309,327.6,0.39,0.59,2019-09-23,20:06,N,nominal,1.0NRT,295.5,1.4,D
42.51094,-114.87068,338.4,0.53,0.42,2019-09-23,20:06,N,nominal,1.0NRT,299.7,5.1,D
42.68704,-111.59347,344.6,0.41,0.37,2019-09-23,20:06,N,nominal,1.0NRT,301.1,8.2,D
42.68369,-111.59239,334.2,0.41,0.37,2019-09-23,20:06,N,nominal,1.0NRT,303.7,8.2,D
42.68456,-111.58744,336.2,0.41,0.37,2019-09-23,20:06,N,nominal,1.0NRT,299.6,8.2,D
44.90244,-108.61554,329,0.39,0.36,2019-09-23,20:06,N,nominal,1.0NRT,297.2,2.3,D
40.0005,-95.54144,327.4,0.41,0.6,2019-09-23,20:06,N,nominal,1.0NRT,295.1,1.7,D
49.56337,-98.17279,328.2,0.35,0.57,2019-09-23,20:06,N,nominal,1.0NRT,293.2,1.2,D
50.93457,-98.39359,340.2,0.35,0.57,2019-09-23,20:06,N,nominal,1.0NRT,291,2.5,D
42.90739,-95.44321,334.4,0.43,0.62,2019-09-23,20:06,N,nominal,1.0NRT,294.6,2,D
44.90314,-108.61062,334.3,0.39,0.36,2019-09-23,20:06,N,nominal,1.0NRT,299.1,3.8,D
44.89914,-108.6146,331.1,0.39,0.36,2019-09-23,20:06,N,nominal,1.0NRT,299.7,2.3,D
44.89984,-108.60969,339.7,0.39,0.36,2019-09-23,20:06,N,nominal,1.0NRT,299.2,3.8,D
45.4189,-95.56053,367,0.44,0.62,2019-09-23,20:06,N,high,1.0NRT,293.4,8.5,D
45.41972,-95.56118,330.6,0.44,0.62,2019-09-23,20:06,N,nominal,1.0NRT,292.9,3.1,D
45.41389,-95.56081,348.6,0.44,0.62,2019-09-23,20:06,N,nominal,1.0NRT,294.6,3.1,D
48.08117,-102.49392,339.5,0.44,0.46,2019-09-23,20:06,N,nominal,1.0NRT,295.2,2.8,D
47.93535,-102.71618,342.4,0.43,0.46,2019-09-23,20:06,N,nominal,1.0NRT,297.7,4.2,D
47.93103,-102.55583,334,0.43,0.46,2019-09-23,20:06,N,nominal,1.0NRT,295.3,2.2,D
48.194,-94.44908,330.5,0.51,0.66,2019-09-23,20:06,N,nominal,1.0NRT,291.2,6.1,D
48.18778,-94.44901,334.9,0.51,0.66,2019-09-23,20:06,N,nominal,1.0NRT,291.8,6.1,D
47.76175,-102.97226,339.2,0.41,0.45,2019-09-23,20:06,N,nominal,1.0NRT,296.1,5,D
47.76357,-102.68404,340,0.43,0.46,2019-09-23,20:06,N,nominal,1.0NRT,299,6.3,D
47.76419,-102.68345,339.8,0.43,0.46,2019-09-23,20:06,N,nominal,1.0NRT,298.7,5.2,D
45.63042,-109.23508,327.7,0.39,0.36,2019-09-23,20:06,N,nominal,1.0NRT,299.8,1.4,D
43.58171,-119.16145,340.4,0.52,0.5,2019-09-23,20:06,N,nominal,1.0NRT,298.2,6.4,D
43.58188,-119.15973,348.6,0.52,0.5,2019-09-23,20:06,N,nominal,1.0NRT,297.9,12.5,D
46.40798,-97.83062,348.3,0.35,0.57,2019-09-23,20:06,N,nominal,1.0NRT,297.1,3,D
44.59383,-111.54224,327.3,0.4,0.37,2019-09-23,20:06,N,nominal,1.0NRT,290.1,2.7,D
48.68111,-94.1554,333.2,0.53,0.67,2019-09-23,20:06,N,nominal,1.0NRT,290.5,4.2,D
44.67315,-122.74039,341.6,0.35,0.57,2019-09-23,20:06,N,nominal,1.0NRT,282,5.5,D
44.67281,-122.74097,348.5,0.35,0.57,2019-09-23,20:06,N,nominal,1.0NRT,282.1,4.5,D
48.11264,-102.88595,338.8,0.42,0.45,2019-09-23,20:06,N,nominal,1.0NRT,295,2.7,D
48.0663,-102.78238,340.9,0.43,0.46,2019-09-23,20:06,N,nominal,1.0NRT,297.9,2.9,D
52.70211,-111.03104,330.7,0.4,0.37,2019-09-23,20:12,N,nominal,1.0NRT,285.3,3.8,D
52.70544,-111.03225,334,0.4,0.37,2019-09-23,20:12,N,nominal,1.0NRT,284.9,3.8,D
52.70133,-111.03687,343.2,0.4,0.37,2019-09-23,20:12,N,nominal,1.0NRT,287.5,5.1,D
58.2376,-115.83793,342.6,0.38,0.36,2019-09-23,20:12,N,nominal,1.0NRT,290.3,16,D
64.69605,-146.9684,325.5,0.37,0.58,2019-09-23,20:12,N,nominal,1.0NRT,279.1,1.6,D
54.1245,-125.25762,326.3,0.47,0.48,2019-09-23,20:12,N,nominal,1.0NRT,270.1,3.9,D
52.70465,-111.03808,331.8,0.4,0.37,2019-09-23,20:12,N,nominal,1.0NRT,286,5.1,D
56.36196,-116.07201,327.3,0.39,0.36,2019-09-23,20:12,N,nominal,1.0NRT,286,2,D
44.67466,-122.73621,338.4,0.36,0.57,2019-09-23,21:48,N,nominal,1.0NRT,285.6,8.2,D
40.13315,-122.83179,335.9,0.32,0.55,2019-09-23,21:48,N,nominal,1.0NRT,293.8,3.7,D
44.67447,-122.7407,367,0.36,0.57,2019-09-23,21:48,N,low,1.0NRT,288.4,8.2,D
58.24097,-115.84003,348.3,0.75,0.77,2019-09-23,21:54,N,nominal,1.0NRT,286.7,7,D
64.69827,-146.96371,349.1,0.38,0.36,2019-09-23,21:54,N,nominal,1.0NRT,282.8,8.1,D
