latitude,longitude,bright_ti4,scan,track,acq_date,acq_time,satellite,confidence,version,bright_ti5,frp,daynight
60.2139,-156.48421,343.1,0.47,0.64,2019-08-21,00:12,N,nominal,1.0NRT,290.2,7.4,D
60.21993,-156.48499,341.8,0.47,0.64,2019-08-21,00:12,N,nominal,1.0NRT,286.8,4.8,D
61.96215,-150.03149,326.2,0.76,0.77,2019-08-21,00:12,N,nominal,1.0NRT,285.2,5.2,D
60.21259,-156.48425,353.4,0.47,0.64,2019-08-21,00:12,N,nominal,1.0NRT,291.8,5.6,D
62.00472,-150.02014,326.9,0.76,0.77,2019-08-21,00:12,N,nominal,1.0NRT,284.4,5.2,D
60.20789,-156.48373,345.7,0.47,0.64,2019-08-21,00:12,N,nominal,1.0NRT,291.1,7.4,D
60.2186,-156.48499,343.5,0.47,0.64,2019-08-21,00:12,N,nominal,1.0NRT,288.1,5.6,D
60.50806,-150.38029,314.2,0.71,0.75,2019-08-21,10:36,N,nominal,1.0NRT,283.3,5.6,N
60.51617,-150.20525,306.1,0.71,0.75,2019-08-21,10:36,N,nominal,1.0NRT,281.4,5.5,N
60.51653,-150.19739,301.5,0.71,0.75,2019-08-21,10:36,N,nominal,1.0NRT,281,9.7,N
60.517,-150.18704,300.5,0.7,0.75,2019-08-21,10:36,N,nominal,1.0NRT,279.6,9.7,N
60.501,-150.37872,322.3,0.71,0.75,2019-08-21,10:36,N,nominal,1.0NRT,283,5.6,N
60.50164,-150.36507,320.9,0.71,0.75,2019-08-21,10:36,N,nominal,1.0NRT,284.7,9.6,N
60.5096,-150.19365,349.1,0.71,0.75,2019-08-21,10:36,N,nominal,1.0NRT,284.5,9.7,N
60.51001,-150.18491,354.2,0.7,0.75,2019-08-21,10:36,N,nominal,1.0NRT,284.1,9.7,N
60.49971,-150.40601,304.8,0.72,0.75,2019-08-21,10:36,N,nominal,1.0NRT,279.3,4.8,N
60.50035,-150.39238,316.8,0.72,0.75,2019-08-21,10:36,N,nominal,1.0NRT,281.4,5.6,N
60.50888,-150.2094,296.9,0.71,0.75,2019-08-21,10:36,N,nominal,1.0NRT,275.6,5.5,N
60.50924,-150.20158,318.2,0.71,0.75,2019-08-21,10:36,N,nominal,1.0NRT,280,5.5,N
60.51233,-150.13362,295.4,0.7,0.75,2019-08-21,10:36,N,nominal,1.0NRT,275,6.2,N
60.50264,-150.1907,303.4,0.71,0.75,2019-08-21,10:36,N,nominal,1.0NRT,277.1,2.8,N
60.50304,-150.18211,310.1,0.7,0.75,2019-08-21,10:36,N,nominal,1.0NRT,277.3,2.8,N
60.50552,-150.12773,308.7,0.7,0.75,2019-08-21,10:36,N,nominal,1.0NRT,277.3,2.7,N
60.50622,-150.11249,304.1,0.7,0.75,2019-08-21,10:36,N,nominal,1.0NRT,276.3,2.7,N
59.91779,-151.08522,295.2,0.76,0.77,2019-08-21,10:36,N,nominal,1.0NRT,275.1,2.1,N
60.58768,-149.93823,296.2,0.69,0.74,2019-08-21,10:36,N,nominal,1.0NRT,272,1.4,N
60.57486,-149.91042,324,0.69,0.74,2019-08-21,10:36,N,nominal,1.0NRT,274.5,6,N
60.57519,-149.903,313.7,0.69,0.74,2019-08-21,10:36,N,nominal,1.0NRT,276.2,6,N
60.5681,-149.90434,331.6,0.69,0.74,2019-08-21,10:36,N,nominal,1.0NRT,284.5,6,N
60.56768,-149.91341,319.8,0.69,0.74,2019-08-21,10:36,N,nominal,1.0NRT,275.6,6,N
60.56843,-149.8969,305.2,0.69,0.74,2019-08-21,10:36,N,nominal,1.0NRT,278.6,4.9,N
60.53397,-150.18074,302.8,0.71,0.75,2019-08-21,10:36,N,nominal,1.0NRT,275.9,3.9,N
60.50856,-150.40692,297.8,0.72,0.75,2019-08-21,10:36,N,nominal,1.0NRT,280.1,5.2,N
60.50924,-150.39334,303.1,0.72,0.75,2019-08-21,10:36,N,nominal,1.0NRT,280.8,5,N
60.50993,-150.37961,311.6,0.71,0.75,2019-08-21,10:36,N,nominal,1.0NRT,282.8,5,N
60.51851,-150.20636,300.2,0.71,0.75,2019-08-21,10:36,N,nominal,1.0NRT,280.4,4.7,N
60.50285,-150.37816,324.6,0.71,0.75,2019-08-21,10:36,N,nominal,1.0NRT,285.6,5,N
60.51163,-150.20183,320.9,0.71,0.75,2019-08-21,10:36,N,nominal,1.0NRT,282.8,4.7,N
60.512,-150.19408,337.9,0.71,0.75,2019-08-21,10:36,N,nominal,1.0NRT,284.6,9.4,N
60.51243,-150.18533,322.7,0.7,0.75,2019-08-21,10:36,N,nominal,1.0NRT,281.6,9.4,N
60.50148,-150.40536,312.6,0.72,0.75,2019-08-21,10:36,N,nominal,1.0NRT,281.4,5.2,N
60.50548,-150.18221,338.8,0.7,0.75,2019-08-21,10:36,N,nominal,1.0NRT,279.3,12.9,N
60.50355,-150.36447,310.4,0.71,0.75,2019-08-21,10:36,N,nominal,1.0NRT,282.2,6.5,N
60.51127,-150.20924,297.6,0.71,0.75,2019-08-21,10:36,N,nominal,1.0NRT,276.5,4.7,N
60.51503,-150.13219,303.8,0.7,0.75,2019-08-21,10:36,N,nominal,1.0NRT,275.5,4.7,N
60.50506,-150.19099,346.3,0.71,0.75,2019-08-21,10:36,N,nominal,1.0NRT,279.6,12.9,N
60.50217,-150.39182,319.5,0.72,0.75,2019-08-21,10:36,N,nominal,1.0NRT,283.3,5,N
60.49649,-150.36285,300.3,0.71,0.75,2019-08-21,10:36,N,nominal,1.0NRT,276.3,2.3,N
60.50466,-150.19931,306.1,0.71,0.75,2019-08-21,10:36,N,nominal,1.0NRT,277.2,9,N
60.50848,-150.12144,310,0.7,0.75,2019-08-21,10:36,N,nominal,1.0NRT,276.9,2.8,N
60.50152,-150.11845,295.3,0.7,0.75,2019-08-21,10:36,N,nominal,1.0NRT,276.7,2.8,N
60.50678,-150.40756,301.6,0.72,0.75,2019-08-21,10:36,N,nominal,1.0NRT,280.4,4.8,N
60.50742,-150.39407,306.4,0.72,0.75,2019-08-21,10:36,N,nominal,1.0NRT,281,5.6,N
60.50976,-150.19057,349.3,0.39,0.36,2019-08-21,12:18,N,nominal,1.0NRT,291.1,6.3,N
60.50877,-150.18382,356.6,0.39,0.36,2019-08-21,12:18,N,nominal,1.0NRT,294.2,6.3,N
60.50749,-150.19913,325,0.39,0.36,2019-08-21,12:18,N,nominal,1.0NRT,282.7,3.7,N
60.50651,-150.1924,336.5,0.39,0.36,2019-08-21,12:18,N,nominal,1.0NRT,282.9,3,N
60.50552,-150.18564,314.4,0.39,0.36,2019-08-21,12:18,N,nominal,1.0NRT,279.4,3,N
60.49418,-150.13266,301.3,0.39,0.36,2019-08-21,12:18,N,nominal,1.0NRT,281.8,1.5,N
60.48908,-150.09824,314.8,0.39,0.36,2019-08-21,12:18,N,nominal,1.0NRT,284.6,1.7,N
60.52624,-150.39941,321.8,0.39,0.36,2019-08-21,12:18,N,nominal,1.0NRT,283.6,1.6,N
60.52725,-150.40637,298.9,0.39,0.36,2019-08-21,12:18,N,nominal,1.0NRT,277,1.6,N
60.47731,-150.09006,312.1,0.39,0.36,2019-08-21,12:18,N,nominal,1.0NRT,284.4,1.4,N
60.52279,-150.42413,299.7,0.39,0.36,2019-08-21,12:18,N,nominal,1.0NRT,280.9,1.3,N
60.52177,-150.41719,302.2,0.39,0.36,2019-08-21,12:18,N,nominal,1.0NRT,281.8,1.3,N
60.51976,-150.40331,297.6,0.39,0.36,2019-08-21,12:18,N,nominal,1.0NRT,283.7,2.9,N
60.47614,-150.10593,303.4,0.39,0.36,2019-08-21,12:18,N,nominal,1.0NRT,283,2.1,N
60.47408,-150.09198,301.7,0.39,0.36,2019-08-21,12:18,N,nominal,1.0NRT,284,1.4,N
60.51349,-150.38443,326.1,0.39,0.36,2019-08-21,12:18,N,nominal,1.0NRT,290.3,4.8,N
60.51248,-150.37749,337,0.39,0.36,2019-08-21,12:18,N,nominal,1.0NRT,292.7,4.8,N
60.51853,-150.41913,301.7,0.39,0.36,2019-08-21,12:18,N,nominal,1.0NRT,282.4,1.1,N
60.51752,-150.41219,302.4,0.39,0.36,2019-08-21,12:18,N,nominal,1.0NRT,283.2,1,N
60.51651,-150.40523,301.1,0.39,0.36,2019-08-21,12:18,N,nominal,1.0NRT,282.8,1,N
60.5155,-150.3983,303.6,0.39,0.36,2019-08-21,12:18,N,nominal,1.0NRT,282.6,1.5,N
60.5145,-150.39137,307.1,0.39,0.36,2019-08-21,12:18,N,nominal,1.0NRT,285,1.5,N
60.47291,-150.10786,307.1,0.39,0.36,2019-08-21,12:18,N,nominal,1.0NRT,284.7,2.4,N
60.46981,-150.0869,310.5,0.39,0.36,2019-08-21,12:18,N,nominal,1.0NRT,284.6,1.7,N
60.51024,-150.38637,324.4,0.39,0.36,2019-08-21,12:18,N,nominal,1.0NRT,290.2,4.8,N
60.50924,-150.37943,348.5,0.39,0.36,2019-08-21,12:18,N,nominal,1.0NRT,297.5,4.8,N
60.50823,-150.3725,339.5,0.39,0.36,2019-08-21,12:18,N,nominal,1.0NRT,291.6,6.1,N
60.51529,-150.42107,297,0.39,0.36,2019-08-21,12:18,N,nominal,1.0NRT,281.6,1.1,N
60.51428,-150.41412,299.6,0.39,0.36,2019-08-21,12:18,N,nominal,1.0NRT,282.7,1,N
60.51327,-150.40718,305.6,0.39,0.36,2019-08-21,12:18,N,nominal,1.0NRT,284.7,1,N
60.51226,-150.40025,301.6,0.39,0.36,2019-08-21,12:18,N,nominal,1.0NRT,283.3,1.5,N
60.51125,-150.39331,315.6,0.39,0.36,2019-08-21,12:18,N,nominal,1.0NRT,287.4,1.5,N
60.4758,-150.15123,299.3,0.39,0.36,2019-08-21,12:18,N,nominal,1.0NRT,283.7,1,N
60.4748,-150.14442,305.4,0.39,0.36,2019-08-21,12:18,N,nominal,1.0NRT,285.7,1,N
60.4676,-150.09581,298.8,0.39,0.36,2019-08-21,12:18,N,nominal,1.0NRT,282.5,1.7,N
60.46656,-150.08879,319.5,0.39,0.36,2019-08-21,12:18,N,nominal,1.0NRT,283.6,1.7,N
60.50701,-150.38829,333.1,0.39,0.36,2019-08-21,12:18,N,nominal,1.0NRT,294.3,7.7,N
60.506,-150.38138,353.7,0.39,0.36,2019-08-21,12:18,N,nominal,1.0NRT,304.1,7.7,N
60.50499,-150.37444,355.6,0.39,0.36,2019-08-21,12:18,N,nominal,1.0NRT,303.9,10.2,N
60.50398,-150.36752,339.8,0.39,0.36,2019-08-21,12:18,N,nominal,1.0NRT,293.6,10.2,N
60.50297,-150.36058,344.4,0.39,0.36,2019-08-21,12:18,N,nominal,1.0NRT,296.8,7.1,N
60.51205,-150.423,295.4,0.39,0.36,2019-08-21,12:18,N,nominal,1.0NRT,281.1,1.5,N
60.51104,-150.41606,304.8,0.39,0.36,2019-08-21,12:18,N,nominal,1.0NRT,284.5,1.6,N
60.51003,-150.40912,307.5,0.39,0.36,2019-08-21,12:18,N,nominal,1.0NRT,285.8,1.6,N
60.50902,-150.40218,305,0.39,0.36,2019-08-21,12:18,N,nominal,1.0NRT,284.8,2.9,N
60.50802,-150.39525,311.2,0.39,0.36,2019-08-21,12:18,N,nominal,1.0NRT,286.2,2.9,N
60.4766,-150.18054,302.5,0.39,0.36,2019-08-21,12:18,N,nominal,1.0NRT,283.1,1.1,N
60.47258,-150.15326,305.7,0.39,0.36,2019-08-21,12:18,N,nominal,1.0NRT,285.4,1.4,N
60.47157,-150.14647,311.2,0.39,0.36,2019-08-21,12:18,N,nominal,1.0NRT,287.7,1.4,N
60.50578,-150.40411,332.4,0.39,0.36,2019-08-21,12:18,N,nominal,1.0NRT,294.9,2.9,N
60.50477,-150.39717,333.7,0.39,0.36,2019-08-21,12:18,N,nominal,1.0NRT,295,2.9,N
60.50376,-150.39024,347.4,0.39,0.36,2019-08-21,12:18,N,nominal,1.0NRT,300.4,7.7,N
60.50276,-150.3833,355.5,0.39,0.36,2019-08-21,12:18,N,nominal,1.0NRT,304.2,7.7,N
60.50175,-150.37639,367,0.39,0.36,2019-08-21,12:18,N,high,1.0NRT,309.8,10.2,N
60.50074,-150.36945,357.1,0.39,0.36,2019-08-21,12:18,N,nominal,1.0NRT,307.9,10.2,N
60.49973,-150.36252,350.6,0.39,0.36,2019-08-21,12:18,N,nominal,1.0NRT,298.5,7.1,N
60.50779,-150.41798,306.4,0.39,0.36,2019-08-21,12:18,N,nominal,1.0NRT,284.9,1.6,N
60.50679,-150.41106,318.4,0.39,0.36,2019-08-21,12:18,N,nominal,1.0NRT,289.9,1.6,N
60.47239,-150.17586,298.1,0.39,0.36,2019-08-21,12:18,N,nominal,1.0NRT,283.1,1.1,N
60.47138,-150.16904,302.5,0.39,0.36,2019-08-21,12:18,N,nominal,1.0NRT,283.1,1.7,N
60.46834,-150.14838,310.4,0.39,0.36,2019-08-21,12:18,N,nominal,1.0NRT,284.7,1.4,N
60.46215,-150.10645,301.5,0.39,0.36,2019-08-21,12:18,N,nominal,1.0NRT,283.1,2,N
60.46113,-150.09955,297.8,0.39,0.36,2019-08-21,12:18,N,nominal,1.0NRT,281.5,1.5,N
60.50354,-150.41298,322.6,0.39,0.36,2019-08-21,12:18,N,nominal,1.0NRT,287.3,2.4,N
60.50253,-150.40604,354.8,0.39,0.36,2019-08-21,12:18,N,nominal,1.0NRT,303.6,6.3,N
60.50153,-150.39911,367,0.39,0.36,2019-08-21,12:18,N,high,1.0NRT,312.7,6.3,N
60.50053,-150.39218,348.3,0.39,0.36,2019-08-21,12:18,N,nominal,1.0NRT,294.6,6.2,N
60.49952,-150.38525,338,0.39,0.36,2019-08-21,12:18,N,nominal,1.0NRT,287.3,6.2,N
60.49851,-150.37831,322.5,0.39,0.36,2019-08-21,12:18,N,nominal,1.0NRT,278.7,2.9,N
60.49749,-150.37138,320.4,0.39,0.36,2019-08-21,12:18,N,nominal,1.0NRT,278.6,2.9,N
60.49649,-150.36446,308.7,0.39,0.36,2019-08-21,12:18,N,nominal,1.0NRT,273.5,1.1,N
60.46815,-150.17102,300.5,0.39,0.36,2019-08-21,12:18,N,nominal,1.0NRT,280.8,1.1,N
60.46199,-150.12918,298.8,0.39,0.36,2019-08-21,12:18,N,nominal,1.0NRT,283.5,2.2,N
60.4589,-150.10823,305.2,0.39,0.36,2019-08-21,12:18,N,nominal,1.0NRT,282.5,2.1,N
60.45788,-150.10138,300.3,0.39,0.36,2019-08-21,12:18,N,nominal,1.0NRT,281.5,1.3,N
60.50735,-150.46355,326.1,0.39,0.36,2019-08-21,12:18,N,nominal,1.0NRT,287.9,2.5,N
60.49828,-150.40103,325.7,0.39,0.36,2019-08-21,12:18,N,nominal,1.0NRT,282.9,6.3,N
60.50634,-150.4566,312,0.39,0.36,2019-08-21,12:18,N,nominal,1.0NRT,286.4,2.5,N
60.50031,-150.41493,296,0.39,0.36,2019-08-21,12:18,N,nominal,1.0NRT,279.9,2.4,N
60.49929,-150.40799,300.3,0.39,0.36,2019-08-21,12:18,N,nominal,1.0NRT,280.9,6.3,N
60.4629,-150.15926,311.5,0.39,0.36,2019-08-21,12:18,N,nominal,1.0NRT,284.7,1.9,N
60.5041,-150.4655,338.4,0.39,0.36,2019-08-21,12:18,N,nominal,1.0NRT,291.8,2.7,N
60.50311,-150.45854,311.2,0.39,0.36,2019-08-21,12:18,N,nominal,1.0NRT,285.8,2.7,N
60.49706,-150.41689,297.3,0.39,0.36,2019-08-21,12:18,N,nominal,1.0NRT,281.4,1.2,N
60.45967,-150.16122,309.5,0.39,0.36,2019-08-21,12:18,N,nominal,1.0NRT,283.3,2.4,N
60.45553,-150.13306,297.7,0.39,0.36,2019-08-21,12:18,N,nominal,1.0NRT,283.1,1,N
60.50087,-150.46744,325.1,0.39,0.36,2019-08-21,12:18,N,nominal,1.0NRT,286.7,2.7,N
60.45644,-150.16321,336.2,0.39,0.36,2019-08-21,12:18,N,nominal,1.0NRT,288.4,2.4,N
60.49986,-150.46049,310.9,0.39,0.36,2019-08-21,12:18,N,nominal,1.0NRT,286.5,2.7,N
60.49583,-150.43271,300.4,0.39,0.36,2019-08-21,12:18,N,nominal,1.0NRT,282.1,1.5,N
60.49483,-150.42577,303.9,0.39,0.36,2019-08-21,12:18,N,nominal,1.0NRT,284.4,1.2,N
60.49382,-150.41882,307.3,0.39,0.36,2019-08-21,12:18,N,nominal,1.0NRT,286,1.2,N
60.49281,-150.41188,309.3,0.39,0.36,2019-08-21,12:18,N,nominal,1.0NRT,285.3,1.8,N
60.45542,-150.15628,310.1,0.39,0.36,2019-08-21,12:18,N,nominal,1.0NRT,284.7,2.4,N
60.45231,-150.13516,302.9,0.39,0.36,2019-08-21,12:18,N,nominal,1.0NRT,284.6,1,N
60.45126,-150.12801,296.4,0.39,0.36,2019-08-21,12:18,N,nominal,1.0NRT,282.8,1,N
60.49662,-150.46245,321.3,0.39,0.36,2019-08-21,12:18,N,nominal,1.0NRT,287.9,1.8,N
60.45219,-150.15823,344.4,0.39,0.36,2019-08-21,12:18,N,nominal,1.0NRT,287.2,3.8,N
60.45118,-150.15134,335.1,0.39,0.36,2019-08-21,12:18,N,nominal,1.0NRT,288.2,2.5,N
60.45015,-150.14438,320.8,0.39,0.36,2019-08-21,12:18,N,nominal,1.0NRT,286.6,2.5,N
60.49762,-150.46938,300.1,0.39,0.36,2019-08-21,12:18,N,nominal,1.0NRT,279.1,1.8,N
60.49561,-150.45552,295.6,0.39,0.36,2019-08-21,12:18,N,nominal,1.0NRT,278.4,0.8,N
60.49158,-150.42772,295.9,0.39,0.36,2019-08-21,12:18,N,nominal,1.0NRT,280.5,1.3,N
60.49058,-150.42076,313,0.39,0.36,2019-08-21,12:18,N,nominal,1.0NRT,287.3,1.3,N
60.48957,-150.41382,310.9,0.39,0.36,2019-08-21,12:18,N,nominal,1.0NRT,284,1.5,N
60.48856,-150.40691,313.9,0.39,0.36,2019-08-21,12:18,N,nominal,1.0NRT,285.2,1.5,N
60.45321,-150.16516,306.3,0.39,0.36,2019-08-21,12:18,N,nominal,1.0NRT,278.2,3.8,N
60.44806,-150.13016,306.2,0.39,0.36,2019-08-21,12:18,N,nominal,1.0NRT,282.4,1.9,N
60.49237,-150.45747,297.8,0.39,0.36,2019-08-21,12:18,N,nominal,1.0NRT,280.4,0.8,N
60.48734,-150.4227,303.8,0.39,0.36,2019-08-21,12:18,N,nominal,1.0NRT,281.9,1.3,N
60.48633,-150.41577,303,0.39,0.36,2019-08-21,12:18,N,nominal,1.0NRT,280.2,1.5,N
60.44692,-150.14635,297.3,0.39,0.36,2019-08-21,12:18,N,nominal,1.0NRT,277,2.5,N
60.48913,-150.4594,302,0.39,0.36,2019-08-21,12:18,N,nominal,1.0NRT,282.9,2.3,N
60.48186,-150.43355,301.2,0.39,0.36,2019-08-21,12:18,N,nominal,1.0NRT,281.5,0.8,N
60.48086,-150.42661,305.1,0.39,0.36,2019-08-21,12:18,N,nominal,1.0NRT,281.3,0.8,N
60.47985,-150.41966,301.3,0.39,0.36,2019-08-21,12:18,N,nominal,1.0NRT,279.3,0.9,N
60.47862,-150.43552,301.9,0.39,0.36,2019-08-21,12:18,N,nominal,1.0NRT,282.6,0.9,N
60.47762,-150.42857,299.1,0.39,0.36,2019-08-21,12:18,N,nominal,1.0NRT,282.2,0.9,N
60.47438,-150.43054,296.8,0.39,0.36,2019-08-21,12:18,N,nominal,1.0NRT,281.5,0.9,N
60.47337,-150.4236,297.4,0.39,0.36,2019-08-21,12:18,N,nominal,1.0NRT,280.9,0.9,N
60.47237,-150.41669,303.9,0.39,0.36,2019-08-21,12:18,N,nominal,1.0NRT,281.9,0.9,N
60.47516,-150.46027,295.8,0.39,0.36,2019-08-21,12:18,N,nominal,1.0NRT,280,0.8,N
60.47192,-150.46222,306.3,0.39,0.36,2019-08-21,12:18,N,nominal,1.0NRT,280,0.8,N
60.4669,-150.42752,301.4,0.39,0.36,2019-08-21,12:18,N,nominal,1.0NRT,279.7,1.5,N
59.92096,-151.09074,307.4,0.39,0.36,2019-08-21,12:18,N,nominal,1.0NRT,279.7,1.6,N
59.91999,-151.08388,297.2,0.39,0.36,2019-08-21,12:18,N,nominal,1.0NRT,277.1,0.9,N
59.91576,-151.07898,323.8,0.39,0.36,2019-08-21,12:18,N,nominal,1.0NRT,278.3,2.4,N
59.91771,-151.09267,297.8,0.39,0.36,2019-08-21,12:18,N,nominal,1.0NRT,277.9,1.9,N
59.91674,-151.08582,313.2,0.39,0.36,2019-08-21,12:18,N,nominal,1.0NRT,279.8,2.4,N
59.91839,-151.12215,328.3,0.39,0.36,2019-08-21,12:18,N,nominal,1.0NRT,278.7,2.2,N
59.91936,-151.12904,295.1,0.39,0.36,2019-08-21,12:18,N,nominal,1.0NRT,272.7,2.2,N
59.91514,-151.12401,337.7,0.39,0.36,2019-08-21,12:18,N,nominal,1.0NRT,274.7,4.7,N
60.23349,-156.53201,313.4,0.5,0.41,2019-08-21,12:18,N,nominal,1.0NRT,278.6,1.2,N
60.23064,-156.54247,310.3,0.5,0.41,2019-08-21,12:18,N,nominal,1.0NRT,277.5,3.3,N
60.22977,-156.53349,296.2,0.5,0.41,2019-08-21,12:18,N,nominal,1.0NRT,277.7,1.2,N
60.22692,-156.54398,298.9,0.5,0.41,2019-08-21,12:18,N,nominal,1.0NRT,277.1,1.4,N
60.22169,-156.49004,303.9,0.5,0.41,2019-08-21,12:18,N,nominal,1.0NRT,275.3,1.8,N
60.2232,-156.54549,302.9,0.5,0.41,2019-08-21,12:18,N,nominal,1.0NRT,275.7,1.4,N
60.21799,-156.49162,308.7,0.5,0.41,2019-08-21,12:18,N,nominal,1.0NRT,280.6,1.8,N
60.21344,-156.48444,299.6,0.5,0.41,2019-08-21,12:18,N,nominal,1.0NRT,277.9,1.2,N
60.21664,-156.55759,301.7,0.5,0.41,2019-08-21,12:18,N,nominal,1.0NRT,275,1.8,N
60.21577,-156.54866,302.9,0.5,0.41,2019-08-21,12:18,N,nominal,1.0NRT,276.3,1.8,N
60.20973,-156.48602,301.1,0.5,0.41,2019-08-21,12:18,N,nominal,1.0NRT,278.3,1.2,N
60.22689,-156.54114,296.3,0.5,0.41,2019-08-21,12:18,N,nominal,1.0NRT,277.4,0.7,N
60.2215,-156.48729,300.4,0.5,0.41,2019-08-21,12:18,N,nominal,1.0NRT,274.9,1.5,N
60.22317,-156.54262,298.7,0.5,0.41,2019-08-21,12:18,N,nominal,1.0NRT,276,0.7,N
60.2178,-156.48888,310.2,0.5,0.41,2019-08-21,12:18,N,nominal,1.0NRT,281.3,1.5,N
60.2141,-156.49052,298.7,0.5,0.41,2019-08-21,12:18,N,nominal,1.0NRT,278.7,1.4,N
60.21664,-156.55472,310.5,0.5,0.41,2019-08-21,12:18,N,nominal,1.0NRT,275.4,2.3,N
60.21576,-156.54579,301,0.5,0.41,2019-08-21,12:18,N,nominal,1.0NRT,276.3,1,N
60.20952,-156.48332,302.9,0.5,0.41,2019-08-21,12:18,N,nominal,1.0NRT,278.6,1.4,N
60.21293,-156.55629,299.6,0.5,0.41,2019-08-21,12:18,N,nominal,1.0NRT,277.3,1.2,N
60.20581,-156.48489,297,0.5,0.41,2019-08-21,12:18,N,nominal,1.0NRT,278,1.5,N
60.20922,-156.55789,308.7,0.5,0.41,2019-08-21,12:18,N,nominal,1.0NRT,277.1,1.2,N
60.19574,-156.46126,328.6,0.5,0.41,2019-08-21,12:18,N,nominal,1.0NRT,278,4.4,N
60.20551,-156.55948,302.9,0.5,0.41,2019-08-21,12:18,N,nominal,1.0NRT,276.4,1.2,N
60.19752,-156.47916,298.1,0.5,0.41,2019-08-21,12:18,N,nominal,1.0NRT,278,1.7,N
60.19663,-156.4702,303.6,0.5,0.41,2019-08-21,12:18,N,nominal,1.0NRT,277.4,1.7,N
60.19292,-156.47179,321.6,0.5,0.41,2019-08-21,12:18,N,nominal,1.0NRT,284.2,1.7,N
60.19203,-156.46283,340.2,0.5,0.41,2019-08-21,12:18,N,nominal,1.0NRT,283.7,4.4,N
60.20179,-156.56099,302.2,0.5,0.41,2019-08-21,12:18,N,nominal,1.0NRT,277.6,1.2,N
60.19381,-156.48073,298.1,0.5,0.41,2019-08-21,12:18,N,nominal,1.0NRT,278.9,1.7,N
60.19114,-156.45392,317.7,0.5,0.41,2019-08-21,12:18,N,nominal,1.0NRT,277.2,4.4,N
60.19808,-156.56247,295.1,0.5,0.41,2019-08-21,12:18,N,nominal,1.0NRT,275.6,0.9,N
60.18922,-156.47336,295,0.5,0.41,2019-08-21,12:18,N,nominal,1.0NRT,278.4,1.4,N
60.18463,-156.46594,338,0.5,0.41,2019-08-21,12:18,N,nominal,1.0NRT,280.5,5.5,N
60.19436,-156.56403,308.7,0.5,0.41,2019-08-21,12:18,N,nominal,1.0NRT,275.4,0.9,N
60.18552,-156.47488,300.6,0.5,0.41,2019-08-21,12:18,N,nominal,1.0NRT,278.7,1.4,N
60.18975,-156.55647,302.6,0.5,0.41,2019-08-21,12:18,N,nominal,1.0NRT,275.2,1.4,N
60.18233,-156.55965,312.1,0.5,0.41,2019-08-21,12:18,N,nominal,1.0NRT,277.4,2.4,N
60.17402,-156.55383,298.7,0.5,0.41,2019-08-21,12:18,N,nominal,1.0NRT,278.5,1.7,N
60.17031,-156.55537,306.9,0.5,0.41,2019-08-21,12:18,N,nominal,1.0NRT,277.7,1.7,N
60.14843,-156.48988,302,0.5,0.41,2019-08-21,12:18,N,nominal,1.0NRT,274.8,1.7,N
60.15172,-156.56288,307.9,0.5,0.41,2019-08-21,12:18,N,nominal,1.0NRT,275.8,1.3,N
60.14801,-156.56439,303,0.5,0.41,2019-08-21,12:18,N,nominal,1.0NRT,277.1,1.3,N
60.14429,-156.56592,315.8,0.5,0.41,2019-08-21,12:18,N,nominal,1.0NRT,278.9,3.2,N
60.13534,-156.51378,296.5,0.5,0.41,2019-08-21,12:18,N,nominal,1.0NRT,276.1,0.9,N
60.11084,-156.57941,319.6,0.5,0.41,2019-08-21,12:18,N,nominal,1.0NRT,278.4,3.1,N
60.11136,-156.57733,317.2,0.5,0.41,2019-08-21,12:18,N,nominal,1.0NRT,278.2,2.5,N
60.10765,-156.57884,318.6,0.5,0.41,2019-08-21,12:18,N,nominal,1.0NRT,278.6,1.5,N
60.10394,-156.58032,295.7,0.5,0.41,2019-08-21,12:18,N,nominal,1.0NRT,276.5,1.5,N
60.09843,-156.56392,301.4,0.5,0.41,2019-08-21,12:18,N,nominal,1.0NRT,276.8,1,N
60.09472,-156.56541,305.6,0.5,0.41,2019-08-21,12:18,N,nominal,1.0NRT,277.4,1,N
60.09101,-156.56689,297.1,0.5,0.41,2019-08-21,12:18,N,nominal,1.0NRT,277.1,1,N
61.88911,-146.40228,301.2,0.39,0.36,2019-08-21,12:18,N,nominal,1.0NRT,275.5,1.8,N
61.88596,-146.40477,330.9,0.39,0.36,2019-08-21,12:18,N,nominal,1.0NRT,282.9,1.8,N
61.88716,-146.41182,296.4,0.39,0.36,2019-08-21,12:18,N,nominal,1.0NRT,273.6,1.8,N
61.88282,-146.40727,300.6,0.39,0.36,2019-08-21,12:18,N,nominal,1.0NRT,273.2,1.4,N
62.00449,-150.03015,306.6,0.4,0.37,2019-08-21,12:18,N,nominal,1.0NRT,280.9,1.8,N
62.00345,-150.0228,306.3,0.4,0.37,2019-08-21,12:18,N,nominal,1.0NRT,279.5,1.5,N
61.97637,-150.03209,296.5,0.4,0.37,2019-08-21,12:18,N,nominal,1.0NRT,278.6,0.9,N
61.97724,-150.06361,295.4,0.4,0.37,2019-08-21,12:18,N,nominal,1.0NRT,280.7,0.6,N
61.97311,-150.03418,296.3,0.4,0.37,2019-08-21,12:18,N,nominal,1.0NRT,279.4,0.9,N
61.96986,-150.03625,297.7,0.4,0.37,2019-08-21,12:18,N,nominal,1.0NRT,279.9,1.1,N
61.96231,-150.03305,300.2,0.39,0.37,2019-08-21,12:18,N,nominal,1.0NRT,277.6,0.9,N
61.9558,-150.0372,304.7,0.39,0.37,2019-08-21,12:18,N,nominal,1.0NRT,278,0.5,N
61.95255,-150.03929,300.2,0.39,0.37,2019-08-21,12:18,N,nominal,1.0NRT,275.8,0.5,N
60.58719,-149.94,331.5,0.39,0.36,2019-08-21,12:18,N,nominal,1.0NRT,278.7,2,N
60.58399,-149.94212,304.1,0.39,0.36,2019-08-21,12:18,N,nominal,1.0NRT,273.9,2,N
60.57463,-149.90292,297,0.39,0.36,2019-08-21,12:18,N,nominal,1.0NRT,275.4,5.7,N
60.57141,-149.90488,346.3,0.39,0.36,2019-08-21,12:18,N,nominal,1.0NRT,289.2,5.7,N
60.57042,-149.89828,341.9,0.39,0.36,2019-08-21,12:18,N,nominal,1.0NRT,289.6,5.7,N
60.57968,-149.96039,295.6,0.39,0.36,2019-08-21,12:18,N,nominal,1.0NRT,281.4,0.8,N
60.57864,-149.95338,295.7,0.39,0.36,2019-08-21,12:18,N,nominal,1.0NRT,281.5,0.8,N
60.59267,-150.07184,295.3,0.39,0.36,2019-08-21,12:18,N,nominal,1.0NRT,273,0.7,N
60.57441,-149.94856,303.9,0.39,0.36,2019-08-21,12:18,N,nominal,1.0NRT,283.2,1,N
60.57337,-149.94165,298.4,0.39,0.36,2019-08-21,12:18,N,nominal,1.0NRT,282.3,1,N
60.56721,-149.90028,318.2,0.39,0.36,2019-08-21,12:18,N,nominal,1.0NRT,285.9,2.2,N
60.56809,-149.92976,295.5,0.39,0.36,2019-08-21,12:18,N,nominal,1.0NRT,281.9,1.2,N
60.564,-149.90234,303.7,0.39,0.36,2019-08-21,12:18,N,nominal,1.0NRT,282.4,2.2,N
60.56488,-149.93192,304.4,0.39,0.36,2019-08-21,12:18,N,nominal,1.0NRT,280.5,1.4,N
60.56079,-149.9044,297,0.39,0.36,2019-08-21,12:18,N,nominal,1.0NRT,279.2,1.9,N
60.55736,-149.92862,299.2,0.39,0.36,2019-08-21,12:18,N,nominal,1.0NRT,281.4,1.7,N
60.56844,-150.02695,301.2,0.39,0.36,2019-08-21,12:18,N,nominal,1.0NRT,277.1,1.1,N
60.52734,-150.082,300,0.39,0.36,2019-08-21,12:18,N,nominal,1.0NRT,274.8,0.8,N
60.53731,-150.17378,325.1,0.39,0.36,2019-08-21,12:18,N,nominal,1.0NRT,278.9,1.6,N
60.53511,-150.18285,311.4,0.39,0.36,2019-08-21,12:18,N,nominal,1.0NRT,280.5,1.6,N
60.5341,-150.17587,298.3,0.39,0.36,2019-08-21,12:18,N,nominal,1.0NRT,276.6,1.6,N
60.52063,-150.1451,301.8,0.39,0.36,2019-08-21,12:18,N,nominal,1.0NRT,273.9,0.7,N
60.52677,-150.2104,304.9,0.39,0.36,2019-08-21,12:18,N,nominal,1.0NRT,285.2,1.6,N
60.51539,-150.13348,306.5,0.39,0.36,2019-08-21,12:18,N,nominal,1.0NRT,274.8,0.9,N
60.51438,-150.12659,301.4,0.39,0.36,2019-08-21,12:18,N,nominal,1.0NRT,278.3,0.8,N
60.5235,-150.2122,332.2,0.39,0.36,2019-08-21,12:18,N,nominal,1.0NRT,289.7,2,N
60.50812,-150.10809,329,0.39,0.36,2019-08-21,12:18,N,nominal,1.0NRT,279.5,3.2,N
60.52452,-150.21909,316.6,0.39,0.36,2019-08-21,12:18,N,nominal,1.0NRT,280.7,2.7,N
60.5225,-150.2054,296,0.39,0.36,2019-08-21,12:18,N,nominal,1.0NRT,282.7,2,N
60.52024,-150.214,322.7,0.39,0.36,2019-08-21,12:18,N,nominal,1.0NRT,285.9,2,N
60.50492,-150.11023,339.5,0.39,0.36,2019-08-21,12:18,N,nominal,1.0NRT,284.7,3.2,N
60.51925,-150.20726,308.4,0.39,0.36,2019-08-21,12:18,N,nominal,1.0NRT,284.7,2,N
60.50594,-150.11707,313.4,0.39,0.36,2019-08-21,12:18,N,nominal,1.0NRT,281.9,3.2,N
60.51302,-150.18877,337.4,0.39,0.36,2019-08-21,12:18,N,nominal,1.0NRT,292.4,6.3,N
60.51201,-150.18196,320.3,0.39,0.36,2019-08-21,12:18,N,nominal,1.0NRT,286.3,6.3,N
60.51598,-150.20895,311.8,0.39,0.36,2019-08-21,12:18,N,nominal,1.0NRT,283.4,2.4,N
60.50375,-150.12611,299.4,0.39,0.36,2019-08-21,12:18,N,nominal,1.0NRT,282.4,1.8,N
60.50275,-150.11926,300.3,0.39,0.36,2019-08-21,12:18,N,nominal,1.0NRT,281,1.6,N
60.50174,-150.11243,311,0.39,0.36,2019-08-21,12:18,N,nominal,1.0NRT,279.4,1.6,N
60.49707,-150.37506,304.7,0.43,0.62,2019-08-21,14:00,N,nominal,1.0NRT,278.4,3.5,N
60.58724,-149.93864,305.9,0.44,0.63,2019-08-21,14:00,N,nominal,1.0NRT,272.8,1.8,N
60.59818,-150.11731,295.3,0.44,0.62,2019-08-21,14:00,N,nominal,1.0NRT,276.3,1.1,N
60.53638,-150.17116,297.1,0.44,0.62,2019-08-21,14:00,N,nominal,1.0NRT,274.7,1,N
60.5331,-150.18181,306,0.44,0.62,2019-08-21,14:00,N,nominal,1.0NRT,279.8,2.1,N
60.51144,-150.14609,310.6,0.44,0.62,2019-08-21,14:00,N,nominal,1.0NRT,275.7,1.5,N
60.51564,-150.19446,301.4,0.44,0.62,2019-08-21,14:00,N,nominal,1.0NRT,281.7,1.8,N
60.51259,-150.18675,305.3,0.44,0.62,2019-08-21,14:00,N,nominal,1.0NRT,281.5,1.8,N
60.50982,-150.17978,305,0.44,0.62,2019-08-21,14:00,N,nominal,1.0NRT,280.8,1.9,N
60.51006,-150.1993,305.6,0.44,0.62,2019-08-21,14:00,N,nominal,1.0NRT,280.1,2.8,N
60.5067,-150.19083,316.2,0.44,0.62,2019-08-21,14:00,N,nominal,1.0NRT,280.1,2.3,N
60.46659,-150.0901,295.2,0.44,0.63,2019-08-21,14:00,N,nominal,1.0NRT,278.9,1.4,N
60.45611,-150.15829,296.3,0.44,0.63,2019-08-21,14:00,N,nominal,1.0NRT,279.9,1.5,N
60.51256,-150.37512,306.2,0.43,0.62,2019-08-21,14:00,N,nominal,1.0NRT,281.7,2.7,N
60.51003,-150.36874,300.4,0.43,0.62,2019-08-21,14:00,N,nominal,1.0NRT,279.6,2.1,N
60.51355,-150.37917,299.6,0.43,0.62,2019-08-21,14:00,N,nominal,1.0NRT,280.9,2.1,N
60.51105,-150.37279,306.6,0.43,0.62,2019-08-21,14:00,N,nominal,1.0NRT,281.7,1.3,N
60.50854,-150.36638,295.6,0.43,0.62,2019-08-21,14:00,N,nominal,1.0NRT,278.7,1.3,N
60.50653,-150.38025,322.8,0.43,0.62,2019-08-21,14:00,N,nominal,1.0NRT,286.9,4.2,N
60.50404,-150.37387,327.5,0.43,0.62,2019-08-21,14:00,N,nominal,1.0NRT,288.7,4.2,N
60.50153,-150.36749,323.6,0.43,0.62,2019-08-21,14:00,N,nominal,1.0NRT,287.5,3.5,N
60.49906,-150.36118,325.2,0.44,0.62,2019-08-21,14:00,N,nominal,1.0NRT,285,3.5,N
60.50904,-150.38663,304.1,0.43,0.62,2019-08-21,14:00,N,nominal,1.0NRT,282,4,N
60.50206,-150.38777,322.4,0.43,0.62,2019-08-21,14:00,N,nominal,1.0NRT,286.9,4.2,N
60.49957,-150.38142,321.3,0.43,0.62,2019-08-21,14:00,N,nominal,1.0NRT,284.1,4.2,N
60.50454,-150.39407,310.4,0.43,0.62,2019-08-21,14:00,N,nominal,1.0NRT,284.2,4,N
60.50261,-150.4081,310.9,0.43,0.62,2019-08-21,14:00,N,nominal,1.0NRT,283.5,2.8,N
60.50008,-150.40169,317.9,0.43,0.62,2019-08-21,14:00,N,nominal,1.0NRT,284.4,2.8,N
60.49758,-150.39529,303.7,0.43,0.62,2019-08-21,14:00,N,nominal,1.0NRT,279.1,1.6,N
60.5013,-150.4615,298.3,0.43,0.62,2019-08-21,14:00,N,nominal,1.0NRT,280.5,2.2,N
59.91433,-151.12323,309.5,0.44,0.62,2019-08-21,14:00,N,nominal,1.0NRT,274.2,0.9,N
60.22042,-156.48457,300.8,0.61,0.53,2019-08-21,14:00,N,nominal,1.0NRT,275.5,1.9,N
60.23178,-156.5374,303.1,0.61,0.53,2019-08-21,14:00,N,nominal,1.0NRT,277.2,2.4,N
60.21616,-156.48979,301.7,0.61,0.53,2019-08-21,14:00,N,nominal,1.0NRT,279.4,1.9,N
60.22079,-156.49103,305.3,0.61,0.53,2019-08-21,14:00,N,nominal,1.0NRT,276.7,2.5,N
60.21335,-156.48642,298,0.61,0.53,2019-08-21,14:00,N,nominal,1.0NRT,278.7,2.8,N
60.19548,-156.468,321,0.61,0.53,2019-08-21,14:00,N,nominal,1.0NRT,278.1,3.6,N
60.19233,-156.45831,331.7,0.61,0.54,2019-08-21,14:00,N,nominal,1.0NRT,281,3.6,N
60.21632,-156.55081,309.5,0.61,0.53,2019-08-21,14:00,N,nominal,1.0NRT,276.1,2.4,N
60.19122,-156.4733,309.4,0.61,0.53,2019-08-21,14:00,N,nominal,1.0NRT,279.4,3.6,N
60.18809,-156.46365,299.5,0.61,0.54,2019-08-21,14:00,N,nominal,1.0NRT,274.5,3.6,N
60.18389,-156.46912,322,0.61,0.54,2019-08-21,14:00,N,nominal,1.0NRT,277.4,3.8,N
60.21209,-156.55614,296.9,0.61,0.53,2019-08-21,14:00,N,nominal,1.0NRT,277.1,2.2,N
60.20058,-156.55731,295.3,0.61,0.53,2019-08-21,14:00,N,nominal,1.0NRT,277.1,2,N
60.2267,-156.55225,334.1,0.79,0.78,2019-08-21,20:30,N,nominal,1.0NRT,288.8,6,D
60.21575,-156.55223,330.7,0.79,0.78,2019-08-21,20:30,N,nominal,1.0NRT,291.9,7.9,D
60.21006,-156.56261,333.2,0.79,0.78,2019-08-21,20:30,N,nominal,1.0NRT,290.1,7.9,D
60.2322,-156.54221,335.7,0.79,0.78,2019-08-21,20:30,N,nominal,1.0NRT,292.5,6,D
61.88332,-146.40688,331.9,0.38,0.59,2019-08-21,20:30,N,nominal,1.0NRT,286.4,3,D
59.91945,-151.1288,328.3,0.61,0.71,2019-08-21,20:30,N,nominal,1.0NRT,286.6,5.1,D
60.57168,-149.89592,367,0.53,0.67,2019-08-21,20:30,N,high,1.0NRT,291.3,9.6,D
60.56931,-149.90135,343.2,0.53,0.67,2019-08-21,20:30,N,nominal,1.0NRT,294.9,9.6,D
60.56773,-149.89883,328.2,0.53,0.67,2019-08-21,20:30,N,nominal,1.0NRT,290.4,7.8,D
60.57443,-149.90291,355.4,0.53,0.67,2019-08-21,20:30,N,nominal,1.0NRT,289.4,7.8,D
60.57219,-149.90797,327.7,0.53,0.67,2019-08-21,20:30,N,nominal,1.0NRT,287.6,7.8,D
60.56979,-149.91341,328.3,0.53,0.67,2019-08-21,20:30,N,nominal,1.0NRT,285.7,6,D
60.53,-150.00325,333.4,0.54,0.68,2019-08-21,20:30,N,nominal,1.0NRT,288.9,4.5,D
60.51469,-150.1342,347.2,0.54,0.68,2019-08-21,20:30,N,nominal,1.0NRT,291.2,9.4,D
60.6041,-149.97049,327.5,0.53,0.67,2019-08-21,20:30,N,nominal,1.0NRT,286.8,3.8,D
60.5384,-150.1774,337.9,0.54,0.68,2019-08-21,20:30,N,nominal,1.0NRT,289.5,5.8,D
60.50439,-150.37071,327.4,0.55,0.68,2019-08-21,20:30,N,nominal,1.0NRT,290.1,9.2,D
60.50099,-150.37837,329.2,0.55,0.68,2019-08-21,20:30,N,nominal,1.0NRT,294.4,9.1,D
60.53587,-150.17253,328.2,0.54,0.68,2019-08-21,20:30,N,nominal,1.0NRT,287.7,4.7,D
60.52858,-150.18874,331.7,0.54,0.68,2019-08-21,20:30,N,nominal,1.0NRT,291.1,4.7,D
60.49845,-150.37131,328.7,0.55,0.68,2019-08-21,20:30,N,nominal,1.0NRT,292.5,5.9,D
60.50658,-150.37253,338.9,0.55,0.68,2019-08-21,20:30,N,nominal,1.0NRT,289.6,5.9,D
60.50316,-150.38013,335.8,0.55,0.68,2019-08-21,20:30,N,nominal,1.0NRT,295.5,5.9,D
60.50102,-150.40419,327.4,0.55,0.68,2019-08-21,20:30,N,nominal,1.0NRT,293.7,8.9,D
60.1904,-156.45859,343.4,0.79,0.78,2019-08-21,20:30,N,nominal,1.0NRT,293,7.8,D
60.1847,-156.46895,342.2,0.79,0.78,2019-08-21,20:30,N,nominal,1.0NRT,289.8,7.8,D
60.19561,-156.46907,329.1,0.79,0.78,2019-08-21,20:30,N,nominal,1.0NRT,290.2,7.8,D
60.23095,-156.55037,329.8,0.79,0.78,2019-08-21,20:36,N,nominal,1.0NRT,289,5.8,D
60.2143,-156.56049,331,0.79,0.78,2019-08-21,20:36,N,nominal,1.0NRT,288.9,15.4,D
60.22004,-156.55016,335.3,0.79,0.78,2019-08-21,20:36,N,nominal,1.0NRT,291.3,15.8,D
60.51009,-150.19566,345.4,0.39,0.36,2019-08-21,22:12,N,nominal,1.0NRT,300.3,6.6,D
60.50894,-150.20224,333.5,0.39,0.36,2019-08-21,22:12,N,nominal,1.0NRT,292.1,6.6,D
60.52184,-150.14886,329.8,0.39,0.36,2019-08-21,22:12,N,nominal,1.0NRT,296.9,1.7,D
60.51442,-150.19138,335.4,0.39,0.36,2019-08-21,22:12,N,nominal,1.0NRT,299.3,11.5,D
60.56974,-149.89285,332.6,0.39,0.36,2019-08-21,22:12,N,nominal,1.0NRT,288.3,8.7,D
60.5686,-149.89949,336.6,0.39,0.36,2019-08-21,22:12,N,nominal,1.0NRT,298.3,4.3,D
60.5718,-149.90158,344.6,0.39,0.36,2019-08-21,22:12,N,nominal,1.0NRT,302.2,4.3,D
60.57067,-149.90813,335.6,0.39,0.36,2019-08-21,22:12,N,nominal,1.0NRT,294.7,4.3,D
60.52079,-150.19604,339.2,0.39,0.36,2019-08-21,22:12,N,nominal,1.0NRT,293.8,5.2,D
60.57294,-149.895,367,0.39,0.36,2019-08-21,22:12,N,low,1.0NRT,304.9,8.7,D
60.57614,-149.89713,346.3,0.39,0.36,2019-08-21,22:12,N,nominal,1.0NRT,290.8,8.2,D
60.57501,-149.9037,336.9,0.39,0.36,2019-08-21,22:12,N,nominal,1.0NRT,291.8,5.7,D
60.52164,-150.2117,326.2,0.39,0.36,2019-08-21,22:12,N,nominal,1.0NRT,296.1,5.2,D
60.52365,-150.22076,325.3,0.39,0.36,2019-08-21,22:12,N,nominal,1.0NRT,291.4,2.6,D
60.49834,-150.36504,355.6,0.39,0.36,2019-08-21,22:12,N,nominal,1.0NRT,302.5,79.5,D
60.53532,-150.17433,342.5,0.39,0.36,2019-08-21,22:12,N,nominal,1.0NRT,298.6,3.5,D
60.50274,-150.36052,346.8,0.39,0.36,2019-08-21,22:12,N,nominal,1.0NRT,297.9,19.6,D
60.50154,-150.36739,340.4,0.39,0.36,2019-08-21,22:12,N,nominal,1.0NRT,299,19.6,D
60.50033,-150.37421,348.7,0.39,0.36,2019-08-21,22:12,N,nominal,1.0NRT,303.9,7.7,D
60.49913,-150.38107,352,0.39,0.36,2019-08-21,22:12,N,nominal,1.0NRT,301.5,7.7,D
60.49792,-150.38791,345.3,0.39,0.36,2019-08-21,22:12,N,nominal,1.0NRT,293.2,5.9,D
60.53853,-150.1765,334,0.39,0.36,2019-08-21,22:12,N,nominal,1.0NRT,292,3.5,D
60.50593,-150.36282,332.2,0.39,0.36,2019-08-21,22:12,N,nominal,1.0NRT,293,19.6,D
60.50472,-150.36971,342.4,0.39,0.36,2019-08-21,22:12,N,low,1.0NRT,317.2,19.6,D
60.50352,-150.37654,355.6,0.39,0.36,2019-08-21,22:12,N,nominal,1.0NRT,311.4,7.7,D
60.50232,-150.38339,349.6,0.39,0.36,2019-08-21,22:12,N,nominal,1.0NRT,308.8,7.7,D
60.50111,-150.39023,353.4,0.39,0.36,2019-08-21,22:12,N,nominal,1.0NRT,305.9,5.9,D
60.4999,-150.39708,353,0.39,0.36,2019-08-21,22:12,N,nominal,1.0NRT,304.3,5.9,D
60.58306,-149.93993,331.2,0.39,0.36,2019-08-21,22:12,N,nominal,1.0NRT,292.6,10.1,D
60.50792,-150.37201,353.4,0.39,0.36,2019-08-21,22:12,N,nominal,1.0NRT,314.8,34,D
60.50671,-150.37886,349.6,0.39,0.36,2019-08-21,22:12,N,nominal,1.0NRT,319.5,10.5,D
60.5055,-150.38571,349.2,0.39,0.36,2019-08-21,22:12,N,nominal,1.0NRT,308.5,10.5,D
60.5043,-150.39256,344.4,0.39,0.36,2019-08-21,22:12,N,nominal,1.0NRT,305.9,5.2,D
60.50309,-150.3994,352.5,0.39,0.36,2019-08-21,22:12,N,nominal,1.0NRT,311.8,5.2,D
60.50188,-150.40625,340.8,0.39,0.36,2019-08-21,22:12,N,nominal,1.0NRT,303.9,4.2,D
60.58745,-149.93518,330.4,0.39,0.36,2019-08-21,22:12,N,nominal,1.0NRT,293.7,6.4,D
60.58627,-149.94205,347.4,0.39,0.36,2019-08-21,22:12,N,nominal,1.0NRT,310.1,10.1,D
60.5111,-150.37433,353.4,0.39,0.36,2019-08-21,22:12,N,nominal,1.0NRT,300.4,34,D
60.5099,-150.38116,348.2,0.39,0.36,2019-08-21,22:12,N,nominal,1.0NRT,305.2,10.5,D
60.50869,-150.38802,334.4,0.39,0.36,2019-08-21,22:12,N,nominal,1.0NRT,303.1,10.5,D
60.50628,-150.40173,329,0.39,0.36,2019-08-21,22:12,N,low,1.0NRT,300.6,5.2,D
60.50507,-150.40857,337.4,0.39,0.36,2019-08-21,22:12,N,nominal,1.0NRT,302.7,4.2,D
60.58948,-149.94415,331.4,0.39,0.36,2019-08-21,22:12,N,low,1.0NRT,302.3,3.7,D
60.51309,-150.3835,339.9,0.39,0.36,2019-08-21,22:12,N,nominal,1.0NRT,300.4,5.7,D
60.49857,-150.46585,325.8,0.39,0.36,2019-08-21,22:12,N,low,1.0NRT,297.7,1.9,D
60.50298,-150.46129,333.6,0.39,0.36,2019-08-21,22:12,N,nominal,1.0NRT,300.6,5.6,D
60.50177,-150.46814,327.9,0.39,0.36,2019-08-21,22:12,N,nominal,1.0NRT,296.2,1.9,D
60.50739,-150.45674,330.5,0.39,0.36,2019-08-21,22:12,N,low,1.0NRT,300.9,5.4,D
60.50617,-150.46361,350.6,0.39,0.36,2019-08-21,22:12,N,nominal,1.0NRT,303.6,5.4,D
60.52595,-150.40126,348.5,0.39,0.36,2019-08-21,22:12,N,nominal,1.0NRT,301.6,5.7,D
60.5223,-150.42181,330.8,0.39,0.36,2019-08-21,22:12,N,nominal,1.0NRT,300.3,5.7,D
60.60921,-149.9664,332.8,0.39,0.36,2019-08-21,22:12,N,nominal,1.0NRT,293,3.8,D
60.59031,-150.07553,333.4,0.39,0.36,2019-08-21,22:12,N,nominal,1.0NRT,296.6,2.7,D
60.60137,-150.11479,327.6,0.39,0.36,2019-08-21,22:12,N,nominal,1.0NRT,295.9,3.6,D
60.60014,-150.12184,329.7,0.39,0.36,2019-08-21,22:12,N,nominal,1.0NRT,295.5,3.6,D
61.84876,-146.38094,346.1,0.4,0.37,2019-08-21,22:12,N,nominal,1.0NRT,304.9,14.7,D
61.85198,-146.38332,346.1,0.4,0.37,2019-08-21,22:12,N,nominal,1.0NRT,296.9,14.7,D
61.8847,-146.40288,334.9,0.4,0.37,2019-08-21,22:12,N,nominal,1.0NRT,292.4,9.8,D
61.88366,-146.41046,326.8,0.4,0.37,2019-08-21,22:12,N,nominal,1.0NRT,294.3,9.9,D
61.88798,-146.40477,339,0.4,0.37,2019-08-21,22:12,N,nominal,1.0NRT,296.6,5.3,D
60.10471,-156.51839,333.6,0.52,0.41,2019-08-21,22:12,N,nominal,1.0NRT,297.1,7.8,D
60.09266,-156.56973,339.2,0.52,0.41,2019-08-21,22:12,N,nominal,1.0NRT,303.3,18.4,D
60.09064,-156.57834,333.8,0.52,0.41,2019-08-21,22:12,N,nominal,1.0NRT,295.9,18.4,D
60.09817,-156.56441,367,0.52,0.41,2019-08-21,22:12,N,high,1.0NRT,303.5,49.5,D
60.09616,-156.573,343.5,0.52,0.41,2019-08-21,22:12,N,nominal,1.0NRT,316.9,18.4,D
60.09414,-156.58159,330.7,0.52,0.41,2019-08-21,22:12,N,nominal,1.0NRT,294.2,18.4,D
60.10167,-156.56766,333.8,0.52,0.41,2019-08-21,22:12,N,nominal,1.0NRT,297.2,13.2,D
60.09966,-156.57625,334.5,0.52,0.41,2019-08-21,22:12,N,nominal,1.0NRT,293.5,14.3,D
60.10666,-156.58275,345,0.52,0.41,2019-08-21,22:12,N,nominal,1.0NRT,302.8,34,D
60.11217,-156.57741,342,0.52,0.41,2019-08-21,22:12,N,nominal,1.0NRT,301,10.7,D
60.11015,-156.586,355.6,0.52,0.41,2019-08-21,22:12,N,nominal,1.0NRT,308.8,34,D
60.11566,-156.58067,353.6,0.52,0.41,2019-08-21,22:12,N,nominal,1.0NRT,300.7,32.6,D
60.11365,-156.58926,341.1,0.52,0.41,2019-08-21,22:12,N,nominal,1.0NRT,311,82.8,D
60.13514,-156.51541,337.6,0.51,0.41,2019-08-21,22:12,N,nominal,1.0NRT,303.3,4.7,D
60.12115,-156.57535,343,0.52,0.41,2019-08-21,22:12,N,nominal,1.0NRT,301.1,32.6,D
60.12666,-156.57004,340.2,0.52,0.41,2019-08-21,22:12,N,nominal,1.0NRT,294.7,6.5,D
60.12465,-156.57861,340,0.52,0.41,2019-08-21,22:12,N,nominal,1.0NRT,294.2,6.7,D
60.14809,-156.49623,340.9,0.51,0.41,2019-08-21,22:12,N,nominal,1.0NRT,303.7,4.1,D
60.1461,-156.50478,335.2,0.51,0.41,2019-08-21,22:12,N,nominal,1.0NRT,296.5,4.1,D
60.13565,-156.56792,344.4,0.52,0.41,2019-08-21,22:12,N,nominal,1.0NRT,298.7,6.2,D
60.14465,-156.56581,337.3,0.52,0.41,2019-08-21,22:12,N,nominal,1.0NRT,302.1,6.2,D
60.14265,-156.5744,331.1,0.52,0.41,2019-08-21,22:12,N,nominal,1.0NRT,293.9,5.3,D
60.15014,-156.56046,328.4,0.52,0.41,2019-08-21,22:12,N,low,1.0NRT,300,6.2,D
60.14815,-156.56902,350.3,0.52,0.41,2019-08-21,22:12,N,nominal,1.0NRT,297.9,6.2,D
60.15364,-156.56366,336.8,0.52,0.41,2019-08-21,22:12,N,nominal,1.0NRT,294.7,6.9,D
60.18436,-156.46765,367,0.51,0.41,2019-08-21,22:12,N,high,1.0NRT,306,9.6,D
60.18239,-156.4762,330.6,0.51,0.41,2019-08-21,22:12,N,nominal,1.0NRT,294.2,9.6,D
60.1918,-156.45375,341.2,0.51,0.41,2019-08-21,22:12,N,nominal,1.0NRT,302.4,8.8,D
60.18982,-156.46228,337.6,0.51,0.41,2019-08-21,22:12,N,nominal,1.0NRT,301.7,8.8,D
60.18784,-156.47089,338.4,0.51,0.41,2019-08-21,22:12,N,nominal,1.0NRT,297.5,9.6,D
60.19529,-156.45691,347.8,0.51,0.41,2019-08-21,22:12,N,nominal,1.0NRT,305.1,10.2,D
60.19332,-156.46547,341.3,0.51,0.41,2019-08-21,22:12,N,nominal,1.0NRT,304.8,10.2,D
60.19134,-156.47406,329,0.51,0.41,2019-08-21,22:12,N,nominal,1.0NRT,303.2,3,D
60.19681,-156.46864,331.5,0.51,0.41,2019-08-21,22:12,N,nominal,1.0NRT,295.9,10.2,D
60.19482,-156.47726,331,0.51,0.41,2019-08-21,22:12,N,nominal,1.0NRT,299.6,3,D
60.1751,-156.56267,331.4,0.51,0.41,2019-08-21,22:12,N,nominal,1.0NRT,293.6,4.1,D
60.1841,-156.56046,335.8,0.51,0.41,2019-08-21,22:12,N,nominal,1.0NRT,300.4,11.6,D
60.18211,-156.56906,328.5,0.51,0.41,2019-08-21,22:12,N,nominal,1.0NRT,294.5,7.9,D
60.1931,-156.55815,334.5,0.51,0.41,2019-08-21,22:12,N,nominal,1.0NRT,301.7,6,D
60.1816,-156.56693,344,0.51,0.41,2019-08-21,22:12,N,nominal,1.0NRT,298.4,17.1,D
60.20861,-156.48795,329.6,0.51,0.41,2019-08-21,22:12,N,low,1.0NRT,303.9,5.6,D
60.19061,-156.56479,330.7,0.51,0.41,2019-08-21,22:12,N,nominal,1.0NRT,296.2,5.1,D
60.21763,-156.48561,330.3,0.51,0.41,2019-08-21,22:12,N,low,1.0NRT,302.7,8,D
60.19962,-156.56262,342.1,0.51,0.41,2019-08-21,22:12,N,nominal,1.0NRT,301.7,10.2,D
60.22114,-156.48872,334.5,0.51,0.41,2019-08-21,22:12,N,nominal,1.0NRT,301.3,4.1,D
60.22462,-156.49191,329.4,0.51,0.41,2019-08-21,22:12,N,nominal,1.0NRT,297.7,4.1,D
60.20861,-156.56046,329.5,0.51,0.41,2019-08-21,22:12,N,low,1.0NRT,300.9,8.3,D
60.21413,-156.55505,332,0.51,0.41,2019-08-21,22:12,N,nominal,1.0NRT,299.4,6.6,D
60.21214,-156.56355,345.1,0.51,0.41,2019-08-21,22:12,N,nominal,1.0NRT,299.5,7.1,D
60.21764,-156.5582,340.1,0.51,0.41,2019-08-21,22:12,N,nominal,1.0NRT,297.7,6.6,D
60.22314,-156.5528,367,0.51,0.41,2019-08-21,22:12,N,high,1.0NRT,302.4,8.4,D
60.22513,-156.54428,330,0.51,0.41,2019-08-21,22:12,N,nominal,1.0NRT,302.1,6.2,D
60.2306,-156.53899,335.2,0.51,0.41,2019-08-21,22:12,N,nominal,1.0NRT,305.8,6.2,D
60.22863,-156.54747,348.4,0.51,0.41,2019-08-21,22:12,N,nominal,1.0NRT,303.3,6.2,D
60.22665,-156.55598,335,0.51,0.41,2019-08-21,22:12,N,nominal,1.0NRT,295.7,8.4,D
60.23606,-156.53372,340.8,0.51,0.41,2019-08-21,22:12,N,nominal,1.0NRT,302,13.7,D
60.2341,-156.54219,354.4,0.51,0.41,2019-08-21,22:12,N,nominal,1.0NRT,305.4,16.9,D
60.23212,-156.55064,350.7,0.51,0.41,2019-08-21,22:12,N,nominal,1.0NRT,296.4,16.9,D
61.95486,-150.04202,347.3,0.39,0.36,2019-08-21,22:12,N,nominal,1.0NRT,292.1,4.3,D
60.52483,-150.21402,345.5,0.39,0.36,2019-08-21,22:12,N,nominal,1.0NRT,302.5,5.2,D
59.91774,-151.07358,329.2,0.4,0.37,2019-08-21,22:12,N,nominal,1.0NRT,291.9,6.1,D
59.91645,-151.08051,341,0.4,0.37,2019-08-21,22:12,N,nominal,1.0NRT,296.9,7.4,D
59.91969,-151.08278,332.4,0.4,0.37,2019-08-21,22:12,N,nominal,1.0NRT,290.9,6.7,D
59.91645,-151.11998,337.4,0.41,0.37,2019-08-21,22:12,N,nominal,1.0NRT,296.7,6.5,D
59.91516,-151.12695,330.9,0.41,0.37,2019-08-21,22:12,N,nominal,1.0NRT,298.8,3.6,D
59.91968,-151.12236,333.6,0.41,0.37,2019-08-21,22:12,N,nominal,1.0NRT,299.1,5.5,D
59.91839,-151.12932,326.3,0.41,0.37,2019-08-21,22:12,N,nominal,1.0NRT,293.2,2.8,D
60.45156,-150.15341,337.4,0.39,0.36,2019-08-21,22:12,N,nominal,1.0NRT,295.9,7.4,D
60.45037,-150.16026,330.3,0.39,0.36,2019-08-21,22:12,N,nominal,1.0NRT,293.3,3,D
60.45257,-150.15509,338.8,0.39,0.36,2019-08-21,22:12,N,nominal,1.0NRT,295.8,6.1,D
60.45137,-150.16193,331.6,0.39,0.36,2019-08-21,22:12,N,nominal,1.0NRT,295.2,6.1,D
60.46784,-150.08846,327.8,0.39,0.36,2019-08-21,22:12,N,nominal,1.0NRT,294.9,2.2,D
60.45456,-150.16425,343.5,0.39,0.36,2019-08-21,22:12,N,nominal,1.0NRT,295.3,6.1,D
60.46214,-150.16197,329.6,0.39,0.36,2019-08-21,22:12,N,nominal,1.0NRT,291.8,3.4,D
60.50415,-150.1064,348.4,0.39,0.36,2019-08-21,22:12,N,nominal,1.0NRT,291.5,16.1,D
60.50294,-150.11336,326.4,0.39,0.36,2019-08-21,22:12,N,nominal,1.0NRT,292.7,3.6,D
60.50737,-150.10847,354.9,0.39,0.36,2019-08-21,22:12,N,nominal,1.0NRT,299.7,16.1,D
60.50617,-150.11537,331.1,0.39,0.36,2019-08-21,22:12,N,nominal,1.0NRT,296.3,3.6,D
60.5328,-150.00337,339.2,0.39,0.36,2019-08-21,22:12,N,nominal,1.0NRT,292.5,3.6,D
60.53436,-150.03564,335.8,0.39,0.36,2019-08-21,22:12,N,nominal,1.0NRT,301.9,6.5,D
60.51778,-150.13101,334.2,0.39,0.36,2019-08-21,22:12,N,nominal,1.0NRT,289.2,4.3,D
60.50923,-150.1801,333.6,0.39,0.36,2019-08-21,22:12,N,nominal,1.0NRT,293,15.4,D
60.50804,-150.18686,358,0.39,0.36,2019-08-21,22:12,N,nominal,1.0NRT,304.6,15.4,D
60.5069,-150.19337,346.5,0.39,0.36,2019-08-21,22:12,N,nominal,1.0NRT,300.6,10.9,D
60.50574,-150.19995,329.8,0.39,0.36,2019-08-21,22:12,N,nominal,1.0NRT,289.3,10.9,D
60.53876,-150.03088,329,0.39,0.36,2019-08-21,22:12,N,nominal,1.0NRT,297.8,2.5,D
60.53755,-150.03786,330.3,0.39,0.36,2019-08-21,22:12,N,low,1.0NRT,300.6,2.5,D
60.52932,-150.08527,335.3,0.39,0.36,2019-08-21,22:12,N,nominal,1.0NRT,290.6,3.3,D
60.51124,-150.18907,348.5,0.39,0.36,2019-08-21,22:12,N,nominal,1.0NRT,299.6,11.5,D
57.12459,-158.51183,325.8,0.52,0.5,2019-08-21,23:54,N,nominal,1.0NRT,282.4,4.2,D
57.12921,-158.51257,331.8,0.52,0.5,2019-08-21,23:54,N,nominal,1.0NRT,280.7,4.2,D
59.91675,-151.07454,342.1,0.5,0.65,2019-08-21,23:54,N,nominal,1.0NRT,290.5,7.3,D
59.91684,-151.08385,341.4,0.5,0.65,2019-08-21,23:54,N,nominal,1.0NRT,291.9,7.3,D
59.91695,-151.09297,350.8,0.49,0.65,2019-08-21,23:54,N,nominal,1.0NRT,295.1,15.7,D
59.91723,-151.11896,329.2,0.49,0.65,2019-08-21,23:54,N,nominal,1.0NRT,295.2,14.1,D
59.923,-151.08508,347.3,0.5,0.65,2019-08-21,23:54,N,nominal,1.0NRT,289.9,7.3,D
59.92346,-151.12781,350,0.49,0.65,2019-08-21,23:54,N,nominal,1.0NRT,290.7,10,D
60.0886,-156.57579,329.7,0.32,0.55,2019-08-21,23:54,N,nominal,1.0NRT,289.4,2.3,D
60.08841,-156.58171,336.1,0.32,0.55,2019-08-21,23:54,N,nominal,1.0NRT,290.8,2.3,D
60.09387,-156.57042,333,0.32,0.55,2019-08-21,23:54,N,nominal,1.0NRT,293.3,32.9,D
60.09369,-156.57632,367,0.32,0.55,2019-08-21,23:54,N,low,1.0NRT,314,40.4,D
60.09351,-156.58223,291.2,0.32,0.55,2019-08-21,23:54,N,low,1.0NRT,303.2,40.4,D
60.09859,-156.58286,343.9,0.32,0.55,2019-08-21,23:54,N,nominal,1.0NRT,289.2,40.4,D
60.09914,-156.56505,367,0.32,0.55,2019-08-21,23:54,N,low,1.0NRT,303,32.9,D
60.09896,-156.57098,367,0.32,0.55,2019-08-21,23:54,N,low,1.0NRT,293.5,32.9,D
60.09877,-156.57692,367,0.32,0.55,2019-08-21,23:54,N,low,1.0NRT,302.4,40.4,D
60.1057,-156.5179,349.6,0.32,0.55,2019-08-21,23:54,N,nominal,1.0NRT,296.7,4.4,D
60.10551,-156.52388,346.7,0.32,0.55,2019-08-21,23:54,N,nominal,1.0NRT,300.1,4.4,D
60.10349,-156.58942,332.2,0.32,0.55,2019-08-21,23:54,N,nominal,1.0NRT,290,4.8,D
60.10859,-156.58997,367,0.32,0.55,2019-08-21,23:54,N,low,1.0NRT,293.2,4.8,D
60.11368,-156.59053,354.3,0.32,0.55,2019-08-21,23:54,N,nominal,1.0NRT,290.3,4.3,D
60.11404,-156.57866,367,0.32,0.55,2019-08-21,23:54,N,low,1.0NRT,291,7,D
60.11386,-156.58459,367,0.32,0.55,2019-08-21,23:54,N,low,1.0NRT,290.5,7,D
60.11932,-156.57326,340.8,0.32,0.55,2019-08-21,23:54,N,nominal,1.0NRT,288.3,6.1,D
60.10766,-156.52171,367,0.32,0.55,2019-08-21,23:54,N,high,1.0NRT,298,7.7,D
60.10589,-156.58727,334.3,0.32,0.55,2019-08-21,23:54,N,nominal,1.0NRT,290,4.1,D
60.10572,-156.59319,367,0.32,0.55,2019-08-21,23:54,N,low,1.0NRT,292,4.1,D
60.11098,-156.58783,339.5,0.32,0.55,2019-08-21,23:54,N,nominal,1.0NRT,290.9,4.1,D
60.11081,-156.59375,331.1,0.32,0.55,2019-08-21,23:54,N,nominal,1.0NRT,288.4,4.1,D
60.11639,-156.57652,330.6,0.32,0.55,2019-08-21,23:54,N,nominal,1.0NRT,287.6,4.6,D
60.11607,-156.58846,343.4,0.32,0.55,2019-08-21,23:54,N,nominal,1.0NRT,287.9,5.2,D
60.11623,-156.58249,367,0.32,0.55,2019-08-21,23:54,N,low,1.0NRT,290.5,4.6,D
60.12313,-156.51753,327.5,0.32,0.55,2019-08-21,23:54,N,nominal,1.0NRT,296,2,D
60.12165,-156.57115,330.2,0.32,0.55,2019-08-21,23:54,N,nominal,1.0NRT,287.9,4.3,D
60.12149,-156.57709,345.7,0.32,0.55,2019-08-21,23:54,N,nominal,1.0NRT,289.5,4.6,D
60.12691,-156.56575,367,0.32,0.55,2019-08-21,23:54,N,high,1.0NRT,290.3,7.6,D
60.12659,-156.57767,327.7,0.32,0.55,2019-08-21,23:54,N,nominal,1.0NRT,287.2,1.7,D
60.12675,-156.57172,367,0.32,0.55,2019-08-21,23:54,N,low,1.0NRT,289.9,7.6,D
60.13861,-156.51321,352.4,0.32,0.55,2019-08-21,23:54,N,nominal,1.0NRT,294.4,8.9,D
60.13844,-156.51917,355,0.32,0.55,2019-08-21,23:54,N,nominal,1.0NRT,294.7,6.2,D
60.1422,-156.5677,329.2,0.32,0.55,2019-08-21,23:54,N,nominal,1.0NRT,291.6,3.2,D
60.14203,-156.57362,337.6,0.32,0.55,2019-08-21,23:54,N,nominal,1.0NRT,290.5,3.2,D
60.14729,-156.56837,367,0.32,0.55,2019-08-21,23:54,N,high,1.0NRT,300.4,6.7,D
60.14931,-156.49643,341.4,0.32,0.55,2019-08-21,23:54,N,nominal,1.0NRT,295.8,3.5,D
60.14745,-156.56239,326.3,0.32,0.55,2019-08-21,23:54,N,nominal,1.0NRT,293,8.3,D
60.14712,-156.57426,333.4,0.32,0.55,2019-08-21,23:54,N,nominal,1.0NRT,291.2,6.7,D
60.15255,-156.56308,354.2,0.32,0.55,2019-08-21,23:54,N,nominal,1.0NRT,293.9,8.3,D
60.15238,-156.56906,367,0.32,0.55,2019-08-21,23:54,N,low,1.0NRT,294.5,6.7,D
60.17328,-156.55356,327.2,0.32,0.55,2019-08-21,23:54,N,nominal,1.0NRT,296.4,4.3,D
60.17311,-156.55957,353.4,0.32,0.55,2019-08-21,23:54,N,nominal,1.0NRT,298.1,5.4,D
60.17293,-156.5656,367,0.32,0.55,2019-08-21,23:54,N,low,1.0NRT,295.2,5.4,D
60.1782,-156.56042,341.8,0.32,0.55,2019-08-21,23:54,N,nominal,1.0NRT,291.9,7.1,D
60.18328,-156.56119,348.6,0.32,0.55,2019-08-21,23:54,N,nominal,1.0NRT,296.5,7.1,D
60.18311,-156.56711,367,0.32,0.55,2019-08-21,23:54,N,low,1.0NRT,299.4,7.1,D
60.19157,-156.4532,342.4,0.32,0.55,2019-08-21,23:54,N,nominal,1.0NRT,296.4,6,D
60.1914,-156.45918,354.2,0.32,0.55,2019-08-21,23:54,N,nominal,1.0NRT,301.3,6,D
60.19123,-156.46519,336.4,0.32,0.55,2019-08-21,23:54,N,nominal,1.0NRT,296.7,3.2,D
60.19106,-156.47118,325.2,0.32,0.55,2019-08-21,23:54,N,nominal,1.0NRT,295.5,3.2,D
60.19669,-156.45392,337.9,0.32,0.55,2019-08-21,23:54,N,nominal,1.0NRT,286.8,6,D
60.19633,-156.466,340.9,0.32,0.55,2019-08-21,23:54,N,nominal,1.0NRT,293.1,3.2,D
60.19616,-156.47195,326.3,0.32,0.55,2019-08-21,23:54,N,nominal,1.0NRT,292.5,3.2,D
60.19347,-156.56264,352.8,0.32,0.55,2019-08-21,23:54,N,nominal,1.0NRT,294.4,4.3,D
60.19651,-156.45996,367,0.32,0.55,2019-08-21,23:54,N,low,1.0NRT,293.6,6,D
60.19856,-156.56332,329.9,0.32,0.55,2019-08-21,23:54,N,nominal,1.0NRT,292.3,3.4,D
60.20893,-156.55875,334.6,0.32,0.55,2019-08-21,23:54,N,nominal,1.0NRT,294.2,3,D
60.20874,-156.56483,347.3,0.32,0.55,2019-08-21,23:54,N,nominal,1.0NRT,292.9,4.4,D
60.2142,-156.5536,331.4,0.32,0.55,2019-08-21,23:54,N,nominal,1.0NRT,294.6,3,D
60.21402,-156.55968,333.5,0.32,0.55,2019-08-21,23:54,N,nominal,1.0NRT,292.8,3,D
60.22149,-156.48268,332.3,0.32,0.55,2019-08-21,23:54,N,nominal,1.0NRT,292.4,2.5,D
60.22131,-156.48863,337.9,0.32,0.55,2019-08-21,23:54,N,nominal,1.0NRT,296.3,2.5,D
60.21928,-156.55449,344.5,0.32,0.55,2019-08-21,23:54,N,nominal,1.0NRT,296.1,4.7,D
60.22623,-156.49529,332.4,0.32,0.55,2019-08-21,23:54,N,nominal,1.0NRT,293,2.5,D
60.22457,-156.54924,367,0.32,0.55,2019-08-21,23:54,N,low,1.0NRT,297.8,13.1,D
60.22438,-156.5553,367,0.32,0.55,2019-08-21,23:54,N,low,1.0NRT,293.8,4.7,D
60.21141,-156.55824,327.1,0.32,0.55,2019-08-21,23:54,N,nominal,1.0NRT,294.3,4.2,D
60.21125,-156.56439,354.7,0.32,0.55,2019-08-21,23:54,N,nominal,1.0NRT,294.3,4.2,D
60.21667,-156.5531,339.3,0.32,0.55,2019-08-21,23:54,N,nominal,1.0NRT,295.8,5.7,D
60.22353,-156.48799,328.1,0.32,0.55,2019-08-21,23:54,N,nominal,1.0NRT,292.9,2.2,D
60.22337,-156.49402,341,0.32,0.55,2019-08-21,23:54,N,nominal,1.0NRT,297,2.2,D
60.22192,-156.54796,329.2,0.32,0.55,2019-08-21,23:54,N,nominal,1.0NRT,295.4,4.3,D
60.22176,-156.55396,367,0.32,0.55,2019-08-21,23:54,N,low,1.0NRT,297.7,4.3,D
60.22702,-156.54868,341.1,0.32,0.55,2019-08-21,23:54,N,nominal,1.0NRT,295.3,4.3,D
60.22685,-156.55476,353.6,0.32,0.55,2019-08-21,23:54,N,nominal,1.0NRT,291.8,4.3,D
60.23245,-156.53716,331.9,0.32,0.55,2019-08-21,23:54,N,nominal,1.0NRT,299.6,4.7,D
60.23228,-156.5433,351.5,0.32,0.55,2019-08-21,23:54,N,nominal,1.0NRT,295.6,4.7,D
60.23195,-156.5556,331,0.32,0.55,2019-08-21,23:54,N,nominal,1.0NRT,289.6,5.8,D
60.23212,-156.54945,367,0.32,0.55,2019-08-21,23:54,N,low,1.0NRT,294.5,5.8,D
60.23755,-156.5378,340.9,0.32,0.55,2019-08-21,23:54,N,nominal,1.0NRT,292.7,4.7,D
60.46849,-150.08559,327.4,0.54,0.68,2019-08-21,23:54,N,nominal,1.0NRT,286.8,3.5,D
60.45273,-150.16443,330,0.53,0.67,2019-08-21,23:54,N,nominal,1.0NRT,288.7,2.9,D
60.50115,-150.38206,367,0.52,0.67,2019-08-21,23:54,N,high,1.0NRT,298.3,10.1,D
60.50079,-150.36223,337.8,0.52,0.67,2019-08-21,23:54,N,nominal,1.0NRT,293.1,10.8,D
60.50097,-150.37212,330.9,0.52,0.67,2019-08-21,23:54,N,nominal,1.0NRT,293.9,10.8,D
60.50133,-150.39204,350.1,0.52,0.67,2019-08-21,23:54,N,nominal,1.0NRT,295.8,10.1,D
60.50151,-150.40199,325.2,0.52,0.67,2019-08-21,23:54,N,low,1.0NRT,295.4,12.2,D
60.50724,-150.37132,367,0.52,0.67,2019-08-21,23:54,N,high,1.0NRT,297.7,10.8,D
60.50706,-150.36148,337.1,0.52,0.67,2019-08-21,23:54,N,nominal,1.0NRT,287.1,10.8,D
60.50742,-150.38133,339.6,0.52,0.67,2019-08-21,23:54,N,nominal,1.0NRT,297,10.1,D
60.5076,-150.39122,327.4,0.52,0.67,2019-08-21,23:54,N,nominal,1.0NRT,295.5,10.1,D
60.51559,-150.14409,328.3,0.53,0.67,2019-08-21,23:54,N,nominal,1.0NRT,292.3,6.7,D
60.52658,-150.39923,327.9,0.52,0.67,2019-08-21,23:54,N,nominal,1.0NRT,290.8,2.6,D
60.52674,-150.40903,325.8,0.52,0.67,2019-08-21,23:54,N,nominal,1.0NRT,291.8,2.6,D
60.53521,-150.17867,350.3,0.53,0.67,2019-08-21,23:54,N,nominal,1.0NRT,295.9,8.9,D
60.53535,-150.18625,350.6,0.53,0.67,2019-08-21,23:54,N,nominal,1.0NRT,292.6,8.9,D
60.53868,-150.02817,325.3,0.54,0.68,2019-08-21,23:54,N,nominal,1.0NRT,291.5,9.7,D
60.53651,-150.17981,350.4,0.53,0.67,2019-08-21,23:54,N,nominal,1.0NRT,294.2,14.4,D
60.53666,-150.187,349.3,0.53,0.67,2019-08-21,23:54,N,nominal,1.0NRT,292.1,9.9,D
60.57452,-149.89119,330.5,0.54,0.68,2019-08-21,23:54,N,nominal,1.0NRT,286.5,6.9,D
60.58823,-149.93398,355.4,0.54,0.68,2019-08-21,23:54,N,nominal,1.0NRT,291.6,14.3,D
60.59835,-150.11203,333.5,0.54,0.67,2019-08-21,23:54,N,nominal,1.0NRT,297.8,13,D
60.59853,-150.12027,346.4,0.53,0.67,2019-08-21,23:54,N,nominal,1.0NRT,293.8,8.3,D
60.61652,-150.06937,334.3,0.54,0.68,2019-08-21,23:54,N,nominal,1.0NRT,289.1,1.9,D
61.84983,-146.37651,326.5,0.7,0.75,2019-08-21,23:54,N,nominal,1.0NRT,289.7,3.8,D
61.8868,-146.40981,332.7,0.7,0.75,2019-08-21,23:54,N,nominal,1.0NRT,285.9,6.1,D
61.88313,-146.41072,330,0.7,0.75,2019-08-21,23:54,N,nominal,1.0NRT,284.9,5.2,D
