latitude,longitude,bright_ti4,scan,track,acq_date,acq_time,satellite,confidence,version,bright_ti5,frp,daynight
70.31815,-148.50111,306.9,0.44,0.46,2019-10-15,11:42,N,nominal,1.0NRT,270,2.1,N
70.29122,-148.43787,306,0.44,0.46,2019-10-15,11:42,N,nominal,1.0NRT,266.1,1,N
70.28895,-148.43947,313.8,0.42,0.38,2019-10-15,13:24,N,nominal,1.0NRT,266.3,1.2,N
70.31747,-148.49799,300.1,0.62,0.54,2019-10-15,15:06,N,nominal,1.0NRT,269.9,3.6,N
70.31018,-148.73302,315.7,0.62,0.54,2019-10-15,15:06,N,nominal,1.0NRT,266.1,2.2,N
