latitude,longitude,bright_ti4,scan,track,acq_date,acq_time,satellite,confidence,version,bright_ti5,frp,daynight
57.10764,-158.50095,367,0.67,0.74,2019-08-25,00:36,N,high,1.0NRT,294.8,32.3,D
57.10722,-158.48904,353.7,0.67,0.74,2019-08-25,00:36,N,nominal,1.0NRT,290,24.9,D
57.11454,-158.49957,367,0.67,0.74,2019-08-25,00:36,N,high,1.0NRT,297.4,24.8,D
57.11412,-158.48792,342.2,0.67,0.74,2019-08-25,00:36,N,nominal,1.0NRT,288.6,32.1,D
57.12144,-158.49852,367,0.67,0.74,2019-08-25,00:36,N,high,1.0NRT,297.7,24.8,D
57.13565,-158.50792,329.8,0.67,0.74,2019-08-25,00:36,N,nominal,1.0NRT,288.7,14.8,D
57.13417,-158.5047,327.4,0.67,0.74,2019-08-25,00:36,N,nominal,1.0NRT,288.8,8.8,D
59.08767,-156.91798,367,0.75,0.77,2019-08-25,00:36,N,high,1.0NRT,291.3,12.3,D
59.08838,-156.93192,340.7,0.75,0.77,2019-08-25,00:36,N,nominal,1.0NRT,289.7,12.3,D
59.16751,-156.91518,343.2,0.75,0.77,2019-08-25,00:36,N,nominal,1.0NRT,288.1,6.5,D
59.16127,-156.92535,340.2,0.75,0.77,2019-08-25,00:36,N,nominal,1.0NRT,290.2,14.5,D
59.16845,-156.92361,337.9,0.75,0.77,2019-08-25,00:36,N,nominal,1.0NRT,285.4,8.7,D
59.29602,-157.14767,328.3,0.74,0.76,2019-08-25,00:36,N,nominal,1.0NRT,290.5,10.8,D
59.29535,-157.13429,367,0.74,0.76,2019-08-25,00:36,N,low,1.0NRT,292.8,29.5,D
59.30317,-157.14636,347.8,0.74,0.76,2019-08-25,00:36,N,nominal,1.0NRT,293.3,10.8,D
60.67541,-150.00238,326.7,0.43,0.62,2019-08-25,11:06,N,nominal,1.0NRT,279.1,1.9,N
60.6754,-149.9957,298.9,0.43,0.62,2019-08-25,11:06,N,nominal,1.0NRT,278,1.9,N
60.59437,-149.93929,305.7,0.42,0.61,2019-08-25,11:06,N,nominal,1.0NRT,274.9,1.6,N
60.58858,-149.92575,310.1,0.42,0.61,2019-08-25,11:06,N,nominal,1.0NRT,276.3,1.6,N
60.56559,-149.94905,304.3,0.42,0.61,2019-08-25,11:06,N,nominal,1.0NRT,281.3,1.4,N
60.55975,-149.89943,300.6,0.42,0.61,2019-08-25,11:06,N,nominal,1.0NRT,278.4,2.1,N
60.554,-149.90053,319.9,0.42,0.61,2019-08-25,11:06,N,nominal,1.0NRT,282.3,2.1,N
60.54253,-150.17448,321.8,0.43,0.62,2019-08-25,11:06,N,nominal,1.0NRT,284.4,2.8,N
60.53679,-150.09468,299.8,0.43,0.62,2019-08-25,11:06,N,nominal,1.0NRT,278.8,1.9,N
60.53679,-150.08813,299.5,0.43,0.62,2019-08-25,11:06,N,nominal,1.0NRT,278.7,1.9,N
60.53101,-150.09216,322.2,0.43,0.62,2019-08-25,11:06,N,nominal,1.0NRT,281,1.9,N
60.53101,-150.08383,322,0.43,0.62,2019-08-25,11:06,N,nominal,1.0NRT,280.7,1.9,N
60.55429,-149.90349,306.3,0.42,0.61,2019-08-25,11:06,N,nominal,1.0NRT,282.7,4.3,N
60.55424,-149.89609,316.4,0.42,0.61,2019-08-25,11:06,N,nominal,1.0NRT,278.6,2.3,N
60.54379,-150.17857,309.3,0.43,0.62,2019-08-25,11:06,N,nominal,1.0NRT,280.9,1.5,N
60.54377,-150.16971,309.8,0.43,0.62,2019-08-25,11:06,N,nominal,1.0NRT,281.2,1.5,N
60.53195,-150.08742,347,0.43,0.62,2019-08-25,11:06,N,nominal,1.0NRT,284.5,3.9,N
60.53198,-150.09706,301.6,0.43,0.62,2019-08-25,11:06,N,nominal,1.0NRT,279.9,3.9,N
60.52668,-150.41974,301.6,0.44,0.62,2019-08-25,11:06,N,nominal,1.0NRT,280.4,1.4,N
60.5265,-150.24173,314.6,0.43,0.62,2019-08-25,11:06,N,nominal,1.0NRT,281.3,1.8,N
60.52649,-150.23276,315.9,0.43,0.62,2019-08-25,11:06,N,nominal,1.0NRT,284.1,1.8,N
60.52081,-150.36955,323.7,0.44,0.62,2019-08-25,11:06,N,nominal,1.0NRT,283.9,3.1,N
60.52051,-150.14189,338.9,0.43,0.62,2019-08-25,11:06,N,nominal,1.0NRT,283,5.1,N
60.52081,-150.3779,301.5,0.44,0.62,2019-08-25,11:06,N,nominal,1.0NRT,283.3,3.1,N
60.52081,-150.36124,298.8,0.44,0.62,2019-08-25,11:06,N,nominal,1.0NRT,280.6,2,N
60.52068,-150.23769,302.8,0.43,0.62,2019-08-25,11:06,N,nominal,1.0NRT,281.3,1.8,N
60.52067,-150.22774,303,0.43,0.62,2019-08-25,11:06,N,nominal,1.0NRT,283.6,1.8,N
60.52065,-150.21907,302.3,0.43,0.62,2019-08-25,11:06,N,nominal,1.0NRT,283.3,2.7,N
60.51463,-150.10449,323.9,0.43,0.62,2019-08-25,11:06,N,nominal,1.0NRT,280.3,2.2,N
60.51497,-150.36957,302.7,0.44,0.62,2019-08-25,11:06,N,nominal,1.0NRT,283.7,4,N
60.51487,-150.23526,296.1,0.43,0.62,2019-08-25,11:06,N,nominal,1.0NRT,281.7,2.3,N
60.51484,-150.21465,308.9,0.43,0.62,2019-08-25,11:06,N,nominal,1.0NRT,282.5,3,N
60.51465,-150.11139,298.4,0.43,0.62,2019-08-25,11:06,N,nominal,1.0NRT,278.8,2.2,N
60.50912,-150.34497,332.2,0.44,0.62,2019-08-25,11:06,N,nominal,1.0NRT,286.8,2.8,N
60.50912,-150.33682,298.6,0.44,0.62,2019-08-25,11:06,N,nominal,1.0NRT,279.6,2.8,N
60.50328,-150.34486,324.9,0.44,0.62,2019-08-25,11:06,N,nominal,1.0NRT,288,2.6,N
60.50328,-150.33705,325,0.44,0.62,2019-08-25,11:06,N,nominal,1.0NRT,280.6,2.6,N
60.50323,-150.22665,326.8,0.43,0.62,2019-08-25,11:06,N,nominal,1.0NRT,281.8,8.2,N
60.50322,-150.21613,341,0.43,0.62,2019-08-25,11:06,N,nominal,1.0NRT,289.3,3,N
60.50328,-150.3528,304.9,0.44,0.62,2019-08-25,11:06,N,nominal,1.0NRT,284.1,3,N
60.50321,-150.20822,302.8,0.43,0.62,2019-08-25,11:06,N,nominal,1.0NRT,280.6,3,N
60.50319,-150.19016,300.1,0.43,0.62,2019-08-25,11:06,N,nominal,1.0NRT,278.1,1.2,N
60.50317,-150.18427,295.6,0.43,0.62,2019-08-25,11:06,N,nominal,1.0NRT,279.2,1.2,N
60.49744,-150.35286,301.8,0.44,0.62,2019-08-25,11:06,N,nominal,1.0NRT,284,3,N
60.49745,-150.34482,310.2,0.44,0.62,2019-08-25,11:06,N,nominal,1.0NRT,286,2.6,N
60.49745,-150.33673,307.4,0.44,0.62,2019-08-25,11:06,N,nominal,1.0NRT,280.6,2.6,N
60.49741,-150.22043,304.9,0.43,0.62,2019-08-25,11:06,N,nominal,1.0NRT,278.8,3,N
60.49725,-150.10072,314.2,0.43,0.62,2019-08-25,11:06,N,nominal,1.0NRT,284.2,2.9,N
60.4916,-150.36937,305.2,0.44,0.62,2019-08-25,11:06,N,nominal,1.0NRT,285.9,2.2,N
60.49161,-150.36108,304.7,0.44,0.62,2019-08-25,11:06,N,nominal,1.0NRT,285.5,3,N
60.49162,-150.34506,307,0.44,0.62,2019-08-25,11:06,N,nominal,1.0NRT,285.2,1.6,N
60.49146,-150.09724,303.5,0.43,0.62,2019-08-25,11:06,N,nominal,1.0NRT,282.3,1.8,N
60.49145,-150.08936,315.7,0.43,0.62,2019-08-25,11:06,N,nominal,1.0NRT,283.9,1.8,N
60.48574,-150.39442,298.9,0.44,0.62,2019-08-25,11:06,N,nominal,1.0NRT,281.1,1.9,N
60.48575,-150.38603,300.8,0.44,0.62,2019-08-25,11:06,N,nominal,1.0NRT,279.1,1.9,N
60.48576,-150.37773,306.4,0.44,0.62,2019-08-25,11:06,N,nominal,1.0NRT,284.2,2.2,N
60.48576,-150.36948,303.5,0.44,0.62,2019-08-25,11:06,N,nominal,1.0NRT,285,2.2,N
60.48577,-150.36124,304.6,0.44,0.62,2019-08-25,11:06,N,nominal,1.0NRT,285.2,3,N
60.48578,-150.34512,297.7,0.44,0.62,2019-08-25,11:06,N,nominal,1.0NRT,281,1.6,N
60.48579,-150.33739,297.1,0.44,0.62,2019-08-25,11:06,N,nominal,1.0NRT,279.8,1.6,N
60.48579,-150.32921,301.5,0.44,0.62,2019-08-25,11:06,N,nominal,1.0NRT,281.9,1.6,N
60.48579,-150.32071,306.5,0.44,0.62,2019-08-25,11:06,N,nominal,1.0NRT,283.5,1.6,N
60.47989,-150.40312,299.2,0.44,0.62,2019-08-25,11:06,N,nominal,1.0NRT,277,1.5,N
60.4799,-150.39465,298.8,0.44,0.62,2019-08-25,11:06,N,nominal,1.0NRT,276.9,1.4,N
60.4799,-150.38617,301.4,0.44,0.62,2019-08-25,11:06,N,nominal,1.0NRT,278.6,1.4,N
60.47994,-150.35329,297.1,0.44,0.62,2019-08-25,11:06,N,nominal,1.0NRT,281.3,2.2,N
60.47403,-150.41214,300.8,0.44,0.62,2019-08-25,11:06,N,nominal,1.0NRT,282.1,1.5,N
60.47404,-150.40364,310.6,0.44,0.62,2019-08-25,11:06,N,nominal,1.0NRT,280.5,1.5,N
60.47405,-150.39497,306.5,0.44,0.62,2019-08-25,11:06,N,nominal,1.0NRT,278.7,1.4,N
60.47406,-150.38646,302.2,0.44,0.62,2019-08-25,11:06,N,nominal,1.0NRT,276.4,1.4,N
60.47409,-150.36154,307,0.44,0.62,2019-08-25,11:06,N,nominal,1.0NRT,285.9,2.2,N
60.47412,-150.3288,301.6,0.44,0.62,2019-08-25,11:06,N,nominal,1.0NRT,283.3,2.7,N
60.46819,-150.40433,320.3,0.44,0.62,2019-08-25,11:06,N,nominal,1.0NRT,284.8,2.8,N
60.46823,-150.37856,336.6,0.44,0.62,2019-08-25,11:06,N,nominal,1.0NRT,291.3,6.7,N
60.46824,-150.37013,335.3,0.44,0.62,2019-08-25,11:06,N,nominal,1.0NRT,291,6.7,N
60.46825,-150.3616,327.4,0.44,0.62,2019-08-25,11:06,N,nominal,1.0NRT,290.1,4.6,N
60.46829,-150.32025,339.7,0.44,0.62,2019-08-25,11:06,N,nominal,1.0NRT,291.6,3,N
60.46816,-150.42137,306.6,0.44,0.62,2019-08-25,11:06,N,nominal,1.0NRT,283.5,2.5,N
60.46818,-150.41306,313.8,0.44,0.62,2019-08-25,11:06,N,nominal,1.0NRT,285.3,2.8,N
60.4682,-150.39584,312.6,0.44,0.62,2019-08-25,11:06,N,nominal,1.0NRT,280.3,3.9,N
60.46822,-150.38698,315.4,0.44,0.62,2019-08-25,11:06,N,nominal,1.0NRT,282.2,3.9,N
60.46828,-150.33659,297.7,0.44,0.62,2019-08-25,11:06,N,nominal,1.0NRT,281.1,1.9,N
60.46828,-150.32841,310,0.44,0.62,2019-08-25,11:06,N,nominal,1.0NRT,285.8,3,N
60.4683,-150.07913,309.2,0.43,0.62,2019-08-25,11:06,N,nominal,1.0NRT,282.7,2.1,N
60.46237,-150.38841,322.7,0.44,0.62,2019-08-25,11:06,N,nominal,1.0NRT,284,3.9,N
60.46238,-150.37975,339.1,0.44,0.62,2019-08-25,11:06,N,nominal,1.0NRT,290.7,6.7,N
60.4624,-150.3707,334.3,0.44,0.62,2019-08-25,11:06,N,nominal,1.0NRT,291.7,6.7,N
60.46228,-150.43855,299.4,0.44,0.62,2019-08-25,11:06,N,nominal,1.0NRT,277.2,2,N
60.4623,-150.43024,299.3,0.44,0.62,2019-08-25,11:06,N,nominal,1.0NRT,279,2.5,N
60.46233,-150.41357,308.7,0.44,0.62,2019-08-25,11:06,N,nominal,1.0NRT,282.8,2.8,N
60.46235,-150.40526,307.4,0.44,0.62,2019-08-25,11:06,N,nominal,1.0NRT,274.8,2.8,N
60.46236,-150.39684,303,0.44,0.62,2019-08-25,11:06,N,nominal,1.0NRT,272.3,3.9,N
60.46241,-150.36211,309.3,0.44,0.62,2019-08-25,11:06,N,nominal,1.0NRT,281.3,4.6,N
60.46244,-150.34491,308.8,0.44,0.62,2019-08-25,11:06,N,nominal,1.0NRT,283.6,1.9,N
60.46245,-150.33661,301.5,0.44,0.62,2019-08-25,11:06,N,nominal,1.0NRT,282.2,1.9,N
60.46245,-150.32845,311.8,0.44,0.62,2019-08-25,11:06,N,nominal,1.0NRT,285.9,3,N
60.46246,-150.32024,304.2,0.44,0.62,2019-08-25,11:06,N,nominal,1.0NRT,282.9,3,N
60.46254,-150.16562,301.1,0.43,0.62,2019-08-25,11:06,N,nominal,1.0NRT,280.7,1.7,N
60.45654,-150.38029,329.3,0.44,0.62,2019-08-25,11:06,N,nominal,1.0NRT,287.4,3.4,N
60.45655,-150.37202,336,0.44,0.62,2019-08-25,11:06,N,nominal,1.0NRT,292.1,3.4,N
60.4566,-150.34529,321.9,0.44,0.62,2019-08-25,11:06,N,nominal,1.0NRT,285.8,5.3,N
60.45663,-150.32848,334.3,0.44,0.62,2019-08-25,11:06,N,nominal,1.0NRT,292.7,4.7,N
60.4565,-150.40538,304.7,0.44,0.62,2019-08-25,11:06,N,nominal,1.0NRT,274,2.7,N
60.45651,-150.39706,305,0.44,0.62,2019-08-25,11:06,N,nominal,1.0NRT,276.2,3.7,N
60.45652,-150.38866,311.8,0.44,0.62,2019-08-25,11:06,N,nominal,1.0NRT,282.8,3.7,N
60.45657,-150.36322,299.7,0.44,0.62,2019-08-25,11:06,N,nominal,1.0NRT,275.2,3,N
60.45658,-150.35432,318.3,0.44,0.62,2019-08-25,11:06,N,nominal,1.0NRT,285.1,3,N
60.45661,-150.33675,308.7,0.44,0.62,2019-08-25,11:06,N,nominal,1.0NRT,284,5.3,N
60.45663,-150.32028,307.5,0.44,0.62,2019-08-25,11:06,N,nominal,1.0NRT,284.5,4.7,N
60.45079,-150.32909,351.8,0.44,0.62,2019-08-25,11:06,N,nominal,1.0NRT,292.8,4.7,N
60.4508,-150.32051,323.9,0.44,0.62,2019-08-25,11:06,N,nominal,1.0NRT,284.4,4.7,N
60.45065,-150.40546,302.9,0.44,0.62,2019-08-25,11:06,N,nominal,1.0NRT,274.8,2.7,N
60.4507,-150.38055,299.6,0.44,0.62,2019-08-25,11:06,N,nominal,1.0NRT,277.3,3.4,N
60.45071,-150.37228,301.9,0.44,0.62,2019-08-25,11:06,N,nominal,1.0NRT,278.6,3.4,N
60.45074,-150.35521,295.6,0.44,0.62,2019-08-25,11:06,N,nominal,1.0NRT,273.6,3,N
60.45078,-150.33746,319.4,0.44,0.62,2019-08-25,11:06,N,nominal,1.0NRT,284.1,5.3,N
60.45802,-150.38577,321.9,0.44,0.62,2019-08-25,11:06,N,nominal,1.0NRT,284.8,5.8,N
60.45801,-150.37708,341.1,0.44,0.62,2019-08-25,11:06,N,nominal,1.0NRT,293.4,5.8,N
60.45798,-150.36865,333,0.44,0.62,2019-08-25,11:06,N,nominal,1.0NRT,292.3,6.3,N
60.45795,-150.35092,329.3,0.44,0.62,2019-08-25,11:06,N,nominal,1.0NRT,291.1,3.1,N
60.45789,-150.32579,326.1,0.44,0.62,2019-08-25,11:06,N,nominal,1.0NRT,289.3,6.1,N
60.45806,-150.41086,304.6,0.44,0.62,2019-08-25,11:06,N,nominal,1.0NRT,279,2.9,N
60.45805,-150.40256,303.2,0.44,0.62,2019-08-25,11:06,N,nominal,1.0NRT,272.5,2.7,N
60.45803,-150.39421,307.1,0.44,0.62,2019-08-25,11:06,N,nominal,1.0NRT,277,2.7,N
60.45793,-150.34229,308.4,0.44,0.62,2019-08-25,11:06,N,nominal,1.0NRT,281.7,3.1,N
60.45791,-150.33394,307.3,0.44,0.62,2019-08-25,11:06,N,nominal,1.0NRT,283.4,6.1,N
60.45208,-150.3345,340.2,0.44,0.62,2019-08-25,11:06,N,nominal,1.0NRT,290.7,6.1,N
60.45206,-150.32623,367,0.44,0.62,2019-08-25,11:06,N,high,1.0NRT,296.3,6.1,N
60.45221,-150.4109,298.6,0.44,0.62,2019-08-25,11:06,N,nominal,1.0NRT,274.9,2.9,N
60.4522,-150.4026,305,0.44,0.62,2019-08-25,11:06,N,nominal,1.0NRT,276.2,2.7,N
60.45216,-150.37772,306.6,0.44,0.62,2019-08-25,11:06,N,nominal,1.0NRT,277.2,5.8,N
60.45215,-150.36943,306.7,0.44,0.62,2019-08-25,11:06,N,nominal,1.0NRT,280.4,6.3,N
60.45212,-150.35214,311.2,0.44,0.62,2019-08-25,11:06,N,nominal,1.0NRT,278.8,3.1,N
60.4521,-150.34286,296.3,0.44,0.62,2019-08-25,11:06,N,nominal,1.0NRT,279.3,3.1,N
60.45205,-150.31746,306.5,0.44,0.62,2019-08-25,11:06,N,nominal,1.0NRT,283.4,6.2,N
60.2422,-156.54053,313,0.71,0.75,2019-08-25,11:06,N,nominal,1.0NRT,278,2.6,N
60.23456,-156.55186,301.4,0.71,0.75,2019-08-25,11:06,N,nominal,1.0NRT,278.4,2.6,N
60.23515,-156.53926,300.4,0.71,0.75,2019-08-25,11:06,N,nominal,1.0NRT,278.8,2.6,N
60.22685,-156.56435,308.9,0.71,0.75,2019-08-25,11:06,N,nominal,1.0NRT,277.7,3.4,N
60.2306,-156.48526,301.4,0.7,0.75,2019-08-25,11:06,N,nominal,1.0NRT,274.3,2.8,N
60.21204,-156.57648,295.3,0.71,0.75,2019-08-25,11:06,N,nominal,1.0NRT,276.3,3.3,N
60.21715,-156.46985,295.3,0.7,0.75,2019-08-25,11:06,N,nominal,1.0NRT,278.8,1.7,N
60.21773,-156.4575,303.1,0.7,0.75,2019-08-25,11:06,N,nominal,1.0NRT,277.1,1.7,N
60.21,-156.47089,298.8,0.7,0.75,2019-08-25,11:06,N,nominal,1.0NRT,277.3,1.7,N
60.21061,-156.45816,308.1,0.7,0.75,2019-08-25,11:06,N,nominal,1.0NRT,275.9,1.7,N
60.22452,-156.5593,306.6,0.71,0.75,2019-08-25,11:06,N,nominal,1.0NRT,278.8,2.8,N
60.22805,-156.47917,306.9,0.7,0.75,2019-08-25,11:06,N,nominal,1.0NRT,275,3,N
60.21449,-156.46564,303,0.7,0.75,2019-08-25,11:06,N,nominal,1.0NRT,279.2,5.9,N
60.21502,-156.45325,308.2,0.7,0.75,2019-08-25,11:06,N,nominal,1.0NRT,276.9,1.5,N
60.20795,-156.45312,296.2,0.7,0.75,2019-08-25,11:06,N,nominal,1.0NRT,273.7,1.5,N
60.13131,-156.57585,307.1,0.71,0.75,2019-08-25,11:06,N,nominal,1.0NRT,276.3,2.4,N
60.10111,-156.61143,314,0.71,0.75,2019-08-25,11:06,N,nominal,1.0NRT,276.9,5.1,N
60.09404,-156.61031,299.8,0.71,0.75,2019-08-25,11:06,N,nominal,1.0NRT,272.5,2.4,N
60.09806,-156.6158,308.9,0.71,0.75,2019-08-25,11:06,N,nominal,1.0NRT,276.8,5.2,N
60.09866,-156.60248,305,0.71,0.75,2019-08-25,11:06,N,nominal,1.0NRT,276.6,4.1,N
60.67531,-149.99754,314.2,0.42,0.38,2019-08-25,12:42,N,nominal,1.0NRT,280,2.2,N
60.60693,-150.00462,321.8,0.42,0.38,2019-08-25,12:42,N,nominal,1.0NRT,280.4,2.9,N
60.58923,-149.9164,298.5,0.43,0.38,2019-08-25,12:42,N,nominal,1.0NRT,277,0.8,N
60.58745,-149.92644,297.4,0.42,0.38,2019-08-25,12:42,N,nominal,1.0NRT,278.1,1.5,N
60.58598,-149.9191,314.7,0.43,0.38,2019-08-25,12:42,N,nominal,1.0NRT,277.7,0.8,N
60.57646,-149.89067,296.4,0.43,0.38,2019-08-25,12:42,N,nominal,1.0NRT,281.9,0.9,N
60.57321,-149.8934,296.8,0.43,0.38,2019-08-25,12:42,N,nominal,1.0NRT,281.6,0.9,N
60.57164,-149.88562,302.8,0.43,0.38,2019-08-25,12:42,N,nominal,1.0NRT,280.6,0.9,N
60.57475,-149.91995,303.7,0.43,0.38,2019-08-25,12:42,N,nominal,1.0NRT,277.3,0.6,N
60.59768,-150.05298,300.1,0.42,0.38,2019-08-25,12:42,N,nominal,1.0NRT,282,1.4,N
60.60333,-150.10019,300.2,0.42,0.38,2019-08-25,12:42,N,nominal,1.0NRT,278.3,0.6,N
60.60194,-150.09322,299.7,0.42,0.38,2019-08-25,12:42,N,nominal,1.0NRT,278.8,0.3,N
60.56342,-149.90144,298.2,0.43,0.38,2019-08-25,12:42,N,nominal,1.0NRT,281.4,1.1,N
60.60287,-150.11678,299.5,0.42,0.38,2019-08-25,12:42,N,nominal,1.0NRT,280.8,0.9,N
60.55862,-149.89645,306.5,0.43,0.38,2019-08-25,12:42,N,nominal,1.0NRT,277.1,1.1,N
60.55534,-149.89911,344.6,0.43,0.38,2019-08-25,12:42,N,nominal,1.0NRT,288.7,4.8,N
60.59955,-150.11909,297.4,0.42,0.38,2019-08-25,12:42,N,nominal,1.0NRT,282.7,1.7,N
60.58977,-150.07021,301.3,0.42,0.38,2019-08-25,12:42,N,nominal,1.0NRT,278.3,1.1,N
60.55686,-149.9066,315.8,0.43,0.38,2019-08-25,12:42,N,nominal,1.0NRT,287.1,4.8,N
60.58788,-150.0797,302.7,0.42,0.38,2019-08-25,12:42,N,nominal,1.0NRT,279.6,1.1,N
60.58651,-150.07283,316,0.42,0.38,2019-08-25,12:42,N,nominal,1.0NRT,279.6,1.1,N
60.58319,-150.07515,305.7,0.42,0.38,2019-08-25,12:42,N,nominal,1.0NRT,277.8,0.7,N
60.55218,-149.92111,318.9,0.43,0.38,2019-08-25,12:42,N,nominal,1.0NRT,284.7,2.7,N
60.57083,-150.10791,296.6,0.42,0.38,2019-08-25,12:42,N,nominal,1.0NRT,280.3,0.8,N
60.53309,-150.08975,336.2,0.42,0.38,2019-08-25,12:42,N,nominal,1.0NRT,288.7,2.3,N
60.53452,-150.09683,298.5,0.42,0.38,2019-08-25,12:42,N,nominal,1.0NRT,280.2,2.3,N
60.53126,-150.09949,310.4,0.42,0.38,2019-08-25,12:42,N,nominal,1.0NRT,284.7,2.3,N
60.52989,-150.09268,308.1,0.42,0.38,2019-08-25,12:42,N,nominal,1.0NRT,282.8,2.3,N
60.53321,-150.09575,332.3,0.42,0.38,2019-08-25,12:42,N,nominal,1.0NRT,285.2,2.9,N
60.53184,-150.08887,324.6,0.42,0.38,2019-08-25,12:42,N,nominal,1.0NRT,286,2.4,N
60.54584,-150.17815,313.9,0.42,0.38,2019-08-25,12:42,N,nominal,1.0NRT,284.3,2.1,N
60.52996,-150.09836,303.9,0.42,0.38,2019-08-25,12:42,N,nominal,1.0NRT,283.4,2.9,N
60.52863,-150.09174,303.2,0.42,0.38,2019-08-25,12:42,N,nominal,1.0NRT,282.3,2.4,N
60.54262,-150.18094,313.1,0.42,0.38,2019-08-25,12:42,N,nominal,1.0NRT,281.6,1.9,N
60.54122,-150.17393,313.5,0.42,0.38,2019-08-25,12:42,N,nominal,1.0NRT,284.1,1.9,N
60.52402,-150.08765,298.7,0.42,0.38,2019-08-25,12:42,N,nominal,1.0NRT,280.8,1.1,N
60.52288,-150.13879,333.3,0.42,0.38,2019-08-25,12:42,N,nominal,1.0NRT,283,3.6,N
60.51554,-150.10204,331.7,0.42,0.38,2019-08-25,12:42,N,nominal,1.0NRT,283.7,1.8,N
60.51403,-150.09444,302.9,0.42,0.38,2019-08-25,12:42,N,nominal,1.0NRT,283,1.8,N
60.5123,-150.10471,327.4,0.42,0.38,2019-08-25,12:42,N,nominal,1.0NRT,283.1,2.2,N
60.51967,-150.14166,313.1,0.42,0.38,2019-08-25,12:42,N,nominal,1.0NRT,280.4,1.4,N
60.51382,-150.11232,296.3,0.42,0.38,2019-08-25,12:42,N,nominal,1.0NRT,279.9,1,N
60.51073,-150.09689,307.2,0.42,0.38,2019-08-25,12:42,N,nominal,1.0NRT,282.8,2.2,N
60.50415,-150.10179,296.1,0.42,0.38,2019-08-25,12:42,N,nominal,1.0NRT,283.6,1.6,N
60.52807,-150.24059,328.5,0.42,0.38,2019-08-25,12:42,N,nominal,1.0NRT,286.5,3.7,N
60.52668,-150.23361,332.8,0.42,0.38,2019-08-25,12:42,N,nominal,1.0NRT,291.5,3.7,N
60.52528,-150.22664,303.1,0.42,0.38,2019-08-25,12:42,N,nominal,1.0NRT,283.3,1,N
60.52387,-150.21954,299.8,0.42,0.38,2019-08-25,12:42,N,nominal,1.0NRT,282,1,N
60.49926,-150.09631,298.2,0.42,0.38,2019-08-25,12:42,N,nominal,1.0NRT,282,1.2,N
60.52489,-150.24358,335.1,0.42,0.38,2019-08-25,12:42,N,nominal,1.0NRT,283.9,3.9,N
60.52351,-150.23665,327.8,0.42,0.38,2019-08-25,12:42,N,nominal,1.0NRT,288.5,3.9,N
60.52212,-150.22971,316,0.42,0.38,2019-08-25,12:42,N,nominal,1.0NRT,285.8,2.7,N
60.52074,-150.22278,316.5,0.42,0.38,2019-08-25,12:42,N,nominal,1.0NRT,287.4,2.7,N
60.51931,-150.21559,312.8,0.42,0.38,2019-08-25,12:42,N,nominal,1.0NRT,284,1.5,N
60.49596,-150.09871,317.9,0.42,0.38,2019-08-25,12:42,N,nominal,1.0NRT,286.1,3.2,N
60.52029,-150.23949,333.2,0.42,0.38,2019-08-25,12:42,N,nominal,1.0NRT,289.7,3.9,N
60.51892,-150.23262,327.3,0.42,0.38,2019-08-25,12:42,N,nominal,1.0NRT,291.2,2.7,N
60.51757,-150.22586,327.8,0.42,0.38,2019-08-25,12:42,N,nominal,1.0NRT,287.9,2.7,N
60.51621,-150.21904,320.6,0.42,0.38,2019-08-25,12:42,N,nominal,1.0NRT,287.9,1.5,N
60.51471,-150.21144,309.3,0.42,0.38,2019-08-25,12:42,N,nominal,1.0NRT,286.1,1.5,N
60.51569,-150.23534,349.4,0.42,0.38,2019-08-25,12:42,N,nominal,1.0NRT,288.6,2.4,N
60.50537,-150.18362,321.2,0.42,0.38,2019-08-25,12:42,N,nominal,1.0NRT,288.3,3,N
60.51436,-150.22871,304.2,0.42,0.38,2019-08-25,12:42,N,nominal,1.0NRT,281.6,2.4,N
60.51155,-150.21466,308,0.42,0.38,2019-08-25,12:42,N,nominal,1.0NRT,280.9,1.3,N
60.50385,-150.17599,296.6,0.42,0.38,2019-08-25,12:42,N,nominal,1.0NRT,282.1,1,N
60.49509,-150.1322,298.8,0.42,0.38,2019-08-25,12:42,N,nominal,1.0NRT,282.2,0.9,N
60.50219,-150.18665,336.2,0.42,0.38,2019-08-25,12:42,N,nominal,1.0NRT,288.5,3,N
60.51243,-150.23793,300.8,0.42,0.38,2019-08-25,12:42,N,nominal,1.0NRT,280.8,2.4,N
60.50371,-150.19421,310.8,0.42,0.38,2019-08-25,12:42,N,nominal,1.0NRT,285.2,3,N
60.50068,-150.17902,310.8,0.42,0.38,2019-08-25,12:42,N,nominal,1.0NRT,283.1,1,N
60.50355,-150.21234,342.7,0.42,0.38,2019-08-25,12:42,N,nominal,1.0NRT,293.1,8.1,N
60.50206,-150.20491,300.8,0.42,0.38,2019-08-25,12:42,N,nominal,1.0NRT,282.5,8.1,N
60.50054,-150.19728,309.1,0.42,0.38,2019-08-25,12:42,N,nominal,1.0NRT,281,1.3,N
60.49899,-150.18954,316.7,0.42,0.38,2019-08-25,12:42,N,nominal,1.0NRT,283.6,1.3,N
60.49746,-150.18187,303,0.42,0.38,2019-08-25,12:42,N,nominal,1.0NRT,282.7,1,N
60.50167,-150.22188,327.5,0.42,0.38,2019-08-25,12:42,N,nominal,1.0NRT,285.1,11.5,N
60.50025,-150.21478,345.9,0.42,0.38,2019-08-25,12:42,N,nominal,1.0NRT,294.8,8.1,N
60.4958,-150.19252,305.3,0.42,0.38,2019-08-25,12:42,N,nominal,1.0NRT,281.6,1.3,N
60.49426,-150.1848,300.1,0.42,0.38,2019-08-25,12:42,N,nominal,1.0NRT,283.1,1,N
60.4707,-150.08624,321.3,0.42,0.38,2019-08-25,12:42,N,nominal,1.0NRT,284.9,1.7,N
60.52963,-150.38135,297.7,0.42,0.38,2019-08-25,12:42,N,nominal,1.0NRT,283.4,1.3,N
60.5282,-150.37416,312.7,0.42,0.38,2019-08-25,12:42,N,nominal,1.0NRT,286.4,1.6,N
60.49099,-150.18739,319.9,0.42,0.38,2019-08-25,12:42,N,nominal,1.0NRT,281.7,3,N
60.46935,-150.07954,301.6,0.42,0.38,2019-08-25,12:42,N,nominal,1.0NRT,282.6,1.7,N
60.46614,-150.08246,321.3,0.42,0.38,2019-08-25,12:42,N,nominal,1.0NRT,284.5,1.7,N
60.52781,-150.39119,297.7,0.42,0.38,2019-08-25,12:42,N,nominal,1.0NRT,283.4,1.3,N
60.52638,-150.38399,309.3,0.42,0.38,2019-08-25,12:42,N,nominal,1.0NRT,286.7,1.3,N
60.52496,-150.37679,301.5,0.42,0.38,2019-08-25,12:42,N,nominal,1.0NRT,283.4,1.6,N
60.46747,-150.08907,302.9,0.42,0.38,2019-08-25,12:42,N,nominal,1.0NRT,283.4,1.7,N
60.52028,-150.37224,333.7,0.42,0.38,2019-08-25,12:42,N,nominal,1.0NRT,287.6,2.3,N
60.51886,-150.36504,350.3,0.42,0.38,2019-08-25,12:42,N,nominal,1.0NRT,299.1,5.2,N
60.52314,-150.38663,305.2,0.42,0.38,2019-08-25,12:42,N,nominal,1.0NRT,285.2,1.5,N
60.52172,-150.37943,304.2,0.42,0.38,2019-08-25,12:42,N,nominal,1.0NRT,284.4,2.3,N
60.51743,-150.35785,310.4,0.42,0.38,2019-08-25,12:42,N,nominal,1.0NRT,284.2,5.2,N
60.48302,-150.18536,298.8,0.42,0.38,2019-08-25,12:42,N,nominal,1.0NRT,282.6,1.2,N
60.5256,-150.41801,321.9,0.42,0.38,2019-08-25,12:42,N,nominal,1.0NRT,284.2,2.6,N
60.51562,-150.36769,325.9,0.42,0.38,2019-08-25,12:42,N,nominal,1.0NRT,291.4,5.2,N
60.51419,-150.36049,350.3,0.42,0.38,2019-08-25,12:42,N,nominal,1.0NRT,300.6,5.2,N
60.52703,-150.42519,307.6,0.42,0.38,2019-08-25,12:42,N,nominal,1.0NRT,284.1,2.6,N
60.5199,-150.38927,299,0.42,0.38,2019-08-25,12:42,N,nominal,1.0NRT,284.7,1.5,N
60.51847,-150.38208,307.2,0.42,0.38,2019-08-25,12:42,N,nominal,1.0NRT,287.5,2.3,N
60.51705,-150.37489,303,0.42,0.38,2019-08-25,12:42,N,nominal,1.0NRT,286.4,2.3,N
60.50988,-150.33884,307.1,0.42,0.38,2019-08-25,12:42,N,nominal,1.0NRT,279.4,1.2,N
60.48113,-150.19481,310.9,0.42,0.38,2019-08-25,12:42,N,nominal,1.0NRT,283.4,1.2,N
60.47973,-150.18784,304,0.42,0.38,2019-08-25,12:42,N,nominal,1.0NRT,282.4,1.2,N
60.47833,-150.18088,301.8,0.42,0.38,2019-08-25,12:42,N,nominal,1.0NRT,283.1,1,N
60.47232,-150.15091,296.2,0.42,0.38,2019-08-25,12:42,N,nominal,1.0NRT,283.1,1.1,N
60.50809,-150.34877,344.1,0.42,0.38,2019-08-25,12:42,N,nominal,1.0NRT,298,3.9,N
60.50665,-150.34151,367,0.42,0.38,2019-08-25,12:42,N,high,1.0NRT,308.9,7.1,N
60.47499,-150.18307,322.5,0.42,0.38,2019-08-25,12:42,N,nominal,1.0NRT,286.8,1.6,N
60.51095,-150.36317,310.2,0.42,0.38,2019-08-25,12:42,N,nominal,1.0NRT,286.6,2.9,N
60.50952,-150.35597,312.7,0.42,0.38,2019-08-25,12:42,N,nominal,1.0NRT,288.4,3.9,N
60.5052,-150.33426,312,0.42,0.38,2019-08-25,12:42,N,nominal,1.0NRT,280,7.1,N
60.47201,-150.16823,302,0.42,0.38,2019-08-25,12:42,N,nominal,1.0NRT,284,0.8,N
60.47054,-150.16089,298,0.42,0.38,2019-08-25,12:42,N,nominal,1.0NRT,282.6,0.8,N
60.46908,-150.15364,297.4,0.42,0.38,2019-08-25,12:42,N,nominal,1.0NRT,282.6,1.1,N
60.50486,-150.35147,320.5,0.42,0.38,2019-08-25,12:42,N,nominal,1.0NRT,289.6,3.9,N
60.50341,-150.34421,340.1,0.42,0.38,2019-08-25,12:42,N,nominal,1.0NRT,295.9,7.1,N
60.50196,-150.33694,337.1,0.42,0.38,2019-08-25,12:42,N,nominal,1.0NRT,291.6,7.1,N
60.50628,-150.35861,304.6,0.42,0.38,2019-08-25,12:42,N,nominal,1.0NRT,285.8,3.9,N
60.50053,-150.3297,314.3,0.42,0.38,2019-08-25,12:42,N,nominal,1.0NRT,280.2,1.8,N
60.47171,-150.18562,302,0.42,0.38,2019-08-25,12:42,N,nominal,1.0NRT,282.9,1.6,N
60.47023,-150.17825,305.3,0.42,0.38,2019-08-25,12:42,N,nominal,1.0NRT,284,1.6,N
60.46873,-150.17076,304,0.42,0.38,2019-08-25,12:42,N,nominal,1.0NRT,284.2,0.8,N
60.46725,-150.16342,302.6,0.42,0.38,2019-08-25,12:42,N,nominal,1.0NRT,282.1,0.8,N
60.49872,-150.33961,322.6,0.42,0.38,2019-08-25,12:42,N,nominal,1.0NRT,291.1,11.3,N
60.4973,-150.33243,350.1,0.42,0.38,2019-08-25,12:42,N,nominal,1.0NRT,298.7,4.4,N
60.464,-150.16608,343.9,0.42,0.38,2019-08-25,12:42,N,nominal,1.0NRT,286.8,3.6,N
60.50303,-150.36127,297.3,0.42,0.38,2019-08-25,12:42,N,nominal,1.0NRT,282.3,1.4,N
60.50161,-150.35411,312.9,0.42,0.38,2019-08-25,12:42,N,nominal,1.0NRT,286.7,1.4,N
60.4926,-150.32785,323,0.42,0.38,2019-08-25,12:42,N,nominal,1.0NRT,289.5,4.4,N
60.49837,-150.35675,309.9,0.42,0.38,2019-08-25,12:42,N,nominal,1.0NRT,285.2,1.4,N
60.49405,-150.33507,319.7,0.42,0.38,2019-08-25,12:42,N,nominal,1.0NRT,290.3,4.4,N
60.46221,-150.17601,312.9,0.42,0.38,2019-08-25,12:42,N,nominal,1.0NRT,283.6,3.6,N
60.48792,-150.3233,324.6,0.42,0.38,2019-08-25,12:42,N,nominal,1.0NRT,288.3,3.7,N
60.49513,-150.35942,302.6,0.42,0.38,2019-08-25,12:42,N,nominal,1.0NRT,285.2,1.9,N
60.49369,-150.35222,307.4,0.42,0.38,2019-08-25,12:42,N,nominal,1.0NRT,286.6,1.8,N
60.49224,-150.34496,317.1,0.42,0.38,2019-08-25,12:42,N,nominal,1.0NRT,290.1,1.8,N
60.49079,-150.33768,317.2,0.42,0.38,2019-08-25,12:42,N,nominal,1.0NRT,290.1,2.4,N
60.48935,-150.33041,319.5,0.42,0.38,2019-08-25,12:42,N,nominal,1.0NRT,290,2.4,N
60.45894,-150.17862,312.8,0.42,0.38,2019-08-25,12:42,N,nominal,1.0NRT,281.9,1.5,N
60.4478,-150.12314,297.1,0.42,0.38,2019-08-25,12:42,N,nominal,1.0NRT,284.2,1.1,N
60.48323,-150.31868,344.8,0.42,0.38,2019-08-25,12:42,N,nominal,1.0NRT,293.1,3.7,N
60.44709,-150.13853,321.5,0.42,0.38,2019-08-25,12:42,N,nominal,1.0NRT,289.2,2.1,N
60.49619,-150.38367,300.2,0.42,0.38,2019-08-25,12:42,N,nominal,1.0NRT,285,1.2,N
60.49475,-150.37646,308.3,0.42,0.38,2019-08-25,12:42,N,nominal,1.0NRT,285.5,1.2,N
60.49332,-150.36926,316.7,0.42,0.38,2019-08-25,12:42,N,nominal,1.0NRT,289.7,1.9,N
60.49189,-150.36206,315.9,0.42,0.38,2019-08-25,12:42,N,nominal,1.0NRT,290.2,1.9,N
60.49046,-150.35487,305.6,0.42,0.38,2019-08-25,12:42,N,nominal,1.0NRT,286.5,1.8,N
60.489,-150.34763,316.3,0.42,0.38,2019-08-25,12:42,N,nominal,1.0NRT,288.7,1.8,N
60.48755,-150.34032,314.5,0.42,0.38,2019-08-25,12:42,N,nominal,1.0NRT,289.2,2.4,N
60.48609,-150.33305,315.4,0.42,0.38,2019-08-25,12:42,N,nominal,1.0NRT,288.7,2.4,N
60.48466,-150.32588,316.9,0.42,0.38,2019-08-25,12:42,N,nominal,1.0NRT,288.3,3.7,N
60.44845,-150.14531,308.5,0.42,0.38,2019-08-25,12:42,N,nominal,1.0NRT,285.4,1.8,N
60.44575,-150.13187,305.6,0.42,0.38,2019-08-25,12:42,N,nominal,1.0NRT,284.9,2.1,N
60.44444,-150.12535,302.8,0.42,0.38,2019-08-25,12:42,N,nominal,1.0NRT,286.8,1.1,N
60.44315,-150.1189,307,0.42,0.38,2019-08-25,12:42,N,nominal,1.0NRT,285.9,1.1,N
60.44376,-150.14088,336.7,0.42,0.38,2019-08-25,12:42,N,nominal,1.0NRT,291.9,3.4,N
60.4958,-150.4007,299,0.42,0.38,2019-08-25,12:42,N,nominal,1.0NRT,285.7,1,N
60.49438,-150.39351,304.6,0.42,0.38,2019-08-25,12:42,N,nominal,1.0NRT,287,1,N
60.49294,-150.38631,316.9,0.42,0.38,2019-08-25,12:42,N,nominal,1.0NRT,289.2,2.8,N
60.49151,-150.37912,314,0.42,0.38,2019-08-25,12:42,N,nominal,1.0NRT,288.1,2.8,N
60.49007,-150.37192,318.2,0.42,0.38,2019-08-25,12:42,N,nominal,1.0NRT,290,2.4,N
60.48864,-150.3647,316.9,0.42,0.38,2019-08-25,12:42,N,nominal,1.0NRT,290.6,2.4,N
60.48721,-150.3575,314.2,0.42,0.38,2019-08-25,12:42,N,nominal,1.0NRT,289.2,1.6,N
60.48576,-150.35028,307.9,0.42,0.38,2019-08-25,12:42,N,nominal,1.0NRT,286.2,1.6,N
60.4481,-150.1624,319.9,0.42,0.38,2019-08-25,12:42,N,nominal,1.0NRT,285.5,3.2,N
60.44661,-150.15503,298.1,0.42,0.38,2019-08-25,12:42,N,nominal,1.0NRT,282.9,5.3,N
60.44515,-150.14778,316.5,0.42,0.38,2019-08-25,12:42,N,nominal,1.0NRT,286.6,5.3,N
60.44241,-150.13416,310.9,0.42,0.38,2019-08-25,12:42,N,nominal,1.0NRT,283.7,3.4,N
60.4897,-150.38896,322,0.42,0.38,2019-08-25,12:42,N,nominal,1.0NRT,287.8,2.8,N
60.48827,-150.38174,334.1,0.42,0.38,2019-08-25,12:42,N,nominal,1.0NRT,290.8,2.8,N
60.48683,-150.37456,327.8,0.42,0.38,2019-08-25,12:42,N,nominal,1.0NRT,294.2,2.4,N
60.44339,-150.15788,352.8,0.42,0.38,2019-08-25,12:42,N,nominal,1.0NRT,295.7,5.3,N
60.4419,-150.15048,333.2,0.42,0.38,2019-08-25,12:42,N,nominal,1.0NRT,283.5,5.3,N
60.49257,-150.40334,297.8,0.42,0.38,2019-08-25,12:42,N,nominal,1.0NRT,284.5,1,N
60.49113,-150.39615,304.4,0.42,0.38,2019-08-25,12:42,N,nominal,1.0NRT,287.3,1,N
60.4854,-150.36736,309.8,0.42,0.38,2019-08-25,12:42,N,nominal,1.0NRT,288.3,2.4,N
60.48396,-150.36012,307.3,0.42,0.38,2019-08-25,12:42,N,nominal,1.0NRT,287.5,1.6,N
60.48251,-150.35292,311.9,0.42,0.38,2019-08-25,12:42,N,nominal,1.0NRT,289,1.6,N
60.47817,-150.33116,308.1,0.42,0.38,2019-08-25,12:42,N,nominal,1.0NRT,288,2.4,N
60.47207,-150.31953,322.5,0.42,0.38,2019-08-25,12:42,N,nominal,1.0NRT,285.4,5.7,N
60.48789,-150.39877,297.9,0.42,0.38,2019-08-25,12:42,N,nominal,1.0NRT,285.2,0.9,N
60.48646,-150.39159,319.1,0.42,0.38,2019-08-25,12:42,N,nominal,1.0NRT,289.5,2.2,N
60.48071,-150.36276,303.3,0.42,0.38,2019-08-25,12:42,N,nominal,1.0NRT,286.3,1.3,N
60.47927,-150.35556,302.7,0.42,0.38,2019-08-25,12:42,N,nominal,1.0NRT,286.5,1.3,N
60.47784,-150.34836,308.3,0.42,0.38,2019-08-25,12:42,N,nominal,1.0NRT,287.7,1.2,N
60.47639,-150.34114,300.7,0.42,0.38,2019-08-25,12:42,N,nominal,1.0NRT,285.7,1.2,N
60.47495,-150.33392,314.8,0.42,0.38,2019-08-25,12:42,N,nominal,1.0NRT,289.5,1.9,N
60.4735,-150.32671,313.8,0.42,0.38,2019-08-25,12:42,N,nominal,1.0NRT,288.6,1.9,N
60.46883,-150.32219,350,0.42,0.38,2019-08-25,12:42,N,nominal,1.0NRT,304.3,5.7,N
60.4674,-150.31502,331.2,0.42,0.38,2019-08-25,12:42,N,nominal,1.0NRT,289.4,5.7,N
60.48608,-150.40858,297.6,0.42,0.38,2019-08-25,12:42,N,nominal,1.0NRT,284.1,0.9,N
60.48465,-150.40138,298.3,0.42,0.38,2019-08-25,12:42,N,nominal,1.0NRT,284.7,0.9,N
60.48322,-150.39423,306.2,0.42,0.38,2019-08-25,12:42,N,nominal,1.0NRT,286.8,2.2,N
60.47747,-150.36542,311.9,0.42,0.38,2019-08-25,12:42,N,nominal,1.0NRT,288.8,1.3,N
60.47603,-150.35822,303,0.42,0.38,2019-08-25,12:42,N,nominal,1.0NRT,288,1.3,N
60.47459,-150.35101,301.9,0.42,0.38,2019-08-25,12:42,N,nominal,1.0NRT,284.5,1.2,N
60.47315,-150.3438,301.6,0.42,0.38,2019-08-25,12:42,N,nominal,1.0NRT,285.9,1.2,N
60.47172,-150.33665,311.6,0.42,0.38,2019-08-25,12:42,N,nominal,1.0NRT,289.7,1.9,N
60.47027,-150.32942,311.8,0.42,0.38,2019-08-25,12:42,N,nominal,1.0NRT,289.1,1.9,N
60.47997,-150.39682,342.3,0.42,0.38,2019-08-25,12:42,N,nominal,1.0NRT,299,6.3,N
60.47854,-150.38968,345.3,0.42,0.38,2019-08-25,12:42,N,nominal,1.0NRT,299.9,6.3,N
60.4771,-150.38249,333.7,0.42,0.38,2019-08-25,12:42,N,nominal,1.0NRT,292.8,6,N
60.47567,-150.37529,341,0.42,0.38,2019-08-25,12:42,N,nominal,1.0NRT,288.5,6,N
60.47423,-150.36807,348.3,0.42,0.38,2019-08-25,12:42,N,nominal,1.0NRT,295,5.2,N
60.46559,-150.32486,347.9,0.42,0.38,2019-08-25,12:42,N,nominal,1.0NRT,300.8,3.8,N
60.48426,-150.41837,301.3,0.42,0.38,2019-08-25,12:42,N,nominal,1.0NRT,283.3,0.8,N
60.48283,-150.41119,306.5,0.42,0.38,2019-08-25,12:42,N,nominal,1.0NRT,285,2.2,N
60.48139,-150.40401,313.5,0.42,0.38,2019-08-25,12:42,N,nominal,1.0NRT,287.7,2.2,N
60.47279,-150.36087,315.4,0.42,0.38,2019-08-25,12:42,N,nominal,1.0NRT,290.4,5.2,N
60.47135,-150.3537,300.1,0.42,0.38,2019-08-25,12:42,N,nominal,1.0NRT,285.7,1.6,N
60.46992,-150.3465,296.7,0.42,0.38,2019-08-25,12:42,N,nominal,1.0NRT,285.2,1.6,N
60.46848,-150.33931,306.9,0.42,0.38,2019-08-25,12:42,N,nominal,1.0NRT,287.6,1.6,N
60.46703,-150.33208,313.5,0.42,0.38,2019-08-25,12:42,N,nominal,1.0NRT,290,1.6,N
60.46415,-150.31769,304.9,0.42,0.38,2019-08-25,12:42,N,nominal,1.0NRT,283,3.8,N
60.47815,-150.40663,327.9,0.42,0.38,2019-08-25,12:42,N,nominal,1.0NRT,292.9,2.2,N
60.47672,-150.39943,351.6,0.42,0.38,2019-08-25,12:42,N,nominal,1.0NRT,299.8,6.3,N
60.47528,-150.39226,328.9,0.42,0.38,2019-08-25,12:42,N,nominal,1.0NRT,289.7,6.3,N
60.47098,-150.3707,328.4,0.42,0.38,2019-08-25,12:42,N,nominal,1.0NRT,287.7,5.2,N
60.46955,-150.36353,350.6,0.42,0.38,2019-08-25,12:42,N,nominal,1.0NRT,302.7,5.2,N
60.46811,-150.35635,328,0.42,0.38,2019-08-25,12:42,N,nominal,1.0NRT,293.4,1.6,N
60.46234,-150.32753,326.9,0.42,0.38,2019-08-25,12:42,N,nominal,1.0NRT,292.5,3.8,N
60.47958,-150.4138,303.1,0.42,0.38,2019-08-25,12:42,N,nominal,1.0NRT,284,2.2,N
60.46667,-150.34914,310,0.42,0.38,2019-08-25,12:42,N,nominal,1.0NRT,288.7,1.6,N
60.46523,-150.34196,305.4,0.42,0.38,2019-08-25,12:42,N,nominal,1.0NRT,287.7,1.6,N
60.46379,-150.33475,308.6,0.42,0.38,2019-08-25,12:42,N,nominal,1.0NRT,288,1.6,N
60.4609,-150.32033,313.9,0.42,0.38,2019-08-25,12:42,N,nominal,1.0NRT,286.8,3.8,N
60.47942,-150.40404,334,0.42,0.38,2019-08-25,12:42,N,nominal,1.0NRT,297.3,6.6,N
60.47799,-150.39682,355.5,0.42,0.38,2019-08-25,12:42,N,nominal,1.0NRT,309.2,6.6,N
60.47657,-150.38963,347.5,0.42,0.38,2019-08-25,12:42,N,nominal,1.0NRT,298.7,4,N
60.47231,-150.36804,344.2,0.42,0.38,2019-08-25,12:42,N,nominal,1.0NRT,293.6,4.9,N
60.47089,-150.36082,325.6,0.42,0.38,2019-08-25,12:42,N,nominal,1.0NRT,294.1,6.3,N
60.46376,-150.32475,345.4,0.42,0.38,2019-08-25,12:42,N,nominal,1.0NRT,296.8,3.3,N
60.48083,-150.41122,314.1,0.42,0.38,2019-08-25,12:42,N,nominal,1.0NRT,288.5,1.8,N
60.47516,-150.38246,319.9,0.42,0.38,2019-08-25,12:42,N,nominal,1.0NRT,284.9,4,N
60.47374,-150.37526,315.4,0.42,0.38,2019-08-25,12:42,N,nominal,1.0NRT,283.6,4.9,N
60.46947,-150.35364,307.9,0.42,0.38,2019-08-25,12:42,N,nominal,1.0NRT,289,6.3,N
60.46804,-150.34644,303,0.42,0.38,2019-08-25,12:42,N,nominal,1.0NRT,287.1,1.5,N
60.46661,-150.33922,305.1,0.42,0.38,2019-08-25,12:42,N,nominal,1.0NRT,287.4,1.5,N
60.46519,-150.33202,313.9,0.42,0.38,2019-08-25,12:42,N,nominal,1.0NRT,289.9,3.3,N
60.47475,-150.39946,344.7,0.42,0.38,2019-08-25,12:42,N,nominal,1.0NRT,293,6.6,N
60.47334,-150.39227,330.8,0.42,0.38,2019-08-25,12:42,N,nominal,1.0NRT,293.4,4,N
60.46907,-150.37067,342.9,0.42,0.38,2019-08-25,12:42,N,nominal,1.0NRT,299.9,4.9,N
60.46764,-150.36345,367,0.42,0.38,2019-08-25,12:42,N,high,1.0NRT,317.6,6.3,N
60.46622,-150.35628,339.6,0.42,0.38,2019-08-25,12:42,N,nominal,1.0NRT,301.3,6.3,N
60.46051,-150.32744,320.6,0.42,0.38,2019-08-25,12:42,N,nominal,1.0NRT,289.2,3.3,N
60.47759,-150.41385,299.4,0.42,0.38,2019-08-25,12:42,N,nominal,1.0NRT,283.7,1.8,N
60.47617,-150.40665,316.9,0.42,0.38,2019-08-25,12:42,N,nominal,1.0NRT,285.5,6.6,N
60.47191,-150.3851,309.6,0.42,0.38,2019-08-25,12:42,N,nominal,1.0NRT,286.5,4,N
60.47049,-150.3779,295.5,0.42,0.38,2019-08-25,12:42,N,nominal,1.0NRT,284,4.9,N
60.46479,-150.34909,311.2,0.42,0.38,2019-08-25,12:42,N,nominal,1.0NRT,289.8,1.5,N
60.46337,-150.34189,307.7,0.42,0.38,2019-08-25,12:42,N,nominal,1.0NRT,288.5,1.5,N
60.46195,-150.33466,311,0.42,0.38,2019-08-25,12:42,N,nominal,1.0NRT,288.8,3.3,N
60.45908,-150.32021,309,0.42,0.38,2019-08-25,12:42,N,nominal,1.0NRT,287.6,2.4,N
60.47149,-150.40202,349.9,0.42,0.38,2019-08-25,12:42,N,nominal,1.0NRT,304.4,6.2,N
60.47008,-150.39488,355.3,0.42,0.38,2019-08-25,12:42,N,nominal,1.0NRT,304.8,9.1,N
60.46866,-150.38766,354.4,0.42,0.38,2019-08-25,12:42,N,nominal,1.0NRT,303.5,9.1,N
60.46724,-150.38046,353.3,0.42,0.38,2019-08-25,12:42,N,nominal,1.0NRT,308.5,15.1,N
60.46581,-150.37326,367,0.42,0.38,2019-08-25,12:42,N,high,1.0NRT,320.7,15.1,N
60.46439,-150.36609,367,0.42,0.38,2019-08-25,12:42,N,high,1.0NRT,317.4,20.3,N
60.46297,-150.35892,367,0.42,0.38,2019-08-25,12:42,N,high,1.0NRT,311.2,20.3,N
60.46155,-150.35173,353.9,0.42,0.38,2019-08-25,12:42,N,nominal,1.0NRT,308.8,15.5,N
60.46012,-150.34453,344.7,0.42,0.38,2019-08-25,12:42,N,nominal,1.0NRT,303.4,15.5,N
60.45583,-150.32286,343.6,0.42,0.38,2019-08-25,12:42,N,nominal,1.0NRT,302.3,12.4,N
60.47291,-150.40923,300.3,0.42,0.38,2019-08-25,12:42,N,nominal,1.0NRT,284.8,6.2,N
60.46966,-150.41176,335.7,0.42,0.38,2019-08-25,12:42,N,nominal,1.0NRT,295.7,6.2,N
60.46824,-150.40457,350.8,0.42,0.38,2019-08-25,12:42,N,nominal,1.0NRT,302.1,6.2,N
60.46681,-150.39738,352.3,0.42,0.38,2019-08-25,12:42,N,nominal,1.0NRT,301,9.1,N
60.46539,-150.39018,340.9,0.42,0.38,2019-08-25,12:42,N,nominal,1.0NRT,295.3,9.1,N
60.46397,-150.383,342.6,0.42,0.38,2019-08-25,12:42,N,nominal,1.0NRT,298.5,15.1,N
60.46255,-150.37582,348.7,0.42,0.38,2019-08-25,12:42,N,nominal,1.0NRT,299.2,15.1,N
60.46114,-150.36867,367,0.42,0.38,2019-08-25,12:42,N,high,1.0NRT,312.8,20.3,N
60.45971,-150.36147,367,0.42,0.38,2019-08-25,12:42,N,high,1.0NRT,322.4,20.3,N
60.45829,-150.35429,367,0.42,0.38,2019-08-25,12:42,N,high,1.0NRT,323,15.5,N
60.45687,-150.34714,367,0.42,0.38,2019-08-25,12:42,N,high,1.0NRT,319.8,15.5,N
60.45259,-150.3255,367,0.42,0.38,2019-08-25,12:42,N,high,1.0NRT,324.8,12.4,N
60.45117,-150.31836,320.2,0.42,0.38,2019-08-25,12:42,N,nominal,1.0NRT,286.1,12.4,N
60.46782,-150.42157,324.9,0.42,0.38,2019-08-25,12:42,N,nominal,1.0NRT,288.6,2.4,N
60.46212,-150.39268,327,0.42,0.38,2019-08-25,12:42,N,nominal,1.0NRT,292.8,2.6,N
60.46071,-150.38554,337.6,0.42,0.38,2019-08-25,12:42,N,nominal,1.0NRT,295.5,7,N
60.45929,-150.37837,356.3,0.42,0.38,2019-08-25,12:42,N,nominal,1.0NRT,305.9,7,N
60.45787,-150.37117,367,0.42,0.38,2019-08-25,12:42,N,high,1.0NRT,317.9,15.2,N
60.45644,-150.36395,367,0.42,0.38,2019-08-25,12:42,N,high,1.0NRT,318.7,15.2,N
60.45502,-150.35683,367,0.42,0.38,2019-08-25,12:42,N,high,1.0NRT,315.2,11.9,N
60.45361,-150.34972,367,0.42,0.38,2019-08-25,12:42,N,high,1.0NRT,318.5,11.9,N
60.45219,-150.34253,367,0.42,0.38,2019-08-25,12:42,N,high,1.0NRT,311.8,11.9,N
60.45076,-150.33531,367,0.42,0.38,2019-08-25,12:42,N,high,1.0NRT,297.6,11.9,N
60.44933,-150.32809,340.7,0.42,0.38,2019-08-25,12:42,N,nominal,1.0NRT,286.1,6.3,N
60.4664,-150.41435,312.1,0.42,0.38,2019-08-25,12:42,N,nominal,1.0NRT,286.5,2.3,N
60.46498,-150.40715,309.8,0.42,0.38,2019-08-25,12:42,N,nominal,1.0NRT,286.9,2.3,N
60.46355,-150.3999,314.4,0.42,0.38,2019-08-25,12:42,N,nominal,1.0NRT,289.2,2.6,N
60.46172,-150.40973,328.9,0.42,0.38,2019-08-25,12:42,N,nominal,1.0NRT,292.5,2.3,N
60.45887,-150.39532,325.1,0.42,0.38,2019-08-25,12:42,N,nominal,1.0NRT,288.8,2.6,N
60.45746,-150.38814,327.2,0.42,0.38,2019-08-25,12:42,N,nominal,1.0NRT,290,7,N
60.45603,-150.38095,339.2,0.42,0.38,2019-08-25,12:42,N,nominal,1.0NRT,291.9,7,N
60.4546,-150.37372,353,0.42,0.38,2019-08-25,12:42,N,nominal,1.0NRT,298.1,15.2,N
60.45317,-150.3665,341,0.42,0.38,2019-08-25,12:42,N,nominal,1.0NRT,294.5,15.2,N
60.45034,-150.35222,324.8,0.42,0.38,2019-08-25,12:42,N,nominal,1.0NRT,283.3,11.9,N
60.44892,-150.345,321.6,0.42,0.38,2019-08-25,12:42,N,nominal,1.0NRT,283,11.9,N
60.46457,-150.42415,298,0.42,0.38,2019-08-25,12:42,N,nominal,1.0NRT,285.2,2.4,N
60.46314,-150.41693,309.4,0.42,0.38,2019-08-25,12:42,N,nominal,1.0NRT,287.1,2.3,N
60.4603,-150.40253,299.2,0.42,0.38,2019-08-25,12:42,N,nominal,1.0NRT,284.5,2.6,N
60.45176,-150.35936,318.5,0.42,0.38,2019-08-25,12:42,N,nominal,1.0NRT,284.2,11.9,N
60.45991,-150.41957,303.2,0.42,0.38,2019-08-25,12:42,N,nominal,1.0NRT,284.2,1.3,N
60.45848,-150.41238,296.1,0.42,0.38,2019-08-25,12:42,N,nominal,1.0NRT,284.1,1.3,N
60.24379,-156.5415,302.4,0.39,0.36,2019-08-25,12:42,N,nominal,1.0NRT,276.4,2,N
60.24278,-156.53468,314.5,0.39,0.36,2019-08-25,12:42,N,nominal,1.0NRT,277.6,2,N
60.24056,-156.54343,337,0.39,0.36,2019-08-25,12:42,N,nominal,1.0NRT,280,2,N
60.23955,-156.53662,315.3,0.39,0.36,2019-08-25,12:42,N,nominal,1.0NRT,282.6,2,N
60.23854,-156.5298,296.6,0.39,0.36,2019-08-25,12:42,N,nominal,1.0NRT,277.3,1.1,N
60.23246,-156.48886,306.2,0.39,0.36,2019-08-25,12:42,N,nominal,1.0NRT,273.4,0.9,N
60.2272,-156.47713,332.7,0.39,0.36,2019-08-25,12:42,N,nominal,1.0NRT,276.8,1.8,N
60.23734,-156.54536,316.4,0.39,0.36,2019-08-25,12:42,N,nominal,1.0NRT,280,1.5,N
60.23632,-156.53854,310,0.39,0.36,2019-08-25,12:42,N,nominal,1.0NRT,282.6,1.5,N
60.22923,-156.4908,303.2,0.39,0.36,2019-08-25,12:42,N,nominal,1.0NRT,275.2,1.6,N
60.22821,-156.48396,309.8,0.39,0.36,2019-08-25,12:42,N,nominal,1.0NRT,275.7,1.6,N
60.23612,-156.56094,314.8,0.39,0.36,2019-08-25,12:42,N,nominal,1.0NRT,277.3,1.6,N
60.23512,-156.55412,297.7,0.39,0.36,2019-08-25,12:42,N,nominal,1.0NRT,277.9,1.6,N
60.23411,-156.54732,317.3,0.39,0.36,2019-08-25,12:42,N,nominal,1.0NRT,283.8,1.5,N
60.23309,-156.5405,303.1,0.39,0.36,2019-08-25,12:42,N,nominal,1.0NRT,280.7,1.5,N
60.22397,-156.4791,318.8,0.39,0.36,2019-08-25,12:42,N,nominal,1.0NRT,278.3,1.8,N
60.22295,-156.47223,309.6,0.39,0.36,2019-08-25,12:42,N,nominal,1.0NRT,277.6,1.8,N
60.22093,-156.45868,311.9,0.39,0.36,2019-08-25,12:42,N,nominal,1.0NRT,278.1,1.4,N
60.2167,-156.45389,331.8,0.39,0.36,2019-08-25,12:42,N,nominal,1.0NRT,280.4,2.2,N
60.2329,-156.56288,297.5,0.39,0.36,2019-08-25,12:42,N,nominal,1.0NRT,275.9,1.4,N
60.23088,-156.54926,296.3,0.39,0.36,2019-08-25,12:42,N,nominal,1.0NRT,278.8,1.3,N
60.21973,-156.47423,298.3,0.39,0.36,2019-08-25,12:42,N,nominal,1.0NRT,280,1.2,N
60.21771,-156.46065,311.4,0.39,0.36,2019-08-25,12:42,N,nominal,1.0NRT,281.2,1.4,N
60.21247,-156.44908,324.8,0.39,0.36,2019-08-25,12:42,N,nominal,1.0NRT,276.1,2.2,N
60.22866,-156.55801,304.2,0.39,0.36,2019-08-25,12:42,N,nominal,1.0NRT,280,1.4,N
60.21853,-156.48984,298.4,0.39,0.36,2019-08-25,12:42,N,nominal,1.0NRT,280.6,1.2,N
60.2165,-156.47621,301.1,0.39,0.36,2019-08-25,12:42,N,nominal,1.0NRT,280.4,1.2,N
60.2155,-156.46942,306,0.39,0.36,2019-08-25,12:42,N,nominal,1.0NRT,282,1.4,N
60.21449,-156.46263,301.5,0.39,0.36,2019-08-25,12:42,N,nominal,1.0NRT,280.5,1.4,N
60.21347,-156.45586,310.3,0.39,0.36,2019-08-25,12:42,N,nominal,1.0NRT,279,2.2,N
60.22644,-156.5668,320.1,0.39,0.36,2019-08-25,12:42,N,nominal,1.0NRT,278.5,1.5,N
60.22543,-156.55997,315.1,0.39,0.36,2019-08-25,12:42,N,nominal,1.0NRT,282.4,1.5,N
60.22442,-156.55316,298.2,0.39,0.36,2019-08-25,12:42,N,nominal,1.0NRT,280.2,1.7,N
60.21329,-156.4782,297.5,0.39,0.36,2019-08-25,12:42,N,nominal,1.0NRT,278.9,1.8,N
60.21228,-156.47141,308.1,0.39,0.36,2019-08-25,12:42,N,nominal,1.0NRT,281.8,1.1,N
60.21127,-156.46461,310.4,0.39,0.36,2019-08-25,12:42,N,nominal,1.0NRT,279.7,1.1,N
60.21025,-156.45782,311.7,0.39,0.36,2019-08-25,12:42,N,nominal,1.0NRT,276.6,1.5,N
60.20924,-156.45102,317.4,0.39,0.36,2019-08-25,12:42,N,nominal,1.0NRT,275.5,1.5,N
60.2222,-156.56192,297.6,0.39,0.36,2019-08-25,12:42,N,nominal,1.0NRT,278.3,1.5,N
60.20905,-156.47337,299.7,0.39,0.36,2019-08-25,12:42,N,nominal,1.0NRT,278.5,1.1,N
60.21354,-156.57458,308.5,0.39,0.36,2019-08-25,12:42,N,nominal,1.0NRT,276.3,0.6,N
60.21252,-156.56776,296,0.39,0.36,2019-08-25,12:42,N,nominal,1.0NRT,277.1,0.6,N
60.19431,-156.44521,309,0.39,0.36,2019-08-25,12:42,N,nominal,1.0NRT,280.6,0.9,N
60.19329,-156.4384,299.4,0.39,0.36,2019-08-25,12:42,N,nominal,1.0NRT,277.3,0.7,N
60.19412,-156.46758,308.2,0.39,0.36,2019-08-25,12:42,N,nominal,1.0NRT,280.3,1.5,N
60.19311,-156.46077,310.2,0.39,0.36,2019-08-25,12:42,N,nominal,1.0NRT,281.9,1.5,N
60.1921,-156.45396,296,0.39,0.36,2019-08-25,12:42,N,nominal,1.0NRT,277.2,0.9,N
60.19108,-156.44716,296,0.39,0.36,2019-08-25,12:42,N,nominal,1.0NRT,275.8,0.9,N
60.19007,-156.44035,296.4,0.39,0.36,2019-08-25,12:42,N,nominal,1.0NRT,276.2,0.7,N
60.18905,-156.43356,295.5,0.39,0.36,2019-08-25,12:42,N,nominal,1.0NRT,275.5,0.7,N
60.19192,-156.47635,298.4,0.39,0.36,2019-08-25,12:42,N,nominal,1.0NRT,278.3,0.9,N
60.19091,-156.46954,303.1,0.39,0.36,2019-08-25,12:42,N,nominal,1.0NRT,277.9,1.4,N
60.18786,-156.44911,295.7,0.39,0.36,2019-08-25,12:42,N,nominal,1.0NRT,277,1.4,N
60.18685,-156.44231,298.6,0.39,0.36,2019-08-25,12:42,N,nominal,1.0NRT,277,1.1,N
60.18362,-156.44426,309.1,0.39,0.36,2019-08-25,12:42,N,nominal,1.0NRT,278.6,1.1,N
60.1792,-156.46178,302.8,0.39,0.36,2019-08-25,12:42,N,nominal,1.0NRT,279.5,2,N
60.15894,-156.48077,310.2,0.39,0.36,2019-08-25,12:42,N,nominal,1.0NRT,276.6,1.2,N
60.15792,-156.47398,304.5,0.39,0.36,2019-08-25,12:42,N,nominal,1.0NRT,275.2,1.2,N
60.15075,-156.56725,300.7,0.39,0.36,2019-08-25,12:42,N,nominal,1.0NRT,278.8,1.6,N
60.13194,-156.51186,298.4,0.39,0.36,2019-08-25,12:42,N,nominal,1.0NRT,278.8,1.4,N
60.12788,-156.4847,306.2,0.39,0.36,2019-08-25,12:42,N,nominal,1.0NRT,276.4,0.8,N
60.12465,-156.48663,302.1,0.39,0.36,2019-08-25,12:42,N,nominal,1.0NRT,277.5,1.3,N
60.13461,-156.57693,295.8,0.39,0.36,2019-08-25,12:42,N,nominal,1.0NRT,274.1,0.3,N
60.12346,-156.50215,298.6,0.39,0.36,2019-08-25,12:42,N,nominal,1.0NRT,279.8,1.4,N
60.13137,-156.57887,342.8,0.39,0.36,2019-08-25,12:42,N,nominal,1.0NRT,282.8,2.8,N
60.12915,-156.58762,316.9,0.39,0.36,2019-08-25,12:42,N,nominal,1.0NRT,279.6,2.8,N
60.12814,-156.58083,295.1,0.39,0.36,2019-08-25,12:42,N,nominal,1.0NRT,278.2,2.8,N
60.12693,-156.59636,297.5,0.39,0.36,2019-08-25,12:42,N,nominal,1.0NRT,278.8,3.1,N
60.12592,-156.58955,312.6,0.39,0.36,2019-08-25,12:42,N,nominal,1.0NRT,278.9,1.5,N
60.12371,-156.59828,337,0.39,0.36,2019-08-25,12:42,N,nominal,1.0NRT,283.9,3.1,N
60.1227,-156.59149,298,0.39,0.36,2019-08-25,12:42,N,nominal,1.0NRT,277.9,1.5,N
60.12048,-156.60023,322.8,0.39,0.36,2019-08-25,12:42,N,nominal,1.0NRT,280.7,1.3,N
60.12148,-156.60701,313,0.39,0.36,2019-08-25,12:42,N,nominal,1.0NRT,276.6,1.3,N
60.11826,-156.60896,304,0.39,0.36,2019-08-25,12:42,N,nominal,1.0NRT,277.5,1.3,N
60.11725,-156.60216,300.1,0.39,0.36,2019-08-25,12:42,N,nominal,1.0NRT,280.5,1.3,N
60.11503,-156.6109,326.8,0.39,0.36,2019-08-25,12:42,N,nominal,1.0NRT,277.8,2.6,N
60.11402,-156.6041,321.5,0.39,0.36,2019-08-25,12:42,N,nominal,1.0NRT,280.4,2.6,N
60.11079,-156.60602,332.5,0.39,0.36,2019-08-25,12:42,N,nominal,1.0NRT,281.9,2.6,N
60.1118,-156.61282,311.5,0.39,0.36,2019-08-25,12:42,N,nominal,1.0NRT,276.4,2.6,N
60.10756,-156.60794,324.8,0.39,0.36,2019-08-25,12:42,N,nominal,1.0NRT,280.4,3.5,N
60.10655,-156.60115,300.2,0.39,0.36,2019-08-25,12:42,N,nominal,1.0NRT,279.1,0.8,N
60.10433,-156.60988,337.7,0.39,0.36,2019-08-25,12:42,N,nominal,1.0NRT,282.6,3.5,N
60.10333,-156.60307,300.1,0.39,0.36,2019-08-25,12:42,N,nominal,1.0NRT,278.7,0.8,N
60.10232,-156.59628,295.5,0.39,0.36,2019-08-25,12:42,N,nominal,1.0NRT,277.8,0.8,N
60.1011,-156.61182,345.2,0.39,0.36,2019-08-25,12:42,N,nominal,1.0NRT,285.6,6.8,N
60.1001,-156.60501,323.2,0.39,0.36,2019-08-25,12:42,N,nominal,1.0NRT,284,3.8,N
60.09909,-156.59821,303,0.39,0.36,2019-08-25,12:42,N,nominal,1.0NRT,279.4,3.8,N
60.09787,-156.61374,329,0.39,0.36,2019-08-25,12:42,N,nominal,1.0NRT,283,6.8,N
60.09687,-156.60693,352.9,0.39,0.36,2019-08-25,12:42,N,nominal,1.0NRT,300.7,3.8,N
60.09586,-156.60014,322.1,0.39,0.36,2019-08-25,12:42,N,nominal,1.0NRT,285.4,3.8,N
60.09162,-156.59528,301.1,0.39,0.36,2019-08-25,12:42,N,nominal,1.0NRT,278.8,1.1,N
60.08839,-156.59721,303.9,0.39,0.36,2019-08-25,12:42,N,nominal,1.0NRT,278.8,1.1,N
60.08784,-156.60391,352.6,0.39,0.36,2019-08-25,12:42,N,nominal,1.0NRT,281.9,4.8,N
60.08684,-156.59714,307.5,0.39,0.36,2019-08-25,12:42,N,nominal,1.0NRT,279.4,4.8,N
59.08765,-156.92941,307,0.39,0.36,2019-08-25,12:42,N,nominal,1.0NRT,271.4,1.6,N
59.08467,-156.90968,299.3,0.39,0.36,2019-08-25,12:42,N,nominal,1.0NRT,271.1,1.3,N
59.08443,-156.93126,303.2,0.39,0.36,2019-08-25,12:42,N,nominal,1.0NRT,272.2,1.3,N
57.13605,-158.51862,299.1,0.39,0.36,2019-08-25,12:48,N,nominal,1.0NRT,280.2,1.2,N
57.13512,-158.51233,308,0.39,0.36,2019-08-25,12:48,N,nominal,1.0NRT,280,0.9,N
57.12768,-158.50928,305.3,0.39,0.36,2019-08-25,12:48,N,nominal,1.0NRT,279.9,1,N
57.12675,-158.50298,311.5,0.39,0.36,2019-08-25,12:48,N,nominal,1.0NRT,281.7,1.7,N
57.12582,-158.49667,311.5,0.39,0.36,2019-08-25,12:48,N,nominal,1.0NRT,280.9,1.7,N
57.12257,-158.49829,322.1,0.39,0.36,2019-08-25,12:48,N,nominal,1.0NRT,283.1,1.7,N
57.1235,-158.50459,311.5,0.39,0.36,2019-08-25,12:48,N,nominal,1.0NRT,281.3,1.7,N
57.11095,-158.49059,330.5,0.39,0.36,2019-08-25,12:48,N,nominal,1.0NRT,285.3,3,N
57.1077,-158.4922,323.5,0.39,0.36,2019-08-25,12:48,N,nominal,1.0NRT,284.6,3,N
57.10445,-158.49384,305.3,0.39,0.36,2019-08-25,12:48,N,nominal,1.0NRT,279.5,1.2,N
60.58561,-149.91443,297.9,0.63,0.72,2019-08-25,14:24,N,nominal,1.0NRT,275.4,1.7,N
60.55754,-149.8961,298.7,0.63,0.72,2019-08-25,14:24,N,nominal,1.0NRT,276,0.4,N
60.58764,-150.07455,304,0.63,0.72,2019-08-25,14:24,N,nominal,1.0NRT,277,1,N
60.53657,-150.08711,295.5,0.63,0.72,2019-08-25,14:24,N,nominal,1.0NRT,278.3,1,N
60.58511,-150.07938,302.1,0.63,0.72,2019-08-25,14:24,N,nominal,1.0NRT,277.3,0.9,N
60.53298,-150.08911,306.4,0.63,0.72,2019-08-25,14:24,N,nominal,1.0NRT,280.1,4.4,N
60.54679,-150.17615,308.8,0.63,0.72,2019-08-25,14:24,N,nominal,1.0NRT,281.2,2.1,N
60.51488,-150.11053,309.6,0.63,0.72,2019-08-25,14:24,N,nominal,1.0NRT,278.6,2.7,N
60.52895,-150.23689,297.2,0.63,0.72,2019-08-25,14:24,N,nominal,1.0NRT,280.5,3.4,N
60.52294,-150.22458,296.7,0.63,0.72,2019-08-25,14:24,N,nominal,1.0NRT,281.7,2.5,N
60.51607,-150.21048,303,0.63,0.72,2019-08-25,14:24,N,nominal,1.0NRT,282.4,2.4,N
60.52171,-150.24153,307.4,0.63,0.72,2019-08-25,14:24,N,nominal,1.0NRT,282.5,2.5,N
60.51874,-150.23543,312.1,0.63,0.72,2019-08-25,14:24,N,nominal,1.0NRT,283.9,2.5,N
60.51352,-150.22473,298.3,0.63,0.72,2019-08-25,14:24,N,nominal,1.0NRT,280,2.4,N
60.49844,-150.21329,347.6,0.63,0.72,2019-08-25,14:24,N,nominal,1.0NRT,282.2,7.5,N
60.50287,-150.22238,319.6,0.63,0.72,2019-08-25,14:24,N,nominal,1.0NRT,280.1,7.5,N
60.47711,-150.18913,301.3,0.63,0.72,2019-08-25,14:24,N,nominal,1.0NRT,280.2,2.3,N
60.44592,-150.14503,302.2,0.63,0.72,2019-08-25,14:24,N,nominal,1.0NRT,281.4,1.3,N
60.44264,-150.13834,296.9,0.63,0.72,2019-08-25,14:24,N,nominal,1.0NRT,280.3,1.3,N
60.44519,-150.16299,304.5,0.63,0.72,2019-08-25,14:24,N,nominal,1.0NRT,279.7,3.8,N
60.44069,-150.15385,302.1,0.63,0.72,2019-08-25,14:24,N,nominal,1.0NRT,278.6,1.3,N
60.52711,-150.24623,295.5,0.63,0.72,2019-08-25,14:24,N,nominal,1.0NRT,279.4,2.7,N
60.5241,-150.23999,304.6,0.63,0.72,2019-08-25,14:24,N,nominal,1.0NRT,281.6,3.1,N
60.52124,-150.23404,308.1,0.63,0.72,2019-08-25,14:24,N,nominal,1.0NRT,284.7,3.1,N
60.51838,-150.22812,303.1,0.63,0.72,2019-08-25,14:24,N,nominal,1.0NRT,282.6,2.8,N
60.51599,-150.22316,306.5,0.63,0.72,2019-08-25,14:24,N,nominal,1.0NRT,282.2,2.8,N
60.51251,-150.21594,304,0.63,0.72,2019-08-25,14:24,N,nominal,1.0NRT,280.5,3.5,N
60.5001,-150.19012,295.9,0.63,0.72,2019-08-25,14:24,N,nominal,1.0NRT,279.3,1.1,N
60.50214,-150.21399,367,0.63,0.72,2019-08-25,14:24,N,high,1.0NRT,284.1,7.6,N
60.51603,-150.2428,295.6,0.63,0.72,2019-08-25,14:24,N,nominal,1.0NRT,280.5,2.1,N
60.51313,-150.23682,301.5,0.63,0.72,2019-08-25,14:24,N,nominal,1.0NRT,281,2,N
60.49493,-150.2186,309.7,0.63,0.72,2019-08-25,14:24,N,nominal,1.0NRT,279.1,7.6,N
60.44647,-150.13795,299.2,0.63,0.72,2019-08-25,14:24,N,nominal,1.0NRT,281.8,2.5,N
60.44394,-150.15234,314.1,0.63,0.72,2019-08-25,14:24,N,nominal,1.0NRT,281,2.5,N
60.5209,-150.37029,306.6,0.62,0.71,2019-08-25,14:24,N,nominal,1.0NRT,281.7,3.6,N
60.51683,-150.36182,307.6,0.62,0.72,2019-08-25,14:24,N,nominal,1.0NRT,282.6,3.6,N
60.5127,-150.35327,295.3,0.62,0.72,2019-08-25,14:24,N,nominal,1.0NRT,281.1,3.3,N
60.50857,-150.3447,319.4,0.62,0.72,2019-08-25,14:24,N,nominal,1.0NRT,284.6,3.3,N
60.50428,-150.3358,306.9,0.62,0.72,2019-08-25,14:24,N,nominal,1.0NRT,282.6,2.6,N
60.5002,-150.32735,296.8,0.62,0.72,2019-08-25,14:24,N,nominal,1.0NRT,281.3,2.6,N
60.50401,-150.35478,298,0.62,0.72,2019-08-25,14:24,N,nominal,1.0NRT,282.2,3.3,N
60.49979,-150.34602,306.7,0.62,0.72,2019-08-25,14:24,N,nominal,1.0NRT,283.5,2.6,N
60.49563,-150.3374,312.7,0.62,0.72,2019-08-25,14:24,N,nominal,1.0NRT,284,2.6,N
60.49139,-150.32864,299.3,0.62,0.72,2019-08-25,14:24,N,nominal,1.0NRT,282.2,3.3,N
60.49515,-150.35594,296.3,0.62,0.72,2019-08-25,14:24,N,nominal,1.0NRT,281.7,1.4,N
60.49084,-150.34705,298.7,0.62,0.72,2019-08-25,14:24,N,nominal,1.0NRT,282.4,1.4,N
60.48645,-150.33795,298.7,0.62,0.72,2019-08-25,14:24,N,nominal,1.0NRT,282.4,2.6,N
60.46962,-150.32269,344.7,0.63,0.72,2019-08-25,14:24,N,nominal,1.0NRT,287.5,5.7,N
60.49036,-150.36555,302.7,0.62,0.72,2019-08-25,14:24,N,nominal,1.0NRT,282.9,1.4,N
60.48621,-150.35698,296.9,0.62,0.72,2019-08-25,14:24,N,nominal,1.0NRT,282.3,1.4,N
60.47773,-150.33946,295.4,0.63,0.72,2019-08-25,14:24,N,nominal,1.0NRT,281.8,2.6,N
60.47363,-150.33099,301.8,0.63,0.72,2019-08-25,14:24,N,nominal,1.0NRT,282.6,5.7,N
60.46559,-150.31439,299.9,0.63,0.72,2019-08-25,14:24,N,nominal,1.0NRT,281.7,3.7,N
60.46909,-150.34111,296.4,0.63,0.72,2019-08-25,14:24,N,nominal,1.0NRT,282.3,3.3,N
60.46496,-150.3326,302.8,0.63,0.72,2019-08-25,14:24,N,nominal,1.0NRT,283.1,3.3,N
60.46077,-150.32396,300.9,0.63,0.72,2019-08-25,14:24,N,nominal,1.0NRT,282.7,5.3,N
60.45604,-150.33372,326.4,0.63,0.72,2019-08-25,14:24,N,nominal,1.0NRT,288.8,5.3,N
60.4517,-150.32478,336.4,0.63,0.72,2019-08-25,14:24,N,nominal,1.0NRT,289.4,5.3,N
60.47244,-150.36754,304.9,0.62,0.72,2019-08-25,14:24,N,nominal,1.0NRT,283.3,4.6,N
60.46833,-150.35907,318.1,0.63,0.72,2019-08-25,14:24,N,nominal,1.0NRT,286.7,4.6,N
60.46426,-150.35066,314.7,0.63,0.72,2019-08-25,14:24,N,nominal,1.0NRT,285.6,3.3,N
60.46015,-150.34221,312.7,0.63,0.72,2019-08-25,14:24,N,nominal,1.0NRT,286,3.3,N
60.46746,-150.37679,324.1,0.62,0.72,2019-08-25,14:24,N,nominal,1.0NRT,288.8,8.1,N
60.46326,-150.3681,335.6,0.63,0.72,2019-08-25,14:24,N,nominal,1.0NRT,291.8,8.1,N
60.45899,-150.3593,343.7,0.63,0.72,2019-08-25,14:24,N,nominal,1.0NRT,295.2,8.4,N
60.45495,-150.35098,342.3,0.63,0.72,2019-08-25,14:24,N,nominal,1.0NRT,293.9,8.4,N
60.45066,-150.34215,335.7,0.63,0.72,2019-08-25,14:24,N,nominal,1.0NRT,287.9,6.3,N
60.47989,-150.40242,302.6,0.62,0.72,2019-08-25,14:24,N,nominal,1.0NRT,284.1,6.5,N
60.47579,-150.39397,318.2,0.62,0.72,2019-08-25,14:24,N,nominal,1.0NRT,286.3,5,N
60.47165,-150.38542,309.3,0.62,0.72,2019-08-25,14:24,N,nominal,1.0NRT,283.7,5,N
60.4464,-150.33337,303.9,0.63,0.72,2019-08-25,14:24,N,nominal,1.0NRT,280.8,6.3,N
60.4706,-150.40274,320.5,0.62,0.72,2019-08-25,14:24,N,nominal,1.0NRT,287.8,5,N
60.46642,-150.39412,323.1,0.62,0.72,2019-08-25,14:24,N,nominal,1.0NRT,287.7,5,N
60.45802,-150.3768,327.1,0.63,0.72,2019-08-25,14:24,N,nominal,1.0NRT,289.7,8.1,N
60.45365,-150.36778,320.4,0.63,0.72,2019-08-25,14:24,N,nominal,1.0NRT,286,8.4,N
60.46208,-150.38518,317,0.62,0.72,2019-08-25,14:24,N,nominal,1.0NRT,286.7,8.1,N
60.4495,-150.35925,295.7,0.63,0.72,2019-08-25,14:24,N,nominal,1.0NRT,280.9,8.4,N
60.46547,-150.41162,300.8,0.62,0.72,2019-08-25,14:24,N,nominal,1.0NRT,281.9,2.5,N
60.46121,-150.40286,295.7,0.62,0.72,2019-08-25,14:24,N,nominal,1.0NRT,282,2.5,N
60.45708,-150.39438,297.2,0.62,0.72,2019-08-25,14:24,N,nominal,1.0NRT,281.3,2.8,N
60.46872,-150.41,308.2,0.62,0.72,2019-08-25,14:24,N,nominal,1.0NRT,284.5,2.5,N
60.46441,-150.40099,307.8,0.62,0.72,2019-08-25,14:24,N,nominal,1.0NRT,283.3,2.5,N
60.46021,-150.39221,307.8,0.62,0.72,2019-08-25,14:24,N,nominal,1.0NRT,284,4,N
60.45613,-150.3837,307.4,0.63,0.72,2019-08-25,14:24,N,nominal,1.0NRT,282.9,4,N
60.45196,-150.37502,300.9,0.63,0.72,2019-08-25,14:24,N,nominal,1.0NRT,281.2,4,N
60.46362,-150.41896,296.7,0.62,0.72,2019-08-25,14:24,N,nominal,1.0NRT,281.3,2.5,N
60.45948,-150.41031,295.2,0.62,0.72,2019-08-25,14:24,N,nominal,1.0NRT,280.9,2.5,N
60.22938,-156.47414,306.6,0.45,0.63,2019-08-25,14:24,N,nominal,1.0NRT,273.3,1.1,N
60.22224,-156.47528,324.3,0.45,0.63,2019-08-25,14:24,N,nominal,1.0NRT,278.1,3,N
60.22738,-156.48813,299.9,0.45,0.63,2019-08-25,14:24,N,nominal,1.0NRT,274.1,2.4,N
60.22475,-156.48157,310.6,0.45,0.63,2019-08-25,14:24,N,nominal,1.0NRT,275.8,3,N
60.21635,-156.46057,297.6,0.45,0.63,2019-08-25,14:24,N,nominal,1.0NRT,277.6,2.2,N
60.21334,-156.45302,309.8,0.45,0.63,2019-08-25,14:24,N,nominal,1.0NRT,275.8,1.9,N
60.21054,-156.44604,308.4,0.46,0.63,2019-08-25,14:24,N,nominal,1.0NRT,274.2,1.9,N
60.24137,-156.54218,320.1,0.45,0.63,2019-08-25,14:24,N,nominal,1.0NRT,276.9,1.9,N
60.23867,-156.5354,301.8,0.45,0.63,2019-08-25,14:24,N,nominal,1.0NRT,278.2,1.9,N
60.21151,-156.46748,298.3,0.45,0.63,2019-08-25,14:24,N,nominal,1.0NRT,277.9,2.2,N
60.23694,-156.55005,299.1,0.45,0.63,2019-08-25,14:24,N,nominal,1.0NRT,276.2,1.2,N
60.23416,-156.54309,297.5,0.45,0.63,2019-08-25,14:24,N,nominal,1.0NRT,277.7,1.2,N
60.23508,-156.56436,296.2,0.45,0.63,2019-08-25,14:24,N,nominal,1.0NRT,273.9,1.4,N
60.23237,-156.55759,295.6,0.45,0.63,2019-08-25,14:24,N,nominal,1.0NRT,275.8,1.2,N
60.22774,-156.56497,307.6,0.45,0.63,2019-08-25,14:24,N,nominal,1.0NRT,275.8,1.4,N
60.22496,-156.55804,296.6,0.45,0.63,2019-08-25,14:24,N,nominal,1.0NRT,277.7,1.4,N
60.21564,-156.57266,296.3,0.45,0.63,2019-08-25,14:24,N,nominal,1.0NRT,272.8,1.4,N
60.21293,-156.5659,295.5,0.45,0.63,2019-08-25,14:24,N,nominal,1.0NRT,276.7,2.1,N
60.12606,-156.48286,302.1,0.46,0.63,2019-08-25,14:24,N,nominal,1.0NRT,276.1,1,N
60.13392,-156.5755,307.5,0.46,0.63,2019-08-25,14:24,N,nominal,1.0NRT,274.5,1.3,N
60.1293,-156.58295,304.4,0.46,0.63,2019-08-25,14:24,N,nominal,1.0NRT,276.3,1.5,N
60.12471,-156.59047,299.3,0.46,0.63,2019-08-25,14:24,N,nominal,1.0NRT,276,1.5,N
60.1228,-156.60471,298.8,0.45,0.63,2019-08-25,14:24,N,nominal,1.0NRT,274.5,1.7,N
60.12009,-156.59796,312.8,0.46,0.63,2019-08-25,14:24,N,nominal,1.0NRT,278.3,1.7,N
60.11545,-156.60536,307.6,0.46,0.63,2019-08-25,14:24,N,nominal,1.0NRT,277.8,1.7,N
60.11084,-156.61284,301.4,0.46,0.63,2019-08-25,14:24,N,nominal,1.0NRT,274.9,2.4,N
60.10816,-156.60612,302.3,0.46,0.63,2019-08-25,14:24,N,nominal,1.0NRT,277.2,3.2,N
60.10088,-156.60698,335.8,0.46,0.63,2019-08-25,14:24,N,nominal,1.0NRT,284.5,3.2,N
60.10356,-156.61366,309.7,0.46,0.63,2019-08-25,14:24,N,nominal,1.0NRT,275.8,3.2,N
60.0982,-156.6003,308.8,0.46,0.63,2019-08-25,14:24,N,nominal,1.0NRT,281,3.3,N
60.09627,-156.61447,341.8,0.46,0.63,2019-08-25,14:24,N,nominal,1.0NRT,281.4,9.9,N
60.09358,-156.60779,338,0.46,0.63,2019-08-25,14:24,N,nominal,1.0NRT,281.8,4,N
60.09088,-156.60104,316.3,0.46,0.63,2019-08-25,14:24,N,nominal,1.0NRT,278.7,4,N
60.08628,-156.60858,310.6,0.46,0.63,2019-08-25,14:24,N,nominal,1.0NRT,275.7,4,N
60.08356,-156.60179,295.4,0.46,0.63,2019-08-25,14:24,N,nominal,1.0NRT,275.5,2.6,N
59.30804,-157.13725,303,0.48,0.65,2019-08-25,14:24,N,nominal,1.0NRT,274.8,2.5,N
59.30528,-157.13046,309.4,0.48,0.65,2019-08-25,14:24,N,nominal,1.0NRT,277.2,2.9,N
59.29896,-157.12419,299.5,0.48,0.65,2019-08-25,14:24,N,nominal,1.0NRT,279.5,2.2,N
59.29418,-157.13148,319.2,0.48,0.65,2019-08-25,14:24,N,nominal,1.0NRT,282.5,2.2,N
59.29141,-157.12456,299,0.48,0.65,2019-08-25,14:24,N,nominal,1.0NRT,278.3,2.2,N
59.29759,-157.15924,296,0.48,0.65,2019-08-25,14:24,N,nominal,1.0NRT,277.7,2.8,N
59.29486,-157.1524,315.6,0.48,0.65,2019-08-25,14:24,N,nominal,1.0NRT,278.7,2.7,N
59.29211,-157.14557,312.8,0.48,0.65,2019-08-25,14:24,N,nominal,1.0NRT,279.5,2.7,N
59.28937,-157.1387,299.5,0.48,0.65,2019-08-25,14:24,N,nominal,1.0NRT,279,2.1,N
60.45683,-150.10463,335.1,0.37,0.58,2019-08-25,21:00,N,nominal,1.0NRT,286.4,3.8,D
60.44301,-150.14259,348.3,0.38,0.58,2019-08-25,21:00,N,nominal,1.0NRT,293.7,6.4,D
60.44505,-150.15565,333,0.38,0.58,2019-08-25,21:00,N,nominal,1.0NRT,294.2,6.4,D
60.44308,-150.16109,341.3,0.38,0.58,2019-08-25,21:00,N,nominal,1.0NRT,291.2,4.1,D
60.55834,-149.89807,367,0.37,0.58,2019-08-25,21:00,N,high,1.0NRT,292.8,4.8,D
60.55639,-149.90353,332.1,0.37,0.58,2019-08-25,21:00,N,nominal,1.0NRT,291.4,8.7,D
60.4893,-150.08975,330.2,0.37,0.58,2019-08-25,21:00,N,nominal,1.0NRT,290.2,4.6,D
60.56519,-149.89766,326.2,0.37,0.58,2019-08-25,21:00,N,nominal,1.0NRT,290.4,4.8,D
60.56332,-149.90288,332.5,0.37,0.58,2019-08-25,21:00,N,nominal,1.0NRT,291.8,4.8,D
60.49783,-150.10355,333.2,0.37,0.58,2019-08-25,21:00,N,nominal,1.0NRT,290.8,4.6,D
60.56596,-149.95154,367,0.37,0.58,2019-08-25,21:00,N,high,1.0NRT,292.3,25,D
60.57689,-149.92101,344.4,0.37,0.58,2019-08-25,21:00,N,nominal,1.0NRT,282.2,4.4,D
60.53355,-150.04187,330.9,0.37,0.58,2019-08-25,21:00,N,nominal,1.0NRT,281,2.3,D
60.5113,-150.10365,350.3,0.37,0.58,2019-08-25,21:00,N,nominal,1.0NRT,296.2,4.1,D
60.5092,-150.10947,337.9,0.37,0.58,2019-08-25,21:00,N,nominal,1.0NRT,293.1,4.1,D
60.51632,-150.10844,367,0.37,0.58,2019-08-25,21:00,N,high,1.0NRT,291,4.1,D
60.51442,-150.11372,325.9,0.37,0.58,2019-08-25,21:00,N,nominal,1.0NRT,285.8,4.1,D
60.48792,-150.18718,329.7,0.38,0.58,2019-08-25,21:00,N,nominal,1.0NRT,288.5,3.7,D
60.49092,-150.19763,367,0.38,0.58,2019-08-25,21:00,N,high,1.0NRT,302.8,16,D
60.53109,-150.08614,348.2,0.37,0.58,2019-08-25,21:00,N,nominal,1.0NRT,294.8,16,D
60.52908,-150.09172,327.5,0.37,0.58,2019-08-25,21:00,N,nominal,1.0NRT,291.6,54.4,D
60.49305,-150.19176,329,0.38,0.58,2019-08-25,21:00,N,nominal,1.0NRT,288.1,16,D
60.48835,-150.20473,354.4,0.38,0.58,2019-08-25,21:00,N,nominal,1.0NRT,289.9,21.2,D
60.53468,-150.09488,367,0.37,0.58,2019-08-25,21:00,N,high,1.0NRT,296.5,16,D
60.53255,-150.10083,367,0.37,0.58,2019-08-25,21:00,N,high,1.0NRT,300.7,54.4,D
60.44973,-150.33017,367,0.38,0.59,2019-08-25,21:00,N,high,1.0NRT,301.4,11.4,D
60.53639,-150.09013,330,0.37,0.58,2019-08-25,21:00,N,nominal,1.0NRT,287.1,16,D
60.51748,-150.1427,341.4,0.37,0.58,2019-08-25,21:00,N,nominal,1.0NRT,287.8,4.8,D
60.5149,-150.14987,348.3,0.37,0.58,2019-08-25,21:00,N,nominal,1.0NRT,286.4,4.8,D
60.49819,-150.19626,328.4,0.38,0.58,2019-08-25,21:00,N,nominal,1.0NRT,285.5,16,D
60.45201,-150.3239,349.4,0.38,0.59,2019-08-25,21:00,N,nominal,1.0NRT,296.9,11.8,D
60.5302,-150.10736,208,0.37,0.58,2019-08-25,21:00,N,low,1.0NRT,298.8,54.4,D
60.44754,-150.33621,367,0.38,0.59,2019-08-25,21:00,N,low,1.0NRT,286.1,11.4,D
60.45211,-150.34244,367,0.38,0.59,2019-08-25,21:00,N,high,1.0NRT,295.9,9.2,D
60.59557,-149.94351,327.9,0.37,0.58,2019-08-25,21:00,N,nominal,1.0NRT,284.1,3.7,D
60.59367,-149.94882,351.9,0.37,0.58,2019-08-25,21:00,N,nominal,1.0NRT,286.8,3.7,D
60.524,-150.14336,354.1,0.37,0.58,2019-08-25,21:00,N,nominal,1.0NRT,289.1,5.8,D
60.45861,-150.32451,331.4,0.38,0.59,2019-08-25,21:00,N,nominal,1.0NRT,291,7.3,D
60.45655,-150.33018,336.9,0.38,0.59,2019-08-25,21:00,N,nominal,1.0NRT,293.3,7.3,D
60.4544,-150.33611,344.4,0.38,0.59,2019-08-25,21:00,N,nominal,1.0NRT,291.7,9.2,D
60.44991,-150.3485,337.2,0.38,0.59,2019-08-25,21:00,N,nominal,1.0NRT,283.8,8.4,D
60.53487,-150.13188,343.5,0.37,0.58,2019-08-25,21:00,N,nominal,1.0NRT,286.5,4.6,D
60.46926,-150.31392,333.1,0.38,0.59,2019-08-25,21:00,N,nominal,1.0NRT,289.3,5.6,D
60.46717,-150.31969,343.4,0.38,0.59,2019-08-25,21:00,N,nominal,1.0NRT,292.6,5.3,D
60.46512,-150.32536,338.4,0.38,0.59,2019-08-25,21:00,N,nominal,1.0NRT,292.6,5.3,D
60.45659,-150.34888,344.6,0.38,0.59,2019-08-25,21:00,N,nominal,1.0NRT,298.7,9.2,D
60.45429,-150.35524,347.4,0.38,0.59,2019-08-25,21:00,N,nominal,1.0NRT,293.5,8.4,D
60.47358,-150.32079,346.4,0.38,0.59,2019-08-25,21:00,N,nominal,1.0NRT,288.4,8.2,D
60.47156,-150.32635,332.5,0.38,0.59,2019-08-25,21:00,N,nominal,1.0NRT,293.1,9.4,D
60.46111,-150.35524,339.4,0.38,0.59,2019-08-25,21:00,N,nominal,1.0NRT,294.2,14.6,D
60.45879,-150.36165,336.5,0.38,0.59,2019-08-25,21:00,N,nominal,1.0NRT,287.8,12.2,D
60.51822,-150.21581,325.5,0.38,0.58,2019-08-25,21:00,N,nominal,1.0NRT,286.4,2.8,D
60.48202,-150.31625,346.3,0.38,0.59,2019-08-25,21:00,N,nominal,1.0NRT,293.2,4.9,D
60.54089,-150.17146,367,0.37,0.58,2019-08-25,21:00,N,high,1.0NRT,294.4,21.3,D
60.46786,-150.37425,367,0.38,0.59,2019-08-25,21:00,N,high,1.0NRT,298,15,D
60.53901,-150.17671,353,0.37,0.58,2019-08-25,21:00,N,nominal,1.0NRT,299.3,18.1,D
60.5219,-150.22438,328.6,0.38,0.58,2019-08-25,21:00,N,nominal,1.0NRT,286.3,4.1,D
60.51539,-150.24251,344.1,0.38,0.58,2019-08-25,21:00,N,nominal,1.0NRT,285.5,3.7,D
60.48652,-150.32265,336.6,0.38,0.59,2019-08-25,21:00,N,nominal,1.0NRT,288.1,3.5,D
60.46999,-150.36838,339.8,0.38,0.59,2019-08-25,21:00,N,nominal,1.0NRT,289.9,10.9,D
60.46561,-150.38043,353,0.38,0.59,2019-08-25,21:00,N,nominal,1.0NRT,300.4,15,D
60.54478,-150.17944,367,0.37,0.58,2019-08-25,21:00,N,high,1.0NRT,295.7,21.3,D
60.54256,-150.18562,335,0.37,0.58,2019-08-25,21:00,N,nominal,1.0NRT,285.8,18.1,D
60.52541,-150.23346,332,0.38,0.58,2019-08-25,21:00,N,nominal,1.0NRT,291.1,4.1,D
60.49091,-150.32932,328.8,0.38,0.59,2019-08-25,21:00,N,nominal,1.0NRT,288.7,3.5,D
60.47448,-150.37482,350.6,0.38,0.59,2019-08-25,21:00,N,nominal,1.0NRT,292.9,10.9,D
60.46956,-150.31636,347.9,0.38,0.59,2019-08-25,21:00,N,nominal,1.0NRT,292.8,6.4,D
60.46746,-150.32205,348.5,0.38,0.59,2019-08-25,21:00,N,nominal,1.0NRT,296.5,6.4,D
60.45675,-150.35117,348.4,0.38,0.59,2019-08-25,21:00,N,nominal,1.0NRT,302,6.7,D
60.45441,-150.35748,346.4,0.38,0.59,2019-08-25,21:00,N,nominal,1.0NRT,295.3,6.7,D
60.47389,-150.3232,338.2,0.38,0.59,2019-08-25,21:00,N,nominal,1.0NRT,286.3,6.4,D
60.46128,-150.35748,332.5,0.38,0.59,2019-08-25,21:00,N,nominal,1.0NRT,289.7,6.7,D
60.53507,-150.17471,367,0.37,0.58,2019-08-25,21:00,N,high,1.0NRT,294.6,17.1,D
60.51902,-150.21866,340,0.37,0.58,2019-08-25,21:00,N,nominal,1.0NRT,287.5,6,D
60.48239,-150.31866,355.1,0.38,0.59,2019-08-25,21:00,N,nominal,1.0NRT,294.9,9.3,D
60.46576,-150.36394,335.2,0.38,0.59,2019-08-25,21:00,N,nominal,1.0NRT,292.3,7.2,D
60.46352,-150.37004,343.1,0.38,0.59,2019-08-25,21:00,N,nominal,1.0NRT,292.6,7.2,D
60.54173,-150.17505,367,0.37,0.58,2019-08-25,21:00,N,high,1.0NRT,302.1,17.1,D
60.5397,-150.18062,367,0.37,0.58,2019-08-25,21:00,N,high,1.0NRT,290.2,17.1,D
60.46804,-150.37639,367,0.38,0.59,2019-08-25,21:00,N,high,1.0NRT,294.9,7.2,D
60.47019,-150.37053,344,0.38,0.59,2019-08-25,21:00,N,nominal,1.0NRT,289.3,7.2,D
60.46577,-150.38255,350.9,0.38,0.59,2019-08-25,21:00,N,nominal,1.0NRT,299.1,17.3,D
60.54549,-150.1833,342.4,0.37,0.58,2019-08-25,21:00,N,nominal,1.0NRT,285.2,4.5,D
60.52595,-150.23692,345.4,0.37,0.58,2019-08-25,21:00,N,nominal,1.0NRT,293.2,7.5,D
60.4747,-150.37694,352.1,0.38,0.59,2019-08-25,21:00,N,nominal,1.0NRT,293,16.7,D
60.46808,-150.39493,342.9,0.38,0.59,2019-08-25,21:00,N,nominal,1.0NRT,297.8,9.6,D
60.52407,-150.24208,367,0.38,0.58,2019-08-25,21:00,N,low,1.0NRT,291.6,7.5,D
60.49789,-150.33231,367,0.38,0.59,2019-08-25,21:00,N,high,1.0NRT,299.7,11.8,D
60.52775,-150.2506,341.9,0.38,0.58,2019-08-25,21:00,N,nominal,1.0NRT,288.5,7.5,D
60.47262,-150.40126,351.7,0.38,0.59,2019-08-25,21:00,N,nominal,1.0NRT,298,9.6,D
60.5023,-150.33896,367,0.38,0.59,2019-08-25,21:00,N,high,1.0NRT,300.1,8.5,D
60.48571,-150.38428,367,0.38,0.59,2019-08-25,21:00,N,high,1.0NRT,295.7,30.8,D
60.48143,-150.39594,367,0.38,0.59,2019-08-25,21:00,N,high,1.0NRT,291.2,15.9,D
60.48359,-150.39006,354.9,0.38,0.59,2019-08-25,21:00,N,nominal,1.0NRT,301.1,15.9,D
60.50676,-150.34543,367,0.38,0.59,2019-08-25,21:00,N,high,1.0NRT,303.3,8.5,D
60.50883,-150.33977,344.7,0.38,0.59,2019-08-25,21:00,N,nominal,1.0NRT,291.1,8.5,D
60.50477,-150.35088,336,0.38,0.59,2019-08-25,21:00,N,nominal,1.0NRT,295.7,10.9,D
60.51326,-150.3463,349.3,0.38,0.59,2019-08-25,21:00,N,nominal,1.0NRT,292,19,D
60.51774,-150.35277,367,0.38,0.59,2019-08-25,21:00,N,high,1.0NRT,298.4,19,D
60.51566,-150.35847,345.7,0.38,0.59,2019-08-25,21:00,N,nominal,1.0NRT,305.5,19,D
60.51357,-150.3642,342.2,0.38,0.59,2019-08-25,21:00,N,nominal,1.0NRT,296.1,10.5,D
60.52216,-150.35933,367,0.38,0.59,2019-08-25,21:00,N,high,1.0NRT,290.8,49,D
60.51798,-150.3708,341.1,0.38,0.59,2019-08-25,21:00,N,nominal,1.0NRT,289.5,19.5,D
60.52449,-150.37169,344.8,0.38,0.59,2019-08-25,21:00,N,nominal,1.0NRT,290.6,49,D
60.67243,-149.99947,335.1,0.36,0.58,2019-08-25,21:00,N,nominal,1.0NRT,292.5,4.9,D
60.67732,-150.00446,367,0.36,0.58,2019-08-25,21:00,N,high,1.0NRT,291.6,9.2,D
60.64065,-150.20042,343.1,0.37,0.58,2019-08-25,21:00,N,nominal,1.0NRT,291.6,3.5,D
60.09164,-156.60448,346,0.57,0.69,2019-08-25,21:00,N,nominal,1.0NRT,297.2,9.7,D
60.08807,-156.61243,347.6,0.57,0.69,2019-08-25,21:00,N,nominal,1.0NRT,292.5,9.7,D
60.15699,-156.478,341.4,0.56,0.69,2019-08-25,21:00,N,nominal,1.0NRT,294.7,6.6,D
60.16186,-156.48657,349.6,0.56,0.69,2019-08-25,21:00,N,nominal,1.0NRT,290.9,6.6,D
60.10498,-156.61377,328.7,0.57,0.69,2019-08-25,21:00,N,nominal,1.0NRT,285.9,16.1,D
60.13126,-156.57462,335.3,0.57,0.69,2019-08-25,21:00,N,nominal,1.0NRT,294.2,10.3,D
60.13266,-156.59099,329.4,0.57,0.69,2019-08-25,21:00,N,nominal,1.0NRT,286.4,13.3,D
60.21321,-156.44908,340.4,0.56,0.69,2019-08-25,21:00,N,nominal,1.0NRT,291.3,4.6,D
60.20969,-156.457,333.4,0.56,0.69,2019-08-25,21:00,N,nominal,1.0NRT,292.2,4.6,D
60.09297,-156.60463,337.9,0.57,0.69,2019-08-25,21:00,N,nominal,1.0NRT,296.7,15.9,D
60.08937,-156.61253,355.1,0.57,0.69,2019-08-25,21:00,N,nominal,1.0NRT,292.5,13,D
60.15874,-156.47902,367,0.56,0.69,2019-08-25,21:00,N,high,1.0NRT,296.1,6.1,D
60.09788,-156.6132,367,0.57,0.69,2019-08-25,21:00,N,low,1.0NRT,298,10.9,D
60.16362,-156.48756,331.2,0.56,0.69,2019-08-25,21:00,N,nominal,1.0NRT,288.1,6.1,D
60.10637,-156.61391,325.2,0.57,0.69,2019-08-25,21:00,N,nominal,1.0NRT,285.2,10.9,D
60.13282,-156.57497,331.8,0.57,0.69,2019-08-25,21:00,N,nominal,1.0NRT,292.6,7.2,D
60.12924,-156.58289,338.8,0.57,0.69,2019-08-25,21:00,N,nominal,1.0NRT,294.1,7.2,D
60.1221,-156.59863,333.8,0.57,0.69,2019-08-25,21:00,N,nominal,1.0NRT,288.9,10.9,D
60.20672,-156.45003,326.6,0.56,0.69,2019-08-25,21:00,N,nominal,1.0NRT,290.2,3.8,D
60.21536,-156.45016,330.8,0.56,0.69,2019-08-25,21:00,N,nominal,1.0NRT,290.3,7.9,D
60.21181,-156.45807,336.8,0.56,0.69,2019-08-25,21:00,N,nominal,1.0NRT,292.9,3.8,D
60.22728,-156.48174,334.8,0.56,0.69,2019-08-25,21:00,N,nominal,1.0NRT,287.2,4.2,D
60.23945,-156.5322,327.7,0.56,0.69,2019-08-25,21:00,N,nominal,1.0NRT,289.1,7.5,D
57.11243,-158.48749,331.9,0.47,0.4,2019-08-25,22:36,N,nominal,1.0NRT,295.3,4.6,D
57.12614,-158.49736,332.8,0.47,0.4,2019-08-25,22:36,N,nominal,1.0NRT,288.5,4.4,D
57.12613,-158.49731,332.1,0.47,0.4,2019-08-25,22:36,N,nominal,1.0NRT,287.7,6.6,D
57.13828,-158.51448,332.5,0.47,0.4,2019-08-25,22:36,N,nominal,1.0NRT,290.4,5,D
59.10818,-156.92455,327,0.41,0.37,2019-08-25,22:36,N,nominal,1.0NRT,294.2,3.2,D
59.1669,-156.88113,333.4,0.41,0.37,2019-08-25,22:36,N,nominal,1.0NRT,296.2,3.9,D
59.17027,-156.92191,338.9,0.41,0.37,2019-08-25,22:36,N,nominal,1.0NRT,295.7,3.5,D
60.4434,-150.14023,340.4,0.42,0.37,2019-08-25,22:36,N,nominal,1.0NRT,289.5,4.5,D
60.45789,-150.11014,334.1,0.42,0.38,2019-08-25,22:36,N,nominal,1.0NRT,291.4,2.6,D
60.46497,-150.08173,329.3,0.42,0.38,2019-08-25,22:36,N,nominal,1.0NRT,293.4,4.3,D
60.4641,-150.08879,334.9,0.42,0.38,2019-08-25,22:36,N,nominal,1.0NRT,293.3,4.3,D
60.46841,-150.08293,342.4,0.42,0.38,2019-08-25,22:36,N,nominal,1.0NRT,295.3,4.3,D
60.47186,-150.08414,339.4,0.42,0.38,2019-08-25,22:36,N,nominal,1.0NRT,292.3,5.4,D
60.4899,-150.08377,336.2,0.42,0.38,2019-08-25,22:36,N,nominal,1.0NRT,287.2,6.5,D
60.49323,-150.08592,345.1,0.42,0.38,2019-08-25,22:36,N,nominal,1.0NRT,296.1,6.7,D
60.49564,-150.09552,338.8,0.42,0.38,2019-08-25,22:36,N,nominal,1.0NRT,296,8.6,D
60.49473,-150.10294,346.4,0.42,0.38,2019-08-25,22:36,N,nominal,1.0NRT,297.5,8.6,D
60.53425,-150.04503,337.2,0.42,0.38,2019-08-25,22:36,N,nominal,1.0NRT,294.9,37.2,D
60.53854,-150.03943,341.7,0.42,0.38,2019-08-25,22:36,N,nominal,1.0NRT,305.9,37.2,D
60.53542,-150.04562,336.7,0.42,0.38,2019-08-25,22:36,N,low,1.0NRT,307.3,62.4,D
60.53968,-150.04025,344.3,0.42,0.38,2019-08-25,22:36,N,nominal,1.0NRT,303.8,16,D
60.58668,-149.91977,348,0.42,0.38,2019-08-25,22:36,N,nominal,1.0NRT,297.7,7,D
60.57378,-150.0262,329.6,0.42,0.38,2019-08-25,22:36,N,low,1.0NRT,302,4,D
60.59008,-149.92155,327.2,0.42,0.38,2019-08-25,22:36,N,nominal,1.0NRT,284.3,7,D
60.60549,-150.00243,348.3,0.42,0.38,2019-08-25,22:36,N,nominal,1.0NRT,306.1,9.4,D
60.67559,-149.99501,342.2,0.42,0.38,2019-08-25,22:36,N,nominal,1.0NRT,290.7,7.6,D
60.67896,-149.99698,343.5,0.42,0.38,2019-08-25,22:36,N,nominal,1.0NRT,291.9,12.4,D
60.09821,-156.61002,346.2,0.39,0.37,2019-08-25,22:36,N,nominal,1.0NRT,297.3,7.8,D
60.097,-156.61681,332.5,0.39,0.37,2019-08-25,22:36,N,nominal,1.0NRT,280.9,7.8,D
60.10261,-156.6055,325.3,0.39,0.37,2019-08-25,22:36,N,nominal,1.0NRT,287.9,2.7,D
60.10141,-156.61229,354.3,0.39,0.37,2019-08-25,22:36,N,nominal,1.0NRT,304.5,7.8,D
60.1002,-156.61909,334.3,0.39,0.37,2019-08-25,22:36,N,nominal,1.0NRT,292.5,7.8,D
60.12742,-156.48547,341.8,0.39,0.36,2019-08-25,22:36,N,nominal,1.0NRT,296.1,5.9,D
60.10461,-156.61458,332.2,0.39,0.37,2019-08-25,22:36,N,nominal,1.0NRT,282.1,3.8,D
60.11721,-156.60909,331.9,0.39,0.37,2019-08-25,22:36,N,nominal,1.0NRT,291.9,5.6,D
60.12283,-156.59775,329.2,0.39,0.37,2019-08-25,22:36,N,nominal,1.0NRT,295,4.1,D
60.12162,-156.60454,355.3,0.39,0.37,2019-08-25,22:36,N,nominal,1.0NRT,295,5.6,D
60.12603,-156.60001,347.1,0.39,0.37,2019-08-25,22:36,N,nominal,1.0NRT,291.9,4.5,D
60.13285,-156.58191,367,0.39,0.36,2019-08-25,22:36,N,high,1.0NRT,298.4,7,D
60.13406,-156.57512,340.9,0.39,0.36,2019-08-25,22:36,N,nominal,1.0NRT,301.3,27.6,D
60.13165,-156.5887,336.7,0.39,0.36,2019-08-25,22:36,N,nominal,1.0NRT,292,7,D
60.13044,-156.59549,334,0.39,0.36,2019-08-25,22:36,N,nominal,1.0NRT,290.6,4.5,D
60.20645,-156.45058,345.2,0.39,0.36,2019-08-25,22:36,N,nominal,1.0NRT,291.7,2.8,D
60.21085,-156.44603,334.2,0.39,0.36,2019-08-25,22:36,N,nominal,1.0NRT,291.1,4.1,D
60.20966,-156.45284,338.9,0.39,0.36,2019-08-25,22:36,N,nominal,1.0NRT,291.3,6.8,D
60.21405,-156.44827,340.6,0.39,0.36,2019-08-25,22:36,N,nominal,1.0NRT,291.4,4.1,D
60.21725,-156.4505,342.3,0.39,0.36,2019-08-25,22:36,N,nominal,1.0NRT,292.5,4,D
60.22045,-156.4527,325.1,0.39,0.36,2019-08-25,22:36,N,nominal,1.0NRT,290.8,4,D
60.21927,-156.45943,327,0.39,0.36,2019-08-25,22:36,N,nominal,1.0NRT,296.1,6.3,D
60.22448,-156.47064,332.4,0.39,0.36,2019-08-25,22:36,N,nominal,1.0NRT,291.2,2.2,D
60.22766,-156.47295,332.7,0.39,0.36,2019-08-25,22:36,N,nominal,1.0NRT,292.1,4.5,D
60.22966,-156.48207,348.6,0.39,0.36,2019-08-25,22:36,N,nominal,1.0NRT,293.7,7.2,D
60.21409,-156.5705,336.5,0.39,0.36,2019-08-25,22:36,N,nominal,1.0NRT,294,4.2,D
60.23072,-156.56633,339.2,0.39,0.36,2019-08-25,22:36,N,nominal,1.0NRT,291.1,3.4,D
60.24113,-156.52786,336.2,0.39,0.36,2019-08-25,22:36,N,nominal,1.0NRT,290.2,4.5,D
60.23753,-156.5482,341.8,0.39,0.36,2019-08-25,22:36,N,nominal,1.0NRT,295.7,8.2,D
60.23512,-156.56177,339.8,0.39,0.36,2019-08-25,22:36,N,nominal,1.0NRT,294.3,6.8,D
60.24192,-156.5437,354.7,0.39,0.36,2019-08-25,22:36,N,nominal,1.0NRT,296.4,6.1,D
60.23832,-156.56404,328.4,0.39,0.36,2019-08-25,22:36,N,nominal,1.0NRT,289.1,1.7,D
