latitude,longitude,bright_ti4,scan,track,acq_date,acq_time,satellite,confidence,version,bright_ti5,frp,daynight
5.51124,95.77007,325.2,0.62,0.54,2019-09-07,06:24,N,nominal,1.0NRT,293.1,4,D
14.64745,100.78014,329.4,0.39,0.36,2019-09-07,06:24,N,nominal,1.0NRT,293.4,3.2,D
14.54449,100.61924,349.8,0.39,0.36,2019-09-07,06:24,N,nominal,1.0NRT,296.9,9.3,D
8.04942,98.33119,344.9,0.38,0.43,2019-09-07,06:24,N,nominal,1.0NRT,297.1,5.1,D
8.17607,100.23788,340,0.45,0.39,2019-09-07,06:24,N,nominal,1.0NRT,297,7.1,D
8.01805,100.0203,346.7,0.46,0.39,2019-09-07,06:24,N,nominal,1.0NRT,297.4,6.4,D
8.01873,100.02449,343.3,0.46,0.39,2019-09-07,06:24,N,low,1.0NRT,297.8,12.7,D
5.64211,95.45662,330.8,0.32,0.55,2019-09-07,06:24,N,nominal,1.0NRT,295.4,4.9,D
6.34933,100.29729,340.5,0.47,0.4,2019-09-07,06:24,N,nominal,1.0NRT,298.5,6.1,D
20.10192,99.56828,333.2,0.39,0.36,2019-09-07,06:30,N,nominal,1.0NRT,288.8,2.5,D
21.1854,101.18726,340.5,0.39,0.36,2019-09-07,06:30,N,nominal,1.0NRT,294.8,3.4,D
21.467,101.57271,338.9,0.4,0.37,2019-09-07,06:30,N,nominal,1.0NRT,297.5,4,D
22.30751,100.42856,333.3,0.39,0.36,2019-09-07,06:30,N,nominal,1.0NRT,293.8,7.1,D
26.56331,101.67834,333.6,0.44,0.38,2019-09-07,06:30,N,nominal,1.0NRT,302.8,8.9,D
26.57623,101.66724,337.7,0.44,0.38,2019-09-07,06:30,N,nominal,1.0NRT,293.8,23.5,D
27.85348,96.06035,332.1,0.42,0.38,2019-09-07,06:30,N,nominal,1.0NRT,296.8,2.5,D
27.78425,95.54648,327.8,0.44,0.38,2019-09-07,06:30,N,low,1.0NRT,298.6,6.4,D
27.83247,95.59496,328.5,0.43,0.38,2019-09-07,06:30,N,low,1.0NRT,300.2,8.6,D
27.9694,96.04659,327.1,0.42,0.37,2019-09-07,06:30,N,low,1.0NRT,299.9,2.8,D
27.97282,96.04586,327.7,0.42,0.37,2019-09-07,06:30,N,low,1.0NRT,299.8,2.8,D
27.97624,96.04514,327.2,0.42,0.37,2019-09-07,06:30,N,low,1.0NRT,299.5,2.7,D
26.70602,88.63846,328.2,0.36,0.57,2019-09-07,06:30,N,nominal,1.0NRT,287.8,3.1,D
29.71202,91.11411,339.3,0.44,0.46,2019-09-07,06:30,N,nominal,1.0NRT,294.1,6.4,D
7.28974,81.10608,336.1,0.46,0.39,2019-09-07,08:06,N,nominal,1.0NRT,303.5,6.8,D
7.29581,81.12215,338.7,0.46,0.39,2019-09-07,08:06,N,nominal,1.0NRT,304.7,5.5,D
7.29519,81.11799,336.3,0.46,0.39,2019-09-07,08:06,N,nominal,1.0NRT,302.8,15.6,D
7.29184,81.11449,345.2,0.46,0.39,2019-09-07,08:06,N,nominal,1.0NRT,304.9,31.7,D
7.29065,81.10617,337.8,0.46,0.39,2019-09-07,08:06,N,nominal,1.0NRT,303.9,6.3,D
7.29604,81.1181,336.5,0.46,0.39,2019-09-07,08:06,N,nominal,1.0NRT,303.1,5.1,D
7.30445,81.12541,339.7,0.46,0.39,2019-09-07,08:06,N,nominal,1.0NRT,302.7,2.3,D
7.30508,81.10413,335.9,0.46,0.39,2019-09-07,08:06,N,nominal,1.0NRT,304.7,14.2,D
7.33835,81.31036,338.7,0.47,0.4,2019-09-07,08:06,N,nominal,1.0NRT,301.6,5.1,D
7.32193,81.14441,348.6,0.46,0.39,2019-09-07,08:06,N,nominal,1.0NRT,305.6,9.9,D
7.32854,81.16467,337.6,0.46,0.39,2019-09-07,08:06,N,nominal,1.0NRT,301.2,4,D
7.33397,81.17667,343.5,0.46,0.39,2019-09-07,08:06,N,nominal,1.0NRT,299.6,4.2,D
7.35104,81.26929,336.8,0.47,0.4,2019-09-07,08:06,N,nominal,1.0NRT,300,5.7,D
7.33336,81.12136,337.7,0.46,0.39,2019-09-07,08:06,N,nominal,1.0NRT,303.8,5.6,D
7.35521,81.24677,347.5,0.47,0.4,2019-09-07,08:06,N,nominal,1.0NRT,302.4,7.4,D
7.35884,81.24622,335.4,0.47,0.4,2019-09-07,08:06,N,nominal,1.0NRT,293.5,2.1,D
7.22293,81.10233,334.4,0.46,0.39,2019-09-07,08:06,N,nominal,1.0NRT,300.1,3.1,D
7.23147,81.18679,339.5,0.46,0.39,2019-09-07,08:06,N,nominal,1.0NRT,300.5,5.8,D
7.32735,81.02924,335.4,0.46,0.39,2019-09-07,08:06,N,nominal,1.0NRT,303.3,1,D
7.34236,81.08192,335.9,0.46,0.39,2019-09-07,08:06,N,nominal,1.0NRT,301.8,2.5,D
7.37029,81.19747,338.3,0.46,0.39,2019-09-07,08:06,N,nominal,1.0NRT,301.7,9.1,D
7.36967,81.19324,338.2,0.46,0.39,2019-09-07,08:06,N,nominal,1.0NRT,305,10.9,D
7.38247,81.23009,336,0.47,0.39,2019-09-07,08:06,N,nominal,1.0NRT,300.9,11.9,D
7.45154,81.67727,340.2,0.49,0.4,2019-09-07,08:06,N,nominal,1.0NRT,298.6,4,D
7.39815,81.21061,342.5,0.47,0.39,2019-09-07,08:06,N,nominal,1.0NRT,300.9,6.4,D
7.44359,81.41746,342.6,0.48,0.4,2019-09-07,08:06,N,nominal,1.0NRT,296.1,8.5,D
7.44306,81.41845,342.5,0.48,0.4,2019-09-07,08:06,N,nominal,1.0NRT,294.5,10.2,D
7.39318,80.99079,339.9,0.45,0.39,2019-09-07,08:06,N,nominal,1.0NRT,305.3,4.4,D
7.49259,80.99328,341.1,0.46,0.39,2019-09-07,08:06,N,nominal,1.0NRT,307.6,21.6,D
7.49077,80.98103,343.2,0.46,0.39,2019-09-07,08:06,N,nominal,1.0NRT,307.8,6.2,D
7.49037,80.99462,334.7,0.46,0.39,2019-09-07,08:06,N,low,1.0NRT,304.9,2.2,D
7.49396,80.99403,339.2,0.46,0.39,2019-09-07,08:06,N,nominal,1.0NRT,305.6,14.7,D
7.49221,80.9818,348.3,0.46,0.39,2019-09-07,08:06,N,nominal,1.0NRT,306.9,9.2,D
7.48204,80.83437,346,0.45,0.39,2019-09-07,08:06,N,nominal,1.0NRT,301.7,13.2,D
7.58486,81.36942,335.1,0.48,0.4,2019-09-07,08:06,N,nominal,1.0NRT,301.3,5.1,D
7.54671,80.97816,337.5,0.46,0.39,2019-09-07,08:06,N,nominal,1.0NRT,303.6,5.5,D
7.5545,80.98126,343.2,0.46,0.39,2019-09-07,08:06,N,nominal,1.0NRT,304.7,3.2,D
7.5539,80.97713,337.6,0.46,0.39,2019-09-07,08:06,N,nominal,1.0NRT,305.6,3.2,D
7.5382,80.84488,339.6,0.45,0.39,2019-09-07,08:06,N,nominal,1.0NRT,301.6,4.7,D
7.58143,80.96471,340.5,0.46,0.39,2019-09-07,08:06,N,nominal,1.0NRT,304,2.3,D
7.57656,80.9317,336.1,0.45,0.39,2019-09-07,08:06,N,nominal,1.0NRT,304.8,2.3,D
7.5781,80.84343,341.4,0.45,0.39,2019-09-07,08:06,N,nominal,1.0NRT,303.9,4.3,D
7.5769,80.84402,338.6,0.45,0.39,2019-09-07,08:06,N,nominal,1.0NRT,303.6,3.2,D
7.67138,81.45573,338.7,0.48,0.4,2019-09-07,08:06,N,nominal,1.0NRT,299.7,4.5,D
7.61361,81.04957,338.3,0.46,0.39,2019-09-07,08:06,N,nominal,1.0NRT,301.9,3.5,D
7.61666,81.0194,335.7,0.46,0.39,2019-09-07,08:06,N,nominal,1.0NRT,301.9,1.9,D
7.61024,80.84756,346.6,0.45,0.39,2019-09-07,08:06,N,nominal,1.0NRT,304.4,17.8,D
7.66067,81.17148,338.8,0.47,0.39,2019-09-07,08:06,N,nominal,1.0NRT,304,10,D
7.64249,80.99451,343,0.46,0.39,2019-09-07,08:06,N,nominal,1.0NRT,303.9,3.8,D
7.62574,80.82876,334.4,0.45,0.39,2019-09-07,08:06,N,nominal,1.0NRT,302.2,2.3,D
7.62871,80.82413,345.9,0.45,0.39,2019-09-07,08:06,N,nominal,1.0NRT,303.7,5,D
7.64179,80.81384,338.9,0.45,0.39,2019-09-07,08:06,N,nominal,1.0NRT,302.3,3.7,D
7.64953,80.81693,335,0.45,0.39,2019-09-07,08:06,N,nominal,1.0NRT,302.8,3.1,D
7.65953,80.7367,347.9,0.45,0.39,2019-09-07,08:06,N,nominal,1.0NRT,306.5,17.4,D
7.66309,80.73621,349.4,0.45,0.39,2019-09-07,08:06,N,nominal,1.0NRT,305.1,17.4,D
7.72473,81.12774,331.9,0.46,0.39,2019-09-07,08:06,N,low,1.0NRT,304,2.2,D
7.66541,80.73589,337.9,0.45,0.39,2019-09-07,08:06,N,nominal,1.0NRT,302.9,5.9,D
7.72498,81.12808,331.4,0.47,0.39,2019-09-07,08:06,N,low,1.0NRT,303.5,2.1,D
7.79482,81.22659,338.3,0.47,0.4,2019-09-07,08:06,N,nominal,1.0NRT,301.8,4,D
7.81308,81.22398,340.3,0.47,0.4,2019-09-07,08:06,N,nominal,1.0NRT,302.6,6.3,D
7.75085,80.79828,336.3,0.45,0.39,2019-09-07,08:06,N,nominal,1.0NRT,297.8,3.5,D
7.81236,81.19355,337.1,0.47,0.4,2019-09-07,08:06,N,nominal,1.0NRT,301.4,2,D
7.83864,81.22034,340.6,0.47,0.4,2019-09-07,08:06,N,nominal,1.0NRT,301.5,6.1,D
7.76018,80.68886,336.3,0.44,0.39,2019-09-07,08:06,N,nominal,1.0NRT,301.4,3.4,D
7.77791,80.69058,334.9,0.45,0.39,2019-09-07,08:06,N,nominal,1.0NRT,299.8,3.2,D
7.83885,81.09107,332.2,0.46,0.39,2019-09-07,08:06,N,nominal,1.0NRT,300.2,3.3,D
7.90138,81.45152,342.7,0.48,0.4,2019-09-07,08:06,N,nominal,1.0NRT,301.4,8.6,D
7.91784,81.20106,340.4,0.47,0.4,2019-09-07,08:06,N,nominal,1.0NRT,303.1,4.3,D
7.92882,81.04809,349.7,0.46,0.39,2019-09-07,08:06,N,nominal,1.0NRT,303.2,6.5,D
7.9941,81.46532,337.9,0.49,0.4,2019-09-07,08:06,N,nominal,1.0NRT,288,3.7,D
7.93244,81.04757,349,0.46,0.39,2019-09-07,08:06,N,nominal,1.0NRT,302.6,6.5,D
7.93181,81.04336,332.6,0.46,0.39,2019-09-07,08:06,N,nominal,1.0NRT,302.3,6.5,D
7.92934,81.04839,348.6,0.46,0.39,2019-09-07,08:06,N,nominal,1.0NRT,303.2,13.1,D
7.93296,81.04787,340.6,0.46,0.39,2019-09-07,08:06,N,nominal,1.0NRT,301.4,4.8,D
7.93236,81.04364,338.1,0.46,0.39,2019-09-07,08:06,N,nominal,1.0NRT,302.3,4.8,D
7.96682,81.20763,336.4,0.47,0.4,2019-09-07,08:06,N,nominal,1.0NRT,301.8,2,D
7.97475,81.23714,337.7,0.47,0.4,2019-09-07,08:06,N,nominal,1.0NRT,301.9,4.1,D
7.97414,81.23286,335.2,0.47,0.4,2019-09-07,08:06,N,nominal,1.0NRT,300.7,1.3,D
7.96622,81.17722,340.8,0.47,0.4,2019-09-07,08:06,N,nominal,1.0NRT,303.3,3.1,D
7.95167,81.07527,336.3,0.47,0.39,2019-09-07,08:06,N,nominal,1.0NRT,301.3,5.5,D
7.95107,81.07104,339,0.46,0.39,2019-09-07,08:06,N,nominal,1.0NRT,301.8,3.5,D
7.99829,81.09016,339.2,0.47,0.39,2019-09-07,08:06,N,nominal,1.0NRT,301.9,2.5,D
7.98223,80.87875,334.2,0.46,0.39,2019-09-07,08:06,N,nominal,1.0NRT,300.8,3.6,D
8.05457,81.32304,339.6,0.48,0.4,2019-09-07,08:06,N,nominal,1.0NRT,300,4.4,D
8.04937,81.26176,341.6,0.48,0.4,2019-09-07,08:06,N,nominal,1.0NRT,300.7,7,D
8.05304,81.26123,344.1,0.48,0.4,2019-09-07,08:06,N,nominal,1.0NRT,301.2,5,D
8.05734,81.26503,345.3,0.48,0.4,2019-09-07,08:06,N,nominal,1.0NRT,302.4,5,D
8.05671,81.2607,344.6,0.48,0.4,2019-09-07,08:06,N,nominal,1.0NRT,302.6,5,D
7.97296,80.6423,334.7,0.44,0.39,2019-09-07,08:06,N,nominal,1.0NRT,297.8,4.2,D
7.97543,80.63887,336.8,0.44,0.39,2019-09-07,08:06,N,nominal,1.0NRT,301.1,5.7,D
7.9619,80.19788,333.9,0.43,0.38,2019-09-07,08:06,N,nominal,1.0NRT,297.8,9.5,D
8.05595,80.66856,339.5,0.45,0.39,2019-09-07,08:06,N,nominal,1.0NRT,299.7,6.3,D
8.02969,80.31897,332.2,0.43,0.38,2019-09-07,08:06,N,nominal,1.0NRT,299.6,2.8,D
8.03904,80.30965,330.2,0.43,0.38,2019-09-07,08:06,N,nominal,1.0NRT,298.8,2,D
8.03946,80.30943,330.8,0.43,0.38,2019-09-07,08:06,N,nominal,1.0NRT,298.6,2.2,D
8.21594,81.05212,332,0.47,0.39,2019-09-07,08:06,N,low,1.0NRT,302.2,2.2,D
8.1865,80.74966,345.3,0.45,0.39,2019-09-07,08:06,N,nominal,1.0NRT,304.6,13.2,D
8.20142,80.75172,331.9,0.45,0.39,2019-09-07,08:06,N,nominal,1.0NRT,301.7,3.2,D
8.18098,80.56405,335.3,0.44,0.39,2019-09-07,08:06,N,nominal,1.0NRT,295.6,3.6,D
8.20901,80.71336,342.6,0.45,0.39,2019-09-07,08:06,N,nominal,1.0NRT,305,7.2,D
8.24342,80.80055,332.6,0.45,0.39,2019-09-07,08:06,N,nominal,1.0NRT,302.3,2.4,D
8.21641,80.61268,330.8,0.45,0.39,2019-09-07,08:06,N,nominal,1.0NRT,299.9,2.9,D
8.243,80.67093,343.6,0.45,0.39,2019-09-07,08:06,N,nominal,1.0NRT,301.5,5,D
8.24242,80.66686,332.4,0.45,0.39,2019-09-07,08:06,N,nominal,1.0NRT,301,4.1,D
8.24657,80.67041,346.7,0.45,0.39,2019-09-07,08:06,N,nominal,1.0NRT,302.1,6.5,D
8.36219,81.23788,335.2,0.48,0.4,2019-09-07,08:06,N,nominal,1.0NRT,301.3,3.1,D
8.36586,81.23736,335.8,0.48,0.4,2019-09-07,08:06,N,nominal,1.0NRT,300.6,2,D
8.39111,81.08037,351.3,0.47,0.4,2019-09-07,08:06,N,nominal,1.0NRT,303.9,12.6,D
8.34722,80.77341,334.9,0.45,0.39,2019-09-07,08:06,N,nominal,1.0NRT,303,5.2,D
8.34551,80.71061,340.6,0.45,0.39,2019-09-07,08:06,N,nominal,1.0NRT,301.8,5.7,D
8.35208,80.70549,337.7,0.45,0.39,2019-09-07,08:06,N,nominal,1.0NRT,301.8,3.9,D
8.35684,80.71319,344.2,0.45,0.39,2019-09-07,08:06,N,nominal,1.0NRT,304.1,27.1,D
8.37353,80.80337,335.3,0.46,0.39,2019-09-07,08:06,N,nominal,1.0NRT,301.8,5,D
8.37175,80.76569,334.3,0.45,0.39,2019-09-07,08:06,N,nominal,1.0NRT,302.1,3,D
8.43372,81.09176,347.7,0.47,0.4,2019-09-07,08:06,N,nominal,1.0NRT,301,11.8,D
8.44654,81.10305,340.3,0.47,0.4,2019-09-07,08:06,N,nominal,1.0NRT,303.7,17.9,D
8.44592,81.09876,353.7,0.47,0.4,2019-09-07,08:06,N,nominal,1.0NRT,309.5,26.3,D
8.4502,81.10253,337.8,0.47,0.4,2019-09-07,08:06,N,nominal,1.0NRT,301.3,17.9,D
8.44957,81.09824,347.3,0.47,0.4,2019-09-07,08:06,N,nominal,1.0NRT,304.1,26.3,D
8.33729,80.28197,341.4,0.43,0.38,2019-09-07,08:06,N,nominal,1.0NRT,302,10.7,D
8.39848,80.59898,338.9,0.45,0.39,2019-09-07,08:06,N,nominal,1.0NRT,301.5,19.9,D
8.50508,81.2985,332.6,0.48,0.4,2019-09-07,08:06,N,nominal,1.0NRT,292.2,12.6,D
8.50878,81.298,347.7,0.48,0.4,2019-09-07,08:06,N,nominal,1.0NRT,294.1,12.6,D
8.50813,81.2936,335.1,0.48,0.4,2019-09-07,08:06,N,nominal,1.0NRT,294.8,9.4,D
8.40068,80.59559,347,0.45,0.39,2019-09-07,08:06,N,nominal,1.0NRT,299.5,22.7,D
8.50768,81.29995,335.7,0.48,0.4,2019-09-07,08:06,N,nominal,1.0NRT,292.8,10.5,D
8.50706,81.29553,346.8,0.48,0.4,2019-09-07,08:06,N,nominal,1.0NRT,299.1,28.7,D
8.36511,80.24667,334.4,0.43,0.38,2019-09-07,08:06,N,nominal,1.0NRT,300.6,1.7,D
8.40516,80.50011,337.6,0.44,0.39,2019-09-07,08:06,N,nominal,1.0NRT,301.8,7.1,D
8.39892,80.43156,338.2,0.44,0.38,2019-09-07,08:06,N,nominal,1.0NRT,302.4,3,D
8.46218,80.82163,349.5,0.46,0.39,2019-09-07,08:06,N,nominal,1.0NRT,304.8,8.9,D
8.46159,80.81748,339.1,0.46,0.39,2019-09-07,08:06,N,nominal,1.0NRT,302.9,8.9,D
8.46578,80.82112,349.5,0.46,0.39,2019-09-07,08:06,N,nominal,1.0NRT,304,8.9,D
8.46519,80.81697,342.6,0.46,0.39,2019-09-07,08:06,N,nominal,1.0NRT,302.9,8.9,D
8.46459,80.81283,350.6,0.46,0.39,2019-09-07,08:06,N,nominal,1.0NRT,303.3,9.9,D
8.44096,80.62289,338.8,0.45,0.39,2019-09-07,08:06,N,nominal,1.0NRT,303.2,6.1,D
8.40097,80.34598,333.5,0.44,0.38,2019-09-07,08:06,N,nominal,1.0NRT,299.8,2.5,D
8.45585,80.60001,332.1,0.45,0.39,2019-09-07,08:06,N,nominal,1.0NRT,299.3,2.3,D
8.50962,80.81908,349.3,0.46,0.39,2019-09-07,08:06,N,nominal,1.0NRT,304.7,19.7,D
8.56641,80.84965,345.3,0.46,0.39,2019-09-07,08:06,N,nominal,1.0NRT,302.4,8.5,D
8.51253,80.44778,337.5,0.44,0.38,2019-09-07,08:06,N,nominal,1.0NRT,294.5,11,D
8.56656,80.69689,346.5,0.45,0.39,2019-09-07,08:06,N,nominal,1.0NRT,298.4,20.9,D
8.55072,80.53676,348.1,0.45,0.39,2019-09-07,08:06,N,nominal,1.0NRT,301,8.8,D
8.53562,80.40769,335,0.44,0.38,2019-09-07,08:06,N,nominal,1.0NRT,295.3,4,D
8.61406,80.92438,341.6,0.46,0.39,2019-09-07,08:06,N,nominal,1.0NRT,303.3,11.7,D
8.6138,80.7196,337,0.45,0.39,2019-09-07,08:06,N,nominal,1.0NRT,302.1,4.9,D
8.55983,80.3513,337.3,0.44,0.38,2019-09-07,08:06,N,nominal,1.0NRT,301.4,3.9,D
8.67048,80.89978,336.4,0.46,0.39,2019-09-07,08:06,N,nominal,1.0NRT,298.8,4.7,D
8.65381,80.78217,341.5,0.46,0.39,2019-09-07,08:06,N,nominal,1.0NRT,303.4,9,D
8.62589,80.50967,338.1,0.45,0.39,2019-09-07,08:06,N,nominal,1.0NRT,299.4,4.5,D
8.61557,80.41259,330.9,0.44,0.38,2019-09-07,08:06,N,nominal,1.0NRT,299.2,3.8,D
8.66239,80.66253,333.5,0.45,0.39,2019-09-07,08:06,N,nominal,1.0NRT,296.7,5.7,D
8.68086,80.7401,343,0.46,0.39,2019-09-07,08:06,N,nominal,1.0NRT,304.2,7.9,D
8.69824,80.73335,336.2,0.46,0.39,2019-09-07,08:06,N,nominal,1.0NRT,295.3,4.7,D
8.75898,80.97368,331.7,0.47,0.4,2019-09-07,08:06,N,nominal,1.0NRT,299.2,2.1,D
8.67574,80.40396,336.7,0.44,0.38,2019-09-07,08:06,N,nominal,1.0NRT,301,3.9,D
8.83711,80.35217,337.5,0.44,0.38,2019-09-07,08:06,N,nominal,1.0NRT,293.4,5.5,D
8.92796,80.90742,335.7,0.47,0.4,2019-09-07,08:06,N,nominal,1.0NRT,295.5,3.9,D
8.91037,80.75923,336.5,0.46,0.39,2019-09-07,08:06,N,nominal,1.0NRT,296,3,D
8.87134,80.31461,349.1,0.44,0.38,2019-09-07,08:06,N,nominal,1.0NRT,286.5,12.4,D
8.85231,79.93388,340.4,0.42,0.38,2019-09-07,08:06,N,nominal,1.0NRT,299.3,3.7,D
9.09451,80.51446,333.6,0.45,0.39,2019-09-07,08:06,N,nominal,1.0NRT,292.4,2.9,D
9.0953,80.29542,330.7,0.44,0.38,2019-09-07,08:06,N,nominal,1.0NRT,290.4,3.5,D
9.27806,80.14307,337.6,0.44,0.38,2019-09-07,08:06,N,nominal,1.0NRT,300.2,4.9,D
9.38035,80.32925,338.1,0.44,0.39,2019-09-07,08:06,N,nominal,1.0NRT,303.8,4.9,D
9.40749,80.41663,339.7,0.45,0.39,2019-09-07,08:06,N,nominal,1.0NRT,303.2,10.2,D
9.4069,80.41254,345.7,0.45,0.39,2019-09-07,08:06,N,nominal,1.0NRT,303.5,5.6,D
9.41403,80.41152,339.9,0.45,0.39,2019-09-07,08:06,N,nominal,1.0NRT,304.4,5.8,D
9.41226,80.39928,348.9,0.45,0.39,2019-09-07,08:06,N,nominal,1.0NRT,304.6,10.5,D
10.57849,78.86539,337.6,0.4,0.37,2019-09-07,08:06,N,nominal,1.0NRT,283.7,3.4,D
7.21155,81.17665,333.8,0.46,0.39,2019-09-07,08:06,N,nominal,1.0NRT,299.5,3.7,D
7.17815,81.02092,330.1,0.45,0.39,2019-09-07,08:06,N,low,1.0NRT,303.6,2.1,D
7.18107,81.06689,338.7,0.46,0.39,2019-09-07,08:06,N,nominal,1.0NRT,305,4.2,D
7.17446,81.072,332.9,0.46,0.39,2019-09-07,08:06,N,nominal,1.0NRT,301.8,3.8,D
7.16851,81.0303,341.5,0.45,0.39,2019-09-07,08:06,N,nominal,1.0NRT,301.2,3.1,D
7.17998,81.07072,338,0.46,0.39,2019-09-07,08:06,N,nominal,1.0NRT,303.6,3.7,D
7.16657,81.02998,338.4,0.45,0.39,2019-09-07,08:06,N,nominal,1.0NRT,302,3.2,D
7.17278,81.07171,331.3,0.46,0.39,2019-09-07,08:06,N,nominal,1.0NRT,300,2,D
7.08377,80.91373,335.3,0.45,0.39,2019-09-07,08:06,N,nominal,1.0NRT,293.2,5.5,D
7.07135,81.11432,349.4,0.46,0.39,2019-09-07,08:06,N,nominal,1.0NRT,294.8,7.6,D
9.63563,80.32595,339.9,0.45,0.39,2019-09-07,08:06,N,nominal,1.0NRT,297.4,3.5,D
9.93766,78.21201,340.9,0.39,0.36,2019-09-07,08:06,N,nominal,1.0NRT,294.9,3.8,D
10.00556,78.43798,337.4,0.39,0.36,2019-09-07,08:06,N,nominal,1.0NRT,298.6,1.9,D
10.0089,78.43747,333.2,0.39,0.36,2019-09-07,08:06,N,nominal,1.0NRT,296.7,1.9,D
7.06774,81.11476,334.4,0.46,0.39,2019-09-07,08:06,N,nominal,1.0NRT,290.7,7.6,D
7.0505,81.45303,333.1,0.47,0.4,2019-09-07,08:06,N,nominal,1.0NRT,291,2.4,D
7.06308,81.5404,336.3,0.48,0.4,2019-09-07,08:06,N,nominal,1.0NRT,291.5,4.9,D
6.93406,81.36922,330.4,0.47,0.4,2019-09-07,08:06,N,nominal,1.0NRT,288,3,D
12.32293,79.91409,334.1,0.46,0.39,2019-09-07,08:06,N,nominal,1.0NRT,287.6,4.4,D
11.21717,77.84061,333.2,0.39,0.36,2019-09-07,08:06,N,nominal,1.0NRT,291.8,2.1,D
10.77816,78.72958,339.8,0.4,0.37,2019-09-07,08:06,N,nominal,1.0NRT,283.7,3.9,D
7.27239,81.13832,340.8,0.46,0.39,2019-09-07,08:06,N,nominal,1.0NRT,303.9,5.7,D
7.26263,81.07204,333.7,0.46,0.39,2019-09-07,08:06,N,nominal,1.0NRT,303.6,2.9,D
7.28712,81.21324,337.5,0.46,0.39,2019-09-07,08:06,N,nominal,1.0NRT,301.9,4.5,D
7.2981,81.23747,334.4,0.47,0.39,2019-09-07,08:06,N,nominal,1.0NRT,303.7,4.7,D
7.31656,81.28689,335.7,0.47,0.4,2019-09-07,08:06,N,nominal,1.0NRT,301.7,6.6,D
7.29097,81.11439,342,0.46,0.39,2019-09-07,08:06,N,nominal,1.0NRT,306.6,15.6,D
38.90392,66.93664,339.1,0.42,0.38,2019-09-07,08:12,N,low,1.0NRT,311.1,10.4,D
36.61979,57.45471,338.3,0.44,0.62,2019-09-07,08:12,N,nominal,1.0NRT,308.6,2.2,D
37.73398,62.12135,337.2,0.47,0.48,2019-09-07,08:12,N,nominal,1.0NRT,306.8,3.2,D
37.73518,62.12658,342.2,0.47,0.48,2019-09-07,08:12,N,nominal,1.0NRT,306.5,10.4,D
37.72971,62.12287,338.5,0.47,0.48,2019-09-07,08:12,N,nominal,1.0NRT,306.3,3.2,D
37.49669,61.84806,331.9,0.49,0.49,2019-09-07,08:12,N,low,1.0NRT,306.8,3.4,D
36.77547,67.30561,340.9,0.43,0.38,2019-09-07,08:12,N,low,1.0NRT,311.8,1.9,D
35.68999,63.23921,347.4,0.46,0.47,2019-09-07,08:12,N,nominal,1.0NRT,312.1,6.3,D
34.81094,64.29211,335,0.42,0.45,2019-09-07,08:12,N,low,1.0NRT,308.4,2,D
33.56261,71.52341,339.9,0.38,0.36,2019-09-07,08:12,N,nominal,1.0NRT,307.7,5.2,D
33.29594,71.23998,334.5,0.38,0.36,2019-09-07,08:12,N,nominal,1.0NRT,299.6,2.5,D
31.63836,72.41655,331.2,0.39,0.36,2019-09-07,08:12,N,low,1.0NRT,303.6,2.4,D
31.61995,72.47327,337,0.39,0.36,2019-09-07,08:12,N,nominal,1.0NRT,302.6,2.6,D
31.58962,72.52108,334.9,0.39,0.36,2019-09-07,08:12,N,nominal,1.0NRT,302.1,2.3,D
31.58632,72.52174,337.3,0.39,0.36,2019-09-07,08:12,N,nominal,1.0NRT,303.4,2.3,D
31.43828,72.27716,330.3,0.38,0.36,2019-09-07,08:12,N,low,1.0NRT,303.7,1.4,D
31.51364,73.34576,335.7,0.39,0.36,2019-09-07,08:12,N,nominal,1.0NRT,301.1,0.5,D
27.8996,59.44277,347.4,0.56,0.69,2019-09-07,08:12,N,nominal,1.0NRT,313.6,9.1,D
27.896,59.44018,353.4,0.56,0.69,2019-09-07,08:12,N,nominal,1.0NRT,314.4,14.3,D
30.64709,73.87412,331.8,0.4,0.37,2019-09-07,08:12,N,nominal,1.0NRT,298.2,2.2,D
30.60441,73.98878,339.8,0.4,0.37,2019-09-07,08:12,N,nominal,1.0NRT,299.6,7,D
30.59188,73.94835,334.3,0.4,0.37,2019-09-07,08:12,N,nominal,1.0NRT,297.9,2.9,D
30.55156,73.70969,345,0.4,0.37,2019-09-07,08:12,N,nominal,1.0NRT,297.5,3.9,D
30.54589,73.8753,333.7,0.4,0.37,2019-09-07,08:12,N,nominal,1.0NRT,298.3,3,D
30.48758,73.58655,335.6,0.39,0.36,2019-09-07,08:12,N,nominal,1.0NRT,298.1,2.6,D
30.47183,73.86362,344.6,0.4,0.37,2019-09-07,08:12,N,nominal,1.0NRT,298.8,7.2,D
30.23832,72.49097,335.7,0.38,0.36,2019-09-07,08:12,N,nominal,1.0NRT,301.4,3.3,D
30.42821,73.85447,335.2,0.4,0.37,2019-09-07,08:12,N,nominal,1.0NRT,298.8,4.3,D
30.42879,73.85859,337.8,0.4,0.37,2019-09-07,08:12,N,nominal,1.0NRT,299.2,4.3,D
30.33659,73.40624,332.8,0.39,0.36,2019-09-07,08:12,N,nominal,1.0NRT,296.1,2.6,D
30.04133,72.73371,337.8,0.38,0.36,2019-09-07,08:12,N,nominal,1.0NRT,301.3,3,D
30.03803,72.73436,330.7,0.38,0.36,2019-09-07,08:12,N,nominal,1.0NRT,300.3,2.9,D
30.03354,72.72707,339.2,0.38,0.36,2019-09-07,08:12,N,nominal,1.0NRT,301.6,5,D
29.93659,72.91762,337.8,0.39,0.36,2019-09-07,08:12,N,nominal,1.0NRT,299.5,3.1,D
29.85135,72.73421,334.3,0.38,0.36,2019-09-07,08:12,N,nominal,1.0NRT,301.6,6.2,D
29.84415,72.73154,331.1,0.38,0.36,2019-09-07,08:12,N,low,1.0NRT,302.3,3.8,D
29.82821,72.77958,336,0.38,0.36,2019-09-07,08:12,N,nominal,1.0NRT,303.8,2.6,D
38.86333,65.6964,350.5,0.46,0.39,2019-09-07,08:12,N,nominal,1.0NRT,310.7,9.6,D
37.47741,59.78959,335.6,0.63,0.54,2019-09-07,08:12,N,nominal,1.0NRT,302.3,3.7,D
37.47716,59.79055,335.3,0.63,0.54,2019-09-07,08:12,N,nominal,1.0NRT,302.4,8.1,D
38.90157,66.93497,347.1,0.42,0.38,2019-09-07,08:12,N,nominal,1.0NRT,315.4,23.9,D
38.90305,66.93176,336.5,0.42,0.38,2019-09-07,08:12,N,low,1.0NRT,309.3,4.5,D
38.9005,66.93761,338,0.42,0.38,2019-09-07,08:12,N,low,1.0NRT,310.3,10.4,D
39.11464,65.24722,335.7,0.48,0.4,2019-09-07,08:18,N,nominal,1.0NRT,310.3,5.3,D
37.77814,59.2323,367,0.33,0.55,2019-09-07,08:18,N,high,1.0NRT,303.1,6.7,D
37.74196,59.15357,367,0.33,0.56,2019-09-07,08:18,N,high,1.0NRT,304.8,17.6,D
38.1486,61.93423,347.6,0.47,0.48,2019-09-07,08:18,N,nominal,1.0NRT,313,13.8,D
39.30987,55.90176,331.9,0.44,0.63,2019-09-07,08:18,N,nominal,1.0NRT,296.3,1.4,D
39.19754,56.30164,335.8,0.43,0.62,2019-09-07,08:18,N,nominal,1.0NRT,298.1,3,D
37.63758,55.61079,330.9,0.51,0.66,2019-09-07,08:18,N,low,1.0NRT,301.6,2.6,D
38.09874,58.95282,334.1,0.34,0.56,2019-09-07,08:18,N,nominal,1.0NRT,303.6,3.7,D
38.0997,58.95654,349.6,0.34,0.56,2019-09-07,08:18,N,nominal,1.0NRT,304.4,5.8,D
39.6308,66.87894,335.8,0.42,0.37,2019-09-07,08:18,N,nominal,1.0NRT,305,3,D
37.78579,58.92944,337.4,0.34,0.56,2019-09-07,08:18,N,nominal,1.0NRT,300.6,2.6,D
37.84373,59.15673,355.5,0.33,0.55,2019-09-07,08:18,N,nominal,1.0NRT,303.9,4.5,D
37.84467,59.16043,340.6,0.33,0.55,2019-09-07,08:18,N,nominal,1.0NRT,303.8,6.8,D
18.68585,55.50795,341.7,0.41,0.45,2019-09-07,09:48,N,low,1.0NRT,312,12,D
19.26546,56.17786,343.1,0.45,0.47,2019-09-07,09:48,N,nominal,1.0NRT,311.8,1.4,D
19.37829,56.15488,346.7,0.45,0.47,2019-09-07,09:48,N,nominal,1.0NRT,313.5,4.9,D
19.37777,56.15054,346,0.45,0.47,2019-09-07,09:48,N,nominal,1.0NRT,312.7,4.9,D
21.30508,57.80046,346.6,0.61,0.53,2019-09-07,09:48,N,nominal,1.0NRT,312.5,10.6,D
21.30606,57.79832,345.3,0.61,0.53,2019-09-07,09:48,N,nominal,1.0NRT,311.8,8.5,D
18.32088,55.10704,348.1,0.57,0.43,2019-09-07,09:48,N,nominal,1.0NRT,314.4,10.6,D
18.32018,55.10163,343.1,0.57,0.43,2019-09-07,09:48,N,nominal,1.0NRT,311.4,1.9,D
18.31806,55.10476,343.4,0.57,0.43,2019-09-07,09:48,N,nominal,1.0NRT,312.8,12.3,D
18.32205,55.10422,354.8,0.57,0.43,2019-09-07,09:48,N,nominal,1.0NRT,313.6,12.3,D
18.55631,55.87057,348.9,0.42,0.46,2019-09-07,09:48,N,nominal,1.0NRT,313.6,2.2,D
18.68815,55.5036,342.8,0.41,0.45,2019-09-07,09:48,N,nominal,1.0NRT,311.3,13.7,D
37.31955,55.33499,345.8,0.32,0.55,2019-09-07,09:54,N,nominal,1.0NRT,300.6,4.3,D
39.31276,55.90356,341,0.36,0.58,2019-09-07,09:54,N,nominal,1.0NRT,300.8,3.4,D
39.31012,55.90313,340,0.36,0.58,2019-09-07,09:54,N,nominal,1.0NRT,299.5,1.7,D
27.90978,58.11946,355.9,0.38,0.59,2019-09-07,09:54,N,nominal,1.0NRT,321.6,3.4,D
27.16622,56.04981,346.6,0.56,0.51,2019-09-07,09:54,N,nominal,1.0NRT,313.5,18.7,D
27.16674,56.05553,345.6,0.56,0.51,2019-09-07,09:54,N,nominal,1.0NRT,312.8,18.7,D
27.17118,56.05204,347.8,0.56,0.51,2019-09-07,09:54,N,nominal,1.0NRT,311.6,16.9,D
27.16643,56.0526,351.8,0.56,0.51,2019-09-07,09:54,N,nominal,1.0NRT,314.7,16.9,D
27.16136,56.09945,340.4,0.56,0.51,2019-09-07,09:54,N,low,1.0NRT,310.9,19.9,D
26.85339,55.85023,350.9,0.54,0.51,2019-09-07,09:54,N,nominal,1.0NRT,313,24.1,D
26.85136,55.85286,350.9,0.54,0.51,2019-09-07,09:54,N,nominal,1.0NRT,313.3,20.6,D
25.97543,56.06854,336.7,0.54,0.51,2019-09-07,09:54,N,low,1.0NRT,309.3,12.9,D
24.50311,56.60855,345.8,0.56,0.52,2019-09-07,09:54,N,nominal,1.0NRT,313.7,21.8,D
24.47024,56.61798,337.9,0.56,0.52,2019-09-07,09:54,N,low,1.0NRT,311.2,18.1,D
24.47014,56.61521,338.6,0.56,0.51,2019-09-07,09:54,N,low,1.0NRT,312.3,15.5,D
24.06557,54.31844,356.9,0.4,0.44,2019-09-07,09:54,N,nominal,1.0NRT,318.8,7.5,D
24.06147,54.31898,356.2,0.4,0.44,2019-09-07,09:54,N,nominal,1.0NRT,322.2,10.7,D
23.18988,55.46106,348.1,0.46,0.47,2019-09-07,09:54,N,low,1.0NRT,323,3.2,D
22.87712,55.92809,348.4,0.49,0.48,2019-09-07,09:54,N,low,1.0NRT,319.7,2.9,D
22.9371,57.32482,344.1,0.6,0.53,2019-09-07,09:54,N,low,1.0NRT,318.7,6.3,D
22.93484,57.32544,343.9,0.6,0.53,2019-09-07,09:54,N,low,1.0NRT,318.6,4.9,D
22.40205,56.99136,346.7,0.56,0.51,2019-09-07,09:54,N,low,1.0NRT,318,5.4,D
22.15902,56.02503,351.8,0.48,0.48,2019-09-07,09:54,N,nominal,1.0NRT,321.8,9,D
37.68827,55.66733,337.1,0.34,0.56,2019-09-07,09:54,N,low,1.0NRT,307.4,1.6,D
37.79234,59.21687,351.9,0.53,0.67,2019-09-07,09:54,N,nominal,1.0NRT,308.3,53.6,D
37.79272,59.22945,333.3,0.54,0.68,2019-09-07,09:54,N,nominal,1.0NRT,300.2,26.8,D
37.79253,59.22316,367,0.54,0.67,2019-09-07,09:54,N,high,1.0NRT,302.9,26.8,D
37.7864,59.22969,335.9,0.54,0.68,2019-09-07,09:54,N,nominal,1.0NRT,300.9,5.3,D
37.79551,59.21238,334.6,0.53,0.67,2019-09-07,09:54,N,nominal,1.0NRT,296.4,20.1,D
37.79597,59.22494,346,0.53,0.67,2019-09-07,09:54,N,nominal,1.0NRT,301.3,19.6,D
37.79574,59.21865,367,0.53,0.67,2019-09-07,09:54,N,high,1.0NRT,307.8,19.6,D
37.78942,59.21887,333.1,0.53,0.67,2019-09-07,09:54,N,nominal,1.0NRT,298.4,19.6,D
37.78965,59.22516,353.4,0.53,0.67,2019-09-07,09:54,N,nominal,1.0NRT,301.9,19.6,D
37.78988,59.23143,330.8,0.54,0.67,2019-09-07,09:54,N,nominal,1.0NRT,300.7,11.5,D
37.78356,59.23165,333.6,0.54,0.67,2019-09-07,09:54,N,nominal,1.0NRT,300.8,5.1,D
37.73499,62.13236,340.9,0.77,0.77,2019-09-07,09:54,N,nominal,1.0NRT,300.5,11.1,D
37.73423,62.12463,330.5,0.77,0.77,2019-09-07,09:54,N,low,1.0NRT,302.5,5.1,D
37.73433,62.13373,334.8,0.77,0.77,2019-09-07,09:54,N,nominal,1.0NRT,300,6.4,D
37.19472,54.89782,332.7,0.61,0.54,2019-09-07,09:54,N,low,1.0NRT,303.5,3.2,D
30.2349,56.90712,346.4,0.34,0.56,2019-09-07,09:54,N,low,1.0NRT,319.4,5.6,D
27.32441,95.2781,305.5,0.41,0.45,2019-09-07,18:54,N,nominal,1.0NRT,278.6,0.4,N
27.26307,95.15031,304.5,0.41,0.45,2019-09-07,18:54,N,nominal,1.0NRT,278.4,0.4,N
27.26163,95.15242,309.6,0.41,0.45,2019-09-07,18:54,N,nominal,1.0NRT,275.4,0.9,N
25.66694,100.33237,302.3,0.39,0.36,2019-09-07,18:54,N,nominal,1.0NRT,280.9,0.8,N
25.66635,100.33619,300.2,0.39,0.36,2019-09-07,18:54,N,nominal,1.0NRT,279.4,0.8,N
25.47211,100.53899,303,0.38,0.36,2019-09-07,18:54,N,nominal,1.0NRT,285.7,0.5,N
24.99879,101.56992,301.3,0.39,0.36,2019-09-07,18:54,N,nominal,1.0NRT,287.5,0.6,N
24.61259,99.72547,301.7,0.39,0.36,2019-09-07,18:54,N,nominal,1.0NRT,287,0.9,N
27.55646,96.03972,299,0.56,0.43,2019-09-07,18:54,N,nominal,1.0NRT,274.5,0.7,N
27.46135,95.47815,302.9,0.4,0.44,2019-09-07,18:54,N,nominal,1.0NRT,282.4,0.5,N
27.39298,95.43278,304.1,0.4,0.44,2019-09-07,18:54,N,nominal,1.0NRT,281.9,0.4,N
13.09869,100.8871,307.2,0.46,0.39,2019-09-07,19:00,N,nominal,1.0NRT,290.1,1.5,N
13.09509,100.88645,329.9,0.46,0.39,2019-09-07,19:00,N,nominal,1.0NRT,289.6,3.3,N
21.57758,96.23537,309.7,0.47,0.4,2019-09-07,19:00,N,nominal,1.0NRT,288.1,1.7,N
14.67196,100.8018,306.3,0.44,0.38,2019-09-07,19:00,N,nominal,1.0NRT,284.1,1.1,N
13.64821,100.63112,308.9,0.44,0.39,2019-09-07,19:00,N,nominal,1.0NRT,288.8,0.7,N
13.1131,100.91145,310.7,0.46,0.39,2019-09-07,19:00,N,nominal,1.0NRT,290.4,1.9,N
23.55788,87.23245,300.1,0.51,0.66,2019-09-07,20:36,N,nominal,1.0NRT,282.9,1.3,N
24.76354,74.60854,299.7,0.39,0.36,2019-09-07,20:36,N,nominal,1.0NRT,270.7,0.5,N
20.87952,74.79621,320.4,0.39,0.36,2019-09-07,20:36,N,nominal,1.0NRT,279.6,1.7,N
21.11162,72.6348,298.8,0.4,0.37,2019-09-07,20:36,N,nominal,1.0NRT,273.9,0.9,N
21.10881,72.63038,331.7,0.4,0.37,2019-09-07,20:36,N,nominal,1.0NRT,277.1,2.5,N
37.7397,62.12711,300.1,0.71,0.75,2019-09-07,20:36,N,nominal,1.0NRT,282.4,1.8,N
37.64954,62.24123,297.8,0.7,0.75,2019-09-07,20:36,N,nominal,1.0NRT,283.7,1.2,N
37.48062,61.83934,307.9,0.73,0.76,2019-09-07,20:36,N,nominal,1.0NRT,287.1,2.2,N
37.49965,61.84497,299.3,0.73,0.76,2019-09-07,20:36,N,nominal,1.0NRT,285.1,2.1,N
37.47835,61.83561,302.5,0.73,0.76,2019-09-07,20:36,N,nominal,1.0NRT,286,2.9,N
34.09622,74.26334,295.8,0.45,0.39,2019-09-07,20:36,N,nominal,1.0NRT,280.4,0.3,N
33.59504,74.80957,295.8,0.43,0.38,2019-09-07,20:36,N,nominal,1.0NRT,280.3,0.3,N
33.29577,71.24252,314.2,0.4,0.45,2019-09-07,20:36,N,nominal,1.0NRT,291.9,0.8,N
32.72613,73.14156,307.6,0.48,0.4,2019-09-07,20:36,N,nominal,1.0NRT,293.3,1.5,N
32.72464,73.14,307.9,0.48,0.4,2019-09-07,20:36,N,nominal,1.0NRT,293,1.8,N
32.48164,74.31958,305.4,0.43,0.38,2019-09-07,20:36,N,nominal,1.0NRT,289.7,1.2,N
32.38912,72.14437,306,0.53,0.42,2019-09-07,20:36,N,nominal,1.0NRT,290.9,1.5,N
31.60245,74.36885,300.6,0.42,0.38,2019-09-07,20:36,N,nominal,1.0NRT,276.6,0.6,N
28.79783,77.07031,309.1,0.39,0.36,2019-09-07,20:36,N,nominal,1.0NRT,293.4,1.6,N
27.66662,76.12988,299.2,0.38,0.36,2019-09-07,20:36,N,nominal,1.0NRT,271.1,0.5,N
25.43521,86.07193,304.4,0.4,0.6,2019-09-07,20:36,N,nominal,1.0NRT,269.3,0.8,N
23.73036,86.7571,304.8,0.47,0.64,2019-09-07,20:36,N,nominal,1.0NRT,281.9,1.8,N
38.65673,76.17265,300.7,0.43,0.38,2019-09-07,20:36,N,nominal,1.0NRT,284.5,0.6,N
37.8166,77.45808,300.3,0.39,0.36,2019-09-07,20:36,N,nominal,1.0NRT,285.7,0.9,N
38.80195,64.6432,300.6,0.53,0.67,2019-09-07,20:36,N,nominal,1.0NRT,284.9,0.8,N
38.79567,64.64285,295.6,0.53,0.67,2019-09-07,20:36,N,nominal,1.0NRT,284.2,0.8,N
38.79853,64.64312,303.6,0.53,0.67,2019-09-07,20:36,N,nominal,1.0NRT,284.6,1.1,N
38.68482,65.9831,297.9,0.45,0.63,2019-09-07,20:36,N,nominal,1.0NRT,282.1,1,N
38.68459,65.98844,309.6,0.45,0.63,2019-09-07,20:36,N,nominal,1.0NRT,284.8,1,N
38.67988,65.96161,307.3,0.45,0.63,2019-09-07,20:36,N,nominal,1.0NRT,284.6,1.1,N
38.62276,66.0635,297.8,0.44,0.62,2019-09-07,20:36,N,nominal,1.0NRT,284.5,0.7,N
38.62393,66.06359,295.5,0.44,0.62,2019-09-07,20:36,N,nominal,1.0NRT,284.5,0.4,N
38.48215,66.46745,297.7,0.42,0.61,2019-09-07,20:36,N,nominal,1.0NRT,284.3,0.6,N
38.45441,65.80148,297,0.45,0.63,2019-09-07,20:36,N,nominal,1.0NRT,284,0.9,N
38.20243,65.35597,299.7,0.48,0.64,2019-09-07,20:36,N,nominal,1.0NRT,282.7,0.8,N
37.51567,66.41184,300.9,0.41,0.61,2019-09-07,20:36,N,nominal,1.0NRT,288.9,0.4,N
39.67973,82.75636,299.5,0.43,0.38,2019-09-07,20:36,N,nominal,1.0NRT,283.5,0.6,N
39.61463,82.7728,296.8,0.43,0.38,2019-09-07,20:36,N,nominal,1.0NRT,277.1,0.6,N
39.55396,82.76259,312.5,0.44,0.38,2019-09-07,20:36,N,nominal,1.0NRT,273.2,1.6,N
39.6493,75.94157,302,0.44,0.38,2019-09-07,20:36,N,nominal,1.0NRT,287.4,1,N
39.53009,76.00244,297.3,0.44,0.38,2019-09-07,20:36,N,nominal,1.0NRT,286.7,0.4,N
39.52298,76.05824,302.4,0.44,0.38,2019-09-07,20:36,N,nominal,1.0NRT,287.4,0.7,N
38.92188,76.23835,297.2,0.43,0.38,2019-09-07,20:36,N,nominal,1.0NRT,284.1,0.4,N
39.70753,63.61459,295,0.6,0.71,2019-09-07,20:36,N,nominal,1.0NRT,281.4,1.1,N
7.99674,81.31596,304.9,0.43,0.62,2019-09-07,20:42,N,nominal,1.0NRT,290.3,0.8,N
7.27793,81.07464,306,0.42,0.61,2019-09-07,20:42,N,nominal,1.0NRT,291.3,1.1,N
7.27222,81.07399,306.4,0.42,0.61,2019-09-07,20:42,N,nominal,1.0NRT,291.4,1.1,N
7.27206,81.01176,305.4,0.42,0.61,2019-09-07,20:42,N,nominal,1.0NRT,290.9,1.8,N
7.27502,81.07543,309.4,0.42,0.61,2019-09-07,20:42,N,nominal,1.0NRT,291.6,2.6,N
7.08457,81.14972,317.9,0.43,0.62,2019-09-07,20:42,N,nominal,1.0NRT,289.3,2.6,N
7.09709,80.82593,328.2,0.41,0.61,2019-09-07,20:42,N,nominal,1.0NRT,275.3,2.9,N
7.10448,80.82489,300.6,0.41,0.61,2019-09-07,20:42,N,nominal,1.0NRT,275.9,2.2,N
7.09857,80.82583,320.6,0.41,0.61,2019-09-07,20:42,N,nominal,1.0NRT,273.9,2.2,N
7.09805,80.82871,304.4,0.41,0.61,2019-09-07,20:42,N,nominal,1.0NRT,276.6,2.6,N
7.05022,80.96873,304.7,0.42,0.61,2019-09-07,20:42,N,nominal,1.0NRT,288,0.9,N
6.85462,81.16965,312.2,0.44,0.62,2019-09-07,20:42,N,nominal,1.0NRT,290.5,0.8,N
6.85382,81.17407,302.1,0.44,0.62,2019-09-07,20:42,N,nominal,1.0NRT,289.6,0.8,N
6.56376,80.80328,304.8,0.42,0.61,2019-09-07,20:42,N,nominal,1.0NRT,286.6,0.4,N
39.17683,63.30453,295.4,0.54,0.51,2019-09-07,22:12,N,nominal,1.0NRT,283.2,0.4,N
39.16759,63.26102,296.5,0.53,0.5,2019-09-07,22:12,N,nominal,1.0NRT,282.8,0.4,N
38.79766,64.64468,301.2,0.32,0.55,2019-09-07,22:12,N,nominal,1.0NRT,284.3,0.9,N
38.79674,64.64824,296.5,0.32,0.55,2019-09-07,22:12,N,nominal,1.0NRT,284.1,0.6,N
38.45245,65.80525,298.5,0.37,0.58,2019-09-07,22:12,N,nominal,1.0NRT,283.1,0.8,N
39.06569,63.38487,298.7,0.55,0.51,2019-09-07,22:12,N,nominal,1.0NRT,283.8,1.1,N
38.20322,65.36019,306.2,0.36,0.57,2019-09-07,22:12,N,nominal,1.0NRT,282.1,0.6,N
38.19812,65.35806,295.9,0.36,0.57,2019-09-07,22:12,N,nominal,1.0NRT,282.2,0.4,N
38.4,64.41019,295.7,0.32,0.54,2019-09-07,22:12,N,nominal,1.0NRT,281.5,0.4,N
38.16262,64.59158,295.6,0.33,0.55,2019-09-07,22:12,N,nominal,1.0NRT,282.3,0.4,N
38.04949,64.90147,295.3,0.35,0.56,2019-09-07,22:12,N,nominal,1.0NRT,283.6,0.6,N
37.96503,65.00888,295.4,0.35,0.57,2019-09-07,22:12,N,nominal,1.0NRT,282.2,0.3,N
37.73239,65.50098,295.5,0.38,0.59,2019-09-07,22:12,N,nominal,1.0NRT,285.4,0.3,N
37.73126,65.50515,295.8,0.38,0.59,2019-09-07,22:12,N,nominal,1.0NRT,285.4,0.3,N
37.72781,65.51122,295.5,0.38,0.59,2019-09-07,22:12,N,nominal,1.0NRT,284.6,0.5,N
37.80041,65.19176,299.2,0.36,0.58,2019-09-07,22:12,N,nominal,1.0NRT,283.8,0.6,N
38.636,68.77621,295,0.52,0.67,2019-09-07,22:12,N,nominal,1.0NRT,284.3,0.7,N
38.39414,69.11341,299.1,0.55,0.68,2019-09-07,22:12,N,nominal,1.0NRT,287.6,0.8,N
38.39684,69.11462,299,0.55,0.68,2019-09-07,22:12,N,nominal,1.0NRT,287.5,0.5,N
38.32571,68.98779,298.7,0.55,0.68,2019-09-07,22:12,N,nominal,1.0NRT,287.8,0.4,N
38.32258,68.98714,298.3,0.55,0.68,2019-09-07,22:12,N,nominal,1.0NRT,288,0.5,N
39.70574,63.61648,305.9,0.54,0.51,2019-09-07,22:12,N,nominal,1.0NRT,286,1.7,N
39.70423,63.6226,304.9,0.54,0.51,2019-09-07,22:12,N,nominal,1.0NRT,285.1,1.7,N
38.68437,65.99118,305.9,0.38,0.59,2019-09-07,22:12,N,nominal,1.0NRT,284,1.3,N
38.6768,65.95488,296.5,0.38,0.58,2019-09-07,22:12,N,nominal,1.0NRT,282.2,0.7,N
38.67456,65.96321,295.4,0.38,0.59,2019-09-07,22:12,N,nominal,1.0NRT,282,0.4,N
38.91463,65.01586,295.6,0.33,0.55,2019-09-07,22:12,N,nominal,1.0NRT,283.5,0.5,N
38.62305,66.06756,304.4,0.38,0.59,2019-09-07,22:12,N,nominal,1.0NRT,285.2,0.6,N
38.48258,66.47292,302.2,0.41,0.6,2019-09-07,22:12,N,nominal,1.0NRT,283.1,0.9,N
38.55923,65.95192,296.8,0.38,0.59,2019-09-07,22:12,N,nominal,1.0NRT,286.2,0.7,N
38.50735,65.98838,296.5,0.38,0.59,2019-09-07,22:12,N,nominal,1.0NRT,283.7,0.3,N
39.16904,63.255,295.1,0.53,0.5,2019-09-07,22:12,N,nominal,1.0NRT,283.7,0.7,N
29.70041,55.53617,304.3,0.5,0.41,2019-09-07,22:18,N,nominal,1.0NRT,291.2,0.9,N
37.6398,62.20535,299,0.51,0.5,2019-09-07,22:18,N,nominal,1.0NRT,285,0.6,N
37.6178,62.13549,304.2,0.51,0.49,2019-09-07,22:18,N,nominal,1.0NRT,287.4,1.7,N
37.61371,61.57655,308.1,0.48,0.48,2019-09-07,22:18,N,nominal,1.0NRT,289.1,1.2,N
37.60942,61.57499,300.7,0.48,0.48,2019-09-07,22:18,N,nominal,1.0NRT,288.1,1.2,N
37.60452,61.55607,296.2,0.48,0.48,2019-09-07,22:18,N,nominal,1.0NRT,286.2,0.4,N
37.42571,62.31145,295.9,0.52,0.5,2019-09-07,22:18,N,nominal,1.0NRT,283.5,0.3,N
37.60561,61.55547,299.8,0.48,0.48,2019-09-07,22:18,N,nominal,1.0NRT,286.7,0.7,N
37.42245,62.3099,304.3,0.53,0.5,2019-09-07,22:18,N,nominal,1.0NRT,285.1,1.2,N
37.59036,61.56133,298.7,0.48,0.48,2019-09-07,22:18,N,nominal,1.0NRT,287.2,0.7,N
37.59326,61.52814,311.3,0.47,0.48,2019-09-07,22:18,N,nominal,1.0NRT,287.8,3.2,N
37.49656,61.84754,319.2,0.5,0.49,2019-09-07,22:18,N,nominal,1.0NRT,287.6,2.5,N
37.44355,62.07524,300.7,0.51,0.49,2019-09-07,22:18,N,nominal,1.0NRT,283.2,1,N
37.47911,61.84112,309.1,0.5,0.49,2019-09-07,22:18,N,nominal,1.0NRT,288.9,1.7,N
38.20921,57.98848,295.7,0.48,0.4,2019-09-07,22:18,N,nominal,1.0NRT,284.2,0.4,N
38.26197,57.65788,296.7,0.46,0.39,2019-09-07,22:18,N,nominal,1.0NRT,283.4,1.1,N
38.1908,57.96557,295.8,0.48,0.4,2019-09-07,22:18,N,nominal,1.0NRT,284.1,0.3,N
37.51192,61.01497,303.3,0.45,0.47,2019-09-07,22:18,N,nominal,1.0NRT,287.7,0.9,N
37.51033,61.0131,301.9,0.45,0.47,2019-09-07,22:18,N,nominal,1.0NRT,287.2,1.2,N
37.34938,61.36224,306,0.47,0.48,2019-09-07,22:18,N,nominal,1.0NRT,286.1,1.8,N
37.78647,59.21973,315.3,0.54,0.42,2019-09-07,22:18,N,nominal,1.0NRT,285.7,2.3,N
37.78009,59.23059,295.5,0.55,0.42,2019-09-07,22:18,N,nominal,1.0NRT,285.4,0.9,N
37.78616,59.21913,313.1,0.55,0.42,2019-09-07,22:18,N,nominal,1.0NRT,285.6,2.1,N
37.77986,59.23002,299.4,0.55,0.42,2019-09-07,22:18,N,nominal,1.0NRT,285.6,0.6,N
37.32615,61.09724,296.2,0.46,0.47,2019-09-07,22:18,N,nominal,1.0NRT,284.7,0.5,N
37.82851,58.38517,297.4,0.5,0.41,2019-09-07,22:18,N,nominal,1.0NRT,286.3,0.4,N
37.41428,59.74592,298.3,0.39,0.44,2019-09-07,22:18,N,nominal,1.0NRT,283.3,0.3,N
37.18706,59.99239,311,0.41,0.45,2019-09-07,22:18,N,nominal,1.0NRT,287.6,1,N
37.45327,57.68703,310,0.48,0.4,2019-09-07,22:18,N,nominal,1.0NRT,289.4,1.8,N
36.43605,61.22014,295.6,0.49,0.48,2019-09-07,22:18,N,nominal,1.0NRT,285.5,0.7,N
37.52213,55.67414,301.6,0.41,0.37,2019-09-07,22:18,N,nominal,1.0NRT,289,0.7,N
37.52134,55.67858,300.8,0.41,0.37,2019-09-07,22:18,N,nominal,1.0NRT,288.9,0.5,N
36.47607,59.7439,297.2,0.41,0.45,2019-09-07,22:18,N,nominal,1.0NRT,286.1,0.6,N
36.49601,59.33637,311,0.39,0.44,2019-09-07,22:18,N,nominal,1.0NRT,285.7,0.9,N
36.38273,59.50968,295.4,0.4,0.44,2019-09-07,22:18,N,nominal,1.0NRT,285.4,0.4,N
36.23618,59.73228,299.9,0.41,0.45,2019-09-07,22:18,N,nominal,1.0NRT,285.9,0.7,N
36.23867,59.73113,297.9,0.41,0.45,2019-09-07,22:18,N,nominal,1.0NRT,285.4,0.7,N
36.71837,56.84917,302,0.45,0.39,2019-09-07,22:18,N,nominal,1.0NRT,289.5,0.9,N
35.35532,60.21545,301.7,0.45,0.47,2019-09-07,22:18,N,nominal,1.0NRT,286,0.9,N
35.35281,60.2167,299.5,0.45,0.47,2019-09-07,22:18,N,nominal,1.0NRT,284.6,1.2,N
35.51541,59.20118,299.4,0.4,0.44,2019-09-07,22:18,N,nominal,1.0NRT,286.8,0.6,N
36.32462,54.61887,305.9,0.4,0.37,2019-09-07,22:18,N,nominal,1.0NRT,289.7,0.8,N
36.32157,54.18752,298.4,0.39,0.36,2019-09-07,22:18,N,nominal,1.0NRT,285,0.5,N
34.70783,58.57124,304,0.39,0.44,2019-09-07,22:18,N,nominal,1.0NRT,288.9,0.3,N
33.75129,59.14663,297.7,0.43,0.46,2019-09-07,22:18,N,nominal,1.0NRT,283.9,1,N
32.92504,60.23164,300.7,0.51,0.5,2019-09-07,22:18,N,nominal,1.0NRT,288,1.1,N
25.35274,54.48517,316,0.52,0.41,2019-09-07,22:18,N,nominal,1.0NRT,299,0.8,N
25.34917,54.48794,321,0.52,0.41,2019-09-07,22:18,N,nominal,1.0NRT,298.8,0.7,N
24.50488,56.60647,342.3,0.47,0.48,2019-09-07,22:18,N,nominal,1.0NRT,301.8,5.8,N
24.50407,56.60769,341.7,0.47,0.48,2019-09-07,22:18,N,nominal,1.0NRT,301.5,6.9,N
24.50682,56.59394,312.4,0.47,0.48,2019-09-07,22:18,N,nominal,1.0NRT,301.6,1.1,N
24.00226,55.44112,315.1,0.41,0.45,2019-09-07,22:18,N,nominal,1.0NRT,300,2.9,N
24.06117,54.3191,339.5,0.53,0.42,2019-09-07,22:18,N,nominal,1.0NRT,308.8,45.9,N
24.0602,54.32428,324.3,0.53,0.42,2019-09-07,22:18,N,nominal,1.0NRT,301.5,12.3,N
24.05735,54.31824,335.1,0.53,0.42,2019-09-07,22:18,N,nominal,1.0NRT,300.3,4.6,N
22.80273,55.84996,318.5,0.45,0.47,2019-09-07,22:18,N,nominal,1.0NRT,296.5,4.5,N
22.80105,55.85081,320.5,0.45,0.47,2019-09-07,22:18,N,nominal,1.0NRT,297.2,4.6,N
22.78061,55.81855,320.5,0.45,0.47,2019-09-07,22:18,N,nominal,1.0NRT,298,2.1,N
22.78148,55.81417,312.1,0.45,0.47,2019-09-07,22:18,N,nominal,1.0NRT,297.5,2.1,N
22.77721,55.81318,311.8,0.45,0.47,2019-09-07,22:18,N,nominal,1.0NRT,297.6,2.1,N
22.402,56.99081,329.6,0.54,0.51,2019-09-07,22:18,N,nominal,1.0NRT,290,5.5,N
22.34673,56.43375,311.8,0.5,0.49,2019-09-07,22:18,N,nominal,1.0NRT,296.6,1.8,N
22.34542,56.43145,313.7,0.5,0.49,2019-09-07,22:18,N,nominal,1.0NRT,296.6,2,N
22.15766,56.02736,306.5,0.48,0.48,2019-09-07,22:18,N,nominal,1.0NRT,294.9,3.7,N
22.52684,54.04601,322.4,0.54,0.42,2019-09-07,22:18,N,nominal,1.0NRT,300.4,2.7,N
22.52587,54.05119,323,0.54,0.42,2019-09-07,22:18,N,nominal,1.0NRT,299.5,2.7,N
21.95202,56.12668,315.8,0.49,0.49,2019-09-07,22:18,N,nominal,1.0NRT,293.4,1.7,N
21.94336,56.0318,313.2,0.48,0.48,2019-09-07,22:18,N,nominal,1.0NRT,293.8,2.1,N
21.94242,56.03647,317.2,0.48,0.48,2019-09-07,22:18,N,nominal,1.0NRT,294.1,2.1,N
18.55541,55.87075,311,0.55,0.51,2019-09-07,22:18,N,nominal,1.0NRT,278.1,1.9,N
32.33614,54.08473,313.1,0.41,0.37,2019-09-07,22:18,N,nominal,1.0NRT,291.6,1.5,N
31.93006,54.31675,306.6,0.42,0.38,2019-09-07,22:18,N,nominal,1.0NRT,295.6,1.2,N
31.84955,54.28746,325.7,0.42,0.38,2019-09-07,22:18,N,nominal,1.0NRT,299.1,3,N
29.2008,54.48488,302.1,0.46,0.39,2019-09-07,22:18,N,nominal,1.0NRT,290.7,0.7,N
27.22651,60.48954,308,0.35,0.57,2019-09-07,22:18,N,nominal,1.0NRT,297.6,2.1,N
27.30103,56.30508,314.1,0.4,0.44,2019-09-07,22:18,N,nominal,1.0NRT,298.2,1.7,N
27.16085,56.10252,329.6,0.39,0.44,2019-09-07,22:18,N,nominal,1.0NRT,299.9,2.7,N
27.16163,56.09861,313.6,0.39,0.44,2019-09-07,22:18,N,nominal,1.0NRT,299.3,3.3,N
27.16622,56.05457,341.3,0.39,0.44,2019-09-07,22:18,N,nominal,1.0NRT,300.8,6.6,N
27.167,56.05066,312.5,0.39,0.44,2019-09-07,22:18,N,nominal,1.0NRT,298.4,4.5,N
25.55823,55.98396,314.1,0.41,0.45,2019-09-07,22:18,N,nominal,1.0NRT,298.2,2.3,N
25.70289,54.30249,332.7,0.5,0.41,2019-09-07,22:18,N,nominal,1.0NRT,302.7,4.7,N
25.59833,54.42434,321.4,0.51,0.41,2019-09-07,22:18,N,nominal,1.0NRT,292,1.8,N
26.85342,55.85392,309.8,0.39,0.44,2019-09-07,22:18,N,nominal,1.0NRT,299.1,1.8,N
26.84946,55.85299,337.3,0.39,0.44,2019-09-07,22:18,N,nominal,1.0NRT,299,1.8,N
26.85023,55.84914,313.5,0.38,0.44,2019-09-07,22:18,N,nominal,1.0NRT,299.1,1.8,N
25.9734,56.072,324.7,0.41,0.45,2019-09-07,22:18,N,nominal,1.0NRT,300.9,1.2,N
25.9742,56.06799,312,0.41,0.45,2019-09-07,22:18,N,nominal,1.0NRT,300.1,1.5,N
25.90505,54.53239,315.8,0.51,0.41,2019-09-07,22:18,N,nominal,1.0NRT,300.7,0.3,N
25.9013,54.53154,335.2,0.51,0.41,2019-09-07,22:18,N,nominal,1.0NRT,302.7,6,N
25.90033,54.5366,334,0.51,0.41,2019-09-07,22:18,N,nominal,1.0NRT,304,6,N
25.89658,54.53575,316,0.51,0.41,2019-09-07,22:18,N,nominal,1.0NRT,301.3,6,N
39.28791,56.34304,312.4,0.41,0.37,2019-09-07,22:18,N,nominal,1.0NRT,288.4,1.1,N
37.96041,62.66599,296.2,0.53,0.5,2019-09-07,22:18,N,nominal,1.0NRT,284.4,0.9,N
39.38202,55.68526,325.9,0.4,0.37,2019-09-07,22:18,N,nominal,1.0NRT,288.5,2.1,N
39.3828,55.68069,302.9,0.4,0.37,2019-09-07,22:18,N,nominal,1.0NRT,287.3,1,N
39.39472,55.55051,313.4,0.4,0.37,2019-09-07,22:18,N,nominal,1.0NRT,288.4,1.2,N
39.38633,55.5386,336.7,0.39,0.37,2019-09-07,22:18,N,nominal,1.0NRT,291.1,5,N
39.38301,55.53766,329.2,0.39,0.37,2019-09-07,22:18,N,nominal,1.0NRT,288.3,3.2,N
39.30307,55.89804,313.3,0.4,0.37,2019-09-07,22:18,N,nominal,1.0NRT,287.6,1.1,N
39.30227,55.90263,300.1,0.4,0.37,2019-09-07,22:18,N,nominal,1.0NRT,287.4,0.7,N
39.29974,55.89707,316.8,0.4,0.37,2019-09-07,22:18,N,nominal,1.0NRT,288,1.8,N
39.32586,55.55728,304.5,0.4,0.37,2019-09-07,22:18,N,nominal,1.0NRT,287.6,0.6,N
39.32254,55.55633,300.1,0.4,0.37,2019-09-07,22:18,N,nominal,1.0NRT,286.4,0.6,N
37.79545,62.54882,300.6,0.53,0.5,2019-09-07,22:18,N,nominal,1.0NRT,283,0.8,N
37.78171,62.52434,296.6,0.53,0.5,2019-09-07,22:18,N,nominal,1.0NRT,283,0.8,N
37.74448,62.12864,300.2,0.51,0.49,2019-09-07,22:18,N,nominal,1.0NRT,285.1,1.2,N
37.74009,62.12699,309.8,0.51,0.49,2019-09-07,22:18,N,nominal,1.0NRT,284.6,1.2,N
37.8428,61.6058,305.7,0.47,0.48,2019-09-07,22:18,N,nominal,1.0NRT,285.1,1.3,N
37.67097,62.23621,295.5,0.51,0.5,2019-09-07,22:18,N,nominal,1.0NRT,284.8,0.9,N
37.66075,62.23856,295.6,0.51,0.5,2019-09-07,22:18,N,nominal,1.0NRT,283.7,0.5,N
37.65496,62.24258,298.5,0.51,0.5,2019-09-07,22:18,N,nominal,1.0NRT,283.6,1,N
37.65528,62.24214,301.2,0.51,0.5,2019-09-07,22:18,N,nominal,1.0NRT,284.1,0.8,N
37.65085,62.24047,304.2,0.51,0.5,2019-09-07,22:18,N,nominal,1.0NRT,284.5,0.8,N
30.23319,56.90624,309.3,0.38,0.43,2019-09-07,22:18,N,nominal,1.0NRT,293.2,2.1,N
30.23239,56.91018,312.6,0.38,0.43,2019-09-07,22:18,N,nominal,1.0NRT,293.1,1.6,N
30.2355,56.90741,315.4,0.38,0.43,2019-09-07,22:18,N,nominal,1.0NRT,293.7,2.4,N
30.23472,56.91135,303.4,0.38,0.43,2019-09-07,22:18,N,nominal,1.0NRT,291.3,1.5,N
30.36818,56.12699,303.5,0.52,0.42,2019-09-07,22:18,N,nominal,1.0NRT,292.7,0.9,N
30.37976,55.86398,308.8,0.51,0.41,2019-09-07,22:18,N,nominal,1.0NRT,291,1.4,N
30.32281,55.97532,316,0.51,0.41,2019-09-07,22:18,N,nominal,1.0NRT,292.3,1.6,N
29.92921,56.73267,300.1,0.57,0.43,2019-09-07,22:18,N,nominal,1.0NRT,289.7,1.3,N
29.99114,55.85452,327.8,0.51,0.41,2019-09-07,22:18,N,nominal,1.0NRT,293.5,37.4,N
