latitude,longitude,bright_ti4,scan,track,acq_date,acq_time,satellite,confidence,version,bright_ti5,frp,daynight
16.08291,101.61887,343.5,0.35,0.57,2019-10-11,05:48,N,nominal,1.0NRT,293.2,3.5,D
20.30787,100.01183,327.7,0.37,0.58,2019-10-11,05:48,N,nominal,1.0NRT,290.6,2,D
13.75502,101.08664,330.1,0.42,0.61,2019-10-11,05:48,N,nominal,1.0NRT,290.9,3.6,D
13.77765,101.09823,336.1,0.42,0.61,2019-10-11,05:48,N,nominal,1.0NRT,290.8,3.4,D
14.19219,100.38933,339.6,0.46,0.64,2019-10-11,05:48,N,nominal,1.0NRT,290.6,5.2,D
20.99464,101.8021,328.6,0.56,0.51,2019-10-11,05:48,N,nominal,1.0NRT,291.5,4.7,D
20.71041,100.14552,333,0.36,0.57,2019-10-11,05:48,N,nominal,1.0NRT,290.1,1.9,D
20.71115,100.14895,326.1,0.36,0.57,2019-10-11,05:48,N,nominal,1.0NRT,290.4,1.9,D
20.71118,100.1466,331.5,0.36,0.57,2019-10-11,05:48,N,nominal,1.0NRT,289.9,4.4,D
21.86146,100.52837,325.3,0.32,0.55,2019-10-11,05:48,N,nominal,1.0NRT,291.1,2.6,D
26.57782,101.665,329.9,0.45,0.47,2019-10-11,05:54,N,nominal,1.0NRT,296.9,6,D
26.57029,101.6717,331.8,0.45,0.47,2019-10-11,05:54,N,nominal,1.0NRT,299.8,7.1,D
26.5627,101.67807,326.4,0.45,0.47,2019-10-11,05:54,N,low,1.0NRT,300.4,5.5,D
25.32338,101.55585,330.3,0.48,0.48,2019-10-11,05:54,N,nominal,1.0NRT,292.5,2.7,D
24.46917,81.54877,352.2,0.41,0.37,2019-10-11,07:30,N,nominal,1.0NRT,304.6,9.1,D
24.47049,81.55679,345.1,0.41,0.37,2019-10-11,07:30,N,nominal,1.0NRT,304.4,11.2,D
24.47115,81.56078,350.8,0.41,0.37,2019-10-11,07:30,N,nominal,1.0NRT,304.1,6.3,D
24.46645,81.55347,367,0.41,0.37,2019-10-11,07:30,N,low,1.0NRT,303.9,11.2,D
24.4638,81.53744,338.6,0.41,0.37,2019-10-11,07:30,N,nominal,1.0NRT,304.2,6.5,D
24.46446,81.54146,337.4,0.41,0.37,2019-10-11,07:30,N,nominal,1.0NRT,304,6.5,D
24.46578,81.54946,344.3,0.41,0.37,2019-10-11,07:30,N,nominal,1.0NRT,302.6,9.1,D
24.46711,81.55746,341,0.41,0.37,2019-10-11,07:30,N,nominal,1.0NRT,301.9,11.2,D
24.46306,81.55415,350.2,0.41,0.37,2019-10-11,07:30,N,nominal,1.0NRT,301.8,6.1,D
24.2036,82.72105,329.6,0.39,0.36,2019-10-11,07:30,N,low,1.0NRT,304.4,2.5,D
23.88649,85.00927,329.6,0.4,0.37,2019-10-11,07:30,N,nominal,1.0NRT,299.2,2.2,D
23.80704,84.84763,332.1,0.39,0.36,2019-10-11,07:30,N,nominal,1.0NRT,301.3,2.6,D
23.75442,85.85626,343.8,0.42,0.37,2019-10-11,07:30,N,nominal,1.0NRT,307.2,9.6,D
23.80728,86.31958,333,0.43,0.38,2019-10-11,07:30,N,low,1.0NRT,307.4,4.6,D
23.79727,86.35147,330.7,0.43,0.38,2019-10-11,07:30,N,low,1.0NRT,302.9,7,D
23.78154,86.34098,331.8,0.43,0.38,2019-10-11,07:30,N,low,1.0NRT,303,5.9,D
23.78135,86.39305,353.8,0.43,0.38,2019-10-11,07:30,N,nominal,1.0NRT,306,11.6,D
23.77727,86.38935,331,0.43,0.38,2019-10-11,07:30,N,low,1.0NRT,303,4,D
23.77376,86.38992,331.6,0.43,0.38,2019-10-11,07:30,N,low,1.0NRT,305.3,4,D
23.75257,86.4194,341.5,0.44,0.38,2019-10-11,07:30,N,nominal,1.0NRT,294.3,6.8,D
23.70311,86.07476,337.8,0.42,0.38,2019-10-11,07:30,N,nominal,1.0NRT,306.7,18.1,D
23.67469,86.08703,337.3,0.42,0.38,2019-10-11,07:30,N,nominal,1.0NRT,302.9,6.5,D
23.72287,86.44062,330.7,0.44,0.38,2019-10-11,07:30,N,nominal,1.0NRT,297.2,2.1,D
22.79625,86.20499,333.7,0.42,0.38,2019-10-11,07:30,N,nominal,1.0NRT,297.4,6.9,D
22.79167,86.19733,334.6,0.42,0.38,2019-10-11,07:30,N,nominal,1.0NRT,296.9,5,D
21.92502,81.1852,335.2,0.44,0.39,2019-10-11,07:30,N,nominal,1.0NRT,300,4.5,D
22.21178,84.84075,335.6,0.39,0.36,2019-10-11,07:30,N,nominal,1.0NRT,300.4,3.7,D
22.21177,84.86386,338.9,0.39,0.36,2019-10-11,07:30,N,nominal,1.0NRT,300,4.4,D
22.21233,84.86761,330.3,0.39,0.36,2019-10-11,07:30,N,nominal,1.0NRT,298,3.7,D
21.92639,83.33944,335.6,0.39,0.36,2019-10-11,07:30,N,nominal,1.0NRT,299.2,3.7,D
19.52912,71.29143,335.5,0.62,0.72,2019-10-11,07:30,N,nominal,1.0NRT,286.2,8.9,D
19.53054,71.2974,350.1,0.62,0.72,2019-10-11,07:30,N,nominal,1.0NRT,285,13.8,D
21.3611,81.13003,328.2,0.45,0.39,2019-10-11,07:30,N,nominal,1.0NRT,300.5,2.8,D
22.24556,87.38694,333.2,0.46,0.39,2019-10-11,07:30,N,nominal,1.0NRT,297.5,4.9,D
21.08098,85.03573,332.3,0.39,0.36,2019-10-11,07:30,N,nominal,1.0NRT,300.3,5,D
20.96335,85.17351,346,0.39,0.36,2019-10-11,07:30,N,nominal,1.0NRT,298.5,6.3,D
20.96389,85.17723,340,0.39,0.36,2019-10-11,07:30,N,nominal,1.0NRT,298.1,4.5,D
20.96057,85.17777,340.5,0.39,0.36,2019-10-11,07:30,N,nominal,1.0NRT,297.3,4.5,D
20.96112,85.1815,344,0.39,0.36,2019-10-11,07:30,N,nominal,1.0NRT,299.8,4.5,D
20.96167,85.18524,339.2,0.39,0.36,2019-10-11,07:30,N,nominal,1.0NRT,299.5,5,D
20.95134,86.04977,335.3,0.4,0.37,2019-10-11,07:30,N,nominal,1.0NRT,295.9,4,D
20.7958,85.25504,332.8,0.39,0.36,2019-10-11,07:30,N,nominal,1.0NRT,295.7,7.9,D
20.24286,86.60918,330.6,0.41,0.37,2019-10-11,07:30,N,nominal,1.0NRT,291.8,0.8,D
17.2252,78.30443,328.9,0.5,0.49,2019-10-11,07:30,N,nominal,1.0NRT,292,4.7,D
17.61034,83.20309,328.8,0.41,0.37,2019-10-11,07:30,N,nominal,1.0NRT,298.5,2.2,D
15.17586,76.65591,330.1,0.35,0.56,2019-10-11,07:30,N,nominal,1.0NRT,290.1,2.3,D
15.1765,76.6591,332.1,0.35,0.56,2019-10-11,07:30,N,nominal,1.0NRT,289.1,2.3,D
15.17522,76.65942,333.9,0.35,0.56,2019-10-11,07:30,N,nominal,1.0NRT,289.3,4.1,D
17.80637,95.85975,328.8,0.44,0.63,2019-10-11,07:30,N,nominal,1.0NRT,291.2,3.2,D
13.14524,77.74274,342.3,0.32,0.55,2019-10-11,07:30,N,nominal,1.0NRT,292.5,6.1,D
13.16324,78.51933,339.6,0.57,0.52,2019-10-11,07:30,N,nominal,1.0NRT,291.7,7.4,D
15.85259,99.67759,328.7,0.75,0.77,2019-10-11,07:30,N,nominal,1.0NRT,287.1,5.6,D
12.43174,76.94095,337.3,0.37,0.58,2019-10-11,07:30,N,nominal,1.0NRT,290.3,3.1,D
12.0832,76.96367,333.8,0.38,0.58,2019-10-11,07:30,N,nominal,1.0NRT,293,3.7,D
12.08153,76.96531,342,0.38,0.59,2019-10-11,07:30,N,nominal,1.0NRT,293,4.7,D
12.15092,78.5177,341.3,0.59,0.53,2019-10-11,07:30,N,nominal,1.0NRT,295.5,9.3,D
27.03441,94.89149,338.8,0.48,0.65,2019-10-11,07:30,N,nominal,1.0NRT,288.2,4.7,D
23.76156,73.35529,331.3,0.38,0.59,2019-10-11,07:30,N,nominal,1.0NRT,300,1.5,D
24.48471,81.55816,337.5,0.41,0.37,2019-10-11,07:30,N,nominal,1.0NRT,306.2,5.9,D
24.48132,81.55881,367,0.41,0.37,2019-10-11,07:30,N,low,1.0NRT,305.2,5.9,D
24.47868,81.54279,346.6,0.41,0.37,2019-10-11,07:30,N,nominal,1.0NRT,305.4,3.9,D
15.85585,99.67616,330.9,0.75,0.77,2019-10-11,07:30,N,nominal,1.0NRT,287.1,5,D
24.47934,81.5468,341.7,0.41,0.37,2019-10-11,07:30,N,nominal,1.0NRT,305,3.9,D
24.48,81.5508,335.9,0.41,0.37,2019-10-11,07:30,N,nominal,1.0NRT,305.2,10.8,D
24.47661,81.55145,335.6,0.41,0.37,2019-10-11,07:30,N,nominal,1.0NRT,303.8,5.8,D
24.4719,81.5441,367,0.41,0.37,2019-10-11,07:30,N,low,1.0NRT,303.6,15.3,D
24.47322,81.55212,367,0.41,0.37,2019-10-11,07:30,N,low,1.0NRT,304.4,5.8,D
24.47454,81.56012,367,0.41,0.37,2019-10-11,07:30,N,low,1.0NRT,305.8,14.3,D
24.46991,81.53208,351.1,0.41,0.37,2019-10-11,07:30,N,nominal,1.0NRT,304.4,6.2,D
24.47058,81.53609,338.7,0.41,0.37,2019-10-11,07:30,N,nominal,1.0NRT,304.2,2.5,D
24.47124,81.54009,337.1,0.41,0.37,2019-10-11,07:30,N,nominal,1.0NRT,303.1,2.5,D
24.47388,81.55612,342.3,0.41,0.37,2019-10-11,07:30,N,nominal,1.0NRT,304.7,5.8,D
24.46851,81.54478,367,0.41,0.37,2019-10-11,07:30,N,low,1.0NRT,305.6,9.1,D
24.46586,81.52875,344.6,0.41,0.37,2019-10-11,07:30,N,nominal,1.0NRT,305.3,13.3,D
24.46785,81.54076,349.4,0.41,0.37,2019-10-11,07:30,N,nominal,1.0NRT,304.7,6.5,D
29.90413,76.79555,345.2,0.55,0.42,2019-10-11,07:36,N,nominal,1.0NRT,303.2,11.5,D
29.92914,76.92344,333.3,0.54,0.42,2019-10-11,07:36,N,nominal,1.0NRT,301.9,5.8,D
29.87245,76.65526,331.9,0.56,0.43,2019-10-11,07:36,N,nominal,1.0NRT,299.6,3.9,D
29.87055,76.78899,329.1,0.55,0.43,2019-10-11,07:36,N,nominal,1.0NRT,299.3,3.4,D
29.87422,76.82921,331.1,0.55,0.42,2019-10-11,07:36,N,nominal,1.0NRT,299.8,1.5,D
29.82382,76.65215,334.3,0.56,0.43,2019-10-11,07:36,N,nominal,1.0NRT,300.9,3.5,D
29.76079,76.372,334,0.39,0.44,2019-10-11,07:36,N,nominal,1.0NRT,298.9,3.2,D
29.76971,76.4594,330.2,0.57,0.43,2019-10-11,07:36,N,nominal,1.0NRT,297.2,2.3,D
29.62824,75.85729,331,0.41,0.45,2019-10-11,07:36,N,nominal,1.0NRT,300.1,2.8,D
29.62417,75.85837,339.1,0.41,0.45,2019-10-11,07:36,N,nominal,1.0NRT,301.9,9.1,D
29.62502,75.86259,331.6,0.41,0.45,2019-10-11,07:36,N,nominal,1.0NRT,298.4,9.6,D
29.62516,75.96835,330.6,0.41,0.45,2019-10-11,07:36,N,nominal,1.0NRT,300.1,2.2,D
29.83233,77.00816,333.8,0.54,0.42,2019-10-11,07:36,N,nominal,1.0NRT,299.6,6.7,D
29.65291,76.12576,330.8,0.4,0.44,2019-10-11,07:36,N,nominal,1.0NRT,298.5,3.4,D
29.76552,76.70885,329.9,0.56,0.43,2019-10-11,07:36,N,nominal,1.0NRT,301.3,4.1,D
29.79106,76.87947,332.7,0.54,0.42,2019-10-11,07:36,N,nominal,1.0NRT,299.6,6.5,D
29.83126,77.0108,333.1,0.54,0.42,2019-10-11,07:36,N,nominal,1.0NRT,300.2,5.7,D
29.65358,76.12951,332.4,0.4,0.44,2019-10-11,07:36,N,nominal,1.0NRT,299,3.8,D
29.76621,76.71087,332.5,0.56,0.43,2019-10-11,07:36,N,nominal,1.0NRT,301.9,3.9,D
29.7946,76.88091,340.6,0.54,0.42,2019-10-11,07:36,N,nominal,1.0NRT,300.6,5.9,D
29.66544,76.23297,332.5,0.39,0.44,2019-10-11,07:36,N,nominal,1.0NRT,298.8,2,D
29.76388,76.74124,331.8,0.55,0.43,2019-10-11,07:36,N,low,1.0NRT,302,3,D
29.72521,76.62522,330.6,0.56,0.43,2019-10-11,07:36,N,nominal,1.0NRT,300.3,3.5,D
29.76637,76.923,345.5,0.54,0.42,2019-10-11,07:36,N,nominal,1.0NRT,302.6,6.7,D
29.54284,75.82997,337.6,0.42,0.45,2019-10-11,07:36,N,nominal,1.0NRT,301.3,3.6,D
29.65622,76.39876,342.6,0.39,0.44,2019-10-11,07:36,N,nominal,1.0NRT,299,4.4,D
29.74733,76.88698,333.7,0.54,0.42,2019-10-11,07:36,N,nominal,1.0NRT,302,3.7,D
29.56196,75.98867,338.8,0.41,0.45,2019-10-11,07:36,N,nominal,1.0NRT,299.4,5.8,D
29.74224,76.92326,330.9,0.54,0.42,2019-10-11,07:36,N,nominal,1.0NRT,299.3,10.4,D
29.7384,76.92423,332.4,0.54,0.42,2019-10-11,07:36,N,nominal,1.0NRT,299.9,10.4,D
29.67495,76.61988,345.9,0.56,0.43,2019-10-11,07:36,N,nominal,1.0NRT,299.6,6.8,D
29.72048,76.85271,331,0.55,0.42,2019-10-11,07:36,N,nominal,1.0NRT,302.6,2.4,D
29.72808,76.89183,330.9,0.54,0.42,2019-10-11,07:36,N,low,1.0NRT,303,1.6,D
29.71443,76.84248,342.6,0.55,0.43,2019-10-11,07:36,N,nominal,1.0NRT,303.3,6.4,D
29.76049,77.08009,332,0.53,0.42,2019-10-11,07:36,N,nominal,1.0NRT,299,3.1,D
29.74718,77.03186,334.1,0.54,0.42,2019-10-11,07:36,N,nominal,1.0NRT,300.7,9.5,D
29.54854,76.04886,332.7,0.4,0.45,2019-10-11,07:36,N,nominal,1.0NRT,299.7,2.7,D
29.70781,76.85003,342.6,0.55,0.43,2019-10-11,07:36,N,nominal,1.0NRT,301.2,7.4,D
29.74336,77.03282,335.9,0.54,0.42,2019-10-11,07:36,N,nominal,1.0NRT,303.1,9.5,D
29.53947,76.02511,340.7,0.41,0.45,2019-10-11,07:36,N,nominal,1.0NRT,300.4,5.7,D
29.7105,76.88455,330.2,0.55,0.42,2019-10-11,07:36,N,low,1.0NRT,303.1,2.9,D
29.65213,76.64983,332,0.56,0.43,2019-10-11,07:36,N,nominal,1.0NRT,299.6,5.1,D
29.67688,76.77515,330.5,0.55,0.43,2019-10-11,07:36,N,nominal,1.0NRT,299.4,3.5,D
29.69675,76.87629,336.3,0.55,0.42,2019-10-11,07:36,N,nominal,1.0NRT,302.1,5.5,D
29.70272,76.92737,335.8,0.54,0.42,2019-10-11,07:36,N,nominal,1.0NRT,301.3,3.2,D
29.50906,75.98052,338.5,0.41,0.45,2019-10-11,07:36,N,nominal,1.0NRT,301.6,3.5,D
29.649,76.71666,334,0.56,0.43,2019-10-11,07:36,N,nominal,1.0NRT,300,4.8,D
29.65384,76.65057,332.6,0.56,0.43,2019-10-11,07:36,N,nominal,1.0NRT,299.6,3.3,D
29.67784,76.7762,332.7,0.55,0.43,2019-10-11,07:36,N,nominal,1.0NRT,299.8,4.7,D
29.69605,76.87197,330.7,0.55,0.42,2019-10-11,07:36,N,low,1.0NRT,303.5,3.7,D
29.70278,76.92876,334.7,0.54,0.42,2019-10-11,07:36,N,nominal,1.0NRT,302,5.2,D
29.65751,76.7337,334.3,0.56,0.43,2019-10-11,07:36,N,nominal,1.0NRT,302.3,5.2,D
29.59633,76.62891,332.4,0.56,0.43,2019-10-11,07:36,N,nominal,1.0NRT,299.9,4,D
29.59242,76.62991,333.7,0.56,0.43,2019-10-11,07:36,N,nominal,1.0NRT,300.7,3.3,D
29.63879,76.86879,341.4,0.55,0.43,2019-10-11,07:36,N,nominal,1.0NRT,301.8,6.1,D
29.53654,76.53439,332,0.57,0.43,2019-10-11,07:36,N,nominal,1.0NRT,299.5,4.1,D
29.5326,76.5354,349.1,0.57,0.43,2019-10-11,07:36,N,nominal,1.0NRT,304.8,33.8,D
29.58805,76.858,331.1,0.55,0.43,2019-10-11,07:36,N,nominal,1.0NRT,301,2.4,D
29.61296,77.02661,345.3,0.54,0.42,2019-10-11,07:36,N,nominal,1.0NRT,302,17.8,D
29.61025,77.01796,343.2,0.54,0.42,2019-10-11,07:36,N,nominal,1.0NRT,300.5,8.5,D
29.61234,77.02899,344.2,0.54,0.42,2019-10-11,07:36,N,nominal,1.0NRT,301.8,14.5,D
29.54569,76.91193,334.7,0.55,0.42,2019-10-11,07:36,N,nominal,1.0NRT,300.6,3.7,D
29.42457,76.52275,330.7,0.38,0.43,2019-10-11,07:36,N,nominal,1.0NRT,298.1,1.4,D
29.4269,76.53448,334.9,0.38,0.43,2019-10-11,07:36,N,nominal,1.0NRT,299.2,3.6,D
29.4174,76.5492,343.8,0.38,0.43,2019-10-11,07:36,N,nominal,1.0NRT,299,3.1,D
29.25595,75.88383,336.2,0.42,0.45,2019-10-11,07:36,N,nominal,1.0NRT,299.2,4,D
29.2568,75.88808,331.7,0.42,0.45,2019-10-11,07:36,N,nominal,1.0NRT,298.9,4,D
29.4456,77.02107,334.1,0.54,0.42,2019-10-11,07:36,N,nominal,1.0NRT,298.7,5.1,D
29.20718,76.12555,335.9,0.41,0.45,2019-10-11,07:36,N,nominal,1.0NRT,297.9,5.8,D
29.18817,77.00832,333.3,0.55,0.43,2019-10-11,07:36,N,nominal,1.0NRT,302.9,5,D
29.13003,77.35667,332.3,0.53,0.42,2019-10-11,07:36,N,nominal,1.0NRT,299.1,1.8,D
29.13269,77.3587,335.2,0.53,0.42,2019-10-11,07:36,N,nominal,1.0NRT,299.1,4.3,D
29.21526,78.07773,334.2,0.49,0.4,2019-10-11,07:36,N,nominal,1.0NRT,299.3,4,D
29.09815,78.9644,331.5,0.45,0.39,2019-10-11,07:36,N,nominal,1.0NRT,300.5,1.7,D
29.05075,79.37395,333.8,0.43,0.38,2019-10-11,07:36,N,nominal,1.0NRT,299.6,2.7,D
28.98067,79.28345,333.7,0.44,0.38,2019-10-11,07:36,N,nominal,1.0NRT,302,4.2,D
28.75844,78.09308,332.6,0.49,0.41,2019-10-11,07:36,N,nominal,1.0NRT,301.8,2.5,D
28.99191,79.49239,330.6,0.43,0.38,2019-10-11,07:36,N,low,1.0NRT,301.2,2.2,D
29.01636,79.6948,331.8,0.42,0.38,2019-10-11,07:36,N,nominal,1.0NRT,301.8,1.9,D
28.89374,79.22259,330.4,0.44,0.38,2019-10-11,07:36,N,low,1.0NRT,301,5,D
28.9535,79.73449,335.2,0.42,0.38,2019-10-11,07:36,N,nominal,1.0NRT,301.4,3.5,D
32.00249,73.24735,340.6,0.52,0.5,2019-10-11,07:36,N,nominal,1.0NRT,298.2,3.8,D
28.94736,79.74032,332.7,0.42,0.38,2019-10-11,07:36,N,nominal,1.0NRT,301.7,2.6,D
37.24568,69.0715,354.2,0.33,0.55,2019-10-11,07:36,N,nominal,1.0NRT,299.3,7.1,D
37.24476,69.06787,367,0.33,0.55,2019-10-11,07:36,N,high,1.0NRT,301.3,7.1,D
39.55541,82.76247,337.6,0.45,0.39,2019-10-11,07:36,N,nominal,1.0NRT,307.7,2.3,D
38.8531,85.30054,336.5,0.56,0.43,2019-10-11,07:36,N,low,1.0NRT,308.8,2.7,D
35.31832,73.79411,335.2,0.41,0.45,2019-10-11,07:36,N,nominal,1.0NRT,287.1,43.5,D
35.31905,73.79755,354.2,0.41,0.45,2019-10-11,07:36,N,nominal,1.0NRT,291.8,43.5,D
29.60682,71.57036,348.6,0.36,0.58,2019-10-11,07:36,N,nominal,1.0NRT,299.4,5.3,D
30.33739,74.85352,341.7,0.45,0.47,2019-10-11,07:36,N,nominal,1.0NRT,301.5,4,D
30.5918,76.43936,329.7,0.56,0.43,2019-10-11,07:36,N,nominal,1.0NRT,298,3.1,D
30.46258,76.21726,330,0.57,0.43,2019-10-11,07:36,N,nominal,1.0NRT,298.8,3.6,D
30.56373,76.81283,329.3,0.53,0.42,2019-10-11,07:36,N,nominal,1.0NRT,300.4,2.5,D
30.53561,76.94272,328.5,0.53,0.42,2019-10-11,07:36,N,nominal,1.0NRT,300.6,3.6,D
30.26321,76.02016,343.4,0.39,0.44,2019-10-11,07:36,N,nominal,1.0NRT,299.8,5,D
30.30451,76.29333,338.9,0.57,0.43,2019-10-11,07:36,N,nominal,1.0NRT,298.8,13.9,D
30.41774,76.87775,329.4,0.53,0.42,2019-10-11,07:36,N,low,1.0NRT,299.8,3.5,D
30.17914,75.76902,330.2,0.41,0.45,2019-10-11,07:36,N,nominal,1.0NRT,298.7,3,D
30.28104,76.54887,338,0.55,0.43,2019-10-11,07:36,N,nominal,1.0NRT,299.7,7.6,D
30.32217,76.75719,333.9,0.54,0.42,2019-10-11,07:36,N,nominal,1.0NRT,300.4,5.3,D
30.25154,76.44183,333.1,0.56,0.43,2019-10-11,07:36,N,nominal,1.0NRT,299.8,4,D
30.28251,76.55082,338.9,0.56,0.43,2019-10-11,07:36,N,nominal,1.0NRT,298.7,7.6,D
30.3224,76.75961,333.1,0.54,0.42,2019-10-11,07:36,N,nominal,1.0NRT,299.6,3.6,D
30.25254,76.43776,331.5,0.56,0.43,2019-10-11,07:36,N,nominal,1.0NRT,298,2.2,D
30.2675,76.57864,331.1,0.55,0.43,2019-10-11,07:36,N,nominal,1.0NRT,300.5,7.5,D
30.18091,76.21883,337.8,0.39,0.44,2019-10-11,07:36,N,nominal,1.0NRT,297.2,3.8,D
30.2947,76.82491,332.2,0.54,0.42,2019-10-11,07:36,N,nominal,1.0NRT,300.3,5.2,D
30.30106,76.85803,330.1,0.54,0.42,2019-10-11,07:36,N,nominal,1.0NRT,298.6,3.7,D
30.34377,77.16495,328.9,0.52,0.41,2019-10-11,07:36,N,nominal,1.0NRT,297.5,3.6,D
30.16191,76.33253,333.4,0.57,0.43,2019-10-11,07:36,N,nominal,1.0NRT,298,4.3,D
30.15798,76.33354,330.9,0.57,0.43,2019-10-11,07:36,N,nominal,1.0NRT,298,3.4,D
30.16174,76.39405,334.1,0.57,0.43,2019-10-11,07:36,N,nominal,1.0NRT,299.4,7,D
30.14372,76.38644,337.7,0.57,0.43,2019-10-11,07:36,N,nominal,1.0NRT,300.4,7.4,D
30.22965,76.8414,331.6,0.54,0.42,2019-10-11,07:36,N,nominal,1.0NRT,300.7,3.8,D
30.14183,76.38879,334.7,0.57,0.43,2019-10-11,07:36,N,nominal,1.0NRT,301,7,D
30.17835,76.66306,333.4,0.55,0.43,2019-10-11,07:36,N,nominal,1.0NRT,302.5,5.8,D
29.96393,75.63706,337.8,0.42,0.45,2019-10-11,07:36,N,nominal,1.0NRT,298.9,2.7,D
30.10994,76.41544,342.7,0.57,0.43,2019-10-11,07:36,N,nominal,1.0NRT,300.4,9.9,D
30.10601,76.41646,345.1,0.57,0.43,2019-10-11,07:36,N,nominal,1.0NRT,303.8,21.7,D
30.15761,76.78618,333.7,0.54,0.42,2019-10-11,07:36,N,nominal,1.0NRT,303.1,2.8,D
30.19063,76.95724,334.5,0.53,0.42,2019-10-11,07:36,N,nominal,1.0NRT,301,3.7,D
30.04495,76.2538,340.1,0.39,0.44,2019-10-11,07:36,N,nominal,1.0NRT,299.8,4.5,D
30.18196,76.95368,331.2,0.53,0.42,2019-10-11,07:36,N,nominal,1.0NRT,300.1,3.3,D
30.04883,76.31511,338.3,0.38,0.43,2019-10-11,07:36,N,nominal,1.0NRT,301.6,3.4,D
30.11759,76.72589,334.7,0.55,0.42,2019-10-11,07:36,N,nominal,1.0NRT,300.8,3.5,D
30.11373,76.72687,333.3,0.55,0.42,2019-10-11,07:36,N,nominal,1.0NRT,302.2,3.5,D
30.12622,76.85239,335.4,0.54,0.42,2019-10-11,07:36,N,nominal,1.0NRT,302.9,7,D
30.12593,76.85394,343.3,0.54,0.42,2019-10-11,07:36,N,nominal,1.0NRT,302.4,7.5,D
30.08418,76.7828,329.3,0.54,0.42,2019-10-11,07:36,N,low,1.0NRT,300.9,2.1,D
29.97189,76.22562,353.9,0.39,0.44,2019-10-11,07:36,N,nominal,1.0NRT,301,6.4,D
30.12801,77.05441,343.3,0.53,0.42,2019-10-11,07:36,N,nominal,1.0NRT,301.1,7,D
30.06448,76.76434,331.5,0.55,0.42,2019-10-11,07:36,N,nominal,1.0NRT,301.4,1.7,D
29.95598,76.25072,346.1,0.39,0.44,2019-10-11,07:36,N,nominal,1.0NRT,300.5,5,D
30.03699,76.74777,343.7,0.55,0.42,2019-10-11,07:36,N,nominal,1.0NRT,302.8,6.7,D
29.93615,76.25586,331.7,0.39,0.44,2019-10-11,07:36,N,nominal,1.0NRT,296.5,2.2,D
29.92662,76.22898,333.9,0.39,0.44,2019-10-11,07:36,N,nominal,1.0NRT,299.6,2.5,D
29.93377,76.26485,335.2,0.39,0.44,2019-10-11,07:36,N,nominal,1.0NRT,299,2.1,D
30.04558,76.83355,339.3,0.54,0.42,2019-10-11,07:36,N,nominal,1.0NRT,303,6,D
29.94642,76.39112,336.3,0.57,0.43,2019-10-11,07:36,N,nominal,1.0NRT,300.5,7,D
29.94014,76.38039,334.5,0.57,0.43,2019-10-11,07:36,N,nominal,1.0NRT,300.9,6.1,D
29.93288,76.36473,352.5,0.38,0.43,2019-10-11,07:36,N,nominal,1.0NRT,301.4,8.3,D
30.05108,77.068,329.1,0.53,0.42,2019-10-11,07:36,N,nominal,1.0NRT,297.8,2.9,D
29.9278,76.46348,332.1,0.57,0.43,2019-10-11,07:36,N,nominal,1.0NRT,299.1,3.8,D
30.04933,77.07092,328.7,0.53,0.42,2019-10-11,07:36,N,low,1.0NRT,299.2,3,D
29.88257,76.22336,340.7,0.39,0.44,2019-10-11,07:36,N,nominal,1.0NRT,301.1,4.3,D
29.92567,76.46612,335.1,0.57,0.43,2019-10-11,07:36,N,nominal,1.0NRT,300.2,4.8,D
29.88088,76.25743,344.8,0.39,0.44,2019-10-11,07:36,N,nominal,1.0NRT,300.9,4.4,D
29.90484,76.38016,341.5,0.38,0.43,2019-10-11,07:36,N,nominal,1.0NRT,302,4.9,D
29.84601,76.14397,342.5,0.4,0.44,2019-10-11,07:36,N,nominal,1.0NRT,302,5.3,D
29.85475,76.20953,332.1,0.39,0.44,2019-10-11,07:36,N,nominal,1.0NRT,298.3,3.6,D
29.86577,76.26553,339.8,0.39,0.44,2019-10-11,07:36,N,nominal,1.0NRT,300,4.9,D
29.86102,76.26257,333.5,0.39,0.44,2019-10-11,07:36,N,nominal,1.0NRT,300.9,3.3,D
29.8781,76.37054,339.2,0.38,0.43,2019-10-11,07:36,N,nominal,1.0NRT,299.3,3.4,D
29.89478,76.45567,345.5,0.57,0.43,2019-10-11,07:36,N,nominal,1.0NRT,303.7,18.3,D
29.87028,76.35187,340.7,0.38,0.44,2019-10-11,07:36,N,nominal,1.0NRT,302.4,8.6,D
29.87105,76.3558,334.2,0.38,0.44,2019-10-11,07:36,N,nominal,1.0NRT,297.5,6.9,D
29.94608,76.76134,332.3,0.55,0.43,2019-10-11,07:36,N,low,1.0NRT,303,4.6,D
29.87494,76.41772,332.8,0.57,0.43,2019-10-11,07:36,N,nominal,1.0NRT,299.4,6.6,D
29.91018,76.59759,332.7,0.56,0.43,2019-10-11,07:36,N,nominal,1.0NRT,302.1,3.8,D
29.64647,75.30546,332.9,0.44,0.46,2019-10-11,07:36,N,nominal,1.0NRT,300,4,D
29.88115,76.57484,333.7,0.56,0.43,2019-10-11,07:36,N,nominal,1.0NRT,300.6,5.4,D
29.88341,76.58633,331.9,0.56,0.43,2019-10-11,07:36,N,nominal,1.0NRT,301.2,3.9,D
29.86422,76.53066,329.4,0.57,0.43,2019-10-11,07:36,N,nominal,1.0NRT,299.7,2.6,D
29.86536,76.53645,332.3,0.56,0.43,2019-10-11,07:36,N,nominal,1.0NRT,298.8,2.6,D
29.9168,76.79823,333.7,0.55,0.42,2019-10-11,07:36,N,nominal,1.0NRT,302.8,5.4,D
29.81575,76.30772,330.2,0.39,0.44,2019-10-11,07:36,N,nominal,1.0NRT,298.3,2.2,D
29.85226,76.49107,329.4,0.57,0.43,2019-10-11,07:36,N,nominal,1.0NRT,298.3,2.8,D
29.89972,76.73172,338.7,0.55,0.43,2019-10-11,07:36,N,nominal,1.0NRT,302.8,5.8,D
29.93297,76.92248,341.1,0.54,0.42,2019-10-11,07:36,N,nominal,1.0NRT,301.7,6.7,D
31.64153,75.18819,343.1,0.41,0.45,2019-10-11,07:36,N,nominal,1.0NRT,301.4,3.3,D
31.59388,74.91084,333.6,0.43,0.46,2019-10-11,07:36,N,nominal,1.0NRT,298.8,2.5,D
31.64843,75.14623,340.3,0.41,0.45,2019-10-11,07:36,N,nominal,1.0NRT,301.2,3.6,D
31.63313,75.03135,336.1,0.42,0.45,2019-10-11,07:36,N,nominal,1.0NRT,299.1,2.9,D
31.58042,74.75925,342,0.43,0.46,2019-10-11,07:36,N,nominal,1.0NRT,301.7,4.6,D
31.6395,75.02032,334,0.42,0.45,2019-10-11,07:36,N,nominal,1.0NRT,299.1,1.8,D
31.6916,75.18869,331.1,0.41,0.45,2019-10-11,07:36,N,nominal,1.0NRT,300.6,1.9,D
31.66591,75.02219,337.4,0.42,0.45,2019-10-11,07:36,N,nominal,1.0NRT,301,3.8,D
31.58891,74.6313,339.8,0.44,0.46,2019-10-11,07:36,N,nominal,1.0NRT,297.4,7.9,D
31.67509,74.98257,334.5,0.42,0.45,2019-10-11,07:36,N,nominal,1.0NRT,301.2,3,D
31.72171,75.12586,331.4,0.41,0.45,2019-10-11,07:36,N,nominal,1.0NRT,299.9,2.3,D
31.48808,74.0049,330.4,0.48,0.48,2019-10-11,07:36,N,nominal,1.0NRT,297.5,3.3,D
31.62186,74.59754,333.1,0.44,0.46,2019-10-11,07:36,N,nominal,1.0NRT,296.7,2.7,D
31.73712,75.11699,335.4,0.41,0.45,2019-10-11,07:36,N,nominal,1.0NRT,301,2.8,D
31.73003,75.01807,347.1,0.42,0.45,2019-10-11,07:36,N,nominal,1.0NRT,300.5,5.9,D
31.7211,74.99024,330.2,0.42,0.45,2019-10-11,07:36,N,nominal,1.0NRT,299.4,2.4,D
31.73159,75.01964,333.5,0.42,0.45,2019-10-11,07:36,N,nominal,1.0NRT,299.3,5.1,D
31.68303,74.74697,351.7,0.43,0.46,2019-10-11,07:36,N,nominal,1.0NRT,300,6.5,D
31.75886,75.02585,333.3,0.42,0.45,2019-10-11,07:36,N,nominal,1.0NRT,300.5,3.4,D
31.80026,74.9958,342,0.42,0.45,2019-10-11,07:36,N,nominal,1.0NRT,300.3,5,D
31.78859,74.93885,331.5,0.42,0.45,2019-10-11,07:36,N,nominal,1.0NRT,299.2,2.5,D
31.88419,75.0788,334.9,0.41,0.45,2019-10-11,07:36,N,nominal,1.0NRT,298.5,2.4,D
31.91518,75.18773,340.8,0.41,0.45,2019-10-11,07:36,N,nominal,1.0NRT,299.2,5.1,D
31.895,74.94257,340.8,0.42,0.45,2019-10-11,07:36,N,nominal,1.0NRT,300.1,5.2,D
31.77697,74.20272,337.4,0.46,0.47,2019-10-11,07:36,N,nominal,1.0NRT,298.2,4.5,D
31.77779,74.20403,339.9,0.46,0.47,2019-10-11,07:36,N,nominal,1.0NRT,297.8,5.6,D
31.90329,74.62444,330.8,0.44,0.46,2019-10-11,07:36,N,nominal,1.0NRT,298,1.9,D
31.91167,74.18766,330.1,0.46,0.47,2019-10-11,07:36,N,nominal,1.0NRT,301.3,3.9,D
31.67833,73.03767,331.2,0.54,0.51,2019-10-11,07:36,N,nominal,1.0NRT,295.7,3.6,D
32.24853,74.74045,336.6,0.42,0.45,2019-10-11,07:36,N,nominal,1.0NRT,298,2.2,D
32.00301,73.24998,341.1,0.52,0.5,2019-10-11,07:36,N,nominal,1.0NRT,297.9,6.5,D
32.13815,73.79542,334.5,0.48,0.48,2019-10-11,07:36,N,nominal,1.0NRT,297.4,2.9,D
32.21923,73.31864,336.1,0.51,0.49,2019-10-11,07:36,N,nominal,1.0NRT,297.8,4.7,D
31.64452,70.6614,333.2,0.37,0.58,2019-10-11,07:36,N,nominal,1.0NRT,297.7,2.3,D
35.3167,73.79962,341.2,0.41,0.45,2019-10-11,07:36,N,nominal,1.0NRT,287,26.4,D
35.31601,73.79629,352.8,0.41,0.45,2019-10-11,07:36,N,nominal,1.0NRT,294.9,30.9,D
35.32015,73.79554,353.7,0.41,0.45,2019-10-11,07:36,N,nominal,1.0NRT,283.3,30.9,D
28.86087,79.78532,337.4,0.42,0.38,2019-10-11,07:36,N,nominal,1.0NRT,302.3,10.2,D
28.84682,79.70339,333,0.43,0.38,2019-10-11,07:36,N,nominal,1.0NRT,304,2.6,D
28.85842,79.75013,334.7,0.42,0.38,2019-10-11,07:36,N,nominal,1.0NRT,302.2,4,D
28.87465,79.71968,338,0.42,0.38,2019-10-11,07:36,N,nominal,1.0NRT,303,3.7,D
28.87712,79.69221,331,0.43,0.38,2019-10-11,07:36,N,nominal,1.0NRT,299.7,1.5,D
28.88057,79.69145,333.4,0.43,0.38,2019-10-11,07:36,N,nominal,1.0NRT,300,1.5,D
26.93178,87.48465,328.5,0.52,0.42,2019-10-11,07:36,N,nominal,1.0NRT,296.6,5.8,D
26.93124,87.48009,346.6,0.52,0.42,2019-10-11,07:36,N,nominal,1.0NRT,298.2,5.8,D
26.05986,77.38844,336.9,0.39,0.44,2019-10-11,07:36,N,nominal,1.0NRT,304.7,3.5,D
27.15834,81.28672,331,0.4,0.37,2019-10-11,07:36,N,nominal,1.0NRT,302.2,2.5,D
25.91166,73.30141,336.9,0.35,0.56,2019-10-11,07:36,N,nominal,1.0NRT,305.9,4.1,D
27.10781,79.1634,333.4,0.47,0.39,2019-10-11,07:36,N,nominal,1.0NRT,300.1,3,D
27.81112,80.632,332,0.41,0.37,2019-10-11,07:36,N,nominal,1.0NRT,300.1,5.5,D
27.7117,79.72298,331.7,0.44,0.38,2019-10-11,07:36,N,nominal,1.0NRT,301.6,2.3,D
27.92457,80.34821,332.8,0.41,0.37,2019-10-11,07:36,N,nominal,1.0NRT,301.6,5.4,D
27.92656,80.33913,334.6,0.41,0.37,2019-10-11,07:36,N,nominal,1.0NRT,300.6,3.2,D
28.0377,80.68804,336,0.4,0.37,2019-10-11,07:36,N,nominal,1.0NRT,301.1,2.7,D
27.9061,79.88558,339.2,0.43,0.38,2019-10-11,07:36,N,nominal,1.0NRT,302.9,4.5,D
27.99044,80.27779,330.7,0.42,0.37,2019-10-11,07:36,N,nominal,1.0NRT,300.4,2.3,D
28.0118,80.32099,337.5,0.41,0.37,2019-10-11,07:36,N,nominal,1.0NRT,301,4.2,D
27.98531,80.09949,331.2,0.42,0.38,2019-10-11,07:36,N,nominal,1.0NRT,298.5,1.7,D
27.98755,80.09981,343.4,0.42,0.38,2019-10-11,07:36,N,nominal,1.0NRT,299.5,5.9,D
28.15842,80.52709,334.3,0.41,0.37,2019-10-11,07:36,N,nominal,1.0NRT,303.8,3.5,D
28.19198,80.47765,340.3,0.41,0.37,2019-10-11,07:36,N,nominal,1.0NRT,303.4,6,D
28.15094,80.19247,333,0.42,0.37,2019-10-11,07:36,N,low,1.0NRT,303.1,4.1,D
27.71206,77.68594,332.2,0.54,0.42,2019-10-11,07:36,N,nominal,1.0NRT,301.4,3.5,D
28.2157,80.47263,332.2,0.41,0.37,2019-10-11,07:36,N,nominal,1.0NRT,301.2,3.2,D
28.13542,79.97582,342.3,0.42,0.38,2019-10-11,07:36,N,nominal,1.0NRT,302.4,9.4,D
28.27452,80.25826,333.8,0.41,0.37,2019-10-11,07:36,N,nominal,1.0NRT,302.7,2.2,D
28.36283,80.20155,332.3,0.41,0.37,2019-10-11,07:36,N,low,1.0NRT,303.5,3.4,D
28.04754,78.37733,331.5,0.49,0.4,2019-10-11,07:36,N,nominal,1.0NRT,304.4,3.1,D
27.90714,77.52225,333.6,0.54,0.42,2019-10-11,07:36,N,nominal,1.0NRT,302.4,5,D
28.44369,80.51594,332.8,0.41,0.37,2019-10-11,07:36,N,nominal,1.0NRT,301.5,3.4,D
27.91409,77.53769,333,0.54,0.42,2019-10-11,07:36,N,nominal,1.0NRT,302.8,2.7,D
27.99867,77.55488,334.8,0.54,0.42,2019-10-11,07:36,N,nominal,1.0NRT,302.1,4.4,D
28.0429,77.55561,337.2,0.54,0.42,2019-10-11,07:36,N,nominal,1.0NRT,301.6,5.4,D
28.18348,78.18689,333.7,0.5,0.41,2019-10-11,07:36,N,nominal,1.0NRT,301,3.3,D
28.55564,80.22226,341.2,0.41,0.37,2019-10-11,07:36,N,nominal,1.0NRT,301.3,6.1,D
28.72729,79.93265,336.3,0.42,0.38,2019-10-11,07:36,N,nominal,1.0NRT,300.2,3.9,D
28.75013,79.8167,334.4,0.42,0.38,2019-10-11,07:36,N,nominal,1.0NRT,303.2,3.3,D
28.78713,79.86643,342.2,0.42,0.38,2019-10-11,07:36,N,nominal,1.0NRT,306.2,22.1,D
28.79056,79.86568,334.5,0.42,0.38,2019-10-11,07:36,N,nominal,1.0NRT,300.3,3.3,D
28.80627,79.85335,334,0.42,0.38,2019-10-11,07:36,N,nominal,1.0NRT,300.8,2.2,D
28.81597,79.83525,332.9,0.42,0.38,2019-10-11,07:36,N,nominal,1.0NRT,301,3,D
28.83265,79.84937,334.4,0.42,0.38,2019-10-11,07:36,N,nominal,1.0NRT,299.6,2.4,D
28.84391,79.74886,336.1,0.42,0.38,2019-10-11,07:36,N,nominal,1.0NRT,303.1,4.7,D
28.85743,79.78608,353.4,0.42,0.38,2019-10-11,07:36,N,nominal,1.0NRT,304.6,10.2,D
28.85669,79.78178,346.6,0.42,0.38,2019-10-11,07:36,N,nominal,1.0NRT,307.3,10.2,D
30.21929,74.04774,342.6,0.51,0.49,2019-10-11,07:36,N,nominal,1.0NRT,298.1,7.2,D
30.74114,76.37413,336,0.56,0.43,2019-10-11,07:36,N,nominal,1.0NRT,301.9,17.1,D
30.25999,73.35635,341.5,0.55,0.51,2019-10-11,07:36,N,nominal,1.0NRT,296.5,8.8,D
30.26166,73.35918,333.5,0.55,0.51,2019-10-11,07:36,N,nominal,1.0NRT,295.1,4.1,D
30.34056,73.49208,330.7,0.54,0.51,2019-10-11,07:36,N,nominal,1.0NRT,296.2,7.2,D
30.73077,75.16734,356.6,0.43,0.46,2019-10-11,07:36,N,nominal,1.0NRT,301.3,13.5,D
30.41011,73.65355,332.2,0.53,0.5,2019-10-11,07:36,N,nominal,1.0NRT,296.8,3.4,D
30.37293,73.41708,350.9,0.55,0.51,2019-10-11,07:36,N,nominal,1.0NRT,296.1,9.8,D
30.49238,73.78912,331.5,0.52,0.5,2019-10-11,07:36,N,nominal,1.0NRT,297.5,4.1,D
30.40467,73.39512,345,0.55,0.51,2019-10-11,07:36,N,nominal,1.0NRT,296,7.6,D
30.41346,73.36856,338.7,0.55,0.51,2019-10-11,07:36,N,nominal,1.0NRT,296.3,5.7,D
30.59184,74.13613,334,0.49,0.49,2019-10-11,07:36,N,nominal,1.0NRT,299.1,4.2,D
30.56558,73.79629,331.1,0.52,0.5,2019-10-11,07:36,N,nominal,1.0NRT,297.1,3.1,D
30.02547,71.36371,331.7,0.37,0.58,2019-10-11,07:36,N,nominal,1.0NRT,296.5,3,D
30.53596,73.5929,342,0.53,0.5,2019-10-11,07:36,N,nominal,1.0NRT,297.6,8.6,D
30.53488,73.59645,335.9,0.53,0.5,2019-10-11,07:36,N,nominal,1.0NRT,298.7,4.9,D
30.02305,71.36385,334,0.36,0.58,2019-10-11,07:36,N,nominal,1.0NRT,296.9,3.1,D
30.51732,73.43138,339.6,0.54,0.51,2019-10-11,07:36,N,nominal,1.0NRT,295.8,6.5,D
31.1185,76.21286,332.8,0.56,0.43,2019-10-11,07:36,N,nominal,1.0NRT,300.2,3.1,D
30.60965,73.67279,347,0.52,0.5,2019-10-11,07:36,N,nominal,1.0NRT,297.7,5.8,D
30.99563,75.39202,337.1,0.41,0.45,2019-10-11,07:36,N,nominal,1.0NRT,298.9,3.4,D
30.99796,75.38235,336,0.41,0.45,2019-10-11,07:36,N,nominal,1.0NRT,299,3,D
30.81155,74.45926,335.6,0.47,0.48,2019-10-11,07:36,N,nominal,1.0NRT,300.1,2.5,D
30.841,74.57789,342.1,0.46,0.47,2019-10-11,07:36,N,nominal,1.0NRT,300.8,11.5,D
30.81585,74.45804,340.8,0.47,0.48,2019-10-11,07:36,N,nominal,1.0NRT,299.6,5.8,D
30.60893,73.49323,330.9,0.54,0.5,2019-10-11,07:36,N,nominal,1.0NRT,296.8,5,D
30.58701,73.39317,341.1,0.54,0.51,2019-10-11,07:36,N,nominal,1.0NRT,298.1,7.9,D
30.71293,73.90749,341.9,0.5,0.49,2019-10-11,07:36,N,nominal,1.0NRT,297.5,10.2,D
30.74721,74.00201,335.8,0.5,0.49,2019-10-11,07:36,N,nominal,1.0NRT,298.6,3.9,D
30.69131,73.74022,330.8,0.52,0.5,2019-10-11,07:36,N,nominal,1.0NRT,298.4,3.5,D
31.03768,75.37683,330,0.41,0.45,2019-10-11,07:36,N,nominal,1.0NRT,295.3,0.7,D
30.74391,74.00012,338.4,0.5,0.49,2019-10-11,07:36,N,nominal,1.0NRT,300.1,4.7,D
30.69074,73.73773,330.1,0.52,0.5,2019-10-11,07:36,N,nominal,1.0NRT,298,3.9,D
31.08566,75.35924,332.3,0.41,0.45,2019-10-11,07:36,N,nominal,1.0NRT,298.8,2.1,D
30.70832,73.57822,345,0.53,0.5,2019-10-11,07:36,N,nominal,1.0NRT,301.3,24.3,D
30.7665,73.82261,331.8,0.51,0.49,2019-10-11,07:36,N,nominal,1.0NRT,297.5,2.7,D
30.75143,73.73147,352,0.52,0.5,2019-10-11,07:36,N,nominal,1.0NRT,302,29.3,D
30.98658,74.77181,336.3,0.45,0.47,2019-10-11,07:36,N,nominal,1.0NRT,299.1,3.6,D
30.91695,74.28672,344.9,0.48,0.48,2019-10-11,07:36,N,nominal,1.0NRT,300.3,5.5,D
30.91628,74.2888,342.9,0.48,0.48,2019-10-11,07:36,N,nominal,1.0NRT,300.7,7.5,D
30.84116,73.85918,332.4,0.5,0.49,2019-10-11,07:36,N,nominal,1.0NRT,298.6,3.9,D
30.84001,73.85396,332.8,0.5,0.49,2019-10-11,07:36,N,nominal,1.0NRT,298.9,3.9,D
31.17171,75.2042,332,0.42,0.45,2019-10-11,07:36,N,nominal,1.0NRT,300.9,2.5,D
30.78303,73.28876,339.4,0.55,0.51,2019-10-11,07:36,N,nominal,1.0NRT,297.3,6.2,D
30.98737,74.16874,331.8,0.48,0.48,2019-10-11,07:36,N,nominal,1.0NRT,300.4,2.5,D
31.09927,74.63822,330.5,0.45,0.47,2019-10-11,07:36,N,nominal,1.0NRT,299.8,3.5,D
31.17728,75.03693,344,0.43,0.46,2019-10-11,07:36,N,nominal,1.0NRT,300.3,5.8,D
30.79863,73.28197,330.2,0.54,0.51,2019-10-11,07:36,N,nominal,1.0NRT,295.7,3,D
30.98919,74.11769,330.1,0.48,0.48,2019-10-11,07:36,N,nominal,1.0NRT,299.2,2.8,D
31.21222,75.1204,340.5,0.42,0.45,2019-10-11,07:36,N,nominal,1.0NRT,299.7,5.9,D
31.10305,74.53953,331.5,0.46,0.47,2019-10-11,07:36,N,nominal,1.0NRT,299.4,4.2,D
31.23288,75.03099,338.5,0.43,0.46,2019-10-11,07:36,N,nominal,1.0NRT,300,2.1,D
31.25876,75.13528,333.6,0.42,0.45,2019-10-11,07:36,N,nominal,1.0NRT,299.7,3.1,D
31.10515,74.3358,352.5,0.47,0.48,2019-10-11,07:36,N,nominal,1.0NRT,301.2,16.3,D
31.27279,75.03393,332.8,0.43,0.46,2019-10-11,07:36,N,nominal,1.0NRT,298.7,6.2,D
31.47036,75.55399,330.6,0.4,0.44,2019-10-11,07:36,N,nominal,1.0NRT,299.7,2.4,D
31.38268,75.12157,334.2,0.42,0.45,2019-10-11,07:36,N,nominal,1.0NRT,300.7,3,D
31.38678,75.12043,341.8,0.42,0.45,2019-10-11,07:36,N,nominal,1.0NRT,301,3,D
31.39517,75.0765,338.9,0.42,0.45,2019-10-11,07:36,N,nominal,1.0NRT,298.6,4.7,D
31.39427,75.07211,329.6,0.42,0.45,2019-10-11,07:36,N,low,1.0NRT,300.4,3.4,D
31.41049,75.10923,329.9,0.42,0.45,2019-10-11,07:36,N,nominal,1.0NRT,299.1,2.5,D
31.43097,75.13668,340.6,0.42,0.45,2019-10-11,07:36,N,nominal,1.0NRT,301.4,6.8,D
31.40103,74.78355,342.5,0.44,0.46,2019-10-11,07:36,N,nominal,1.0NRT,301.2,8,D
31.44432,74.9707,340.1,0.43,0.46,2019-10-11,07:36,N,nominal,1.0NRT,300.1,5.7,D
31.50126,75.2266,340.2,0.41,0.45,2019-10-11,07:36,N,nominal,1.0NRT,299.2,2.7,D
31.47431,75.074,348.3,0.42,0.45,2019-10-11,07:36,N,nominal,1.0NRT,300.9,7.2,D
31.52595,75.17888,335.1,0.41,0.45,2019-10-11,07:36,N,nominal,1.0NRT,301.2,3.3,D
31.47376,74.90127,333.2,0.43,0.46,2019-10-11,07:36,N,nominal,1.0NRT,298.4,2,D
31.41081,74.5428,330.4,0.45,0.47,2019-10-11,07:36,N,nominal,1.0NRT,297.4,1.7,D
31.52469,75.06061,334.1,0.42,0.45,2019-10-11,07:36,N,nominal,1.0NRT,301.4,1.8,D
31.3207,74.06174,339,0.48,0.48,2019-10-11,07:36,N,nominal,1.0NRT,299.2,3.4,D
31.59166,75.23818,339.3,0.41,0.45,2019-10-11,07:36,N,nominal,1.0NRT,300.4,5,D
31.51359,74.77681,330.3,0.44,0.46,2019-10-11,07:36,N,nominal,1.0NRT,299.5,2.8,D
31.62235,75.28361,331.8,0.41,0.45,2019-10-11,07:36,N,nominal,1.0NRT,300.4,2.3,D
31.55851,74.97225,337.6,0.42,0.45,2019-10-11,07:36,N,nominal,1.0NRT,300,3.6,D
31.62238,75.22066,331.5,0.41,0.45,2019-10-11,07:36,N,nominal,1.0NRT,300.7,1.3,D
31.66513,75.34755,342.5,0.4,0.44,2019-10-11,07:36,N,nominal,1.0NRT,301.4,7.8,D
19.34531,71.30652,342.3,0.52,0.67,2019-10-11,09:12,N,nominal,1.0NRT,288,7.8,D
19.57275,71.36431,331.8,0.53,0.67,2019-10-11,09:12,N,nominal,1.0NRT,288.1,4.7,D
20.98619,57.79923,344.1,0.39,0.36,2019-10-11,09:12,N,nominal,1.0NRT,313.4,4.2,D
20.9993,57.6101,340.9,0.4,0.37,2019-10-11,09:12,N,low,1.0NRT,312.6,1.4,D
21.30429,57.79655,342.2,0.39,0.36,2019-10-11,09:12,N,low,1.0NRT,314.3,1.3,D
21.33667,57.80621,341.7,0.39,0.36,2019-10-11,09:12,N,low,1.0NRT,314.7,0.7,D
21.2936,57.09822,348.1,0.41,0.37,2019-10-11,09:12,N,nominal,1.0NRT,311.3,2,D
22.40272,56.99048,348.4,0.4,0.37,2019-10-11,09:12,N,nominal,1.0NRT,315.9,6.9,D
22.40609,56.98986,343,0.4,0.37,2019-10-11,09:12,N,low,1.0NRT,314.2,4.4,D
22.3318,56.46701,343,0.42,0.37,2019-10-11,09:12,N,nominal,1.0NRT,313.8,3,D
22.33472,56.46682,342.2,0.42,0.37,2019-10-11,09:12,N,low,1.0NRT,313.2,4.8,D
19.34728,71.30523,346.1,0.52,0.67,2019-10-11,09:12,N,nominal,1.0NRT,287.8,8.8,D
27.16968,56.05054,338.9,0.4,0.37,2019-10-11,09:12,N,low,1.0NRT,312.5,2.8,D
26.85043,55.85417,342.1,0.4,0.37,2019-10-11,09:12,N,low,1.0NRT,314.1,8.4,D
25.60053,54.42662,335.3,0.46,0.39,2019-10-11,09:12,N,nominal,1.0NRT,293.5,5.2,D
26.17879,68.96252,330.7,0.44,0.62,2019-10-11,09:12,N,nominal,1.0NRT,302.9,2.8,D
25.16877,68.5274,332.1,0.4,0.6,2019-10-11,09:12,N,nominal,1.0NRT,303.8,1.7,D
23.48532,58.28071,333.7,0.38,0.36,2019-10-11,09:12,N,low,1.0NRT,307.7,1.9,D
38.64993,54.28168,341.6,0.38,0.36,2019-10-11,09:18,N,nominal,1.0NRT,314.2,4.7,D
38.99365,56.5024,337.1,0.41,0.37,2019-10-11,09:18,N,nominal,1.0NRT,301.1,4.8,D
38.99302,56.49761,346.7,0.41,0.37,2019-10-11,09:18,N,nominal,1.0NRT,301.9,4.8,D
39.25644,56.17301,334.3,0.41,0.37,2019-10-11,09:18,N,nominal,1.0NRT,302.7,4,D
39.25581,56.16827,347.3,0.41,0.37,2019-10-11,09:18,N,nominal,1.0NRT,302.6,6.1,D
39.25984,56.17227,336.8,0.41,0.37,2019-10-11,09:18,N,nominal,1.0NRT,302,4,D
39.28724,56.04138,348.9,0.41,0.37,2019-10-11,09:18,N,nominal,1.0NRT,304.3,4.7,D
39.29063,56.04064,344.4,0.41,0.37,2019-10-11,09:18,N,nominal,1.0NRT,302.2,13.2,D
37.68634,55.80305,335,0.39,0.36,2019-10-11,09:18,N,nominal,1.0NRT,307.8,2,D
37.47699,55.53766,340.1,0.39,0.36,2019-10-11,09:18,N,nominal,1.0NRT,312,2.9,D
37.49726,55.47521,340.8,0.39,0.36,2019-10-11,09:18,N,nominal,1.0NRT,313.3,2.6,D
37.57174,55.61288,340.2,0.39,0.36,2019-10-11,09:18,N,nominal,1.0NRT,311.1,2,D
37.59589,55.66208,339.2,0.39,0.36,2019-10-11,09:18,N,nominal,1.0NRT,312.8,2.9,D
37.57639,55.52539,343.3,0.39,0.36,2019-10-11,09:18,N,nominal,1.0NRT,314.6,2.7,D
37.57576,55.52099,340.1,0.39,0.36,2019-10-11,09:18,N,low,1.0NRT,315,1.8,D
37.59923,55.66138,344.1,0.39,0.36,2019-10-11,09:18,N,nominal,1.0NRT,313.1,4.6,D
29.99139,55.8546,335.6,0.39,0.36,2019-10-11,09:18,N,low,1.0NRT,310.5,6.4,D
37.70802,55.68843,339.1,0.39,0.36,2019-10-11,09:18,N,nominal,1.0NRT,309.4,3,D
37.74347,55.89142,336.7,0.4,0.37,2019-10-11,09:18,N,low,1.0NRT,311.1,10.5,D
37.74481,55.89299,339.7,0.4,0.37,2019-10-11,09:18,N,nominal,1.0NRT,308.8,3.3,D
37.74681,55.83284,334.9,0.39,0.37,2019-10-11,09:18,N,low,1.0NRT,308.6,1.2,D
37.61975,54.80554,335,0.38,0.36,2019-10-11,09:18,N,nominal,1.0NRT,307.3,1.6,D
38.40014,57.70593,333.9,0.45,0.39,2019-10-11,09:18,N,nominal,1.0NRT,300.5,3.2,D
38.39788,57.57095,345.9,0.44,0.38,2019-10-11,09:18,N,nominal,1.0NRT,305.7,9.8,D
38.39645,57.56908,340.8,0.44,0.38,2019-10-11,09:18,N,nominal,1.0NRT,305.6,9.3,D
38.39997,57.56839,339.4,0.44,0.38,2019-10-11,09:18,N,nominal,1.0NRT,301.1,2.8,D
36.23771,59.88885,345.6,0.52,0.41,2019-10-11,09:18,N,nominal,1.0NRT,303,5.5,D
36.24152,59.8882,337.8,0.52,0.41,2019-10-11,09:18,N,nominal,1.0NRT,302.9,5.5,D
36.24852,59.88111,333,0.52,0.41,2019-10-11,09:18,N,nominal,1.0NRT,303.6,1.3,D
36.34351,58.67887,330.3,0.46,0.39,2019-10-11,09:18,N,low,1.0NRT,305.1,2.2,D
36.44765,59.40366,332.9,0.5,0.41,2019-10-11,09:18,N,nominal,1.0NRT,302.8,3,D
37.03152,62.42089,339.4,0.47,0.48,2019-10-11,09:18,N,nominal,1.0NRT,303.5,3.3,D
36.85601,54.5934,332.1,0.38,0.36,2019-10-11,09:18,N,nominal,1.0NRT,302.6,2,D
36.94487,54.88792,337.3,0.38,0.36,2019-10-11,09:18,N,nominal,1.0NRT,303.6,2.4,D
37.033,54.89051,331.8,0.38,0.36,2019-10-11,09:18,N,nominal,1.0NRT,304.2,1.2,D
36.99029,54.4735,339.2,0.38,0.36,2019-10-11,09:18,N,nominal,1.0NRT,308.3,1.9,D
37.10424,55.12109,331.7,0.39,0.36,2019-10-11,09:18,N,nominal,1.0NRT,305.2,1.8,D
37.75808,60.30983,332.5,0.56,0.43,2019-10-11,09:18,N,nominal,1.0NRT,304.5,3.6,D
37.17781,54.8415,333.7,0.38,0.36,2019-10-11,09:18,N,low,1.0NRT,305.2,1.3,D
37.29827,55.28822,335.6,0.39,0.36,2019-10-11,09:18,N,nominal,1.0NRT,308,2.4,D
38.07868,61.85893,351.5,0.45,0.47,2019-10-11,09:18,N,nominal,1.0NRT,301.8,7.1,D
37.37555,55.37981,341.5,0.39,0.36,2019-10-11,09:18,N,nominal,1.0NRT,305.8,5.3,D
37.43042,55.47578,343.3,0.39,0.36,2019-10-11,09:18,N,nominal,1.0NRT,311.2,2.8,D
16.36372,97.835,303.5,0.41,0.61,2019-10-11,18:18,N,nominal,1.0NRT,286.1,0.8,N
36.51976,101.5336,296.4,0.4,0.6,2019-10-11,18:18,N,nominal,1.0NRT,275.4,1,N
27.49758,101.37943,295,0.33,0.55,2019-10-11,18:18,N,nominal,1.0NRT,281.8,0.5,N
26.61867,101.45345,301.6,0.63,0.54,2019-10-11,18:18,N,nominal,1.0NRT,284.3,1.6,N
26.66747,100.19571,303,0.38,0.59,2019-10-11,18:18,N,nominal,1.0NRT,285,0.9,N
26.3466,100.63338,297.5,0.35,0.57,2019-10-11,18:18,N,nominal,1.0NRT,286.1,0.7,N
25.7965,99.1021,301.9,0.44,0.62,2019-10-11,18:18,N,nominal,1.0NRT,283.4,2.4,N
25.54842,100.58629,296.3,0.35,0.57,2019-10-11,18:18,N,nominal,1.0NRT,285.1,0.5,N
25.54879,100.58694,298.6,0.35,0.57,2019-10-11,18:18,N,nominal,1.0NRT,284.9,0.6,N
21.57692,96.23366,302.9,0.59,0.7,2019-10-11,18:18,N,nominal,1.0NRT,285.2,1.2,N
21.57825,96.23465,302.7,0.59,0.7,2019-10-11,18:18,N,nominal,1.0NRT,285.1,1.2,N
14.63102,101.10003,304,0.47,0.48,2019-10-11,18:24,N,nominal,1.0NRT,287.5,0.7,N
14.6725,100.80058,302.6,0.5,0.49,2019-10-11,18:24,N,nominal,1.0NRT,286.6,1.9,N
8.62799,101.34566,317.1,0.57,0.43,2019-10-11,18:24,N,nominal,1.0NRT,291.4,5.5,N
8.63198,101.34626,312.5,0.57,0.43,2019-10-11,18:24,N,nominal,1.0NRT,291.4,4.6,N
9.69568,101.40189,307,0.39,0.44,2019-10-11,18:24,N,nominal,1.0NRT,279.2,0.8,N
13.11147,100.91249,309.8,0.46,0.47,2019-10-11,18:24,N,nominal,1.0NRT,288.8,3.8,N
14.62746,101.09717,310.8,0.47,0.48,2019-10-11,18:24,N,nominal,1.0NRT,287,1.2,N
35.98866,94.83144,297.6,0.43,0.46,2019-10-11,19:54,N,nominal,1.0NRT,271.2,0.9,N
38.92316,88.32706,297.4,0.38,0.36,2019-10-11,19:54,N,nominal,1.0NRT,283.2,0.8,N
39.55454,82.76486,303.7,0.57,0.43,2019-10-11,19:54,N,nominal,1.0NRT,278.5,1.5,N
39.55284,82.76474,304.2,0.57,0.43,2019-10-11,19:54,N,nominal,1.0NRT,278.4,1.1,N
38.20649,90.97511,301.7,0.41,0.37,2019-10-11,19:54,N,nominal,1.0NRT,266.8,1.2,N
39.52747,75.99868,296.4,0.43,0.62,2019-10-11,19:54,N,nominal,1.0NRT,283.1,0.6,N
23.69073,87.09745,307.1,0.43,0.38,2019-10-11,20:00,N,nominal,1.0NRT,292.5,0.9,N
17.0648,76.98048,305.9,0.42,0.45,2019-10-11,20:00,N,nominal,1.0NRT,288.3,1.6,N
17.14203,77.18346,302.8,0.41,0.45,2019-10-11,20:00,N,nominal,1.0NRT,288.9,0.6,N
18.58723,71.02954,318.4,0.54,0.68,2019-10-11,20:00,N,nominal,1.0NRT,286.9,1.9,N
18.68388,73.03827,301.9,0.4,0.6,2019-10-11,20:00,N,nominal,1.0NRT,285.9,0.9,N
18.68945,73.03894,305,0.4,0.6,2019-10-11,20:00,N,nominal,1.0NRT,286.6,0.9,N
18.7006,73.04025,302.1,0.4,0.6,2019-10-11,20:00,N,nominal,1.0NRT,286.9,1,N
19.34749,71.3069,327.7,0.53,0.67,2019-10-11,20:00,N,nominal,1.0NRT,288.2,3.4,N
19.34449,71.30666,312.7,0.53,0.67,2019-10-11,20:00,N,nominal,1.0NRT,288.2,2,N
19.35074,71.30734,309.4,0.53,0.67,2019-10-11,20:00,N,nominal,1.0NRT,288.3,1.7,N
19.52582,71.29867,306.7,0.53,0.67,2019-10-11,20:00,N,nominal,1.0NRT,288.4,1.1,N
19.52869,71.29885,307.5,0.53,0.67,2019-10-11,20:00,N,nominal,1.0NRT,288.4,1.8,N
19.5738,71.36133,331.9,0.53,0.67,2019-10-11,20:00,N,nominal,1.0NRT,288.6,3.4,N
21.10742,72.63271,319.8,0.45,0.63,2019-10-11,20:00,N,nominal,1.0NRT,293,3.1,N
21.10784,72.62821,305.2,0.45,0.63,2019-10-11,20:00,N,nominal,1.0NRT,291.8,2.4,N
21.10616,72.64609,341.4,0.45,0.63,2019-10-11,20:00,N,nominal,1.0NRT,293.1,6.4,N
21.10469,72.64233,317,0.45,0.63,2019-10-11,20:00,N,nominal,1.0NRT,291.9,4.6,N
21.10586,72.62888,312.6,0.45,0.63,2019-10-11,20:00,N,nominal,1.0NRT,291.6,2.5,N
21.1043,72.64679,326,0.45,0.63,2019-10-11,20:00,N,nominal,1.0NRT,292.5,4.6,N
21.11135,72.63403,311.4,0.45,0.63,2019-10-11,20:00,N,nominal,1.0NRT,293.1,2.4,N
20.85819,79.28733,314.6,0.52,0.42,2019-10-11,20:00,N,nominal,1.0NRT,290.4,2,N
21.24544,79.2231,307.6,0.53,0.42,2019-10-11,20:00,N,nominal,1.0NRT,291.1,1.4,N
21.18233,81.38441,307,0.42,0.38,2019-10-11,20:00,N,nominal,1.0NRT,290.7,1.5,N
21.18522,81.38905,310.2,0.42,0.38,2019-10-11,20:00,N,nominal,1.0NRT,292.2,1.7,N
21.19216,81.41513,310.3,0.42,0.38,2019-10-11,20:00,N,nominal,1.0NRT,290.4,2.2,N
21.19504,81.41975,307.4,0.42,0.38,2019-10-11,20:00,N,nominal,1.0NRT,290.9,2.2,N
21.19562,81.4157,329.2,0.42,0.38,2019-10-11,20:00,N,nominal,1.0NRT,291.7,2.2,N
21.24575,81.77167,304.1,0.41,0.37,2019-10-11,20:00,N,nominal,1.0NRT,291.3,1,N
21.30301,81.61783,305.4,0.42,0.37,2019-10-11,20:00,N,nominal,1.0NRT,291.6,0.7,N
21.3105,81.59027,308.5,0.42,0.37,2019-10-11,20:00,N,nominal,1.0NRT,292.2,1,N
20.78396,85.26307,306.8,0.4,0.37,2019-10-11,20:00,N,nominal,1.0NRT,289.5,1.1,N
20.78668,85.26753,310.7,0.4,0.37,2019-10-11,20:00,N,nominal,1.0NRT,290.2,1.6,N
21.34431,81.66413,306.6,0.42,0.37,2019-10-11,20:00,N,nominal,1.0NRT,292,1.2,N
20.79262,85.25282,329.8,0.4,0.37,2019-10-11,20:00,N,nominal,1.0NRT,287.3,2.9,N
20.79598,85.25344,330.2,0.4,0.37,2019-10-11,20:00,N,nominal,1.0NRT,286,2.6,N
20.79871,85.25792,309.2,0.4,0.37,2019-10-11,20:00,N,nominal,1.0NRT,284.1,1.5,N
20.80544,85.2592,300.1,0.4,0.37,2019-10-11,20:00,N,nominal,1.0NRT,282.6,0.5,N
21.36434,81.64693,305.2,0.42,0.37,2019-10-11,20:00,N,nominal,1.0NRT,292.2,1.3,N
21.36663,81.68015,308,0.42,0.37,2019-10-11,20:00,N,nominal,1.0NRT,292.3,0.9,N
21.3758,81.64059,309.6,0.42,0.37,2019-10-11,20:00,N,nominal,1.0NRT,292.4,1.3,N
20.86301,84.99518,318.5,0.4,0.37,2019-10-11,20:00,N,nominal,1.0NRT,275.3,1.9,N
20.86635,84.9958,306.1,0.4,0.37,2019-10-11,20:00,N,nominal,1.0NRT,275.3,1.4,N
21.37693,81.68183,315.5,0.42,0.37,2019-10-11,20:00,N,nominal,1.0NRT,293.4,1.4,N
20.87032,84.99263,319.3,0.4,0.37,2019-10-11,20:00,N,nominal,1.0NRT,274.9,2.4,N
20.8697,84.99641,325.1,0.4,0.37,2019-10-11,20:00,N,nominal,1.0NRT,275.5,1.4,N
21.38898,81.64687,310.5,0.42,0.37,2019-10-11,20:00,N,nominal,1.0NRT,293.2,1.3,N
20.9701,85.02629,299.9,0.4,0.37,2019-10-11,20:00,N,nominal,1.0NRT,279.9,0.3,N
20.9597,85.17312,309.7,0.4,0.37,2019-10-11,20:00,N,nominal,1.0NRT,285.4,2.4,N
20.96222,85.1579,312.6,0.4,0.37,2019-10-11,20:00,N,nominal,1.0NRT,285.8,1,N
20.96284,85.15408,307.1,0.4,0.37,2019-10-11,20:00,N,nominal,1.0NRT,285.9,1,N
20.96598,85.13507,312.9,0.4,0.37,2019-10-11,20:00,N,nominal,1.0NRT,285.2,1.8,N
21.48674,81.7683,307.9,0.41,0.37,2019-10-11,20:00,N,nominal,1.0NRT,291.9,0.6,N
20.95844,85.18074,321.4,0.4,0.37,2019-10-11,20:00,N,nominal,1.0NRT,284.1,2.8,N
20.95907,85.17693,327.9,0.4,0.37,2019-10-11,20:00,N,nominal,1.0NRT,285.7,2.8,N
20.96117,85.18519,317,0.4,0.37,2019-10-11,20:00,N,nominal,1.0NRT,283.1,2.7,N
20.96369,85.16994,312.4,0.4,0.37,2019-10-11,20:00,N,nominal,1.0NRT,285.1,2.4,N
20.9618,85.18138,331.2,0.4,0.37,2019-10-11,20:00,N,nominal,1.0NRT,284.1,2.8,N
20.96243,85.17756,335,0.4,0.37,2019-10-11,20:00,N,nominal,1.0NRT,285.5,2.8,N
20.96306,85.17375,336.2,0.4,0.37,2019-10-11,20:00,N,nominal,1.0NRT,286.3,2.4,N
20.97751,85.149,307.3,0.4,0.37,2019-10-11,20:00,N,nominal,1.0NRT,279.6,0.7,N
21.5442,81.94756,305.4,0.41,0.37,2019-10-11,20:00,N,nominal,1.0NRT,292,0.8,N
21.07984,85.03868,310.7,0.4,0.37,2019-10-11,20:00,N,nominal,1.0NRT,284.1,1.3,N
21.08047,85.0349,308.2,0.4,0.37,2019-10-11,20:00,N,nominal,1.0NRT,282.9,1.3,N
21.57533,82.02122,305.9,0.41,0.37,2019-10-11,20:00,N,nominal,1.0NRT,292.3,0.8,N
20.94936,86.05062,311.6,0.42,0.38,2019-10-11,20:00,N,nominal,1.0NRT,280.4,1.5,N
20.95004,86.04657,311.5,0.42,0.38,2019-10-11,20:00,N,nominal,1.0NRT,279.8,1.5,N
20.96304,86.01167,305,0.42,0.38,2019-10-11,20:00,N,nominal,1.0NRT,285.7,0.8,N
20.96648,86.01234,305.2,0.42,0.38,2019-10-11,20:00,N,nominal,1.0NRT,286.6,0.8,N
20.96381,86.04924,311,0.42,0.38,2019-10-11,20:00,N,nominal,1.0NRT,281.9,1.6,N
20.97127,86.00497,302,0.42,0.38,2019-10-11,20:00,N,nominal,1.0NRT,281.9,0.7,N
20.97471,86.00565,309.1,0.42,0.38,2019-10-11,20:00,N,nominal,1.0NRT,284.1,0.7,N
20.97383,86.00418,309.2,0.42,0.38,2019-10-11,20:00,N,nominal,1.0NRT,285,1,N
21.67146,82.08041,308.2,0.41,0.37,2019-10-11,20:00,N,nominal,1.0NRT,292,1,N
21.67788,84.04105,305.7,0.38,0.36,2019-10-11,20:00,N,nominal,1.0NRT,290.1,1,N
21.67846,84.03735,307.1,0.38,0.36,2019-10-11,20:00,N,nominal,1.0NRT,290.2,1,N
21.68118,84.04164,315.1,0.38,0.36,2019-10-11,20:00,N,nominal,1.0NRT,290.7,1,N
21.76619,84.01903,301.7,0.38,0.36,2019-10-11,20:00,N,nominal,1.0NRT,287,0.7,N
21.78649,83.88961,307.1,0.38,0.36,2019-10-11,20:00,N,nominal,1.0NRT,288.3,0.6,N
21.79367,83.8871,304.1,0.38,0.36,2019-10-11,20:00,N,nominal,1.0NRT,288.6,1.4,N
21.79697,83.8877,308.8,0.38,0.36,2019-10-11,20:00,N,nominal,1.0NRT,289.8,2.1,N
21.79453,83.98993,310.2,0.38,0.36,2019-10-11,20:00,N,nominal,1.0NRT,290.4,0.8,N
22.0028,82.67178,306.7,0.4,0.37,2019-10-11,20:00,N,nominal,1.0NRT,292.9,1.4,N
22.00337,82.66796,316.2,0.4,0.37,2019-10-11,20:00,N,nominal,1.0NRT,293.3,1.4,N
21.87905,83.55602,295.9,0.39,0.36,2019-10-11,20:00,N,nominal,1.0NRT,270.6,0.5,N
21.91711,83.35268,303.9,0.39,0.36,2019-10-11,20:00,N,nominal,1.0NRT,289.6,0.9,N
21.91985,83.357,316.1,0.39,0.36,2019-10-11,20:00,N,nominal,1.0NRT,289.5,0.9,N
21.92042,83.35327,314.2,0.39,0.36,2019-10-11,20:00,N,nominal,1.0NRT,291.6,2.6,N
21.92099,83.34955,347.2,0.39,0.36,2019-10-11,20:00,N,nominal,1.0NRT,292.3,2.6,N
21.9243,83.35014,304.9,0.39,0.36,2019-10-11,20:00,N,nominal,1.0NRT,289.4,2.6,N
21.92602,83.33895,326.2,0.39,0.36,2019-10-11,20:00,N,nominal,1.0NRT,291.8,2.3,N
21.93241,83.38599,303.6,0.39,0.36,2019-10-11,20:00,N,nominal,1.0NRT,289,0.2,N
21.98545,83.23344,316.6,0.39,0.36,2019-10-11,20:00,N,nominal,1.0NRT,292,1.6,N
22.03571,83.74642,309.8,0.38,0.36,2019-10-11,20:00,N,nominal,1.0NRT,291.7,1.3,N
22.06573,83.70605,306.6,0.38,0.36,2019-10-11,20:00,N,nominal,1.0NRT,288.8,0.8,N
22.33046,82.53178,323,0.4,0.37,2019-10-11,20:00,N,nominal,1.0NRT,293.5,2.1,N
22.32976,82.60686,306.7,0.4,0.37,2019-10-11,20:00,N,nominal,1.0NRT,292.7,1.2,N
22.33313,82.60744,314.5,0.4,0.37,2019-10-11,20:00,N,nominal,1.0NRT,293.2,1.2,N
21.92859,85.22257,306.4,0.39,0.37,2019-10-11,20:00,N,nominal,1.0NRT,289.7,0.8,N
21.92922,85.21876,303.5,0.39,0.37,2019-10-11,20:00,N,nominal,1.0NRT,289,0.8,N
22.32511,82.68493,313.1,0.4,0.37,2019-10-11,20:00,N,nominal,1.0NRT,292.5,1.3,N
22.32568,82.6811,307,0.4,0.37,2019-10-11,20:00,N,nominal,1.0NRT,292.7,1.3,N
22.32625,82.67726,304.7,0.4,0.37,2019-10-11,20:00,N,nominal,1.0NRT,292.5,0.7,N
22.32682,82.67342,304.4,0.4,0.37,2019-10-11,20:00,N,nominal,1.0NRT,292.5,0.7,N
22.32909,82.65806,304.8,0.4,0.37,2019-10-11,20:00,N,nominal,1.0NRT,292.5,0.8,N
22.33189,82.66247,308.2,0.4,0.37,2019-10-11,20:00,N,nominal,1.0NRT,292.3,0.8,N
22.33302,82.65479,303.6,0.4,0.37,2019-10-11,20:00,N,nominal,1.0NRT,292.3,0.7,N
22.05353,85.46605,310.5,0.4,0.37,2019-10-11,20:00,N,nominal,1.0NRT,289.4,1.2,N
22.20553,84.85446,317.5,0.39,0.36,2019-10-11,20:00,N,nominal,1.0NRT,287.4,1.7,N
22.20674,84.84697,311.1,0.39,0.36,2019-10-11,20:00,N,nominal,1.0NRT,288.8,0.9,N
22.22064,84.76085,303.3,0.39,0.36,2019-10-11,20:00,N,nominal,1.0NRT,288.5,0.5,N
22.21005,84.84759,305,0.39,0.36,2019-10-11,20:00,N,nominal,1.0NRT,287.9,0.9,N
22.21066,84.84384,315,0.39,0.36,2019-10-11,20:00,N,nominal,1.0NRT,287.3,0.9,N
22.20763,84.86259,320.6,0.39,0.36,2019-10-11,20:00,N,nominal,1.0NRT,288.6,2.3,N
22.21095,84.8632,331.6,0.39,0.36,2019-10-11,20:00,N,nominal,1.0NRT,289.7,3.5,N
22.13011,85.42128,301.1,0.4,0.37,2019-10-11,20:00,N,nominal,1.0NRT,289.1,0.3,N
22.13074,85.41747,306.9,0.4,0.37,2019-10-11,20:00,N,nominal,1.0NRT,289.6,1,N
22.05457,88.1286,309.8,0.5,0.41,2019-10-11,20:00,N,nominal,1.0NRT,293.5,1.6,N
22.05546,88.12377,321.5,0.5,0.41,2019-10-11,20:00,N,nominal,1.0NRT,293.8,3.4,N
22.36679,87.01733,313.2,0.44,0.39,2019-10-11,20:00,N,nominal,1.0NRT,287.4,2.2,N
22.58932,85.90594,308.5,0.41,0.37,2019-10-11,20:00,N,nominal,1.0NRT,291.4,0.7,N
22.5927,85.90662,307.3,0.41,0.37,2019-10-11,20:00,N,nominal,1.0NRT,291.4,0.7,N
22.37587,87.27929,308,0.45,0.39,2019-10-11,20:00,N,nominal,1.0NRT,284.3,1.9,N
23.16805,82.33472,317.6,0.41,0.37,2019-10-11,20:00,N,nominal,1.0NRT,292,1.3,N
22.79992,86.09152,311.8,0.41,0.37,2019-10-11,20:00,N,nominal,1.0NRT,292.6,1.2,N
22.78957,86.21191,303.7,0.41,0.37,2019-10-11,20:00,N,nominal,1.0NRT,289.6,0.2,N
22.79161,86.19997,305.7,0.41,0.37,2019-10-11,20:00,N,nominal,1.0NRT,288.5,0.2,N
22.8106,86.08891,304.2,0.41,0.37,2019-10-11,20:00,N,nominal,1.0NRT,291.5,1.2,N
24.44915,83.03923,307.1,0.4,0.37,2019-10-11,20:00,N,nominal,1.0NRT,295.6,0.9,N
26.26849,74.1889,308.1,0.41,0.61,2019-10-11,20:00,N,nominal,1.0NRT,295.9,1.5,N
26.75764,83.20122,305.5,0.41,0.37,2019-10-11,20:00,N,nominal,1.0NRT,294.2,0.7,N
28.00775,79.87613,303.2,0.39,0.44,2019-10-11,20:00,N,nominal,1.0NRT,290.8,0.7,N
29.18604,78.89924,305.1,0.46,0.47,2019-10-11,20:00,N,nominal,1.0NRT,291,0.6,N
29.18626,78.90051,302.6,0.46,0.47,2019-10-11,20:00,N,nominal,1.0NRT,290.9,0.7,N
29.46148,76.88892,303.9,0.61,0.53,2019-10-11,20:00,N,nominal,1.0NRT,293.4,1.6,N
25.7934,99.10268,295.1,0.63,0.72,2019-10-11,20:00,N,nominal,1.0NRT,281.2,1.4,N
27.26573,95.12511,303.6,0.34,0.56,2019-10-11,20:00,N,nominal,1.0NRT,289.8,0.3,N
32.1013,74.1765,303,0.47,0.64,2019-10-11,20:00,N,nominal,1.0NRT,290.9,0.3,N
35.31569,73.79949,297.2,0.52,0.67,2019-10-11,20:00,N,nominal,1.0NRT,279.3,1.3,N
35.31583,73.79635,305.6,0.52,0.67,2019-10-11,20:00,N,nominal,1.0NRT,280,1.3,N
22.79502,86.20064,316.3,0.41,0.37,2019-10-11,20:00,N,nominal,1.0NRT,291.3,2.3,N
22.79773,86.20531,331.1,0.41,0.37,2019-10-11,20:00,N,nominal,1.0NRT,293.1,7.3,N
22.85796,86.05745,307.1,0.41,0.37,2019-10-11,20:00,N,nominal,1.0NRT,291.6,1.1,N
22.87422,86.06474,304.8,0.41,0.37,2019-10-11,20:00,N,nominal,1.0NRT,290.9,0.5,N
23.36074,83.22343,312.6,0.39,0.36,2019-10-11,20:00,N,nominal,1.0NRT,294.2,1.5,N
23.36131,83.21961,304.4,0.39,0.36,2019-10-11,20:00,N,nominal,1.0NRT,293.3,0.8,N
23.36189,83.21579,307,0.39,0.36,2019-10-11,20:00,N,nominal,1.0NRT,292.8,0.8,N
22.96257,85.99974,303.2,0.41,0.37,2019-10-11,20:00,N,nominal,1.0NRT,289.3,0.3,N
23.65718,85.01817,306.5,0.39,0.36,2019-10-11,20:00,N,nominal,1.0NRT,291.8,1,N
23.66743,84.99683,303.4,0.39,0.36,2019-10-11,20:00,N,nominal,1.0NRT,292.1,0.9,N
23.66864,84.9893,301.1,0.39,0.36,2019-10-11,20:00,N,nominal,1.0NRT,290.9,0.3,N
22.47491,91.73595,316.6,0.53,0.5,2019-10-11,20:00,N,nominal,1.0NRT,291.3,2.6,N
23.64714,85.43826,304,0.39,0.36,2019-10-11,20:00,N,nominal,1.0NRT,292.9,0.6,N
23.64776,85.43444,303.6,0.39,0.36,2019-10-11,20:00,N,nominal,1.0NRT,292.4,0.6,N
23.73113,85.02448,303.7,0.39,0.36,2019-10-11,20:00,N,nominal,1.0NRT,293,0.7,N
23.73234,85.01694,316.8,0.39,0.36,2019-10-11,20:00,N,nominal,1.0NRT,293.3,1.3,N
23.73355,85.00939,305.3,0.39,0.36,2019-10-11,20:00,N,nominal,1.0NRT,292.3,0.9,N
23.73565,85.01756,305.6,0.39,0.36,2019-10-11,20:00,N,nominal,1.0NRT,292.8,1.3,N
23.73625,85.01379,313.3,0.39,0.36,2019-10-11,20:00,N,nominal,1.0NRT,294.4,1.3,N
23.73685,85.01002,310.3,0.39,0.36,2019-10-11,20:00,N,nominal,1.0NRT,294.1,0.9,N
23.70911,85.28456,306.8,0.39,0.36,2019-10-11,20:00,N,nominal,1.0NRT,292.3,0.8,N
23.70973,85.28076,303.5,0.39,0.36,2019-10-11,20:00,N,nominal,1.0NRT,291.9,0.8,N
24.12391,82.61646,307,0.41,0.37,2019-10-11,20:00,N,nominal,1.0NRT,293.4,0.8,N
24.14891,82.5635,303.1,0.41,0.37,2019-10-11,20:00,N,nominal,1.0NRT,292.8,0.6,N
24.15232,82.56405,304.8,0.41,0.37,2019-10-11,20:00,N,nominal,1.0NRT,293.2,0.7,N
23.80681,84.84802,321.4,0.39,0.36,2019-10-11,20:00,N,nominal,1.0NRT,293.1,1.8,N
24.18298,82.56929,303.8,0.41,0.37,2019-10-11,20:00,N,nominal,1.0NRT,293,0.6,N
24.17598,82.642,306.8,0.41,0.37,2019-10-11,20:00,N,nominal,1.0NRT,293.4,0.7,N
23.83082,84.95335,318.8,0.39,0.36,2019-10-11,20:00,N,nominal,1.0NRT,293.4,2,N
23.74467,85.50741,304,0.39,0.36,2019-10-11,20:00,N,nominal,1.0NRT,292.8,0.8,N
23.83803,84.95084,306.9,0.39,0.36,2019-10-11,20:00,N,nominal,1.0NRT,293.1,0.9,N
23.66891,86.09218,306.2,0.4,0.37,2019-10-11,20:00,N,nominal,1.0NRT,292.8,0.9,N
24.20231,82.72423,303.7,0.41,0.37,2019-10-11,20:00,N,nominal,1.0NRT,293.6,0.7,N
24.2029,82.72018,315.8,0.41,0.37,2019-10-11,20:00,N,nominal,1.0NRT,295,1.5,N
23.67695,86.08566,324.2,0.4,0.37,2019-10-11,20:00,N,nominal,1.0NRT,294.3,3.1,N
23.67702,86.08844,304.7,0.4,0.37,2019-10-11,20:00,N,nominal,1.0NRT,292.5,1.8,N
24.20261,82.72277,311,0.41,0.37,2019-10-11,20:00,N,nominal,1.0NRT,294.5,1.4,N
24.20319,82.71872,305.8,0.41,0.37,2019-10-11,20:00,N,nominal,1.0NRT,294.3,1.4,N
23.67769,86.08452,326.8,0.4,0.37,2019-10-11,20:00,N,nominal,1.0NRT,294.3,1.8,N
23.67774,86.1048,315.5,0.4,0.37,2019-10-11,20:00,N,nominal,1.0NRT,293.1,1.7,N
23.67907,86.09696,306.9,0.4,0.37,2019-10-11,20:00,N,nominal,1.0NRT,292.4,3.4,N
23.68106,86.08518,319.9,0.4,0.37,2019-10-11,20:00,N,nominal,1.0NRT,293.4,1.8,N
23.67973,86.09303,334.9,0.4,0.37,2019-10-11,20:00,N,nominal,1.0NRT,292.7,3.4,N
23.6831,86.0937,340.5,0.4,0.37,2019-10-11,20:00,N,nominal,1.0NRT,293.8,7.3,N
23.69585,86.08004,316.1,0.4,0.37,2019-10-11,20:00,N,nominal,1.0NRT,292.8,1.4,N
23.70054,86.07286,315.9,0.4,0.37,2019-10-11,20:00,N,nominal,1.0NRT,292.9,1.6,N
23.48114,87.36018,302.1,0.44,0.39,2019-10-11,20:00,N,nominal,1.0NRT,287.3,0.8,N
23.48191,87.35586,301.5,0.44,0.39,2019-10-11,20:00,N,nominal,1.0NRT,286.3,0.5,N
23.70391,86.07353,321.4,0.4,0.37,2019-10-11,20:00,N,nominal,1.0NRT,293.2,1.6,N
23.88646,85.00565,313.1,0.39,0.36,2019-10-11,20:00,N,nominal,1.0NRT,292.9,1.5,N
23.88585,85.00943,325.1,0.39,0.36,2019-10-11,20:00,N,nominal,1.0NRT,293.9,2,N
23.84148,85.30505,310.2,0.39,0.36,2019-10-11,20:00,N,nominal,1.0NRT,292,0.8,N
23.65829,86.44572,317.5,0.41,0.37,2019-10-11,20:00,N,nominal,1.0NRT,293.8,2.1,N
23.7579,85.85461,305,0.4,0.37,2019-10-11,20:00,N,nominal,1.0NRT,290.4,1.4,N
23.82306,85.50179,305,0.39,0.36,2019-10-11,20:00,N,nominal,1.0NRT,293.8,0.9,N
23.67668,86.3997,318.6,0.41,0.37,2019-10-11,20:00,N,nominal,1.0NRT,294.1,1.5,N
23.67736,86.39569,313.5,0.41,0.37,2019-10-11,20:00,N,nominal,1.0NRT,294,1.5,N
23.56498,87.09006,304.3,0.43,0.38,2019-10-11,20:00,N,nominal,1.0NRT,289.6,0.6,N
23.54878,87.24501,330.5,0.44,0.38,2019-10-11,20:00,N,nominal,1.0NRT,289.9,4,N
23.55579,87.24646,304.3,0.44,0.38,2019-10-11,20:00,N,nominal,1.0NRT,289.2,1.1,N
23.56078,87.23865,304.7,0.44,0.38,2019-10-11,20:00,N,nominal,1.0NRT,289.2,0.9,N
23.76562,86.03717,315.5,0.4,0.37,2019-10-11,20:00,N,nominal,1.0NRT,294.3,2.1,N
23.76627,86.03327,306.9,0.4,0.37,2019-10-11,20:00,N,nominal,1.0NRT,292.8,0.7,N
23.7066,86.4305,305.7,0.41,0.37,2019-10-11,20:00,N,nominal,1.0NRT,293.7,1.2,N
23.71478,86.44455,309.9,0.41,0.37,2019-10-11,20:00,N,nominal,1.0NRT,292.8,1.8,N
23.72226,86.4419,334.9,0.41,0.37,2019-10-11,20:00,N,nominal,1.0NRT,295.9,3.9,N
23.60497,87.15083,306.5,0.44,0.38,2019-10-11,20:00,N,nominal,1.0NRT,292.2,0.7,N
23.72566,86.44258,328.2,0.41,0.37,2019-10-11,20:00,N,nominal,1.0NRT,295.2,3.9,N
23.72569,86.44199,332.9,0.41,0.37,2019-10-11,20:00,N,nominal,1.0NRT,295.3,4,N
23.60499,87.1542,305.1,0.44,0.38,2019-10-11,20:00,N,nominal,1.0NRT,292.7,0.8,N
23.60998,87.14645,307.7,0.43,0.38,2019-10-11,20:00,N,nominal,1.0NRT,292.9,1.7,N
23.77659,86.20546,305,0.41,0.37,2019-10-11,20:00,N,nominal,1.0NRT,293.7,1.3,N
23.74749,86.41736,309.2,0.41,0.37,2019-10-11,20:00,N,nominal,1.0NRT,293,1.4,N
23.74681,86.42137,320.3,0.41,0.37,2019-10-11,20:00,N,nominal,1.0NRT,294.2,1.4,N
23.66436,86.91886,317.2,0.43,0.38,2019-10-11,20:00,N,nominal,1.0NRT,293.7,2.5,N
23.7543,86.39808,313.3,0.41,0.37,2019-10-11,20:00,N,nominal,1.0NRT,294.1,1.4,N
23.75089,86.41803,336.6,0.41,0.37,2019-10-11,20:00,N,nominal,1.0NRT,295.2,2.8,N
23.75429,86.41872,313.5,0.41,0.37,2019-10-11,20:00,N,nominal,1.0NRT,293.9,2.8,N
23.75769,86.39876,312,0.41,0.37,2019-10-11,20:00,N,nominal,1.0NRT,295.2,1.4,N
23.76177,86.39544,311.4,0.41,0.37,2019-10-11,20:00,N,nominal,1.0NRT,295.1,1.4,N
23.76517,86.39612,311.7,0.41,0.37,2019-10-11,20:00,N,nominal,1.0NRT,294.7,1.4,N
23.76585,86.39213,308.6,0.41,0.37,2019-10-11,20:00,N,nominal,1.0NRT,295.4,2.3,N
23.774,86.36488,311.8,0.41,0.37,2019-10-11,20:00,N,nominal,1.0NRT,293.5,1.7,N
23.77738,86.34499,305.4,0.41,0.37,2019-10-11,20:00,N,nominal,1.0NRT,293.1,1.1,N
23.77805,86.34101,304.3,0.41,0.37,2019-10-11,20:00,N,nominal,1.0NRT,292.6,1.1,N
23.79555,86.23783,308.8,0.41,0.37,2019-10-11,20:00,N,nominal,1.0NRT,293.2,0.8,N
23.76992,86.3888,322.7,0.41,0.37,2019-10-11,20:00,N,nominal,1.0NRT,294.9,2,N
23.77264,86.39346,314.4,0.41,0.37,2019-10-11,20:00,N,nominal,1.0NRT,296.4,2,N
23.77332,86.38947,319.6,0.41,0.37,2019-10-11,20:00,N,nominal,1.0NRT,295.9,2,N
23.78077,86.34566,313.1,0.41,0.37,2019-10-11,20:00,N,nominal,1.0NRT,295,1.1,N
23.78144,86.34169,315.3,0.41,0.37,2019-10-11,20:00,N,nominal,1.0NRT,295.1,1.1,N
23.78212,86.3377,306.2,0.41,0.37,2019-10-11,20:00,N,nominal,1.0NRT,294.3,1.4,N
23.78617,86.31385,309.3,0.41,0.37,2019-10-11,20:00,N,nominal,1.0NRT,294.9,2.1,N
23.78751,86.30591,307.3,0.41,0.37,2019-10-11,20:00,N,nominal,1.0NRT,294.6,2.5,N
23.78551,86.33838,309.5,0.41,0.37,2019-10-11,20:00,N,nominal,1.0NRT,295.2,1.2,N
23.78618,86.3344,314.8,0.41,0.37,2019-10-11,20:00,N,nominal,1.0NRT,296.1,1.2,N
23.78955,86.31453,305.8,0.41,0.37,2019-10-11,20:00,N,nominal,1.0NRT,294.2,1.2,N
23.77671,86.39014,322.9,0.41,0.37,2019-10-11,20:00,N,nominal,1.0NRT,295.2,4.3,N
23.77943,86.39481,340.3,0.41,0.37,2019-10-11,20:00,N,nominal,1.0NRT,295.8,4.3,N
23.78011,86.39082,338.1,0.41,0.37,2019-10-11,20:00,N,nominal,1.0NRT,295.8,4.3,N
23.78283,86.39549,307.6,0.41,0.37,2019-10-11,20:00,N,nominal,1.0NRT,294.1,1.3,N
23.79027,86.35165,312.6,0.41,0.37,2019-10-11,20:00,N,nominal,1.0NRT,293.3,1.4,N
23.79365,86.35234,315.2,0.41,0.37,2019-10-11,20:00,N,nominal,1.0NRT,293.9,1.4,N
23.79433,86.34837,319.2,0.41,0.37,2019-10-11,20:00,N,nominal,1.0NRT,295.2,1.8,N
23.795,86.34439,306.6,0.41,0.37,2019-10-11,20:00,N,nominal,1.0NRT,294.1,1.8,N
23.79772,86.34904,309.8,0.41,0.37,2019-10-11,20:00,N,nominal,1.0NRT,295.7,2.2,N
23.80176,86.32516,319.8,0.41,0.37,2019-10-11,20:00,N,nominal,1.0NRT,295.2,3.1,N
23.73153,86.75763,313.3,0.42,0.38,2019-10-11,20:00,N,nominal,1.0NRT,293.8,1.5,N
23.8038,86.33377,308.9,0.41,0.37,2019-10-11,20:00,N,nominal,1.0NRT,293,1.2,N
23.80649,86.3179,308.1,0.41,0.37,2019-10-11,20:00,N,nominal,1.0NRT,296.1,1.6,N
23.69,87.10168,305.5,0.43,0.38,2019-10-11,20:00,N,nominal,1.0NRT,291.6,1.2,N
23.6933,87.12421,319,0.43,0.38,2019-10-11,20:00,N,nominal,1.0NRT,293.5,2.1,N
23.69476,87.11578,306.6,0.43,0.38,2019-10-11,20:00,N,nominal,1.0NRT,291.8,0.8,N
23.7991,87.05701,306.8,0.43,0.38,2019-10-11,20:00,N,nominal,1.0NRT,294.2,2,N
23.80056,87.0486,309.9,0.43,0.38,2019-10-11,20:00,N,nominal,1.0NRT,295,2.6,N
23.80202,87.04019,305.8,0.43,0.38,2019-10-11,20:00,N,nominal,1.0NRT,293.4,1.3,N
23.80548,87.04092,310.8,0.43,0.38,2019-10-11,20:00,N,nominal,1.0NRT,294.6,1.3,N
23.80693,87.03252,310.8,0.43,0.38,2019-10-11,20:00,N,nominal,1.0NRT,293,1.2,N
23.81184,87.02491,308.1,0.43,0.38,2019-10-11,20:00,N,nominal,1.0NRT,295.3,1.3,N
6.90083,79.91686,302.8,0.39,0.36,2019-10-11,20:06,N,nominal,1.0NRT,279.2,0.8,N
13.28843,80.34354,325.9,0.4,0.37,2019-10-11,20:06,N,nominal,1.0NRT,293.4,2.4,N
12.71228,78.68859,306.3,0.46,0.39,2019-10-11,20:06,N,nominal,1.0NRT,290.4,0.7,N
11.30433,79.80636,308.9,0.4,0.37,2019-10-11,20:06,N,nominal,1.0NRT,291.6,1.3,N
11.13681,79.10519,314.1,0.42,0.38,2019-10-11,20:06,N,nominal,1.0NRT,285.4,1.4,N
7.9874,79.86781,304.6,0.39,0.36,2019-10-11,20:06,N,nominal,1.0NRT,289.2,0.4,N
37.61471,61.57783,301.2,0.39,0.36,2019-10-11,21:36,N,nominal,1.0NRT,285.1,0.9,N
38.79682,64.64728,300.6,0.39,0.36,2019-10-11,21:36,N,nominal,1.0NRT,281.7,0.8,N
38.55749,65.95214,300,0.42,0.38,2019-10-11,21:36,N,nominal,1.0NRT,284.3,0.7,N
38.5507,65.9501,317.4,0.42,0.38,2019-10-11,21:36,N,nominal,1.0NRT,285.2,0.9,N
38.5473,65.9491,298.7,0.42,0.38,2019-10-11,21:36,N,nominal,1.0NRT,283.5,0.5,N
38.87237,63.80029,310.6,0.39,0.36,2019-10-11,21:36,N,nominal,1.0NRT,280.2,1.4,N
38.83269,63.81276,295.3,0.39,0.36,2019-10-11,21:36,N,nominal,1.0NRT,280.9,0.4,N
38.45345,65.8055,304.5,0.42,0.37,2019-10-11,21:36,N,nominal,1.0NRT,284.7,1.2,N
38.45476,65.80375,309.1,0.42,0.37,2019-10-11,21:36,N,nominal,1.0NRT,285.2,0.9,N
38.35145,66.31619,338.4,0.43,0.38,2019-10-11,21:36,N,nominal,1.0NRT,288.9,7.4,N
38.35234,66.31135,297,0.43,0.38,2019-10-11,21:36,N,nominal,1.0NRT,284.2,7.4,N
38.67839,63.9438,296.9,0.39,0.36,2019-10-11,21:36,N,nominal,1.0NRT,280.9,0.5,N
38.16569,64.59054,307.6,0.39,0.37,2019-10-11,21:36,N,nominal,1.0NRT,281.8,0.6,N
39.24974,56.16805,296.3,0.43,0.46,2019-10-11,21:36,N,nominal,1.0NRT,284.6,0.7,N
39.24928,56.17309,301.1,0.43,0.46,2019-10-11,21:36,N,nominal,1.0NRT,284.7,0.6,N
38.05143,65.11085,299,0.4,0.37,2019-10-11,21:36,N,nominal,1.0NRT,283.6,0.3,N
38.05191,64.90459,296.1,0.4,0.37,2019-10-11,21:36,N,nominal,1.0NRT,283.5,0.6,N
38.03078,64.94608,298.6,0.4,0.37,2019-10-11,21:36,N,nominal,1.0NRT,283.4,0.7,N
37.96764,65.04725,298.3,0.4,0.37,2019-10-11,21:36,N,nominal,1.0NRT,283.6,0.6,N
37.96394,65.00816,302,0.4,0.37,2019-10-11,21:36,N,nominal,1.0NRT,283.9,1.1,N
37.87163,65.25196,303.9,0.41,0.37,2019-10-11,21:36,N,nominal,1.0NRT,283.2,0.7,N
37.82829,65.17735,302.4,0.41,0.37,2019-10-11,21:36,N,nominal,1.0NRT,284.5,0.4,N
37.81659,65.18368,306,0.41,0.37,2019-10-11,21:36,N,nominal,1.0NRT,284.6,0.4,N
37.75731,65.49618,298.6,0.42,0.37,2019-10-11,21:36,N,nominal,1.0NRT,283.3,0.2,N
37.73262,65.50211,306.7,0.42,0.37,2019-10-11,21:36,N,nominal,1.0NRT,285.9,0.8,N
38.94678,56.48822,297.4,0.41,0.45,2019-10-11,21:36,N,nominal,1.0NRT,283.8,0.5,N
37.53051,66.07582,296.7,0.43,0.38,2019-10-11,21:36,N,nominal,1.0NRT,285.3,0.5,N
37.98991,61.88059,325.9,0.39,0.36,2019-10-11,21:36,N,nominal,1.0NRT,283,2.4,N
37.79712,62.55154,335.7,0.38,0.36,2019-10-11,21:36,N,nominal,1.0NRT,284.4,3,N
37.78465,62.5276,306.9,0.38,0.36,2019-10-11,21:36,N,nominal,1.0NRT,279.4,0.4,N
37.78136,62.52679,295.8,0.38,0.36,2019-10-11,21:36,N,nominal,1.0NRT,278.7,0.4,N
38.68172,54.31762,308.2,0.53,0.5,2019-10-11,21:36,N,nominal,1.0NRT,287.4,1.8,N
38.64683,54.2817,338,0.53,0.5,2019-10-11,21:36,N,nominal,1.0NRT,289.3,4.5,N
37.84285,61.60496,318,0.39,0.36,2019-10-11,21:36,N,nominal,1.0NRT,281.4,2,N
37.74281,62.13115,315.2,0.39,0.36,2019-10-11,21:36,N,nominal,1.0NRT,283.2,1.3,N
38.64928,54.28172,342.9,0.53,0.5,2019-10-11,21:36,N,nominal,1.0NRT,289.3,6.3,N
37.74074,62.07628,311.4,0.39,0.36,2019-10-11,21:36,N,nominal,1.0NRT,281.7,0.5,N
37.72756,62.09583,308.3,0.39,0.36,2019-10-11,21:36,N,nominal,1.0NRT,284,1.6,N
37.66898,62.23563,312.5,0.39,0.36,2019-10-11,21:36,N,nominal,1.0NRT,282,1.5,N
38.25135,57.66777,311.4,0.53,0.42,2019-10-11,21:36,N,nominal,1.0NRT,287.8,1.9,N
37.66172,62.23841,301.6,0.39,0.36,2019-10-11,21:36,N,nominal,1.0NRT,281.2,0.6,N
37.65777,62.24199,307.3,0.39,0.36,2019-10-11,21:36,N,nominal,1.0NRT,281.5,1.3,N
37.63924,62.20596,305.8,0.39,0.36,2019-10-11,21:36,N,nominal,1.0NRT,282.5,0.7,N
37.62879,62.2149,299.3,0.39,0.36,2019-10-11,21:36,N,nominal,1.0NRT,283,0.7,N
37.62549,62.21411,304.5,0.39,0.36,2019-10-11,21:36,N,nominal,1.0NRT,282.3,0.7,N
37.65406,61.90854,311,0.39,0.36,2019-10-11,21:36,N,nominal,1.0NRT,283.7,1.3,N
37.62013,62.13609,303.7,0.39,0.36,2019-10-11,21:36,N,nominal,1.0NRT,284.8,0.8,N
37.61948,62.14045,299.8,0.39,0.36,2019-10-11,21:36,N,nominal,1.0NRT,284.4,0.6,N
37.61683,62.1353,300.9,0.39,0.36,2019-10-11,21:36,N,nominal,1.0NRT,283.3,0.8,N
37.61563,61.60784,319.7,0.39,0.36,2019-10-11,21:36,N,nominal,1.0NRT,282.4,2.1,N
37.61083,61.60439,295.5,0.39,0.36,2019-10-11,21:36,N,nominal,1.0NRT,284.1,0.8,N
37.61019,61.60882,307.6,0.39,0.36,2019-10-11,21:36,N,nominal,1.0NRT,282,0.8,N
37.61203,61.57263,313.3,0.39,0.36,2019-10-11,21:36,N,nominal,1.0NRT,283.9,1.5,N
37.61138,61.57706,298.4,0.39,0.36,2019-10-11,21:36,N,nominal,1.0NRT,284.4,0.9,N
37.55554,61.93293,320.6,0.39,0.36,2019-10-11,21:36,N,nominal,1.0NRT,284.9,1.9,N
37.6087,61.57186,299.1,0.39,0.36,2019-10-11,21:36,N,nominal,1.0NRT,283.1,0.8,N
37.60805,61.57629,305.3,0.39,0.36,2019-10-11,21:36,N,nominal,1.0NRT,283.2,1.5,N
37.60462,61.5526,321.5,0.39,0.36,2019-10-11,21:36,N,nominal,1.0NRT,284.9,2.2,N
37.59515,61.52291,319.4,0.39,0.36,2019-10-11,21:36,N,nominal,1.0NRT,283.5,1.6,N
37.59451,61.52735,312.6,0.39,0.36,2019-10-11,21:36,N,nominal,1.0NRT,282,1.8,N
37.59387,61.53179,303.4,0.39,0.36,2019-10-11,21:36,N,nominal,1.0NRT,280.2,1.8,N
37.58936,61.56284,315.8,0.39,0.36,2019-10-11,21:36,N,nominal,1.0NRT,283.5,0.9,N
37.59118,61.52658,326.8,0.39,0.36,2019-10-11,21:36,N,nominal,1.0NRT,282,1.8,N
38.02712,58.17595,302.3,0.5,0.41,2019-10-11,21:36,N,nominal,1.0NRT,286.7,0.9,N
37.50276,61.98841,298.9,0.39,0.36,2019-10-11,21:36,N,nominal,1.0NRT,282.5,0.6,N
37.94052,58.56157,297.2,0.48,0.4,2019-10-11,21:36,N,nominal,1.0NRT,286.2,0.9,N
37.47902,62.00991,297.5,0.39,0.36,2019-10-11,21:36,N,nominal,1.0NRT,282.9,0.8,N
37.49636,61.84655,332,0.39,0.36,2019-10-11,21:36,N,nominal,1.0NRT,285.1,3.1,N
37.42341,62.31188,318.9,0.39,0.36,2019-10-11,21:36,N,nominal,1.0NRT,284,1.9,N
37.7525,59.40954,299.7,0.45,0.39,2019-10-11,21:36,N,nominal,1.0NRT,282.7,0.9,N
37.75186,59.41461,303,0.45,0.39,2019-10-11,21:36,N,nominal,1.0NRT,282,0.5,N
37.63116,60.34257,302.8,0.42,0.37,2019-10-11,21:36,N,nominal,1.0NRT,284.2,0.3,N
37.74831,59.4139,295.1,0.45,0.39,2019-10-11,21:36,N,nominal,1.0NRT,282.2,0.5,N
37.51097,61.01556,312,0.4,0.37,2019-10-11,21:36,N,nominal,1.0NRT,285.6,1.2,N
37.82778,58.38168,298.6,0.49,0.4,2019-10-11,21:36,N,nominal,1.0NRT,284.5,0.5,N
37.40482,61.34141,304.2,0.4,0.37,2019-10-11,21:36,N,nominal,1.0NRT,282.7,1.2,N
37.40418,61.34586,315.2,0.4,0.37,2019-10-11,21:36,N,nominal,1.0NRT,281.6,1.2,N
37.22071,62.39682,298.9,0.38,0.36,2019-10-11,21:36,N,nominal,1.0NRT,281.3,0.6,N
37.34962,61.36562,315.1,0.39,0.37,2019-10-11,21:36,N,nominal,1.0NRT,283.3,0.8,N
37.34628,61.36486,302.3,0.39,0.37,2019-10-11,21:36,N,nominal,1.0NRT,281.4,0.6,N
37.32839,61.09634,297.3,0.4,0.37,2019-10-11,21:36,N,nominal,1.0NRT,283.2,0.5,N
37.32504,61.09558,296.5,0.4,0.37,2019-10-11,21:36,N,nominal,1.0NRT,282.9,0.6,N
35.96672,68.68567,296.8,0.39,0.44,2019-10-11,21:36,N,nominal,1.0NRT,285.5,0.4,N
37.03101,62.41794,299.5,0.38,0.36,2019-10-11,21:36,N,nominal,1.0NRT,283.3,0.7,N
37.18587,59.99321,309,0.42,0.38,2019-10-11,21:36,N,nominal,1.0NRT,287.7,1,N
37.18422,59.99507,305.6,0.42,0.38,2019-10-11,21:36,N,nominal,1.0NRT,286.4,1.2,N
37.45202,57.68509,307.2,0.52,0.42,2019-10-11,21:36,N,nominal,1.0NRT,287.2,1.6,N
34.90633,70.8409,295.3,0.53,0.5,2019-10-11,21:36,N,nominal,1.0NRT,282.4,0.9,N
36.47669,61.62191,302.2,0.39,0.36,2019-10-11,21:36,N,nominal,1.0NRT,284.6,2.1,N
36.4378,61.22082,309.4,0.39,0.36,2019-10-11,21:36,N,nominal,1.0NRT,286.1,1.2,N
36.4674,60.84639,303.7,0.4,0.37,2019-10-11,21:36,N,nominal,1.0NRT,290,1.3,N
36.481,59.74836,300.5,0.42,0.38,2019-10-11,21:36,N,nominal,1.0NRT,284.6,1,N
36.49527,59.33552,307.4,0.44,0.38,2019-10-11,21:36,N,nominal,1.0NRT,283.1,1.4,N
36.43279,59.70245,296.3,0.43,0.38,2019-10-11,21:36,N,nominal,1.0NRT,282,0.5,N
36.42933,59.70173,301.1,0.43,0.38,2019-10-11,21:36,N,nominal,1.0NRT,282.7,0.9,N
35.94699,62.91939,317,0.39,0.36,2019-10-11,21:36,N,nominal,1.0NRT,286.6,1.4,N
36.94733,54.8881,304.1,0.47,0.48,2019-10-11,21:36,N,nominal,1.0NRT,288.9,0.9,N
36.94291,54.88754,300.2,0.47,0.48,2019-10-11,21:36,N,nominal,1.0NRT,288,0.9,N
35.90849,62.96727,295.3,0.39,0.36,2019-10-11,21:36,N,nominal,1.0NRT,284.9,0.6,N
33.84673,72.87222,302.7,0.36,0.58,2019-10-11,21:36,N,nominal,1.0NRT,289.5,0.7,N
33.8284,72.83321,301.2,0.36,0.58,2019-10-11,21:36,N,nominal,1.0NRT,290.1,0.9,N
33.90621,71.91579,303.6,0.32,0.55,2019-10-11,21:36,N,nominal,1.0NRT,291.4,0.9,N
33.56914,72.56456,302.8,0.36,0.57,2019-10-11,21:36,N,nominal,1.0NRT,288.7,0.9,N
36.4814,54.90223,295.4,0.47,0.47,2019-10-11,21:36,N,nominal,1.0NRT,283.7,0.8,N
35.51421,59.20071,295.1,0.43,0.38,2019-10-11,21:36,N,nominal,1.0NRT,275.8,0.5,N
32.72275,72.92774,299.4,0.39,0.59,2019-10-11,21:36,N,nominal,1.0NRT,289.4,1.2,N
32.72195,72.92522,309.7,0.39,0.59,2019-10-11,21:36,N,nominal,1.0NRT,290.8,1.4,N
32.72538,72.81956,301.8,0.38,0.59,2019-10-11,21:36,N,nominal,1.0NRT,289.7,0.7,N
32.89624,71.60799,316,0.33,0.55,2019-10-11,21:36,N,nominal,1.0NRT,294.4,1.4,N
33.7541,59.14926,300.4,0.42,0.38,2019-10-11,21:36,N,nominal,1.0NRT,280.6,0.5,N
33.62721,59.17173,297,0.42,0.38,2019-10-11,21:36,N,nominal,1.0NRT,282.7,0.7,N
39.65005,75.94275,306.2,0.38,0.58,2019-10-11,21:36,N,nominal,1.0NRT,283.5,1.8,N
39.64886,75.94711,295.8,0.38,0.59,2019-10-11,21:36,N,nominal,1.0NRT,281.1,1,N
38.65471,76.17174,301.5,0.41,0.61,2019-10-11,21:36,N,nominal,1.0NRT,280.1,0.9,N
39.7949,66.10851,295,0.41,0.37,2019-10-11,21:36,N,nominal,1.0NRT,282,0.5,N
39.52856,64.83953,296.4,0.39,0.36,2019-10-11,21:36,N,nominal,1.0NRT,280.7,0.5,N
39.18674,65.28786,311.9,0.4,0.37,2019-10-11,21:36,N,nominal,1.0NRT,286.9,1.7,N
38.39556,69.11467,297.1,0.55,0.43,2019-10-11,21:36,N,nominal,1.0NRT,285.9,0.9,N
39.43325,62.99506,299.6,0.39,0.36,2019-10-11,21:36,N,nominal,1.0NRT,281.9,0.6,N
39.12049,64.21971,313.1,0.39,0.36,2019-10-11,21:36,N,nominal,1.0NRT,282.8,1.6,N
39.24956,63.17154,305.6,0.38,0.36,2019-10-11,21:36,N,nominal,1.0NRT,281.6,0.8,N
39.17555,63.57986,295.1,0.38,0.36,2019-10-11,21:36,N,nominal,1.0NRT,280.1,0.4,N
39.20332,63.27709,301,0.38,0.36,2019-10-11,21:36,N,nominal,1.0NRT,280.5,0.5,N
39.19209,63.28339,300.2,0.38,0.36,2019-10-11,21:36,N,nominal,1.0NRT,280.9,0.6,N
39.15654,63.4671,298.2,0.38,0.36,2019-10-11,21:36,N,nominal,1.0NRT,280.4,0.4,N
39.171,63.28715,304.6,0.38,0.36,2019-10-11,21:36,N,nominal,1.0NRT,282,1,N
39.16977,63.27306,311.2,0.38,0.36,2019-10-11,21:36,N,nominal,1.0NRT,282.6,1.4,N
39.16923,63.25455,320.4,0.38,0.36,2019-10-11,21:36,N,nominal,1.0NRT,284,1,N
39.16854,63.25896,301,0.38,0.36,2019-10-11,21:36,N,nominal,1.0NRT,282.3,1,N
39.15564,63.31993,312.6,0.38,0.36,2019-10-11,21:36,N,nominal,1.0NRT,281.6,1.1,N
39.13147,63.47435,299.4,0.38,0.36,2019-10-11,21:36,N,nominal,1.0NRT,281.1,0.5,N
39.09294,63.43681,298,0.38,0.36,2019-10-11,21:36,N,nominal,1.0NRT,281.2,0.7,N
39.03672,63.64388,311,0.38,0.36,2019-10-11,21:36,N,nominal,1.0NRT,281.9,0.8,N
38.62283,66.06674,305.5,0.42,0.38,2019-10-11,21:36,N,nominal,1.0NRT,284.2,0.9,N
39.06719,63.38577,301.5,0.38,0.36,2019-10-11,21:36,N,nominal,1.0NRT,281.8,0.8,N
39.05423,63.44661,307,0.38,0.36,2019-10-11,21:36,N,nominal,1.0NRT,282,0.8,N
38.97341,63.65481,296.1,0.38,0.36,2019-10-11,21:36,N,nominal,1.0NRT,281,0.7,N
38.47988,66.47215,295.7,0.44,0.38,2019-10-11,21:36,N,nominal,1.0NRT,281.5,0.5,N
38.80088,64.64371,311,0.39,0.36,2019-10-11,21:36,N,nominal,1.0NRT,282.4,1.5,N
28.99137,58.72039,299.5,0.4,0.37,2019-10-11,21:42,N,nominal,1.0NRT,289.4,0.4,N
30.36761,56.12651,298.5,0.51,0.41,2019-10-11,21:42,N,nominal,1.0NRT,283.3,0.9,N
30.37905,55.87273,295.6,0.53,0.42,2019-10-11,21:42,N,nominal,1.0NRT,283.7,1.3,N
28.05282,69.36797,304.1,0.62,0.54,2019-10-11,21:42,N,nominal,1.0NRT,292.2,1,N
30.23509,56.91061,315.9,0.47,0.4,2019-10-11,21:42,N,nominal,1.0NRT,287.9,2.2,N
30.32366,55.97626,309.1,0.52,0.42,2019-10-11,21:42,N,nominal,1.0NRT,285.5,2,N
30.2339,56.71277,295.8,0.48,0.4,2019-10-11,21:42,N,nominal,1.0NRT,284.1,1.2,N
29.47787,60.80854,299.3,0.38,0.36,2019-10-11,21:42,N,nominal,1.0NRT,283.9,0.8,N
29.99361,55.85386,318.7,0.53,0.42,2019-10-11,21:42,N,nominal,1.0NRT,280.8,2.3,N
29.98979,55.8532,307.4,0.53,0.42,2019-10-11,21:42,N,nominal,1.0NRT,279.5,2.3,N
30.32508,70.53848,305.9,0.32,0.55,2019-10-11,21:42,N,nominal,1.0NRT,291.9,0.9,N
30.32632,70.53933,308.5,0.32,0.55,2019-10-11,21:42,N,nominal,1.0NRT,293,0.9,N
32.33596,54.08932,299.8,0.46,0.47,2019-10-11,21:42,N,nominal,1.0NRT,283.5,0.7,N
25.33821,56.00419,314.7,0.46,0.39,2019-10-11,21:42,N,nominal,1.0NRT,296.5,4.3,N
22.41548,69.03933,314.6,0.39,0.59,2019-10-11,21:42,N,nominal,1.0NRT,296,2,N
24.50336,56.60868,322.7,0.43,0.38,2019-10-11,21:42,N,nominal,1.0NRT,298.7,4,N
24.50569,56.59173,313.4,0.43,0.38,2019-10-11,21:42,N,nominal,1.0NRT,299.1,1.8,N
24.48003,56.61513,309.4,0.43,0.38,2019-10-11,21:42,N,nominal,1.0NRT,297.1,1.8,N
24.46957,56.6134,323.2,0.43,0.38,2019-10-11,21:42,N,nominal,1.0NRT,298.6,2.6,N
21.10932,72.63506,324,0.69,0.74,2019-10-11,21:42,N,nominal,1.0NRT,290.1,3.1,N
21.10601,72.64841,304.6,0.69,0.74,2019-10-11,21:42,N,nominal,1.0NRT,289.9,1.8,N
21.10258,72.63313,308.1,0.69,0.74,2019-10-11,21:42,N,nominal,1.0NRT,289.3,3.1,N
24.33329,54.47179,312.2,0.53,0.42,2019-10-11,21:42,N,nominal,1.0NRT,298.2,2.2,N
24.32942,54.47121,312.8,0.53,0.42,2019-10-11,21:42,N,nominal,1.0NRT,298,2.2,N
24.32555,54.47063,317.4,0.53,0.42,2019-10-11,21:42,N,nominal,1.0NRT,298.7,2.3,N
24.32168,54.47004,311.7,0.53,0.42,2019-10-11,21:42,N,nominal,1.0NRT,299.1,2.3,N
23.55551,58.19841,312.5,0.39,0.36,2019-10-11,21:42,N,nominal,1.0NRT,297.6,1.1,N
23.55494,58.2022,312.3,0.39,0.36,2019-10-11,21:42,N,nominal,1.0NRT,297.1,1.1,N
23.48282,58.27966,322.6,0.39,0.36,2019-10-11,21:42,N,nominal,1.0NRT,298,1.9,N
22.65945,59.4067,314.1,0.39,0.36,2019-10-11,21:42,N,nominal,1.0NRT,297.2,2.6,N
23.15592,55.44694,319,0.46,0.39,2019-10-11,21:42,N,nominal,1.0NRT,294.5,2.6,N
23.1523,55.44636,325.9,0.46,0.39,2019-10-11,21:42,N,nominal,1.0NRT,294.8,2.6,N
22.92899,55.80482,309.2,0.45,0.39,2019-10-11,21:42,N,nominal,1.0NRT,296,1.1,N
22.87641,55.92445,308.2,0.44,0.38,2019-10-11,21:42,N,nominal,1.0NRT,296.1,1.2,N
22.40289,56.98781,333.3,0.4,0.37,2019-10-11,21:42,N,nominal,1.0NRT,297.9,3.6,N
22.44095,56.69866,330.8,0.41,0.37,2019-10-11,21:42,N,nominal,1.0NRT,295.9,4.6,N
19.57355,71.36588,321.3,0.62,0.72,2019-10-11,21:42,N,nominal,1.0NRT,286.5,3.4,N
19.52642,71.30298,306.6,0.62,0.71,2019-10-11,21:42,N,nominal,1.0NRT,286.8,1.9,N
19.52801,71.30284,304.3,0.62,0.71,2019-10-11,21:42,N,nominal,1.0NRT,286.7,2.7,N
22.16135,57.04408,314.1,0.4,0.37,2019-10-11,21:42,N,nominal,1.0NRT,294.1,1.5,N
22.16056,57.04503,315.2,0.4,0.37,2019-10-11,21:42,N,nominal,1.0NRT,294.2,1.7,N
22.15738,56.02668,314,0.43,0.38,2019-10-11,21:42,N,nominal,1.0NRT,296.2,1.5,N
21.94434,56.03275,317.2,0.43,0.38,2019-10-11,21:42,N,nominal,1.0NRT,294.9,0.9,N
21.94376,56.03688,305.1,0.43,0.38,2019-10-11,21:42,N,nominal,1.0NRT,295,0.9,N
21.66754,56.65029,318.1,0.41,0.37,2019-10-11,21:42,N,nominal,1.0NRT,294.9,1.7,N
21.66335,56.4141,333.1,0.41,0.37,2019-10-11,21:42,N,nominal,1.0NRT,296.6,1.8,N
21.65992,56.41353,313.8,0.41,0.37,2019-10-11,21:42,N,nominal,1.0NRT,294.9,1.8,N
21.40203,57.87623,309.4,0.39,0.36,2019-10-11,21:42,N,nominal,1.0NRT,294.9,0.5,N
21.46108,57.24517,316.6,0.39,0.36,2019-10-11,21:42,N,nominal,1.0NRT,294.9,0.8,N
21.33554,57.80442,325.6,0.39,0.36,2019-10-11,21:42,N,nominal,1.0NRT,294.6,1.7,N
21.50419,56.62429,330.7,0.41,0.37,2019-10-11,21:42,N,nominal,1.0NRT,294.6,2.9,N
21.32956,57.77666,312.5,0.39,0.36,2019-10-11,21:42,N,nominal,1.0NRT,294.3,1,N
21.30238,57.79863,332,0.39,0.36,2019-10-11,21:42,N,nominal,1.0NRT,295.9,2.6,N
21.29526,57.77831,304.4,0.39,0.36,2019-10-11,21:42,N,nominal,1.0NRT,294.1,0.7,N
20.98765,57.79832,311.5,0.39,0.36,2019-10-11,21:42,N,nominal,1.0NRT,294.9,1,N
20.99931,57.60995,318.4,0.39,0.36,2019-10-11,21:42,N,nominal,1.0NRT,295.4,1.1,N
20.55804,56.41983,309.2,0.41,0.37,2019-10-11,21:42,N,nominal,1.0NRT,294.2,0.8,N
20.37671,55.93448,308.1,0.42,0.38,2019-10-11,21:42,N,nominal,1.0NRT,295.1,0.7,N
20.3748,55.93564,309,0.42,0.38,2019-10-11,21:42,N,nominal,1.0NRT,294.7,0.9,N
20.38914,55.66383,310.8,0.43,0.38,2019-10-11,21:42,N,nominal,1.0NRT,294.6,1.3,N
20.38451,55.64624,314,0.43,0.38,2019-10-11,21:42,N,nominal,1.0NRT,294.9,0.9,N
19.375,56.50027,325.6,0.4,0.37,2019-10-11,21:42,N,nominal,1.0NRT,295.6,1.2,N
19.3776,56.15194,330.4,0.41,0.37,2019-10-11,21:42,N,nominal,1.0NRT,297.2,12.9,N
19.37704,56.15581,314.2,0.41,0.37,2019-10-11,21:42,N,nominal,1.0NRT,295,7.9,N
19.26565,56.17794,318,0.41,0.37,2019-10-11,21:42,N,nominal,1.0NRT,294.6,1.5,N
18.68781,55.50594,334.4,0.42,0.38,2019-10-11,21:42,N,nominal,1.0NRT,294,3,N
18.5576,55.87086,329.5,0.41,0.37,2019-10-11,21:42,N,nominal,1.0NRT,293.7,1.7,N
18.32116,55.10605,336.8,0.43,0.38,2019-10-11,21:42,N,nominal,1.0NRT,295.3,2.5,N
18.31766,55.1055,309.8,0.43,0.38,2019-10-11,21:42,N,nominal,1.0NRT,291.7,0.8,N
18.17034,55.25344,302.7,0.43,0.38,2019-10-11,21:42,N,nominal,1.0NRT,291.7,1,N
18.03426,54.64539,328.8,0.45,0.39,2019-10-11,21:42,N,nominal,1.0NRT,296.8,3.8,N
18.03486,54.64115,309.7,0.45,0.39,2019-10-11,21:42,N,nominal,1.0NRT,296,3.8,N
18.03851,54.56348,317.8,0.45,0.39,2019-10-11,21:42,N,nominal,1.0NRT,292.3,1.4,N
31.94177,54.04443,299.9,0.46,0.47,2019-10-11,21:42,N,nominal,1.0NRT,287.8,1,N
31.93789,54.03906,303.4,0.46,0.47,2019-10-11,21:42,N,nominal,1.0NRT,288.5,1,N
31.86255,54.03421,305.8,0.46,0.47,2019-10-11,21:42,N,nominal,1.0NRT,285.8,0.6,N
31.62233,54.74432,301.6,0.42,0.45,2019-10-11,21:42,N,nominal,1.0NRT,287.5,1.2,N
30.15391,60.7352,305.5,0.38,0.36,2019-10-11,21:42,N,nominal,1.0NRT,290.5,0.8,N
30.37041,56.12827,297.3,0.51,0.41,2019-10-11,21:42,N,nominal,1.0NRT,282.5,0.6,N
25.55384,56.22462,308.6,0.45,0.39,2019-10-11,21:42,N,nominal,1.0NRT,298.3,2,N
25.70143,54.29971,329.5,0.56,0.43,2019-10-11,21:42,N,nominal,1.0NRT,300.1,2.1,N
22.93837,69.6978,315.3,0.42,0.61,2019-10-11,21:42,N,nominal,1.0NRT,294.4,1.5,N
25.34182,56.00479,337,0.46,0.39,2019-10-11,21:42,N,nominal,1.0NRT,298.3,4.3,N
28.05375,69.36844,304.3,0.62,0.54,2019-10-11,21:42,N,nominal,1.0NRT,292.2,1.1,N
28.20686,61.30384,303.4,0.39,0.36,2019-10-11,21:42,N,nominal,1.0NRT,287.9,0.7,N
27.22916,60.4909,306.8,0.39,0.36,2019-10-11,21:42,N,nominal,1.0NRT,293.1,0.6,N
27.22586,60.49024,303.8,0.39,0.36,2019-10-11,21:42,N,nominal,1.0NRT,293,0.6,N
27.78827,54.48311,304.3,0.39,0.44,2019-10-11,21:42,N,nominal,1.0NRT,292.1,0.8,N
27.42109,56.50308,321,0.46,0.39,2019-10-11,21:42,N,nominal,1.0NRT,297.4,3.1,N
26.79113,60.17566,305.5,0.38,0.36,2019-10-11,21:42,N,nominal,1.0NRT,288.9,0.5,N
26.79052,60.1795,303.5,0.38,0.36,2019-10-11,21:42,N,nominal,1.0NRT,288.8,0.5,N
27.30233,56.30196,310.4,0.47,0.4,2019-10-11,21:42,N,nominal,1.0NRT,297.2,2.1,N
27.16749,56.05217,333.8,0.48,0.4,2019-10-11,21:42,N,nominal,1.0NRT,300.9,8.9,N
24.86949,67.45185,315.8,0.55,0.51,2019-10-11,21:42,N,nominal,1.0NRT,294,1.6,N
26.85152,55.85141,338.9,0.49,0.4,2019-10-11,21:42,N,nominal,1.0NRT,299.5,4.3,N
26.84975,55.85368,331.5,0.48,0.4,2019-10-11,21:42,N,nominal,1.0NRT,298.9,2.9,N
26.85038,55.84879,315.2,0.49,0.4,2019-10-11,21:42,N,nominal,1.0NRT,298,2.9,N
24.86786,67.45478,312.5,0.56,0.51,2019-10-11,21:42,N,nominal,1.0NRT,294,2.2,N
25.32773,60.78572,312.1,0.4,0.37,2019-10-11,21:42,N,nominal,1.0NRT,296,0.9,N
25.96418,56.06946,310.3,0.46,0.39,2019-10-11,21:42,N,nominal,1.0NRT,299.3,2.9,N
23.26447,70.28231,306.4,0.45,0.63,2019-10-11,21:42,N,nominal,1.0NRT,294.6,1.1,N
25.90408,54.53148,330.3,0.55,0.43,2019-10-11,21:42,N,nominal,1.0NRT,298.9,1.4,N
25.90015,54.53087,309.5,0.55,0.43,2019-10-11,21:42,N,nominal,1.0NRT,297.7,1.4,N
25.89948,54.5364,314.4,0.55,0.43,2019-10-11,21:42,N,nominal,1.0NRT,297.8,1.4,N
38.67823,54.31469,297.3,0.61,0.71,2019-10-11,23:18,N,nominal,1.0NRT,285.3,0.9,N
38.64536,54.28211,339.5,0.61,0.71,2019-10-11,23:18,N,nominal,1.0NRT,287,3.7,N
36.32366,54.61964,295.6,0.74,0.76,2019-10-11,23:18,N,nominal,1.0NRT,284.3,1,N
38.70521,54.3629,300.3,0.61,0.71,2019-10-11,23:18,N,nominal,1.0NRT,285.3,0.6,N
