latitude,longitude,bright_ti4,scan,track,acq_date,acq_time,satellite,confidence,version,bright_ti5,frp,daynight
39.85199,98.26514,342.3,0.65,0.73,2019-09-06,05:12,N,nominal,1.0NRT,292.7,5.9,D
6.01995,100.79642,337.5,0.41,0.37,2019-09-06,06:42,N,nominal,1.0NRT,297.6,2.4,D
6.14198,100.27773,336.3,0.4,0.37,2019-09-06,06:42,N,nominal,1.0NRT,299.7,2.5,D
6.46583,100.79438,332.1,0.41,0.37,2019-09-06,06:42,N,nominal,1.0NRT,298.2,6.3,D
7.68033,99.6968,332.8,0.39,0.37,2019-09-06,06:42,N,nominal,1.0NRT,294.2,2.1,D
8.12888,99.99783,346.5,0.4,0.37,2019-09-06,06:42,N,nominal,1.0NRT,292,6.4,D
8.22198,99.96845,337,0.4,0.37,2019-09-06,06:42,N,nominal,1.0NRT,297,2.3,D
8.31363,99.9731,333.3,0.4,0.37,2019-09-06,06:42,N,nominal,1.0NRT,289.8,5.2,D
14.29166,100.58331,353.9,0.48,0.4,2019-09-06,06:48,N,nominal,1.0NRT,289.6,20.6,D
14.29227,100.58776,338.8,0.48,0.4,2019-09-06,06:48,N,nominal,1.0NRT,289,20.6,D
14.24765,100.39659,338,0.47,0.4,2019-09-06,06:48,N,nominal,1.0NRT,279,3.4,D
14.24827,100.39947,338.4,0.47,0.4,2019-09-06,06:48,N,nominal,1.0NRT,281.6,5.2,D
14.24866,100.64236,343.5,0.48,0.4,2019-09-06,06:48,N,nominal,1.0NRT,287.5,7.6,D
14.10216,100.58041,337.2,0.48,0.4,2019-09-06,06:48,N,nominal,1.0NRT,289.8,4.6,D
24.91767,96.51347,333.7,0.41,0.37,2019-09-06,06:48,N,nominal,1.0NRT,288.3,2.9,D
20.10883,95.03497,334.7,0.39,0.36,2019-09-06,06:48,N,nominal,1.0NRT,296.2,3.4,D
16.43408,99.7603,330.3,0.46,0.39,2019-09-06,06:48,N,nominal,1.0NRT,293.2,3.6,D
14.65497,100.16976,334.6,0.46,0.39,2019-09-06,06:48,N,nominal,1.0NRT,292.1,7.5,D
14.58337,100.05709,349.5,0.46,0.39,2019-09-06,06:48,N,nominal,1.0NRT,285.9,7.7,D
14.54723,100.1143,341.9,0.46,0.39,2019-09-06,06:48,N,nominal,1.0NRT,292.2,5.5,D
14.5482,100.17517,332,0.46,0.39,2019-09-06,06:48,N,nominal,1.0NRT,286.9,2.7,D
14.31143,100.1897,332.9,0.46,0.39,2019-09-06,06:48,N,nominal,1.0NRT,284.6,3.5,D
28.02043,96.6573,334.1,0.44,0.38,2019-09-06,06:48,N,nominal,1.0NRT,291.5,3.9,D
27.94463,96.76112,349.8,0.44,0.39,2019-09-06,06:48,N,nominal,1.0NRT,301.3,6.4,D
27.94519,96.7654,331.8,0.45,0.39,2019-09-06,06:48,N,nominal,1.0NRT,299.6,6.4,D
27.39244,95.43642,333.1,0.4,0.37,2019-09-06,06:48,N,nominal,1.0NRT,295.4,2.8,D
26.57894,101.66348,329.1,0.52,0.5,2019-09-06,06:48,N,nominal,1.0NRT,287.9,3.8,D
22.79166,86.19433,328.5,0.62,0.54,2019-09-06,06:48,N,nominal,1.0NRT,288.9,6.5,D
36.87024,101.75214,330.8,0.34,0.56,2019-09-06,06:54,N,nominal,1.0NRT,297.7,3.2,D
36.70783,101.452,329.4,0.33,0.55,2019-09-06,06:54,N,nominal,1.0NRT,295.7,2.1,D
36.78297,101.95089,335.1,0.35,0.57,2019-09-06,06:54,N,nominal,1.0NRT,296.3,3.9,D
36.78744,101.94983,338.5,0.35,0.57,2019-09-06,06:54,N,nominal,1.0NRT,297,3.8,D
36.78536,101.74498,331.5,0.34,0.56,2019-09-06,06:54,N,nominal,1.0NRT,297.6,1.7,D
36.85461,101.76496,329.9,0.34,0.56,2019-09-06,06:54,N,nominal,1.0NRT,297.7,2.9,D
36.86947,101.75233,330.1,0.34,0.56,2019-09-06,06:54,N,nominal,1.0NRT,297.7,1.5,D
8.29169,80.63358,350.1,0.58,0.52,2019-09-06,08:24,N,nominal,1.0NRT,292.7,12,D
6.74411,81.3174,343.9,0.61,0.53,2019-09-06,08:24,N,nominal,1.0NRT,295.6,12.7,D
6.75457,81.21445,338.9,0.6,0.53,2019-09-06,08:24,N,nominal,1.0NRT,293.9,5,D
6.74595,81.32044,334.1,0.61,0.53,2019-09-06,08:24,N,nominal,1.0NRT,294.6,9,D
6.7452,81.31483,332.2,0.61,0.53,2019-09-06,08:24,N,nominal,1.0NRT,296,8,D
6.7515,81.2123,330.9,0.6,0.53,2019-09-06,08:24,N,nominal,1.0NRT,293.1,6.4,D
7.28707,81.1588,334,0.6,0.53,2019-09-06,08:24,N,nominal,1.0NRT,296,6.1,D
7.27614,81.0819,339.2,0.6,0.53,2019-09-06,08:24,N,nominal,1.0NRT,301.3,109.4,D
7.29616,81.21654,342.8,0.61,0.53,2019-09-06,08:24,N,nominal,1.0NRT,292,15.9,D
7.27835,81.08392,340.4,0.6,0.53,2019-09-06,08:24,N,nominal,1.0NRT,295.2,17.6,D
7.27758,81.07814,344.5,0.6,0.53,2019-09-06,08:24,N,nominal,1.0NRT,296.5,21.7,D
7.37249,81.25818,331.6,0.62,0.54,2019-09-06,08:24,N,nominal,1.0NRT,294.1,5.9,D
7.38158,81.14321,334.7,0.6,0.53,2019-09-06,08:24,N,nominal,1.0NRT,293.9,2.7,D
7.41331,81.14206,335.9,0.61,0.53,2019-09-06,08:24,N,nominal,1.0NRT,295.9,5.6,D
7.49453,81.2923,344.3,0.62,0.54,2019-09-06,08:24,N,nominal,1.0NRT,296.3,18.1,D
7.49504,81.29652,341.5,0.62,0.54,2019-09-06,08:24,N,nominal,1.0NRT,294.1,14.4,D
7.49429,81.29079,340.1,0.62,0.54,2019-09-06,08:24,N,nominal,1.0NRT,295.2,14.4,D
8.34292,81.28321,345.8,0.32,0.54,2019-09-06,08:24,N,nominal,1.0NRT,293.9,2.2,D
8.34132,81.27152,342.4,0.32,0.54,2019-09-06,08:24,N,nominal,1.0NRT,294.1,2.2,D
8.38542,81.34377,346.7,0.32,0.55,2019-09-06,08:24,N,nominal,1.0NRT,292.7,3.6,D
8.40372,81.28738,338.5,0.32,0.55,2019-09-06,08:24,N,nominal,1.0NRT,292.5,3,D
8.41133,80.78702,351.4,0.59,0.53,2019-09-06,08:24,N,nominal,1.0NRT,293.2,26,D
8.40912,80.78608,357.1,0.59,0.53,2019-09-06,08:24,N,nominal,1.0NRT,294,22.7,D
8.36051,80.27345,341,0.55,0.51,2019-09-06,08:24,N,nominal,1.0NRT,291.1,7.5,D
8.41029,80.49972,341.5,0.57,0.52,2019-09-06,08:24,N,nominal,1.0NRT,293.8,10.1,D
8.48882,80.6441,344.6,0.58,0.52,2019-09-06,08:24,N,nominal,1.0NRT,294,11.9,D
8.45412,80.39469,331.3,0.56,0.51,2019-09-06,08:24,N,nominal,1.0NRT,293.4,7.9,D
8.45342,80.38965,344.1,0.56,0.51,2019-09-06,08:24,N,nominal,1.0NRT,294.9,7.9,D
8.49366,80.64349,345.9,0.58,0.52,2019-09-06,08:24,N,nominal,1.0NRT,293.1,5.4,D
8.45399,80.39123,367,0.56,0.51,2019-09-06,08:24,N,high,1.0NRT,294.8,15,D
8.49232,80.64573,342.5,0.58,0.52,2019-09-06,08:24,N,nominal,1.0NRT,295.4,24.5,D
8.51179,80.68128,339,0.58,0.52,2019-09-06,08:24,N,nominal,1.0NRT,295.2,8.2,D
8.61151,80.51472,344,0.57,0.52,2019-09-06,08:24,N,nominal,1.0NRT,292.9,14.2,D
8.80715,80.55551,331.1,0.58,0.52,2019-09-06,08:24,N,nominal,1.0NRT,294.6,4.5,D
8.89867,80.76705,341.7,0.6,0.53,2019-09-06,08:24,N,nominal,1.0NRT,294.4,11.7,D
8.91808,80.01852,342.2,0.53,0.5,2019-09-06,08:24,N,nominal,1.0NRT,294.5,7.3,D
8.63974,77.52383,339.7,0.55,0.43,2019-09-06,08:24,N,nominal,1.0NRT,301.9,5.1,D
9.03456,78.16299,340.4,0.41,0.45,2019-09-06,08:24,N,nominal,1.0NRT,301.1,4,D
9.42386,80.33968,337.5,0.57,0.52,2019-09-06,08:24,N,nominal,1.0NRT,295.7,3.2,D
10.04659,78.7639,332,0.46,0.47,2019-09-06,08:24,N,nominal,1.0NRT,294.7,2.6,D
11.03654,77.6908,334.9,0.4,0.44,2019-09-06,08:24,N,nominal,1.0NRT,299.7,2.6,D
11.26909,79.40145,342.1,0.52,0.5,2019-09-06,08:24,N,nominal,1.0NRT,292.7,9.2,D
11.09453,78.08771,332.6,0.43,0.46,2019-09-06,08:24,N,nominal,1.0NRT,298.9,3.9,D
11.0847,76.85516,336,0.54,0.42,2019-09-06,08:24,N,nominal,1.0NRT,295.4,7,D
11.16632,77.45919,338,0.39,0.44,2019-09-06,08:24,N,nominal,1.0NRT,297.6,2.7,D
11.0851,76.85212,340.1,0.54,0.42,2019-09-06,08:24,N,nominal,1.0NRT,295.4,6.5,D
12.39762,78.0427,326.9,0.44,0.46,2019-09-06,08:24,N,nominal,1.0NRT,288.2,2.8,D
22.34477,56.43259,339.4,0.59,0.7,2019-09-06,08:30,N,low,1.0NRT,310.9,3,D
22.34409,56.43248,338.2,0.59,0.7,2019-09-06,08:30,N,low,1.0NRT,310.9,3.4,D
22.40425,56.98588,356.1,0.54,0.68,2019-09-06,08:30,N,nominal,1.0NRT,312,2.8,D
22.15383,56.02129,342.4,0.63,0.72,2019-09-06,08:30,N,nominal,1.0NRT,311.8,2,D
22.15536,56.02743,344.7,0.63,0.72,2019-09-06,08:30,N,nominal,1.0NRT,311.6,2.9,D
22.14341,56.06323,347.1,0.63,0.72,2019-09-06,08:30,N,nominal,1.0NRT,311,3.1,D
22.40193,56.99024,347.2,0.55,0.68,2019-09-06,08:30,N,nominal,1.0NRT,312.1,3,D
22.1576,56.02342,367,0.63,0.72,2019-09-06,08:30,N,high,1.0NRT,312.7,7.9,D
22.14697,56.06557,356.9,0.63,0.72,2019-09-06,08:30,N,nominal,1.0NRT,309.1,5.5,D
21.94565,56.03109,341.2,0.64,0.72,2019-09-06,08:30,N,low,1.0NRT,312.8,1.7,D
21.94314,56.03415,342.5,0.64,0.72,2019-09-06,08:30,N,low,1.0NRT,312.8,2.4,D
21.62911,56.17004,344.7,0.63,0.72,2019-09-06,08:30,N,nominal,1.0NRT,313.2,4.1,D
24.50645,56.6064,335,0.52,0.67,2019-09-06,08:30,N,nominal,1.0NRT,299.7,2.4,D
28.42933,69.69331,334.2,0.4,0.37,2019-09-06,08:30,N,nominal,1.0NRT,303.6,4.5,D
29.16238,71.18324,330.4,0.45,0.39,2019-09-06,08:30,N,low,1.0NRT,304.1,6,D
29.33826,70.46398,337,0.42,0.38,2019-09-06,08:30,N,nominal,1.0NRT,302.5,1.7,D
29.59336,71.48901,330.1,0.47,0.39,2019-09-06,08:30,N,low,1.0NRT,304.8,6,D
24.46941,56.61002,332,0.52,0.67,2019-09-06,08:30,N,nominal,1.0NRT,301.1,2,D
19.56939,71.35712,335.5,0.39,0.36,2019-09-06,08:30,N,nominal,1.0NRT,284.1,6.3,D
19.56884,71.35341,330.2,0.39,0.36,2019-09-06,08:30,N,nominal,1.0NRT,283.9,6.3,D
21.30449,57.79895,342.3,0.51,0.66,2019-09-06,08:30,N,nominal,1.0NRT,309.2,1.7,D
29.87448,73.29324,334.8,0.57,0.43,2019-09-06,08:30,N,nominal,1.0NRT,298.9,3.3,D
26.84937,55.85134,354.6,0.51,0.66,2019-09-06,08:30,N,nominal,1.0NRT,303.8,15.4,D
29.89657,72.17629,332,0.5,0.41,2019-09-06,08:30,N,nominal,1.0NRT,298.4,1.7,D
29.85872,71.21214,336.2,0.46,0.39,2019-09-06,08:30,N,nominal,1.0NRT,300.6,3.4,D
27.16868,56.04844,367,0.49,0.65,2019-09-06,08:30,N,high,1.0NRT,305.2,10,D
27.17089,56.04899,336.2,0.49,0.65,2019-09-06,08:30,N,nominal,1.0NRT,302.6,3.7,D
30.45445,73.83934,340,0.42,0.45,2019-09-06,08:30,N,nominal,1.0NRT,298,4.5,D
24.46907,56.61171,334.9,0.52,0.67,2019-09-06,08:30,N,nominal,1.0NRT,302,1.4,D
30.93903,61.59787,343.7,0.39,0.44,2019-09-06,08:30,N,nominal,1.0NRT,312.6,1.9,D
29.99364,55.85276,351.6,0.43,0.62,2019-09-06,08:30,N,nominal,1.0NRT,313.7,6.5,D
29.98928,55.85209,343.5,0.43,0.62,2019-09-06,08:30,N,nominal,1.0NRT,312.8,5.5,D
31.20279,73.22293,337,0.39,0.44,2019-09-06,08:30,N,nominal,1.0NRT,302.4,3.8,D
33.29484,71.24059,337.1,0.5,0.41,2019-09-06,08:30,N,nominal,1.0NRT,300.2,31,D
23.15397,55.44498,354.7,0.65,0.73,2019-09-06,08:30,N,nominal,1.0NRT,291.3,16.3,D
30.48135,73.77399,334.8,0.41,0.45,2019-09-06,08:30,N,nominal,1.0NRT,296.2,2.7,D
30.50257,73.89497,332.4,0.42,0.45,2019-09-06,08:30,N,nominal,1.0NRT,295.9,2.2,D
30.57546,73.93941,331.4,0.42,0.45,2019-09-06,08:30,N,nominal,1.0NRT,294.8,2.5,D
30.59698,73.86035,340.5,0.42,0.45,2019-09-06,08:30,N,nominal,1.0NRT,296.2,5.2,D
30.63143,73.98605,343,0.43,0.46,2019-09-06,08:30,N,nominal,1.0NRT,298.1,5.4,D
30.61177,73.72142,332,0.41,0.45,2019-09-06,08:30,N,nominal,1.0NRT,297.7,1.8,D
30.67182,74.04436,331.2,0.43,0.46,2019-09-06,08:30,N,nominal,1.0NRT,295.5,1.4,D
30.65149,73.72121,332.4,0.41,0.45,2019-09-06,08:30,N,nominal,1.0NRT,299,1.9,D
30.65682,73.61151,334.9,0.41,0.45,2019-09-06,08:30,N,nominal,1.0NRT,297.5,1.4,D
30.7187,74.04393,341.4,0.43,0.46,2019-09-06,08:30,N,nominal,1.0NRT,298,10.2,D
23.19323,55.46089,345.2,0.65,0.73,2019-09-06,08:30,N,nominal,1.0NRT,299,20.8,D
22.8786,55.92488,346.9,0.62,0.71,2019-09-06,08:30,N,nominal,1.0NRT,310,1.8,D
22.88039,55.92665,343.6,0.62,0.71,2019-09-06,08:30,N,nominal,1.0NRT,310,2,D
22.77871,55.81131,341.6,0.63,0.72,2019-09-06,08:30,N,nominal,1.0NRT,305.7,1.1,D
37.51759,55.60823,333.7,0.59,0.53,2019-09-06,08:36,N,low,1.0NRT,305.5,5,D
37.11396,54.43618,348.9,0.34,0.56,2019-09-06,08:36,N,nominal,1.0NRT,304,9.4,D
37.11494,54.43998,336.5,0.34,0.56,2019-09-06,08:36,N,nominal,1.0NRT,304.5,4.8,D
37.11299,54.43238,367,0.35,0.56,2019-09-06,08:36,N,high,1.0NRT,306.2,9.4,D
37.107,54.43056,346.9,0.35,0.56,2019-09-06,08:36,N,nominal,1.0NRT,303.2,5,D
36.95026,54.47133,367,0.35,0.56,2019-09-06,08:36,N,high,1.0NRT,299.8,5.9,D
36.9496,54.47007,341.6,0.35,0.56,2019-09-06,08:36,N,nominal,1.0NRT,296.8,3,D
36.95057,54.47388,343.5,0.35,0.56,2019-09-06,08:36,N,nominal,1.0NRT,297.3,3,D
37.82322,58.89846,332.3,0.39,0.44,2019-09-06,08:36,N,low,1.0NRT,303.9,2,D
37.90102,60.41358,340.7,0.5,0.41,2019-09-06,08:36,N,low,1.0NRT,313.4,4.1,D
37.43569,59.9459,332.5,0.54,0.42,2019-09-06,08:36,N,low,1.0NRT,307.3,2.9,D
37.61834,62.13784,337.8,0.44,0.38,2019-09-06,08:36,N,low,1.0NRT,310.9,2.6,D
37.30274,60.60505,346.1,0.5,0.41,2019-09-06,08:36,N,nominal,1.0NRT,310.2,11.3,D
37.49677,61.87592,342.8,0.45,0.39,2019-09-06,08:36,N,nominal,1.0NRT,311.5,6.1,D
37.49326,61.87693,348.1,0.45,0.39,2019-09-06,08:36,N,nominal,1.0NRT,316.7,6.1,D
36.80797,58.97437,339.3,0.41,0.45,2019-09-06,08:36,N,nominal,1.0NRT,305,2.8,D
37.24473,61.14656,335.6,0.48,0.4,2019-09-06,08:36,N,nominal,1.0NRT,306.9,2.6,D
37.18573,61.09302,331,0.48,0.4,2019-09-06,08:36,N,low,1.0NRT,305,1.7,D
36.96835,60.67883,336.1,0.51,0.41,2019-09-06,08:36,N,low,1.0NRT,306.9,4.9,D
36.96464,60.67997,341.7,0.51,0.41,2019-09-06,08:36,N,nominal,1.0NRT,312,4.9,D
37.38369,66.71815,332,0.39,0.36,2019-09-06,08:36,N,low,1.0NRT,305.1,1.9,D
36.01899,59.10667,337.6,0.42,0.45,2019-09-06,08:36,N,nominal,1.0NRT,304,2.7,D
38.68208,54.31434,337.1,0.32,0.55,2019-09-06,08:36,N,low,1.0NRT,309.7,2.1,D
38.63082,57.19362,348.3,0.46,0.47,2019-09-06,08:36,N,nominal,1.0NRT,305,3.8,D
38.26581,58.09767,333,0.42,0.45,2019-09-06,08:36,N,low,1.0NRT,304.3,3.3,D
38.26472,58.09637,331.1,0.42,0.45,2019-09-06,08:36,N,low,1.0NRT,305.5,1.7,D
38.18424,58.0892,331.4,0.42,0.45,2019-09-06,08:36,N,low,1.0NRT,306.2,3,D
38.17505,58.08735,367,0.42,0.45,2019-09-06,08:36,N,high,1.0NRT,305.7,7.8,D
39.73455,66.99663,336.2,0.41,0.37,2019-09-06,08:36,N,nominal,1.0NRT,303.5,2.2,D
37.47683,55.15902,337.7,0.58,0.7,2019-09-06,10:12,N,nominal,1.0NRT,303.7,3.7,D
18.03527,54.64504,367,0.35,0.57,2019-09-06,10:12,N,low,1.0NRT,298.2,28.6,D
21.30202,57.79775,345.3,0.62,0.71,2019-09-06,10:12,N,nominal,1.0NRT,308.9,1.8,D
21.94314,56.03531,347.2,0.48,0.65,2019-09-06,10:12,N,nominal,1.0NRT,316.9,1.5,D
22.14214,56.07096,346.7,0.49,0.65,2019-09-06,10:12,N,low,1.0NRT,317.4,8.4,D
22.14173,56.0661,344.4,0.49,0.65,2019-09-06,10:12,N,low,1.0NRT,316.3,2.7,D
22.14778,56.06545,344.3,0.49,0.65,2019-09-06,10:12,N,low,1.0NRT,316.4,2.7,D
22.40145,56.99178,342.2,0.56,0.69,2019-09-06,10:12,N,nominal,1.0NRT,312.1,2.1,D
22.40785,56.99102,339.2,0.56,0.69,2019-09-06,10:12,N,low,1.0NRT,311,2.1,D
18.03491,54.64165,353,0.35,0.57,2019-09-06,10:12,N,nominal,1.0NRT,296.6,12.4,D
22.80416,55.8535,346.1,0.48,0.65,2019-09-06,10:12,N,low,1.0NRT,317.6,2.9,D
22.80378,55.84872,367,0.48,0.65,2019-09-06,10:12,N,low,1.0NRT,317.8,2.9,D
22.92909,55.80421,351,0.48,0.65,2019-09-06,10:12,N,nominal,1.0NRT,318.2,2.6,D
23.15149,55.44978,346.5,0.46,0.63,2019-09-06,10:12,N,nominal,1.0NRT,310,2.8,D
23.15738,55.44923,355.3,0.46,0.63,2019-09-06,10:12,N,nominal,1.0NRT,311.2,2.8,D
23.15699,55.44469,345.6,0.46,0.63,2019-09-06,10:12,N,nominal,1.0NRT,311,2.8,D
23.15583,55.45013,349.3,0.46,0.63,2019-09-06,10:12,N,nominal,1.0NRT,310.5,5.3,D
23.15547,55.44558,367,0.46,0.63,2019-09-06,10:12,N,low,1.0NRT,312.1,5.3,D
23.19199,55.45605,345.4,0.46,0.63,2019-09-06,10:12,N,nominal,1.0NRT,309.2,2.2,D
23.19236,55.46063,367,0.46,0.63,2019-09-06,10:12,N,low,1.0NRT,309.9,21.4,D
24.50736,56.60887,340.4,0.56,0.69,2019-09-06,10:12,N,nominal,1.0NRT,306.3,4.7,D
26.85091,55.852,349.5,0.53,0.67,2019-09-06,10:12,N,nominal,1.0NRT,306.2,9.8,D
26.85445,55.85337,349.7,0.53,0.67,2019-09-06,10:12,N,nominal,1.0NRT,305.7,17.6,D
27.17095,56.05387,367,0.55,0.68,2019-09-06,10:12,N,high,1.0NRT,303.6,10.2,D
27.16696,56.05485,367,0.55,0.68,2019-09-06,10:12,N,high,1.0NRT,304.5,10.8,D
26.08932,101.68192,309,0.39,0.44,2019-09-06,19:12,N,nominal,1.0NRT,282.9,1.3,N
36.52068,101.53262,303.2,0.41,0.37,2019-09-06,19:12,N,nominal,1.0NRT,281,0.9,N
36.67035,101.66099,299.4,0.42,0.37,2019-09-06,19:12,N,nominal,1.0NRT,285,0.8,N
38.20683,90.97519,295.4,0.51,0.5,2019-09-06,19:12,N,nominal,1.0NRT,279.5,0.8,N
38.74704,101.10679,296.9,0.39,0.36,2019-09-06,19:12,N,nominal,1.0NRT,282.7,0.7,N
39.7907,97.88536,300.1,0.41,0.37,2019-09-06,19:12,N,nominal,1.0NRT,287.5,0.9,N
23.75716,86.40067,302.7,0.33,0.55,2019-09-06,19:18,N,nominal,1.0NRT,287.1,1.5,N
23.75011,86.41972,315.1,0.33,0.55,2019-09-06,19:18,N,nominal,1.0NRT,287.3,2.3,N
23.7498,86.42297,304,0.33,0.55,2019-09-06,19:18,N,nominal,1.0NRT,287.1,1.8,N
23.72716,86.44319,322.3,0.33,0.55,2019-09-06,19:18,N,nominal,1.0NRT,287.8,2.5,N
23.72206,86.44254,336.8,0.33,0.55,2019-09-06,19:18,N,nominal,1.0NRT,288.2,2.5,N
23.72237,86.43926,310.1,0.33,0.55,2019-09-06,19:18,N,nominal,1.0NRT,287.4,2.5,N
23.72174,86.44582,305.1,0.33,0.55,2019-09-06,19:18,N,nominal,1.0NRT,287.3,2.9,N
23.73676,85.01005,309.1,0.4,0.6,2019-09-06,19:18,N,nominal,1.0NRT,285.2,1.9,N
23.73642,85.01397,303.2,0.4,0.6,2019-09-06,19:18,N,nominal,1.0NRT,285.3,1.4,N
23.73152,85.00544,305.8,0.4,0.6,2019-09-06,19:18,N,nominal,1.0NRT,285.5,1.4,N
23.73118,85.00938,302.2,0.4,0.6,2019-09-06,19:18,N,nominal,1.0NRT,285,1.4,N
23.72982,85.02517,300.8,0.4,0.6,2019-09-06,19:18,N,nominal,1.0NRT,285.2,1.3,N
23.50826,87.28143,301.9,0.57,0.52,2019-09-06,19:18,N,nominal,1.0NRT,287.4,1.5,N
23.72739,85.00625,314.8,0.4,0.6,2019-09-06,19:18,N,nominal,1.0NRT,285.8,2.8,N
23.72556,85.02592,299.6,0.4,0.6,2019-09-06,19:18,N,nominal,1.0NRT,285.3,1.4,N
23.36357,83.2198,298.3,0.52,0.67,2019-09-06,19:18,N,nominal,1.0NRT,282.9,1.3,N
23.36316,83.22509,296.4,0.52,0.67,2019-09-06,19:18,N,nominal,1.0NRT,282.9,1.3,N
23.35901,83.22226,297.3,0.52,0.67,2019-09-06,19:18,N,nominal,1.0NRT,282.1,2.7,N
21.59283,96.23082,305.9,0.39,0.37,2019-09-06,19:18,N,nominal,1.0NRT,290.6,0.8,N
21.57487,96.23527,303,0.39,0.37,2019-09-06,19:18,N,nominal,1.0NRT,288.1,0.7,N
22.05322,88.12594,306.4,0.49,0.48,2019-09-06,19:18,N,nominal,1.0NRT,276.1,2,N
22.06572,83.33951,296.6,0.49,0.65,2019-09-06,19:18,N,nominal,1.0NRT,283.3,1.6,N
21.68057,84.04112,301.1,0.44,0.62,2019-09-06,19:18,N,nominal,1.0NRT,277.3,0.9,N
21.68079,84.03896,302.9,0.44,0.62,2019-09-06,19:18,N,nominal,1.0NRT,278.7,1.4,N
6.69951,100.56143,305.3,0.36,0.58,2019-09-06,19:18,N,nominal,1.0NRT,290.1,0.4,N
8.37073,81.03825,310,0.47,0.64,2019-09-06,19:18,N,nominal,1.0NRT,284.1,1.3,N
23.76868,86.38885,301.9,0.33,0.55,2019-09-06,19:18,N,nominal,1.0NRT,287.1,1.3,N
23.79346,86.3485,304.8,0.33,0.55,2019-09-06,19:18,N,nominal,1.0NRT,286.5,1.2,N
23.79561,86.34882,302.6,0.33,0.55,2019-09-06,19:18,N,nominal,1.0NRT,287,0.9,N
23.454,100.4025,299.8,0.55,0.43,2019-09-06,19:18,N,nominal,1.0NRT,286.7,1.1,N
23.88731,85.00827,315.2,0.4,0.6,2019-09-06,19:18,N,nominal,1.0NRT,285.1,1.9,N
37.45522,57.68679,302.8,0.68,0.74,2019-09-06,20:54,N,nominal,1.0NRT,286.4,2.2,N
24.86804,67.45192,302,0.44,0.39,2019-09-06,20:54,N,nominal,1.0NRT,280.8,0.5,N
24.87157,67.45252,303.4,0.44,0.39,2019-09-06,20:54,N,nominal,1.0NRT,280.3,0.5,N
25.13998,66.91668,307.7,0.47,0.4,2019-09-06,20:54,N,nominal,1.0NRT,287.1,1.3,N
22.32391,82.67348,302.5,0.56,0.69,2019-09-06,20:54,N,nominal,1.0NRT,283.1,2.2,N
22.32744,82.68634,305.6,0.56,0.69,2019-09-06,20:54,N,nominal,1.0NRT,283.5,1.8,N
24.66071,74.63285,303.5,0.5,0.41,2019-09-06,20:54,N,nominal,1.0NRT,276.5,1.3,N
24.16828,80.69574,301.7,0.39,0.59,2019-09-06,20:54,N,nominal,1.0NRT,287.5,1.2,N
24.20256,80.80088,303.1,0.39,0.6,2019-09-06,20:54,N,nominal,1.0NRT,288.3,1.5,N
24.15985,82.56031,306.4,0.5,0.66,2019-09-06,20:54,N,nominal,1.0NRT,287.3,0.9,N
24.2058,82.71793,306,0.51,0.66,2019-09-06,20:54,N,nominal,1.0NRT,287.3,1.6,N
24.20522,82.71864,307.4,0.51,0.66,2019-09-06,20:54,N,nominal,1.0NRT,287.1,1.3,N
23.80402,84.84682,295.2,0.7,0.75,2019-09-06,20:54,N,nominal,1.0NRT,283.1,2.2,N
23.81078,84.84884,295.4,0.7,0.75,2019-09-06,20:54,N,nominal,1.0NRT,282.9,3.8,N
23.88631,85.00839,305.1,0.71,0.75,2019-09-06,20:54,N,nominal,1.0NRT,283.6,4.4,N
23.88526,85.00636,304.9,0.71,0.75,2019-09-06,20:54,N,nominal,1.0NRT,283.8,3.3,N
28.42869,69.69483,311.5,0.4,0.37,2019-09-06,20:54,N,nominal,1.0NRT,297.1,1,N
28.43265,69.69138,311.3,0.4,0.37,2019-09-06,20:54,N,nominal,1.0NRT,296.5,0.8,N
29.47848,60.80722,299.3,0.39,0.59,2019-09-06,20:54,N,nominal,1.0NRT,289,0.2,N
29.47756,60.80642,300.4,0.39,0.59,2019-09-06,20:54,N,nominal,1.0NRT,289.4,0.5,N
29.98969,55.85658,301.4,0.78,0.78,2019-09-06,20:54,N,nominal,1.0NRT,285.8,3.8,N
29.98997,55.84944,315.9,0.78,0.78,2019-09-06,20:54,N,nominal,1.0NRT,286,3.8,N
29.9903,55.85309,324.8,0.78,0.78,2019-09-06,20:54,N,nominal,1.0NRT,286.8,4.3,N
30.23331,56.90487,307.6,0.68,0.74,2019-09-06,20:54,N,nominal,1.0NRT,290.6,3.8,N
30.23287,56.90716,317.3,0.68,0.74,2019-09-06,20:54,N,nominal,1.0NRT,292.1,3,N
30.32446,55.9735,303.4,0.77,0.77,2019-09-06,20:54,N,nominal,1.0NRT,289.2,1.1,N
30.37948,55.86364,298.7,0.78,0.78,2019-09-06,20:54,N,nominal,1.0NRT,288.4,1.7,N
29.46004,76.88937,308.4,0.55,0.43,2019-09-06,20:54,N,nominal,1.0NRT,291.4,3.7,N
31.24837,76.93017,302.4,0.52,0.41,2019-09-06,20:54,N,nominal,1.0NRT,289.6,0.5,N
33.7514,59.14454,301.5,0.54,0.68,2019-09-06,20:54,N,nominal,1.0NRT,285.4,0.7,N
32.72506,73.14104,308.7,0.39,0.36,2019-09-06,20:54,N,nominal,1.0NRT,290.9,1.5,N
32.65535,74.94991,307.8,0.42,0.37,2019-09-06,20:54,N,nominal,1.0NRT,294.2,0.7,N
33.68905,72.71449,306.5,0.38,0.36,2019-09-06,20:54,N,nominal,1.0NRT,294.1,1.5,N
33.90234,71.91513,307.9,0.39,0.36,2019-09-06,20:54,N,nominal,1.0NRT,295.3,1.9,N
34.68657,70.75373,309.2,0.41,0.37,2019-09-06,20:54,N,nominal,1.0NRT,293.7,2.2,N
34.9906,72.86855,312.2,0.38,0.36,2019-09-06,20:54,N,nominal,1.0NRT,289.3,1.2,N
36.42805,59.70414,295.8,0.52,0.67,2019-09-06,20:54,N,nominal,1.0NRT,283.5,0.5,N
36.4801,59.74431,297.7,0.52,0.67,2019-09-06,20:54,N,nominal,1.0NRT,286.1,1.3,N
36.43766,61.21788,297.6,0.43,0.62,2019-09-06,20:54,N,nominal,1.0NRT,286.9,0.5,N
36.46217,60.84892,300.6,0.45,0.63,2019-09-06,20:54,N,nominal,1.0NRT,286.6,1.5,N
35.35523,73.74499,303.4,0.38,0.36,2019-09-06,20:54,N,nominal,1.0NRT,283.6,1.2,N
35.63258,74.09109,300.1,0.39,0.36,2019-09-06,20:54,N,nominal,1.0NRT,281.1,0.6,N
37.18599,59.99178,298.5,0.51,0.66,2019-09-06,20:54,N,nominal,1.0NRT,287.6,0.8,N
37.21046,60.45216,299.2,0.48,0.65,2019-09-06,20:54,N,nominal,1.0NRT,284.7,0.7,N
37.25463,60.27438,295.6,0.49,0.65,2019-09-06,20:54,N,nominal,1.0NRT,285,0.3,N
37.32539,61.09503,295.8,0.44,0.62,2019-09-06,20:54,N,nominal,1.0NRT,284.4,0.5,N
37.4544,57.68428,303,0.68,0.74,2019-09-06,20:54,N,nominal,1.0NRT,286.9,1.4,N
37.34796,61.36079,295.4,0.43,0.62,2019-09-06,20:54,N,nominal,1.0NRT,285.3,0.8,N
37.42451,62.31086,304.6,0.38,0.59,2019-09-06,20:54,N,nominal,1.0NRT,285.4,0.8,N
37.44345,62.07419,297.6,0.39,0.59,2019-09-06,20:54,N,nominal,1.0NRT,283.9,0.5,N
37.47881,61.84063,306.6,0.4,0.6,2019-09-06,20:54,N,nominal,1.0NRT,288.4,2.5,N
37.48246,61.97643,297.1,0.4,0.6,2019-09-06,20:54,N,nominal,1.0NRT,285.7,0.6,N
37.49538,61.84684,309.8,0.4,0.6,2019-09-06,20:54,N,nominal,1.0NRT,287.4,0.9,N
37.48232,61.83776,315.6,0.4,0.6,2019-09-06,20:54,N,nominal,1.0NRT,290.2,1.9,N
37.4987,61.84872,299.1,0.4,0.6,2019-09-06,20:54,N,nominal,1.0NRT,286.4,1.3,N
37.55618,61.93378,302.5,0.4,0.6,2019-09-06,20:54,N,nominal,1.0NRT,286.5,0.5,N
37.5946,61.52949,299.2,0.42,0.61,2019-09-06,20:54,N,nominal,1.0NRT,287.2,0.9,N
37.59485,61.52458,307.5,0.42,0.61,2019-09-06,20:54,N,nominal,1.0NRT,288.2,0.9,N
37.61512,61.57549,301.8,0.42,0.61,2019-09-06,20:54,N,nominal,1.0NRT,288.9,1.1,N
37.61063,61.57514,301.9,0.42,0.61,2019-09-06,20:54,N,nominal,1.0NRT,289.1,1.4,N
37.64025,62.20397,301.8,0.39,0.59,2019-09-06,20:54,N,nominal,1.0NRT,286.5,0.5,N
37.64924,62.24092,309,0.38,0.59,2019-09-06,20:54,N,nominal,1.0NRT,285.9,1.1,N
37.65474,62.24144,297.2,0.38,0.59,2019-09-06,20:54,N,nominal,1.0NRT,284.4,0.6,N
37.80011,59.03304,298.5,0.58,0.69,2019-09-06,20:54,N,nominal,1.0NRT,285.3,1,N
37.79957,59.03216,299.8,0.58,0.69,2019-09-06,20:54,N,nominal,1.0NRT,285.2,0.7,N
37.38042,66.71815,314.9,0.44,0.46,2019-09-06,20:54,N,nominal,1.0NRT,283.6,1.6,N
37.74128,62.07351,299.7,0.39,0.6,2019-09-06,20:54,N,nominal,1.0NRT,285,0.4,N
37.74385,62.12896,301.3,0.39,0.59,2019-09-06,20:54,N,nominal,1.0NRT,285.5,0.4,N
37.78153,62.52546,297.5,0.37,0.58,2019-09-06,20:54,N,nominal,1.0NRT,284,0.5,N
37.79746,62.55193,298.6,0.37,0.58,2019-09-06,20:54,N,nominal,1.0NRT,284,0.7,N
37.84692,61.60438,297.9,0.42,0.61,2019-09-06,20:54,N,nominal,1.0NRT,285.7,0.5,N
37.73156,65.50473,301.3,0.51,0.49,2019-09-06,20:54,N,nominal,1.0NRT,288,1.4,N
37.98906,61.87974,299.1,0.41,0.6,2019-09-06,20:54,N,nominal,1.0NRT,285.7,0.6,N
37.9612,62.66505,297.6,0.37,0.58,2019-09-06,20:54,N,nominal,1.0NRT,285.8,0.6,N
37.80155,65.19147,297.3,0.53,0.5,2019-09-06,20:54,N,nominal,1.0NRT,285.7,0.8,N
37.81652,65.18104,296.8,0.53,0.5,2019-09-06,20:54,N,nominal,1.0NRT,286.4,0.6,N
38.45255,65.80549,299.5,0.5,0.49,2019-09-06,20:54,N,nominal,1.0NRT,285.2,0.6,N
38.4459,66.39592,303.1,0.47,0.48,2019-09-06,20:54,N,nominal,1.0NRT,285.4,0.5,N
38.5071,65.98549,295.7,0.49,0.49,2019-09-06,20:54,N,nominal,1.0NRT,285.3,0.5,N
38.5601,65.95193,301.1,0.49,0.49,2019-09-06,20:54,N,nominal,1.0NRT,287.6,1.1,N
38.62435,66.06541,297.8,0.49,0.48,2019-09-06,20:54,N,nominal,1.0NRT,286.7,0.5,N
38.83369,63.8134,299.1,0.32,0.55,2019-09-06,20:54,N,nominal,1.0NRT,285.2,0.4,N
38.67871,65.96244,301.2,0.49,0.49,2019-09-06,20:54,N,nominal,1.0NRT,286.2,0.8,N
38.68575,65.98672,306.3,0.49,0.49,2019-09-06,20:54,N,nominal,1.0NRT,285.3,1.5,N
38.79953,64.64493,306.8,0.58,0.52,2019-09-06,20:54,N,nominal,1.0NRT,286.5,1.5,N
38.67978,65.96328,299.6,0.5,0.49,2019-09-06,20:54,N,nominal,1.0NRT,286.2,1.8,N
38.68244,65.98696,295.9,0.49,0.49,2019-09-06,20:54,N,nominal,1.0NRT,284.8,0.5,N
38.79729,64.6442,303.3,0.58,0.52,2019-09-06,20:54,N,nominal,1.0NRT,285.9,1.3,N
38.87338,63.79723,299.7,0.32,0.55,2019-09-06,20:54,N,nominal,1.0NRT,283.7,0.6,N
39.03993,63.64161,298.3,0.33,0.55,2019-09-06,20:54,N,nominal,1.0NRT,285,0.3,N
39.0667,63.38325,298.8,0.34,0.56,2019-09-06,20:54,N,nominal,1.0NRT,285.1,0.7,N
39.09499,63.43953,295.3,0.34,0.56,2019-09-06,20:54,N,nominal,1.0NRT,283.5,0.2,N
39.15804,62.58805,305.1,0.38,0.59,2019-09-06,20:54,N,nominal,1.0NRT,283.6,0.6,N
39.12959,63.47573,298.1,0.34,0.56,2019-09-06,20:54,N,nominal,1.0NRT,284.6,0.4,N
39.15488,63.31884,304.5,0.35,0.56,2019-09-06,20:54,N,nominal,1.0NRT,284.9,0.6,N
39.1879,65.28911,307.6,0.54,0.51,2019-09-06,20:54,N,nominal,1.0NRT,290.5,1.9,N
39.50039,64.69921,296.1,0.59,0.53,2019-09-06,20:54,N,nominal,1.0NRT,286,0.8,N
39.52144,76.06083,302.6,0.39,0.36,2019-09-06,20:54,N,nominal,1.0NRT,286.9,1.2,N
19.37724,56.15564,318.4,0.6,0.71,2019-09-06,21:00,N,nominal,1.0NRT,286.4,4.5,N
18.68819,55.49969,299.8,0.65,0.73,2019-09-06,21:00,N,nominal,1.0NRT,279.4,3.4,N
18.68585,55.50583,323.3,0.65,0.73,2019-09-06,21:00,N,nominal,1.0NRT,279.4,6.1,N
18.68641,55.49949,308.7,0.65,0.73,2019-09-06,21:00,N,nominal,1.0NRT,272.1,5.6,N
19.37988,56.15103,322.2,0.6,0.71,2019-09-06,21:00,N,nominal,1.0NRT,288.6,4.3,N
15.17691,77.10514,296.6,0.35,0.56,2019-09-06,21:00,N,nominal,1.0NRT,271,0.5,N
18.31819,55.09966,311.9,0.68,0.74,2019-09-06,21:00,N,nominal,1.0NRT,290.6,5.3,N
18.31859,55.09999,318.9,0.68,0.74,2019-09-06,21:00,N,nominal,1.0NRT,290.4,3.2,N
18.31799,55.10667,309.5,0.68,0.74,2019-09-06,21:00,N,nominal,1.0NRT,289.7,3.2,N
11.46984,77.5108,307.3,0.43,0.62,2019-09-06,21:00,N,nominal,1.0NRT,258.5,2.1,N
19.37329,56.15036,311.9,0.6,0.71,2019-09-06,21:00,N,nominal,1.0NRT,285,4.3,N
25.01222,55.05544,306.9,0.79,0.78,2019-09-06,21:00,N,nominal,1.0NRT,289.1,2.8,N
24.50408,56.60813,299,0.63,0.72,2019-09-06,21:00,N,nominal,1.0NRT,272.2,4.8,N
22.9364,69.69704,311.2,0.38,0.36,2019-09-06,21:00,N,nominal,1.0NRT,280,1,N
22.31523,69.85846,306.8,0.38,0.36,2019-09-06,21:00,N,nominal,1.0NRT,271.7,1.3,N
23.48271,58.28025,310.7,0.49,0.65,2019-09-06,21:00,N,nominal,1.0NRT,298.4,0.3,N
23.18715,55.45621,303.2,0.72,0.76,2019-09-06,21:00,N,nominal,1.0NRT,274.4,1.3,N
23.15212,55.44563,303.3,0.72,0.76,2019-09-06,21:00,N,nominal,1.0NRT,272,1.2,N
23.19061,55.45962,309.7,0.72,0.76,2019-09-06,21:00,N,nominal,1.0NRT,274.3,1.9,N
22.40499,56.98818,319.3,0.57,0.69,2019-09-06,21:00,N,nominal,1.0NRT,270.8,2.1,N
22.15911,56.02378,307.3,0.65,0.73,2019-09-06,21:00,N,nominal,1.0NRT,287.7,1.3,N
22.14212,56.06824,341.3,0.65,0.73,2019-09-06,21:00,N,nominal,1.0NRT,284.1,8.1,N
21.94342,56.0342,316.7,0.65,0.73,2019-09-06,21:00,N,nominal,1.0NRT,290.3,2.9,N
21.62787,56.16903,328.8,0.63,0.72,2019-09-06,21:00,N,nominal,1.0NRT,293.7,4.7,N
21.30256,57.79705,315.5,0.49,0.65,2019-09-06,21:00,N,nominal,1.0NRT,277.7,1.1,N
21.30255,57.7966,308.2,0.49,0.65,2019-09-06,21:00,N,nominal,1.0NRT,273.3,1.4,N
19.34577,71.30634,299.3,0.42,0.38,2019-09-06,21:00,N,nominal,1.0NRT,275.2,1.9,N
20.99778,57.61016,307.1,0.5,0.66,2019-09-06,21:00,N,nominal,1.0NRT,293.4,1.3,N
20.9854,56.77232,309,0.57,0.69,2019-09-06,21:00,N,nominal,1.0NRT,296.8,0.7,N
20.37515,55.93257,307.4,0.63,0.72,2019-09-06,21:00,N,nominal,1.0NRT,293.3,1.2,N
19.37774,56.14968,328.8,0.6,0.71,2019-09-06,21:00,N,nominal,1.0NRT,288.3,4.5,N
20.99869,57.61214,304.2,0.62,0.72,2019-09-06,22:36,N,nominal,1.0NRT,287.3,0.7,N
20.55707,56.42211,315.1,0.54,0.68,2019-09-06,22:36,N,nominal,1.0NRT,295.5,1.4,N
33.75312,59.14912,303.1,0.39,0.59,2019-09-06,22:36,N,nominal,1.0NRT,285,0.9,N
33.75278,59.1494,303.8,0.39,0.59,2019-09-06,22:36,N,nominal,1.0NRT,285,0.6,N
32.92131,60.23213,300.1,0.47,0.64,2019-09-06,22:36,N,nominal,1.0NRT,286,1,N
23.1533,55.44906,314.9,0.41,0.61,2019-09-06,22:36,N,nominal,1.0NRT,272.1,0.9,N
22.87812,55.92665,308.7,0.45,0.63,2019-09-06,22:36,N,nominal,1.0NRT,291.9,1.7,N
22.87844,55.92747,310,0.45,0.63,2019-09-06,22:36,N,nominal,1.0NRT,291.6,1.7,N
22.40368,56.98886,329.9,0.53,0.67,2019-09-06,22:36,N,nominal,1.0NRT,292.3,5.9,N
22.40611,56.98851,313.9,0.53,0.67,2019-09-06,22:36,N,nominal,1.0NRT,291.8,4.6,N
22.40488,56.99368,312.5,0.53,0.67,2019-09-06,22:36,N,nominal,1.0NRT,291.1,3.8,N
22.676,54.13075,305.8,0.35,0.57,2019-09-06,22:36,N,nominal,1.0NRT,293.2,0.8,N
22.5247,54.04957,310.8,0.35,0.57,2019-09-06,22:36,N,nominal,1.0NRT,292.6,1,N
21.6268,56.17109,317.9,0.49,0.65,2019-09-06,22:36,N,nominal,1.0NRT,294.8,1.9,N
21.62999,56.17512,311.1,0.49,0.65,2019-09-06,22:36,N,nominal,1.0NRT,294.7,2.4,N
39.49591,64.70116,321.5,0.53,0.67,2019-09-06,22:36,N,nominal,1.0NRT,285.9,2.2,N
39.49715,64.70227,329.8,0.53,0.67,2019-09-06,22:36,N,nominal,1.0NRT,286.2,3.7,N
39.18563,65.29043,305.7,0.58,0.7,2019-09-06,22:36,N,nominal,1.0NRT,288.6,2.3,N
39.185,65.29123,304.1,0.58,0.7,2019-09-06,22:36,N,nominal,1.0NRT,288.1,2.1,N
38.68242,65.98776,313.8,0.65,0.73,2019-09-06,22:36,N,nominal,1.0NRT,283.6,1.9,N
38.55637,65.95605,295,0.65,0.73,2019-09-06,22:36,N,nominal,1.0NRT,284.4,1.1,N
38.79745,64.64809,299.1,0.55,0.68,2019-09-06,22:36,N,nominal,1.0NRT,285.1,1.2,N
38.80032,64.65003,295.3,0.56,0.68,2019-09-06,22:36,N,nominal,1.0NRT,284.8,0.8,N
39.09412,63.43865,295.2,0.47,0.64,2019-09-06,22:36,N,nominal,1.0NRT,283.5,0.5,N
39.06761,63.38629,297.9,0.47,0.64,2019-09-06,22:36,N,nominal,1.0NRT,285.2,1,N
37.74369,62.13101,297.8,0.44,0.63,2019-09-06,22:36,N,nominal,1.0NRT,284.3,0.6,N
37.84518,61.60581,300.3,0.42,0.61,2019-09-06,22:36,N,nominal,1.0NRT,284.6,0.7,N
37.65464,62.24548,295.7,0.45,0.63,2019-09-06,22:36,N,nominal,1.0NRT,283.1,0.6,N
37.64908,62.24298,305.9,0.45,0.63,2019-09-06,22:36,N,nominal,1.0NRT,284.7,0.6,N
30.38108,55.86414,305.9,0.61,0.54,2019-09-06,22:36,N,nominal,1.0NRT,289,2,N
30.32404,55.97404,308,0.62,0.54,2019-09-06,22:36,N,nominal,1.0NRT,290.5,2.2,N
30.3236,55.97406,309.3,0.63,0.54,2019-09-06,22:36,N,nominal,1.0NRT,290.3,1.6,N
37.61609,62.13883,297.4,0.45,0.63,2019-09-06,22:36,N,nominal,1.0NRT,286.1,1,N
39.50962,54.33122,300.7,0.5,0.41,2019-09-06,22:36,N,nominal,1.0NRT,289.8,0.7,N
39.50972,54.3306,304,0.5,0.41,2019-09-06,22:36,N,nominal,1.0NRT,290,0.6,N
37.61676,62.1383,301.1,0.45,0.63,2019-09-06,22:36,N,nominal,1.0NRT,286.8,1.1,N
37.55497,61.9336,302.6,0.44,0.62,2019-09-06,22:36,N,nominal,1.0NRT,286.3,0.8,N
37.42322,62.31481,298.3,0.46,0.64,2019-09-06,22:36,N,nominal,1.0NRT,283.4,0.7,N
37.61089,61.57677,302.3,0.42,0.61,2019-09-06,22:36,N,nominal,1.0NRT,287.3,1.3,N
37.60519,61.5536,297.1,0.42,0.61,2019-09-06,22:36,N,nominal,1.0NRT,286.2,0.6,N
37.59056,61.5627,297.7,0.42,0.61,2019-09-06,22:36,N,nominal,1.0NRT,286.4,0.6,N
37.44641,62.07722,295.9,0.45,0.63,2019-09-06,22:36,N,nominal,1.0NRT,283.3,0.7,N
37.59409,61.52815,308.9,0.42,0.61,2019-09-06,22:36,N,nominal,1.0NRT,287.1,1.5,N
37.4997,61.84424,297.7,0.44,0.62,2019-09-06,22:36,N,nominal,1.0NRT,287.6,0.6,N
37.49835,61.84905,302.9,0.44,0.62,2019-09-06,22:36,N,nominal,1.0NRT,286.1,0.6,N
37.48189,61.84181,309.9,0.44,0.62,2019-09-06,22:36,N,nominal,1.0NRT,289.5,1.9,N
37.59122,61.52806,304.2,0.42,0.61,2019-09-06,22:36,N,nominal,1.0NRT,286.7,1.1,N
37.49723,61.85013,307.9,0.44,0.62,2019-09-06,22:36,N,nominal,1.0NRT,286,1.5,N
37.48077,61.84282,315.7,0.44,0.62,2019-09-06,22:36,N,nominal,1.0NRT,289.7,2.2,N
37.51068,61.01608,302.2,0.4,0.6,2019-09-06,22:36,N,nominal,1.0NRT,286.6,0.5,N
36.28275,64.87502,298.9,0.67,0.74,2019-09-06,22:36,N,nominal,1.0NRT,283.7,1,N
36.28054,64.8755,295.9,0.67,0.74,2019-09-06,22:36,N,nominal,1.0NRT,283.2,0.8,N
38.68156,54.31643,312.1,0.52,0.41,2019-09-06,22:36,N,nominal,1.0NRT,290.3,1.4,N
37.20681,60.45502,301.4,0.38,0.58,2019-09-06,22:36,N,nominal,1.0NRT,283.5,0.4,N
37.18679,59.99263,299.7,0.36,0.57,2019-09-06,22:36,N,nominal,1.0NRT,287.1,0.9,N
37.45306,57.68834,300.5,0.53,0.5,2019-09-06,22:36,N,nominal,1.0NRT,287.8,1.5,N
36.43891,61.22118,297.2,0.43,0.62,2019-09-06,22:36,N,nominal,1.0NRT,285.5,0.6,N
36.47948,59.74956,297.9,0.36,0.57,2019-09-06,22:36,N,nominal,1.0NRT,285.8,0.7,N
36.48136,59.74813,301.3,0.36,0.57,2019-09-06,22:36,N,nominal,1.0NRT,286.8,0.9,N
36.47625,59.74613,298.1,0.36,0.57,2019-09-06,22:36,N,nominal,1.0NRT,285.2,0.8,N
36.49336,59.3345,305.8,0.34,0.56,2019-09-06,22:36,N,nominal,1.0NRT,284.4,0.6,N
37.30005,55.54073,310.9,0.42,0.45,2019-09-06,22:36,N,nominal,1.0NRT,289.1,1,N
37.27643,55.04648,299.9,0.4,0.44,2019-09-06,22:36,N,nominal,1.0NRT,289.8,0.2,N
36.71795,56.8514,301.2,0.5,0.49,2019-09-06,22:36,N,nominal,1.0NRT,288.4,1.1,N
36.94553,54.88728,301.4,0.39,0.44,2019-09-06,22:36,N,nominal,1.0NRT,291.1,1.1,N
35.39303,60.43777,305.3,0.42,0.61,2019-09-06,22:36,N,nominal,1.0NRT,283.1,0.6,N
35.35618,60.21871,304,0.41,0.61,2019-09-06,22:36,N,nominal,1.0NRT,285.2,0.9,N
35.514,59.19992,297.5,0.36,0.57,2019-09-06,22:36,N,nominal,1.0NRT,282.3,0.6,N
35.51434,59.20183,296.3,0.36,0.57,2019-09-06,22:36,N,nominal,1.0NRT,282,0.3,N
32.63592,59.75796,295.5,0.45,0.63,2019-09-06,22:36,N,nominal,1.0NRT,283.7,0.7,N
32.3366,54.08806,301,0.44,0.46,2019-09-06,22:36,N,nominal,1.0NRT,289.2,0.5,N
27.16988,56.05534,318.2,0.37,0.58,2019-09-06,22:36,N,nominal,1.0NRT,290.9,4,N
31.84972,54.2831,305.2,0.46,0.47,2019-09-06,22:36,N,nominal,1.0NRT,292.1,1.4,N
31.84866,54.28795,312.6,0.47,0.47,2019-09-06,22:36,N,nominal,1.0NRT,295.4,1.4,N
31.62408,54.74454,304.5,0.5,0.49,2019-09-06,22:36,N,nominal,1.0NRT,293.2,1.2,N
30.23608,56.91087,313.6,0.36,0.57,2019-09-06,22:36,N,nominal,1.0NRT,290.8,1.7,N
30.23096,56.9092,303.1,0.36,0.57,2019-09-06,22:36,N,nominal,1.0NRT,289.5,1.2,N
30.3712,56.12909,305.5,0.32,0.54,2019-09-06,22:36,N,nominal,1.0NRT,289,1,N
30.35503,56.13089,299.5,0.32,0.54,2019-09-06,22:36,N,nominal,1.0NRT,288,0.4,N
29.98977,55.85446,344.1,0.63,0.54,2019-09-06,22:36,N,nominal,1.0NRT,287,10.4,N
29.99031,55.19832,300.9,0.57,0.52,2019-09-06,22:36,N,nominal,1.0NRT,290.2,1,N
29.20074,54.48525,297.9,0.54,0.51,2019-09-06,22:36,N,nominal,1.0NRT,287.3,1.3,N
25.90225,54.53292,336.4,0.32,0.54,2019-09-06,22:36,N,nominal,1.0NRT,294.8,7.3,N
25.90154,54.53608,351.8,0.32,0.54,2019-09-06,22:36,N,nominal,1.0NRT,293.5,5.7,N
25.8966,54.53476,326.6,0.32,0.54,2019-09-06,22:36,N,nominal,1.0NRT,294.2,4.6,N
25.59849,54.42444,330.8,0.32,0.54,2019-09-06,22:36,N,nominal,1.0NRT,298.3,2.1,N
25.59779,54.42759,330.9,0.32,0.54,2019-09-06,22:36,N,nominal,1.0NRT,298.7,2.1,N
25.34986,54.48758,318.2,0.33,0.55,2019-09-06,22:36,N,nominal,1.0NRT,297,1.2,N
24.506,56.60929,349.1,0.46,0.63,2019-09-06,22:36,N,nominal,1.0NRT,290.9,8.1,N
24.46735,56.61718,316.3,0.46,0.63,2019-09-06,22:36,N,nominal,1.0NRT,288.9,2.2,N
24.46797,56.62053,305.4,0.46,0.63,2019-09-06,22:36,N,nominal,1.0NRT,289.1,2.2,N
24.60621,54.15193,317.3,0.32,0.55,2019-09-06,22:36,N,nominal,1.0NRT,292.2,1.9,N
24.00561,55.44156,305.6,0.4,0.6,2019-09-06,22:36,N,nominal,1.0NRT,291.9,1.6,N
24.01916,54.29699,307.1,0.34,0.56,2019-09-06,22:36,N,nominal,1.0NRT,290,0.5,N
23.19188,55.45954,311,0.41,0.61,2019-09-06,22:36,N,nominal,1.0NRT,277.4,0.7,N
23.19097,55.46355,306.8,0.41,0.61,2019-09-06,22:36,N,nominal,1.0NRT,277,0.7,N
19.3736,56.50171,315.6,0.58,0.69,2019-09-06,22:42,N,nominal,1.0NRT,294,2.2,N
19.37285,56.49795,312,0.58,0.69,2019-09-06,22:42,N,nominal,1.0NRT,293.8,1.1,N
19.37158,56.50348,303.8,0.58,0.7,2019-09-06,22:42,N,nominal,1.0NRT,293.5,1.1,N
19.37606,56.15667,306.5,0.55,0.68,2019-09-06,22:42,N,nominal,1.0NRT,279.4,3.2,N
18.31843,55.10312,317.4,0.5,0.65,2019-09-06,22:42,N,nominal,1.0NRT,281.7,1.9,N
18.31737,55.10782,311.9,0.5,0.65,2019-09-06,22:42,N,nominal,1.0NRT,285.2,1.9,N
18.31711,55.10408,317.9,0.5,0.65,2019-09-06,22:42,N,nominal,1.0NRT,281.8,2.9,N
18.17038,55.25281,305.4,0.51,0.66,2019-09-06,22:42,N,nominal,1.0NRT,289.2,1.2,N
18.16904,55.25632,307.9,0.51,0.66,2019-09-06,22:42,N,nominal,1.0NRT,289,1.3,N
20.37513,55.93658,310.2,0.51,0.66,2019-09-06,22:42,N,nominal,1.0NRT,294.5,1.1,N
