latitude,longitude,bright_ti4,scan,track,acq_date,acq_time,satellite,confidence,version,bright_ti5,frp,daynight
15.83342,101.22561,337.8,0.57,0.43,2019-09-24,06:06,N,nominal,1.0NRT,298.9,6.1,D
14.31699,100.8305,330.4,0.42,0.45,2019-09-24,06:06,N,nominal,1.0NRT,295.2,6.1,D
14.07658,100.64774,336.8,0.44,0.46,2019-09-24,06:06,N,nominal,1.0NRT,291.7,5,D
18.3186,96.42667,347.6,0.34,0.56,2019-09-24,06:06,N,nominal,1.0NRT,283.8,6.9,D
18.31794,96.42348,326.6,0.34,0.56,2019-09-24,06:06,N,nominal,1.0NRT,283.2,2.3,D
18.87907,100.83417,332.5,0.54,0.42,2019-09-24,06:06,N,nominal,1.0NRT,296.4,13.7,D
17.96748,101.74201,336.8,0.5,0.41,2019-09-24,06:06,N,nominal,1.0NRT,297.3,5.2,D
17.78812,100.75987,332,0.57,0.43,2019-09-24,06:06,N,nominal,1.0NRT,296.5,4,D
16.75963,100.08283,333,0.43,0.46,2019-09-24,06:06,N,nominal,1.0NRT,295.2,2.8,D
16.4856,100.03438,339,0.44,0.46,2019-09-24,06:06,N,nominal,1.0NRT,294.4,3.2,D
16.48649,100.03401,335.5,0.44,0.46,2019-09-24,06:06,N,nominal,1.0NRT,294.3,2.3,D
16.40409,99.87061,329.8,0.45,0.47,2019-09-24,06:06,N,nominal,1.0NRT,292.7,2.8,D
16.40002,100.79184,332.5,0.39,0.44,2019-09-24,06:06,N,nominal,1.0NRT,297.7,2.7,D
16.15145,100.12749,336.7,0.44,0.46,2019-09-24,06:06,N,nominal,1.0NRT,295,3.8,D
15.83102,101.22421,345.3,0.57,0.43,2019-09-24,06:06,N,nominal,1.0NRT,300.1,7.2,D
39.84915,98.26518,345,0.39,0.36,2019-09-24,06:12,N,nominal,1.0NRT,313.6,4,D
20.05485,99.96124,326.2,0.39,0.44,2019-09-24,06:12,N,low,1.0NRT,300,1.3,D
19.50191,95.97882,326,0.35,0.57,2019-09-24,06:12,N,nominal,1.0NRT,288.6,1.5,D
20.71451,100.11685,333.5,0.55,0.43,2019-09-24,06:12,N,nominal,1.0NRT,293.3,4.8,D
21.90585,99.28707,327.1,0.39,0.44,2019-09-24,06:12,N,nominal,1.0NRT,289.8,2.4,D
34.13022,95.80232,340.2,0.56,0.43,2019-09-24,06:12,N,nominal,1.0NRT,288.7,9.4,D
36.58669,101.83244,325.1,0.39,0.36,2019-09-24,06:12,N,low,1.0NRT,295.9,0.5,D
36.08919,97.84876,333.8,0.43,0.38,2019-09-24,06:12,N,nominal,1.0NRT,301.2,2.3,D
36.78766,101.44134,328.3,0.39,0.36,2019-09-24,06:12,N,nominal,1.0NRT,295.7,2.4,D
36.79096,101.4406,333.6,0.39,0.36,2019-09-24,06:12,N,nominal,1.0NRT,295,2.4,D
38.56649,100.41341,334.4,0.38,0.36,2019-09-24,06:12,N,nominal,1.0NRT,301,2.8,D
39.84405,98.27608,334.7,0.39,0.36,2019-09-24,06:12,N,low,1.0NRT,308.5,2.7,D
38.85104,85.29789,338.7,0.5,0.66,2019-09-24,06:18,N,low,1.0NRT,311.4,3.2,D
21.10476,72.64302,328.4,0.48,0.48,2019-09-24,07:48,N,nominal,1.0NRT,293.7,10.9,D
19.36847,71.35413,336.7,0.63,0.54,2019-09-24,07:48,N,nominal,1.0NRT,290.6,9.3,D
19.36899,71.35342,333.9,0.63,0.54,2019-09-24,07:48,N,nominal,1.0NRT,290.1,4.7,D
22.03668,83.74628,331.3,0.52,0.41,2019-09-24,07:48,N,nominal,1.0NRT,289.8,4.2,D
21.10216,72.6532,341.8,0.48,0.48,2019-09-24,07:48,N,nominal,1.0NRT,293.4,9.8,D
21.10566,72.64764,342.8,0.48,0.48,2019-09-24,07:48,N,nominal,1.0NRT,294.3,13.6,D
21.10736,72.63279,331.2,0.48,0.48,2019-09-24,07:48,N,nominal,1.0NRT,294.3,7.4,D
29.76491,75.22478,342.9,0.41,0.37,2019-09-24,07:54,N,nominal,1.0NRT,294.2,3.7,D
31.45016,74.54492,336.5,0.41,0.37,2019-09-24,07:54,N,nominal,1.0NRT,295.9,3.4,D
31.56633,75.21363,335.3,0.4,0.37,2019-09-24,07:54,N,nominal,1.0NRT,298.2,5.7,D
31.52195,74.90578,332.6,0.4,0.37,2019-09-24,07:54,N,nominal,1.0NRT,298,3.5,D
31.55796,75.03759,352.2,0.4,0.37,2019-09-24,07:54,N,nominal,1.0NRT,299.2,10.4,D
31.56494,74.97486,330.1,0.4,0.37,2019-09-24,07:54,N,nominal,1.0NRT,298.1,1.6,D
31.62285,75.30444,331.6,0.4,0.37,2019-09-24,07:54,N,nominal,1.0NRT,297.1,3.8,D
23.78271,86.39264,333.5,0.52,0.5,2019-09-24,07:54,N,nominal,1.0NRT,282.4,4.6,D
26.09282,68.87801,331.1,0.33,0.55,2019-09-24,07:54,N,nominal,1.0NRT,297.6,2.4,D
28.11773,80.17557,332.7,0.42,0.38,2019-09-24,07:54,N,nominal,1.0NRT,293.2,6.4,D
29.11053,76.16515,338.9,0.39,0.37,2019-09-24,07:54,N,nominal,1.0NRT,300.4,8,D
29.60583,77.01788,331.6,0.38,0.36,2019-09-24,07:54,N,nominal,1.0NRT,296.2,2.8,D
29.67763,77.06859,339.1,0.38,0.36,2019-09-24,07:54,N,nominal,1.0NRT,298.7,4.6,D
29.68034,76.82323,332.9,0.39,0.36,2019-09-24,07:54,N,nominal,1.0NRT,295.8,2.6,D
29.77239,77.00074,334.3,0.38,0.36,2019-09-24,07:54,N,nominal,1.0NRT,297.7,2.9,D
29.79086,76.8786,330.6,0.39,0.36,2019-09-24,07:54,N,nominal,1.0NRT,295.8,2.5,D
29.79212,76.8211,346.5,0.39,0.36,2019-09-24,07:54,N,nominal,1.0NRT,299.8,6.6,D
29.81591,76.73852,337.2,0.39,0.36,2019-09-24,07:54,N,nominal,1.0NRT,296.2,3.1,D
29.86362,76.84747,331.9,0.39,0.36,2019-09-24,07:54,N,nominal,1.0NRT,296.6,3.7,D
29.87596,76.73027,347.4,0.39,0.36,2019-09-24,07:54,N,nominal,1.0NRT,300.7,12.2,D
29.93754,76.95091,345,0.38,0.36,2019-09-24,07:54,N,nominal,1.0NRT,297.6,6.3,D
29.94749,76.88455,335.8,0.38,0.36,2019-09-24,07:54,N,nominal,1.0NRT,299.7,2.4,D
29.87499,76.38173,337.5,0.39,0.36,2019-09-24,07:54,N,nominal,1.0NRT,295.8,3.1,D
29.98103,76.94717,334.5,0.38,0.36,2019-09-24,07:54,N,nominal,1.0NRT,296.3,4.9,D
29.98371,76.94254,333.9,0.38,0.36,2019-09-24,07:54,N,nominal,1.0NRT,293.6,4.9,D
30.01121,76.83469,334.5,0.38,0.36,2019-09-24,07:54,N,nominal,1.0NRT,296.1,3.3,D
30.05312,77.08388,338.8,0.38,0.36,2019-09-24,07:54,N,nominal,1.0NRT,297.6,4.2,D
31.04117,74.32683,342,0.42,0.38,2019-09-24,07:54,N,nominal,1.0NRT,301.4,5.9,D
31.0433,74.32831,331,0.42,0.38,2019-09-24,07:54,N,nominal,1.0NRT,299.9,3.7,D
31.07312,74.37619,335.6,0.42,0.38,2019-09-24,07:54,N,nominal,1.0NRT,300.4,4.3,D
31.08491,74.30027,332.2,0.42,0.38,2019-09-24,07:54,N,nominal,1.0NRT,299.2,2.3,D
31.38155,75.05429,338.2,0.4,0.37,2019-09-24,07:54,N,nominal,1.0NRT,298.5,8.3,D
31.43897,75.14217,332.6,0.4,0.37,2019-09-24,07:54,N,nominal,1.0NRT,298,3.6,D
31.41282,74.96503,342.4,0.4,0.37,2019-09-24,07:54,N,nominal,1.0NRT,298.3,15.6,D
31.38465,74.59066,333.7,0.41,0.37,2019-09-24,07:54,N,nominal,1.0NRT,297.5,2.9,D
31.46864,75.0485,337.5,0.4,0.37,2019-09-24,07:54,N,nominal,1.0NRT,297.8,3,D
31.49249,75.10838,330.1,0.4,0.37,2019-09-24,07:54,N,nominal,1.0NRT,298.6,7.2,D
31.49111,75.10001,330.1,0.4,0.37,2019-09-24,07:54,N,nominal,1.0NRT,296.8,10,D
31.49515,75.10344,344.7,0.4,0.37,2019-09-24,07:54,N,nominal,1.0NRT,302.6,10,D
31.50808,75.1396,331.2,0.4,0.37,2019-09-24,07:54,N,nominal,1.0NRT,296.5,1.9,D
31.50893,75.13998,337.9,0.4,0.37,2019-09-24,07:54,N,nominal,1.0NRT,297.2,4.5,D
31.50332,75.10652,333.6,0.4,0.37,2019-09-24,07:54,N,nominal,1.0NRT,298.1,3.2,D
31.51647,75.16428,336.5,0.4,0.37,2019-09-24,07:54,N,nominal,1.0NRT,299.2,5.4,D
31.50386,75.08901,333.2,0.4,0.37,2019-09-24,07:54,N,nominal,1.0NRT,299.1,3.6,D
31.51981,75.16354,330.6,0.4,0.37,2019-09-24,07:54,N,nominal,1.0NRT,296.7,2.8,D
31.465,74.81751,343.8,0.41,0.37,2019-09-24,07:54,N,nominal,1.0NRT,298,5.8,D
31.53573,75.13394,334.3,0.4,0.37,2019-09-24,07:54,N,nominal,1.0NRT,299.6,7.7,D
31.53503,75.12976,334.2,0.4,0.37,2019-09-24,07:54,N,nominal,1.0NRT,300.5,7.9,D
31.55284,75.19505,345.9,0.4,0.37,2019-09-24,07:54,N,nominal,1.0NRT,299,9.3,D
31.53881,75.08981,341,0.4,0.37,2019-09-24,07:54,N,nominal,1.0NRT,301.4,24.1,D
31.52672,74.99667,330.2,0.4,0.37,2019-09-24,07:54,N,nominal,1.0NRT,297.1,1.7,D
31.5396,74.7606,339.7,0.41,0.37,2019-09-24,07:54,N,nominal,1.0NRT,300.1,5.8,D
31.60332,75.1013,352.3,0.4,0.37,2019-09-24,07:54,N,nominal,1.0NRT,303.6,37.8,D
31.53031,74.64273,347.3,0.41,0.37,2019-09-24,07:54,N,nominal,1.0NRT,300.6,13.8,D
31.60448,75.06625,336.8,0.4,0.37,2019-09-24,07:54,N,nominal,1.0NRT,296.2,6.4,D
31.60379,75.06204,335.7,0.4,0.37,2019-09-24,07:54,N,nominal,1.0NRT,301.1,5.3,D
31.52135,74.56878,335.3,0.41,0.37,2019-09-24,07:54,N,nominal,1.0NRT,297.2,3,D
31.60509,75.06329,346.7,0.4,0.37,2019-09-24,07:54,N,nominal,1.0NRT,299.3,10.8,D
31.53312,74.63936,346.7,0.41,0.37,2019-09-24,07:54,N,nominal,1.0NRT,296.1,5.2,D
31.64163,75.21976,332.3,0.4,0.37,2019-09-24,07:54,N,nominal,1.0NRT,296.7,21.2,D
31.63931,75.16408,333.4,0.4,0.37,2019-09-24,07:54,N,nominal,1.0NRT,295.9,3.5,D
31.57846,74.80199,338,0.41,0.37,2019-09-24,07:54,N,nominal,1.0NRT,300.9,4.5,D
31.65569,75.22092,346.6,0.4,0.37,2019-09-24,07:54,N,nominal,1.0NRT,298.9,5.7,D
31.64947,75.18343,332.6,0.4,0.37,2019-09-24,07:54,N,nominal,1.0NRT,296.8,7.7,D
31.65904,75.22018,341.7,0.4,0.37,2019-09-24,07:54,N,nominal,1.0NRT,295.8,5.8,D
31.61642,74.96473,330.1,0.4,0.37,2019-09-24,07:54,N,nominal,1.0NRT,298.9,4.4,D
31.61572,74.96051,332.9,0.4,0.37,2019-09-24,07:54,N,nominal,1.0NRT,295.2,4.4,D
31.64422,75.08923,339.5,0.4,0.37,2019-09-24,07:54,N,nominal,1.0NRT,300.5,13,D
31.63847,75.03395,332.8,0.4,0.37,2019-09-24,07:54,N,nominal,1.0NRT,297.9,2.7,D
31.65344,75.06105,340.5,0.4,0.37,2019-09-24,07:54,N,nominal,1.0NRT,299.8,8.6,D
31.66376,75.1022,334.9,0.4,0.37,2019-09-24,07:54,N,nominal,1.0NRT,299.2,3.9,D
31.6547,75.04769,334.9,0.4,0.37,2019-09-24,07:54,N,nominal,1.0NRT,299.2,4.1,D
31.62948,74.62601,331.3,0.41,0.37,2019-09-24,07:54,N,nominal,1.0NRT,296,3.5,D
31.70291,75.02367,339,0.4,0.37,2019-09-24,07:54,N,nominal,1.0NRT,295.8,6.9,D
31.7383,74.89804,336.5,0.4,0.37,2019-09-24,07:54,N,nominal,1.0NRT,297.3,3.4,D
31.76553,74.93566,330.6,0.4,0.37,2019-09-24,07:54,N,nominal,1.0NRT,294.5,3.5,D
31.76483,74.93144,331.8,0.4,0.37,2019-09-24,07:54,N,nominal,1.0NRT,294.8,2.8,D
31.76184,74.89265,336.7,0.4,0.37,2019-09-24,07:54,N,nominal,1.0NRT,297.4,5.3,D
31.77576,74.95521,333.2,0.4,0.37,2019-09-24,07:54,N,nominal,1.0NRT,296.6,2,D
31.77967,74.93681,338.1,0.4,0.37,2019-09-24,07:54,N,nominal,1.0NRT,296.7,3.1,D
31.84125,75.0284,347.8,0.4,0.37,2019-09-24,07:54,N,nominal,1.0NRT,299.9,14.3,D
31.89819,74.21017,337.4,0.42,0.38,2019-09-24,07:54,N,nominal,1.0NRT,296.7,2.9,D
31.69192,70.76177,337.9,0.39,0.44,2019-09-24,07:54,N,nominal,1.0NRT,299.9,2.4,D
32.38873,72.14095,333.9,0.49,0.41,2019-09-24,07:54,N,nominal,1.0NRT,300.7,3.7,D
33.62737,67.73407,356.2,0.53,0.5,2019-09-24,07:54,N,nominal,1.0NRT,320.1,18.9,D
35.59803,74.09755,335.3,0.4,0.37,2019-09-24,07:54,N,nominal,1.0NRT,302.5,3.1,D
35.48486,73.16626,334.6,0.42,0.37,2019-09-24,07:54,N,low,1.0NRT,306,4.4,D
35.48398,73.16111,333.6,0.42,0.37,2019-09-24,07:54,N,nominal,1.0NRT,303.2,4.4,D
38.71457,77.63263,334.8,0.43,0.38,2019-09-24,07:54,N,nominal,1.0NRT,308.6,2.2,D
37.63564,67.60789,339.2,0.44,0.46,2019-09-24,07:54,N,nominal,1.0NRT,304.4,3.1,D
38.0543,65.94854,337.4,0.52,0.5,2019-09-24,07:54,N,nominal,1.0NRT,304.5,2,D
38.36971,66.34777,350.5,0.49,0.48,2019-09-24,07:54,N,nominal,1.0NRT,304.6,6.1,D
38.60197,64.75607,337.9,0.58,0.52,2019-09-24,07:54,N,nominal,1.0NRT,306.8,6,D
38.60661,64.75422,348,0.58,0.52,2019-09-24,07:54,N,nominal,1.0NRT,305.2,6,D
37.35255,59.72361,350.7,0.56,0.69,2019-09-24,07:54,N,nominal,1.0NRT,295.8,3.7,D
37.35547,59.72343,350.1,0.56,0.69,2019-09-24,07:54,N,nominal,1.0NRT,297,6,D
29.91944,76.08157,342.2,0.39,0.36,2019-09-24,07:54,N,nominal,1.0NRT,298.1,4.5,D
29.96007,76.31422,346.5,0.39,0.36,2019-09-24,07:54,N,nominal,1.0NRT,298.4,6.6,D
29.96221,76.31387,330.4,0.39,0.36,2019-09-24,07:54,N,nominal,1.0NRT,296,2.8,D
30.06799,76.94176,335.3,0.38,0.36,2019-09-24,07:54,N,nominal,1.0NRT,297,3.9,D
29.98033,76.08551,332.6,0.39,0.36,2019-09-24,07:54,N,nominal,1.0NRT,297.4,2,D
30.06416,76.5033,332.2,0.39,0.36,2019-09-24,07:54,N,nominal,1.0NRT,296.9,3.4,D
28.41999,67.86273,334.4,0.34,0.56,2019-09-24,07:54,N,nominal,1.0NRT,300.9,2.4,D
30.22586,77.1516,333.8,0.38,0.36,2019-09-24,07:54,N,nominal,1.0NRT,296.9,4.7,D
30.19856,76.84173,329.5,0.38,0.36,2019-09-24,07:54,N,nominal,1.0NRT,292.8,1.7,D
30.21815,76.79256,331,0.38,0.36,2019-09-24,07:54,N,nominal,1.0NRT,295.1,1.4,D
30.25665,76.88726,334.2,0.38,0.36,2019-09-24,07:54,N,nominal,1.0NRT,298,3.7,D
30.25994,76.88659,335.4,0.38,0.36,2019-09-24,07:54,N,nominal,1.0NRT,295.9,3.7,D
30.22258,76.60257,334.2,0.39,0.36,2019-09-24,07:54,N,nominal,1.0NRT,296.2,2.2,D
30.24739,76.44083,332.6,0.39,0.36,2019-09-24,07:54,N,nominal,1.0NRT,296.5,2.2,D
30.35464,77.0642,334.9,0.38,0.36,2019-09-24,07:54,N,nominal,1.0NRT,297,4.8,D
30.39967,77.02668,338.3,0.38,0.36,2019-09-24,07:54,N,nominal,1.0NRT,296.8,2.9,D
30.43611,76.88792,338.7,0.38,0.36,2019-09-24,07:54,N,nominal,1.0NRT,297.8,3.5,D
30.44007,76.82548,334.5,0.38,0.36,2019-09-24,07:54,N,nominal,1.0NRT,297.7,3.9,D
30.37684,75.93594,329.6,0.39,0.36,2019-09-24,07:54,N,nominal,1.0NRT,296.9,3.8,D
29.82759,72.80511,335.8,0.5,0.41,2019-09-24,07:54,N,nominal,1.0NRT,301.6,11.9,D
29.83131,72.80419,337.4,0.5,0.41,2019-09-24,07:54,N,nominal,1.0NRT,299.4,11.9,D
30.55112,76.97601,330.9,0.38,0.36,2019-09-24,07:54,N,nominal,1.0NRT,295.3,1.9,D
30.55051,76.97203,331.8,0.38,0.36,2019-09-24,07:54,N,nominal,1.0NRT,296.7,2.3,D
30.54854,76.91491,333,0.38,0.36,2019-09-24,07:54,N,nominal,1.0NRT,297.7,2.3,D
30.59238,76.80344,341,0.38,0.36,2019-09-24,07:54,N,nominal,1.0NRT,299.9,4.8,D
30.59692,76.81074,333.2,0.38,0.36,2019-09-24,07:54,N,nominal,1.0NRT,298.3,3.6,D
30.62,76.80598,344.4,0.38,0.36,2019-09-24,07:54,N,nominal,1.0NRT,300.2,6.7,D
30.06822,73.22254,333.5,0.48,0.4,2019-09-24,07:54,N,nominal,1.0NRT,299.4,5.7,D
30.65719,75.16892,340.7,0.4,0.37,2019-09-24,07:54,N,nominal,1.0NRT,301.4,25.9,D
30.44049,73.86351,332.1,0.45,0.39,2019-09-24,07:54,N,nominal,1.0NRT,298.7,1.2,D
30.43797,73.76776,338.2,0.45,0.39,2019-09-24,07:54,N,nominal,1.0NRT,298.6,3.9,D
30.55625,73.98076,337.9,0.44,0.38,2019-09-24,07:54,N,nominal,1.0NRT,300.1,4.9,D
30.54703,73.70476,332.3,0.45,0.39,2019-09-24,07:54,N,nominal,1.0NRT,298.2,2.3,D
30.54619,73.7001,334.2,0.45,0.39,2019-09-24,07:54,N,nominal,1.0NRT,299.4,2.8,D
30.60549,73.95017,335.9,0.44,0.38,2019-09-24,07:54,N,nominal,1.0NRT,298.9,3.1,D
30.55363,73.65939,333.2,0.45,0.39,2019-09-24,07:54,N,nominal,1.0NRT,300.8,5.6,D
30.55718,73.65854,347.5,0.45,0.39,2019-09-24,07:54,N,nominal,1.0NRT,301.9,5.6,D
30.60994,73.74789,336.5,0.45,0.39,2019-09-24,07:54,N,nominal,1.0NRT,299.1,7,D
30.66811,74.05825,334.5,0.44,0.38,2019-09-24,07:54,N,nominal,1.0NRT,298.8,2.5,D
30.66824,74.05938,335.2,0.44,0.38,2019-09-24,07:54,N,nominal,1.0NRT,298.4,2.8,D
30.61228,73.74876,333.6,0.45,0.39,2019-09-24,07:54,N,nominal,1.0NRT,298.8,3.9,D
30.66714,74.01256,334.5,0.44,0.38,2019-09-24,07:54,N,nominal,1.0NRT,299.1,4.1,D
30.63445,73.62691,342.7,0.45,0.39,2019-09-24,07:54,N,nominal,1.0NRT,300.1,8.7,D
30.74327,74.03232,330.9,0.44,0.38,2019-09-24,07:54,N,nominal,1.0NRT,295,2.7,D
30.69232,73.74416,334.6,0.45,0.39,2019-09-24,07:54,N,nominal,1.0NRT,298.6,3.4,D
30.66399,73.58558,340.7,0.45,0.39,2019-09-24,07:54,N,nominal,1.0NRT,300.6,4.4,D
30.66753,73.58473,332,0.45,0.39,2019-09-24,07:54,N,nominal,1.0NRT,298.5,4.4,D
30.68217,73.62522,333,0.45,0.39,2019-09-24,07:54,N,nominal,1.0NRT,296.1,5.8,D
30.74376,73.89015,331.5,0.44,0.38,2019-09-24,07:54,N,nominal,1.0NRT,297.8,3.1,D
30.76093,73.68095,336.9,0.45,0.39,2019-09-24,07:54,N,nominal,1.0NRT,298.2,3.1,D
30.80988,73.70797,332.3,0.45,0.39,2019-09-24,07:54,N,nominal,1.0NRT,298,1.3,D
30.84108,73.8016,333.5,0.44,0.39,2019-09-24,07:54,N,nominal,1.0NRT,298.6,2.8,D
30.83965,73.79854,338,0.44,0.39,2019-09-24,07:54,N,nominal,1.0NRT,299.9,4.9,D
30.92899,74.13615,330.9,0.43,0.38,2019-09-24,07:54,N,nominal,1.0NRT,298.9,3.8,D
31.04701,74.44405,341.2,0.42,0.38,2019-09-24,07:54,N,nominal,1.0NRT,298.4,5.1,D
23.15625,55.44768,351.5,0.41,0.37,2019-09-24,09:30,N,nominal,1.0NRT,318.6,8.7,D
23.15285,55.44823,352.4,0.41,0.37,2019-09-24,09:30,N,nominal,1.0NRT,320,8.7,D
22.15809,56.02515,346.7,0.41,0.37,2019-09-24,09:30,N,nominal,1.0NRT,313.8,1.3,D
18.68662,55.50731,340.6,0.39,0.36,2019-09-24,09:30,N,nominal,1.0NRT,308.6,3.2,D
18.03552,54.64091,340.9,0.38,0.36,2019-09-24,09:30,N,nominal,1.0NRT,310.2,3.6,D
18.03608,54.64452,343,0.38,0.36,2019-09-24,09:30,N,nominal,1.0NRT,311.6,8.5,D
18.03222,54.64146,339.5,0.38,0.36,2019-09-24,09:30,N,low,1.0NRT,310.6,3.6,D
18.03277,54.64508,342.5,0.38,0.36,2019-09-24,09:30,N,nominal,1.0NRT,311.9,8.5,D
27.16093,56.09938,338.7,0.46,0.39,2019-09-24,09:36,N,nominal,1.0NRT,308.6,10,D
27.16171,56.10053,343.8,0.46,0.39,2019-09-24,09:36,N,nominal,1.0NRT,309.1,10.4,D
27.16669,56.05235,348.9,0.46,0.39,2019-09-24,09:36,N,nominal,1.0NRT,310.9,9.9,D
27.17507,56.06047,343.1,0.46,0.39,2019-09-24,09:36,N,nominal,1.0NRT,310.1,8.1,D
27.38688,57.55363,338.1,0.54,0.42,2019-09-24,09:36,N,low,1.0NRT,312.9,4.4,D
37.42252,60.64099,343.4,0.35,0.57,2019-09-24,09:36,N,nominal,1.0NRT,300.5,3.9,D
37.70435,61.03643,332.6,0.37,0.58,2019-09-24,09:36,N,nominal,1.0NRT,301.7,1.5,D
39.24525,56.36679,338.9,0.43,0.46,2019-09-24,09:36,N,nominal,1.0NRT,305.5,3.7,D
39.24902,56.36115,341.4,0.43,0.46,2019-09-24,09:36,N,nominal,1.0NRT,306.1,31.8,D
39.24948,56.36617,353.9,0.43,0.46,2019-09-24,09:36,N,nominal,1.0NRT,309.5,31.8,D
38.53848,57.47675,341.8,0.48,0.48,2019-09-24,09:36,N,nominal,1.0NRT,303.4,4.6,D
25.70341,54.30293,332.8,0.39,0.37,2019-09-24,09:36,N,nominal,1.0NRT,302.6,1.9,D
25.90054,54.53288,341.6,0.4,0.37,2019-09-24,09:36,N,low,1.0NRT,315,8.8,D
25.90391,54.5323,343.7,0.4,0.37,2019-09-24,09:36,N,low,1.0NRT,315.7,12.7,D
26.85129,55.85139,350.6,0.45,0.39,2019-09-24,09:36,N,nominal,1.0NRT,315.7,17,D
27.16404,56.93775,348.4,0.5,0.41,2019-09-24,09:36,N,nominal,1.0NRT,310.7,9.8,D
27.16401,56.93506,341,0.5,0.41,2019-09-24,09:36,N,low,1.0NRT,311.1,9.4,D
38.25513,58.39021,341.9,0.53,0.5,2019-09-24,09:36,N,nominal,1.0NRT,302.6,6.5,D
38.60342,64.76061,341.3,0.59,0.7,2019-09-24,09:36,N,nominal,1.0NRT,300,4.4,D
38.6076,64.75805,342,0.59,0.7,2019-09-24,09:36,N,nominal,1.0NRT,298.2,3,D
38.32383,57.76517,338.4,0.49,0.49,2019-09-24,09:36,N,nominal,1.0NRT,301.6,3.1,D
39.84527,98.27636,307.8,0.35,0.57,2019-09-24,18:36,N,nominal,1.0NRT,282.9,1.1,N
39.8237,98.28269,299.4,0.35,0.57,2019-09-24,18:36,N,nominal,1.0NRT,288.7,1.1,N
39.82066,98.24083,301.7,0.35,0.57,2019-09-24,18:36,N,nominal,1.0NRT,284.1,0.7,N
39.83644,98.26995,297.1,0.35,0.57,2019-09-24,18:36,N,nominal,1.0NRT,283.7,0.6,N
39.81408,98.28873,300.8,0.35,0.57,2019-09-24,18:36,N,nominal,1.0NRT,285.6,0.9,N
39.80857,98.29234,297.1,0.35,0.57,2019-09-24,18:36,N,nominal,1.0NRT,285.9,0.9,N
38.74856,101.10462,304,0.48,0.48,2019-09-24,18:36,N,nominal,1.0NRT,280.2,1.2,N
29.2619,91.92351,299.5,0.66,0.73,2019-09-24,18:36,N,nominal,1.0NRT,277.4,2.8,N
23.45714,100.39889,298,0.53,0.42,2019-09-24,18:36,N,nominal,1.0NRT,273.3,1.5,N
39.83494,98.27125,300.2,0.35,0.57,2019-09-24,18:36,N,nominal,1.0NRT,283.9,0.6,N
21.95211,99.63816,299.1,0.56,0.43,2019-09-24,18:36,N,nominal,1.0NRT,286.3,0.6,N
39.85101,98.26852,332.2,0.35,0.57,2019-09-24,18:36,N,nominal,1.0NRT,285.1,1.8,N
39.85125,98.26434,304.5,0.35,0.57,2019-09-24,18:36,N,nominal,1.0NRT,282,1.8,N
14.62992,101.10038,312.5,0.41,0.37,2019-09-24,18:42,N,nominal,1.0NRT,291.8,0.6,N
12.65193,101.30221,309.1,0.39,0.36,2019-09-24,18:42,N,nominal,1.0NRT,291.5,1.2,N
14.62652,101.09983,304.3,0.41,0.37,2019-09-24,18:42,N,nominal,1.0NRT,290.4,0.6,N
14.62481,101.088,306.9,0.41,0.37,2019-09-24,18:42,N,nominal,1.0NRT,291.1,1.3,N
14.5689,100.76404,313.5,0.42,0.37,2019-09-24,18:42,N,nominal,1.0NRT,292.4,2.2,N
14.63331,101.07784,309,0.41,0.37,2019-09-24,18:42,N,nominal,1.0NRT,291,2,N
14.67442,100.80345,305.6,0.42,0.37,2019-09-24,18:42,N,nominal,1.0NRT,292.2,1.7,N
14.64925,101.04144,307.1,0.41,0.37,2019-09-24,18:42,N,nominal,1.0NRT,290.6,1.5,N
13.11339,100.91009,310.4,0.4,0.37,2019-09-24,18:42,N,nominal,1.0NRT,292.8,1.6,N
39.55386,82.76003,304.7,0.39,0.36,2019-09-24,20:12,N,nominal,1.0NRT,281.8,0.7,N
38.20715,90.97428,295.9,0.43,0.46,2019-09-24,20:12,N,nominal,1.0NRT,271.4,0.8,N
37.00714,98.81401,296,0.58,0.69,2019-09-24,20:12,N,nominal,1.0NRT,273,1.1,N
37.00923,98.81467,301,0.58,0.69,2019-09-24,20:12,N,nominal,1.0NRT,274.4,1.8,N
39.81136,98.29681,297.8,0.45,0.63,2019-09-24,20:12,N,nominal,1.0NRT,287,1.4,N
39.81285,98.2916,296.7,0.45,0.63,2019-09-24,20:12,N,nominal,1.0NRT,286.4,1.8,N
39.84109,98.25906,296.8,0.45,0.63,2019-09-24,20:12,N,nominal,1.0NRT,283.2,1.2,N
39.84215,98.27722,306.3,0.45,0.63,2019-09-24,20:12,N,nominal,1.0NRT,282.1,1.2,N
39.85201,98.26473,298.8,0.45,0.63,2019-09-24,20:12,N,nominal,1.0NRT,281.2,9.3,N
39.85056,98.26981,367,0.45,0.63,2019-09-24,20:12,N,high,1.0NRT,288.2,12.3,N
38.85103,85.29917,327.1,0.39,0.36,2019-09-24,20:12,N,nominal,1.0NRT,283.8,2.2,N
38.99295,83.81543,295.4,0.38,0.36,2019-09-24,20:12,N,nominal,1.0NRT,282,0.2,N
39.17926,77.82125,306.1,0.38,0.43,2019-09-24,20:12,N,nominal,1.0NRT,283,0.6,N
39.17879,77.82571,295.5,0.38,0.43,2019-09-24,20:12,N,nominal,1.0NRT,283.2,0.6,N
39.24261,83.49296,300.1,0.39,0.36,2019-09-24,20:12,N,nominal,1.0NRT,282.8,0.7,N
39.24328,83.48852,303.5,0.39,0.36,2019-09-24,20:12,N,nominal,1.0NRT,282.7,0.7,N
39.55321,82.76457,301.3,0.39,0.36,2019-09-24,20:12,N,nominal,1.0NRT,282.2,0.7,N
39.68031,82.75499,309.2,0.39,0.37,2019-09-24,20:12,N,nominal,1.0NRT,283.7,0.7,N
33.14146,73.15793,308,0.58,0.52,2019-09-24,20:18,N,nominal,1.0NRT,291.3,0.9,N
25.38721,68.57799,305.8,0.46,0.63,2019-09-24,20:18,N,nominal,1.0NRT,290.4,0.9,N
25.15561,76.17725,304,0.48,0.4,2019-09-24,20:18,N,nominal,1.0NRT,289.7,0.7,N
25.15931,76.17784,303.6,0.48,0.4,2019-09-24,20:18,N,nominal,1.0NRT,289.6,0.7,N
24.56436,81.00335,308.2,0.39,0.36,2019-09-24,20:18,N,nominal,1.0NRT,291.5,1.6,N
26.09257,68.87766,306,0.44,0.63,2019-09-24,20:18,N,nominal,1.0NRT,292,1,N
28.76365,77.12799,306.4,0.48,0.4,2019-09-24,20:18,N,nominal,1.0NRT,290.9,0.7,N
28.8257,77.01538,304.3,0.48,0.4,2019-09-24,20:18,N,nominal,1.0NRT,290.7,0.6,N
29.0042,77.24415,308.7,0.47,0.4,2019-09-24,20:18,N,nominal,1.0NRT,290.8,0.9,N
32.38829,72.14237,326.5,0.33,0.55,2019-09-24,20:18,N,nominal,1.0NRT,292.9,2.4,N
29.26304,91.92429,295.8,0.38,0.59,2019-09-24,20:18,N,nominal,1.0NRT,279.6,1.3,N
32.71596,72.7766,302.4,0.61,0.53,2019-09-24,20:18,N,nominal,1.0NRT,290.5,1,N
33.13912,73.15696,307.1,0.58,0.52,2019-09-24,20:18,N,nominal,1.0NRT,291.1,1.1,N
36.99724,80.19533,299.8,0.44,0.38,2019-09-24,20:18,N,nominal,1.0NRT,286.6,1.5,N
38.63456,68.77255,298.1,0.57,0.69,2019-09-24,20:18,N,nominal,1.0NRT,287.9,0.8,N
22.41555,69.03776,300.5,0.4,0.6,2019-09-24,20:18,N,nominal,1.0NRT,274.9,0.5,N
25.14172,66.9126,304.2,0.57,0.69,2019-09-24,20:18,N,nominal,1.0NRT,288.4,2.1,N
25.38684,68.58266,307.3,0.46,0.63,2019-09-24,20:18,N,nominal,1.0NRT,290.2,0.9,N
11.81773,77.91786,303.9,0.39,0.36,2019-09-24,20:24,N,nominal,1.0NRT,285.4,1,N
13.15922,80.28527,300.8,0.46,0.39,2019-09-24,20:24,N,nominal,1.0NRT,273.2,1,N
11.80988,77.92394,309.2,0.39,0.36,2019-09-24,20:24,N,nominal,1.0NRT,286,1,N
11.3025,79.80595,305.1,0.46,0.39,2019-09-24,20:24,N,nominal,1.0NRT,287.5,0.7,N
11.30608,79.80657,303.6,0.46,0.39,2019-09-24,20:24,N,nominal,1.0NRT,287.4,0.7,N
39.16882,63.276,300,0.48,0.4,2019-09-24,21:54,N,nominal,1.0NRT,285.3,0.5,N
39.12975,63.47512,297.5,0.49,0.4,2019-09-24,21:54,N,nominal,1.0NRT,284.9,0.5,N
39.16843,63.25838,309.5,0.48,0.4,2019-09-24,21:54,N,nominal,1.0NRT,287.2,1.7,N
39.15662,63.31875,298.3,0.48,0.4,2019-09-24,21:54,N,nominal,1.0NRT,285.5,0.8,N
38.56433,65.95269,298.9,0.43,0.46,2019-09-24,21:54,N,nominal,1.0NRT,288.3,0.5,N
39.0561,63.55222,296.8,0.5,0.41,2019-09-24,21:54,N,nominal,1.0NRT,286,0.6,N
39.03791,63.64261,301,0.5,0.41,2019-09-24,21:54,N,nominal,1.0NRT,285.9,0.7,N
38.44604,66.39709,296,0.46,0.47,2019-09-24,21:54,N,nominal,1.0NRT,283.1,1.8,N
39.05443,63.44427,296.4,0.49,0.4,2019-09-24,21:54,N,nominal,1.0NRT,277.1,0.8,N
39.03051,63.54373,305.8,0.5,0.41,2019-09-24,21:54,N,nominal,1.0NRT,286,1,N
38.79769,64.64638,299.7,0.56,0.43,2019-09-24,21:54,N,nominal,1.0NRT,287.3,0.7,N
38.98612,63.58916,296.3,0.5,0.41,2019-09-24,21:54,N,nominal,1.0NRT,286.1,1,N
38.98586,63.58827,296.1,0.5,0.41,2019-09-24,21:54,N,nominal,1.0NRT,285.9,0.9,N
38.87224,63.80053,305.6,0.51,0.41,2019-09-24,21:54,N,nominal,1.0NRT,285.6,1.6,N
38.0504,65.94794,339.7,0.44,0.46,2019-09-24,21:54,N,nominal,1.0NRT,292.8,4.9,N
38.05252,65.94742,339.9,0.44,0.46,2019-09-24,21:54,N,nominal,1.0NRT,292.5,3.1,N
38.0484,65.94569,305.9,0.44,0.46,2019-09-24,21:54,N,nominal,1.0NRT,289.8,3.1,N
38.38021,64.30108,318.6,0.55,0.43,2019-09-24,21:54,N,nominal,1.0NRT,286.2,2.1,N
38.37638,64.29978,317.1,0.55,0.43,2019-09-24,21:54,N,nominal,1.0NRT,285.6,2.1,N
38.3751,64.30595,296.9,0.55,0.43,2019-09-24,21:54,N,nominal,1.0NRT,285.6,2.1,N
38.58773,62.85135,300.5,0.47,0.4,2019-09-24,21:54,N,nominal,1.0NRT,287.7,0.8,N
38.58817,62.85017,298.5,0.47,0.4,2019-09-24,21:54,N,nominal,1.0NRT,287.1,0.7,N
37.90262,65.1071,297.6,0.41,0.45,2019-09-24,21:54,N,nominal,1.0NRT,287.3,0.4,N
39.34923,56.00767,295.2,0.42,0.38,2019-09-24,21:54,N,nominal,1.0NRT,284.7,1,N
39.34858,56.01254,296,0.42,0.38,2019-09-24,21:54,N,nominal,1.0NRT,284.3,1,N
39.34514,56.01177,325.1,0.42,0.38,2019-09-24,21:54,N,nominal,1.0NRT,285.5,1,N
39.3502,55.72985,309.4,0.43,0.38,2019-09-24,21:54,N,nominal,1.0NRT,285.3,1.2,N
39.5078,54.32934,303.1,0.48,0.4,2019-09-24,21:54,N,nominal,1.0NRT,291.8,0.6,N
39.23962,56.07134,295.7,0.42,0.37,2019-09-24,21:54,N,nominal,1.0NRT,283.7,0.4,N
39.27505,55.41842,309.1,0.44,0.38,2019-09-24,21:54,N,nominal,1.0NRT,288.1,1.4,N
39.27089,55.42273,304.9,0.44,0.38,2019-09-24,21:54,N,nominal,1.0NRT,288.4,0.9,N
39.66426,66.83578,298.8,0.45,0.47,2019-09-24,21:54,N,nominal,1.0NRT,286.7,0.4,N
39.18726,65.28883,312.3,0.39,0.44,2019-09-24,21:54,N,nominal,1.0NRT,288.7,2.6,N
39.18704,65.28643,299.6,0.39,0.44,2019-09-24,21:54,N,nominal,1.0NRT,282,1,N
39.1861,65.29086,298,0.39,0.44,2019-09-24,21:54,N,nominal,1.0NRT,284.5,1,N
38.6852,65.9885,308.2,0.43,0.46,2019-09-24,21:54,N,nominal,1.0NRT,287.2,1,N
39.24118,63.31262,295.9,0.48,0.4,2019-09-24,21:54,N,nominal,1.0NRT,285.3,0.5,N
39.24998,63.17044,296.3,0.48,0.4,2019-09-24,21:54,N,nominal,1.0NRT,285.7,0.8,N
38.62333,66.06584,295.3,0.44,0.46,2019-09-24,21:54,N,nominal,1.0NRT,283.7,1,N
39.19829,63.19973,296.7,0.48,0.4,2019-09-24,21:54,N,nominal,1.0NRT,286,0.3,N
39.18418,63.27057,299,0.48,0.4,2019-09-24,21:54,N,nominal,1.0NRT,284.7,1,N
39.17226,63.27248,305.5,0.48,0.4,2019-09-24,21:54,N,nominal,1.0NRT,286.3,1.3,N
39.1312,63.47667,296,0.49,0.4,2019-09-24,21:54,N,nominal,1.0NRT,285.1,0.7,N
37.98928,61.88136,308.7,0.44,0.39,2019-09-24,21:54,N,nominal,1.0NRT,287.4,1.2,N
37.7974,62.55108,312.8,0.47,0.4,2019-09-24,21:54,N,nominal,1.0NRT,286.9,1.8,N
38.64488,57.06075,302.7,0.39,0.37,2019-09-24,21:54,N,nominal,1.0NRT,285.8,0.6,N
38.64154,57.05996,299.7,0.39,0.37,2019-09-24,21:54,N,nominal,1.0NRT,285.5,0.6,N
37.84289,61.60568,309.2,0.44,0.38,2019-09-24,21:54,N,nominal,1.0NRT,285.1,2.2,N
37.74273,62.13062,310.2,0.46,0.39,2019-09-24,21:54,N,nominal,1.0NRT,288,1.4,N
37.74199,62.12896,309.8,0.46,0.39,2019-09-24,21:54,N,nominal,1.0NRT,287.3,1.3,N
37.74104,62.07469,302.1,0.46,0.39,2019-09-24,21:54,N,nominal,1.0NRT,280.1,1.2,N
37.72563,62.09695,304.9,0.46,0.39,2019-09-24,21:54,N,nominal,1.0NRT,286.8,1.1,N
37.74778,61.84214,302.1,0.45,0.39,2019-09-24,21:54,N,nominal,1.0NRT,286.7,0.8,N
37.66889,62.23717,305.4,0.46,0.39,2019-09-24,21:54,N,nominal,1.0NRT,287.7,1.1,N
37.66079,62.24015,298.9,0.46,0.39,2019-09-24,21:54,N,nominal,1.0NRT,286.4,1.2,N
37.65624,62.24423,315,0.46,0.39,2019-09-24,21:54,N,nominal,1.0NRT,286.5,1.2,N
37.64914,62.24206,305.2,0.46,0.39,2019-09-24,21:54,N,nominal,1.0NRT,286.6,1.2,N
38.4348,57.45312,304.1,0.39,0.36,2019-09-24,21:54,N,nominal,1.0NRT,287.8,0.8,N
38.43149,57.45232,309.4,0.39,0.36,2019-09-24,21:54,N,nominal,1.0NRT,287.6,0.8,N
37.61916,62.13778,315.7,0.46,0.39,2019-09-24,21:54,N,nominal,1.0NRT,289.5,1.8,N
38.40592,57.4706,297.5,0.39,0.36,2019-09-24,21:54,N,nominal,1.0NRT,285.8,0.5,N
37.65528,61.90706,303.2,0.45,0.39,2019-09-24,21:54,N,nominal,1.0NRT,287.3,1,N
38.25513,58.38916,331.1,0.38,0.36,2019-09-24,21:54,N,nominal,1.0NRT,293,4.4,N
38.25444,58.39352,303.1,0.38,0.36,2019-09-24,21:54,N,nominal,1.0NRT,290.3,2.4,N
37.55688,61.93603,303,0.45,0.39,2019-09-24,21:54,N,nominal,1.0NRT,287.2,1.4,N
37.61602,61.60646,300.4,0.44,0.38,2019-09-24,21:54,N,nominal,1.0NRT,285.4,0.8,N
37.61606,61.61003,303,0.44,0.38,2019-09-24,21:54,N,nominal,1.0NRT,286.1,0.8,N
37.55563,61.93417,308.8,0.45,0.39,2019-09-24,21:54,N,nominal,1.0NRT,288.8,1.3,N
38.22255,57.98898,308.9,0.38,0.36,2019-09-24,21:54,N,nominal,1.0NRT,287.5,0.8,N
37.61457,61.57846,302.1,0.44,0.38,2019-09-24,21:54,N,nominal,1.0NRT,289.2,1,N
37.60911,61.60796,303.4,0.44,0.38,2019-09-24,21:54,N,nominal,1.0NRT,288.8,1.2,N
37.6111,61.57743,305.2,0.44,0.38,2019-09-24,21:54,N,nominal,1.0NRT,289,2.3,N
37.70628,61.03701,306.2,0.42,0.38,2019-09-24,21:54,N,nominal,1.0NRT,287.5,1.8,N
38.14894,58.39631,295.9,0.38,0.36,2019-09-24,21:54,N,nominal,1.0NRT,285.6,0.6,N
38.20872,57.9901,301.8,0.38,0.36,2019-09-24,21:54,N,nominal,1.0NRT,285.7,0.5,N
37.60431,61.55472,311.2,0.44,0.38,2019-09-24,21:54,N,nominal,1.0NRT,288.8,1.4,N
38.7047,54.3632,306.2,0.47,0.4,2019-09-24,21:54,N,nominal,1.0NRT,289.3,1.1,N
37.59844,61.52714,297.8,0.44,0.38,2019-09-24,21:54,N,nominal,1.0NRT,285.5,0.8,N
37.59497,61.52612,313,0.44,0.38,2019-09-24,21:54,N,nominal,1.0NRT,286,0.8,N
37.59406,61.53102,298.8,0.44,0.38,2019-09-24,21:54,N,nominal,1.0NRT,284.7,0.8,N
37.5886,61.56042,314.8,0.44,0.38,2019-09-24,21:54,N,nominal,1.0NRT,288.6,1.8,N
37.5906,61.52999,303.2,0.44,0.38,2019-09-24,21:54,N,nominal,1.0NRT,285.5,1.1,N
38.19165,57.96775,302.1,0.38,0.36,2019-09-24,21:54,N,nominal,1.0NRT,286.1,0.8,N
38.68081,54.31404,308.7,0.47,0.4,2019-09-24,21:54,N,nominal,1.0NRT,289.3,0.7,N
37.4807,61.97583,297,0.45,0.39,2019-09-24,21:54,N,nominal,1.0NRT,285.6,0.8,N
37.49866,61.8426,302.4,0.45,0.39,2019-09-24,21:54,N,nominal,1.0NRT,289.7,1.1,N
37.4977,61.84762,310.9,0.45,0.39,2019-09-24,21:54,N,nominal,1.0NRT,288.6,1.1,N
38.64758,54.27964,336.1,0.47,0.4,2019-09-24,21:54,N,nominal,1.0NRT,290.9,4.2,N
37.73637,60.41168,296.5,0.41,0.37,2019-09-24,21:54,N,nominal,1.0NRT,284.3,0.9,N
37.48788,60.46033,315.8,0.41,0.37,2019-09-24,21:54,N,nominal,1.0NRT,288.5,1.3,N
37.32717,61.09647,305.4,0.43,0.38,2019-09-24,21:54,N,nominal,1.0NRT,287.1,1,N
37.3881,60.46812,297.7,0.41,0.37,2019-09-24,21:54,N,nominal,1.0NRT,287.3,0.4,N
37.18569,59.9943,313.6,0.4,0.37,2019-09-24,21:54,N,nominal,1.0NRT,288.8,1.1,N
37.0218,60.91261,296.7,0.43,0.38,2019-09-24,21:54,N,nominal,1.0NRT,284.6,0.4,N
37.45434,57.68513,305,0.39,0.36,2019-09-24,21:54,N,nominal,1.0NRT,287.9,1.1,N
37.45368,57.68946,308.4,0.39,0.36,2019-09-24,21:54,N,nominal,1.0NRT,287.9,0.6,N
37.34086,58.04836,304.5,0.38,0.36,2019-09-24,21:54,N,nominal,1.0NRT,287.5,1.1,N
36.43936,61.21958,313.4,0.44,0.38,2019-09-24,21:54,N,nominal,1.0NRT,289.1,1.4,N
36.48153,59.74771,305.3,0.4,0.37,2019-09-24,21:54,N,nominal,1.0NRT,287.6,0.8,N
36.47818,59.74683,299.8,0.4,0.37,2019-09-24,21:54,N,nominal,1.0NRT,286.4,0.8,N
36.49715,59.33356,299.6,0.39,0.37,2019-09-24,21:54,N,nominal,1.0NRT,286.1,0.5,N
36.49383,59.33269,297.6,0.39,0.37,2019-09-24,21:54,N,nominal,1.0NRT,285.4,0.5,N
36.23833,59.72982,298.6,0.4,0.37,2019-09-24,21:54,N,nominal,1.0NRT,285.3,1.1,N
36.34549,58.67947,316,0.39,0.36,2019-09-24,21:54,N,nominal,1.0NRT,290,1.3,N
39.16833,63.25373,300.9,0.48,0.4,2019-09-24,21:54,N,nominal,1.0NRT,286.5,0.9,N
39.16724,63.2592,305.9,0.48,0.4,2019-09-24,21:54,N,nominal,1.0NRT,286.4,1.3,N
39.15515,63.31943,303.2,0.48,0.4,2019-09-24,21:54,N,nominal,1.0NRT,286.1,0.9,N
22.15873,56.02466,330.4,0.41,0.37,2019-09-24,22:00,N,nominal,1.0NRT,296.4,3.6,N
32.72095,72.92532,300.4,0.7,0.75,2019-09-24,22:00,N,nominal,1.0NRT,288.8,1.1,N
36.16482,57.6861,328.2,0.38,0.36,2019-09-24,22:00,N,nominal,1.0NRT,290.6,2.4,N
36.47948,54.90387,300.3,0.43,0.38,2019-09-24,22:00,N,nominal,1.0NRT,288,0.4,N
36.35456,54.12036,296.1,0.45,0.39,2019-09-24,22:00,N,nominal,1.0NRT,284.8,0.3,N
36.3207,54.18608,295.8,0.45,0.39,2019-09-24,22:00,N,nominal,1.0NRT,283.9,0.5,N
35.31583,59.48736,300.1,0.4,0.37,2019-09-24,22:00,N,nominal,1.0NRT,289.1,0.6,N
33.75282,59.14537,312.5,0.41,0.37,2019-09-24,22:00,N,nominal,1.0NRT,286.1,1.2,N
33.75206,59.14973,302.3,0.41,0.37,2019-09-24,22:00,N,nominal,1.0NRT,286.1,1.2,N
32.92418,60.23247,300,0.45,0.39,2019-09-24,22:00,N,nominal,1.0NRT,289.2,0.7,N
32.63614,59.75782,296.5,0.44,0.38,2019-09-24,22:00,N,nominal,1.0NRT,284.3,0.8,N
33.042,56.85017,315.5,0.38,0.36,2019-09-24,22:00,N,nominal,1.0NRT,296.8,1.2,N
29.51127,55.7972,300.4,0.38,0.36,2019-09-24,22:00,N,nominal,1.0NRT,290.3,0.2,N
29.52554,55.59703,306,0.38,0.36,2019-09-24,22:00,N,nominal,1.0NRT,291.2,0.8,N
32.33436,54.0844,311.8,0.42,0.38,2019-09-24,22:00,N,nominal,1.0NRT,289.2,1.2,N
32.33375,54.08886,299,0.42,0.38,2019-09-24,22:00,N,nominal,1.0NRT,288.5,0.6,N
31.95042,54.02072,309.9,0.42,0.38,2019-09-24,22:00,N,nominal,1.0NRT,294.5,1.2,N
31.93989,54.04588,321.7,0.42,0.38,2019-09-24,22:00,N,nominal,1.0NRT,295.3,1.7,N
31.93706,54.04085,311,0.42,0.38,2019-09-24,22:00,N,nominal,1.0NRT,295.3,1.7,N
31.85017,54.28931,319.4,0.41,0.37,2019-09-24,22:00,N,nominal,1.0NRT,295.2,3.3,N
31.84783,54.28662,315.7,0.41,0.37,2019-09-24,22:00,N,nominal,1.0NRT,294.2,1.8,N
31.86486,54.03928,317.1,0.42,0.38,2019-09-24,22:00,N,nominal,1.0NRT,292.8,1.5,N
31.62226,54.74419,308.6,0.4,0.37,2019-09-24,22:00,N,nominal,1.0NRT,292.8,0.9,N
30.36798,57.11358,298,0.39,0.36,2019-09-24,22:00,N,nominal,1.0NRT,287.8,0.5,N
30.36467,57.11287,296.9,0.39,0.36,2019-09-24,22:00,N,nominal,1.0NRT,286.6,0.3,N
30.25767,57.12418,300.3,0.39,0.36,2019-09-24,22:00,N,nominal,1.0NRT,287,0.7,N
30.36819,56.12587,303.9,0.38,0.36,2019-09-24,22:00,N,nominal,1.0NRT,290.6,0.9,N
30.23577,56.90793,310.7,0.39,0.36,2019-09-24,22:00,N,nominal,1.0NRT,291.2,1.5,N
30.35707,56.13173,299.9,0.38,0.36,2019-09-24,22:00,N,nominal,1.0NRT,289.7,0.5,N
30.23246,56.9072,310.3,0.39,0.36,2019-09-24,22:00,N,nominal,1.0NRT,289.9,1.5,N
30.17821,57.17407,298.3,0.39,0.36,2019-09-24,22:00,N,nominal,1.0NRT,286.5,0.5,N
30.38104,55.87032,314.4,0.38,0.36,2019-09-24,22:00,N,nominal,1.0NRT,289.9,1.4,N
30.37837,55.86567,311.7,0.38,0.36,2019-09-24,22:00,N,nominal,1.0NRT,290.5,1.3,N
30.38249,55.8173,298.7,0.38,0.36,2019-09-24,22:00,N,nominal,1.0NRT,286.4,0.4,N
30.36951,55.90073,303.6,0.38,0.36,2019-09-24,22:00,N,nominal,1.0NRT,289.4,0.5,N
30.23338,56.71315,301.6,0.39,0.36,2019-09-24,22:00,N,nominal,1.0NRT,290.1,0.8,N
30.20985,56.7947,307,0.39,0.36,2019-09-24,22:00,N,nominal,1.0NRT,291.7,0.4,N
29.47564,60.80806,300.8,0.53,0.42,2019-09-24,22:00,N,nominal,1.0NRT,288.4,0.7,N
30.32422,55.97326,312,0.38,0.36,2019-09-24,22:00,N,nominal,1.0NRT,291.8,1,N
30.32093,55.97258,309.8,0.38,0.36,2019-09-24,22:00,N,nominal,1.0NRT,291.3,1,N
29.92827,56.73338,306.8,0.39,0.36,2019-09-24,22:00,N,nominal,1.0NRT,291.7,0.9,N
29.99377,55.85555,300.6,0.38,0.36,2019-09-24,22:00,N,nominal,1.0NRT,287,0.5,N
29.99033,55.85527,327.8,0.38,0.36,2019-09-24,22:00,N,nominal,1.0NRT,291.1,2.8,N
29.99094,55.85133,309.6,0.38,0.36,2019-09-24,22:00,N,nominal,1.0NRT,287.2,2.8,N
25.06243,55.11902,325.6,0.39,0.36,2019-09-24,22:00,N,nominal,1.0NRT,302,1.8,N
24.50382,56.60723,321,0.41,0.37,2019-09-24,22:00,N,nominal,1.0NRT,299.1,1.7,N
24.50589,56.5951,315.7,0.41,0.37,2019-09-24,22:00,N,nominal,1.0NRT,299.8,1.5,N
24.47038,56.61712,313.6,0.41,0.37,2019-09-24,22:00,N,nominal,1.0NRT,298.4,1.4,N
24.32846,54.47004,318.2,0.38,0.36,2019-09-24,22:00,N,nominal,1.0NRT,302.5,2.2,N
24.32186,54.4688,314.3,0.38,0.36,2019-09-24,22:00,N,nominal,1.0NRT,303.5,1.8,N
24.32034,54.45687,315.1,0.38,0.36,2019-09-24,22:00,N,nominal,1.0NRT,304.8,1.5,N
23.55351,58.20308,307.8,0.49,0.4,2019-09-24,22:00,N,nominal,1.0NRT,297.1,0.5,N
22.65746,59.40672,309.4,0.39,0.44,2019-09-24,22:00,N,nominal,1.0NRT,295.2,1.8,N
23.19178,55.46479,307.8,0.4,0.37,2019-09-24,22:00,N,nominal,1.0NRT,297.6,1,N
23.15296,55.44933,337.5,0.4,0.37,2019-09-24,22:00,N,nominal,1.0NRT,298.4,3.1,N
23.1536,55.44549,316.1,0.39,0.37,2019-09-24,22:00,N,nominal,1.0NRT,297.5,2.2,N
23.31061,54.17895,309,0.38,0.36,2019-09-24,22:00,N,nominal,1.0NRT,298.8,1.3,N
22.87671,55.92661,312.5,0.41,0.37,2019-09-24,22:00,N,nominal,1.0NRT,296.3,0.7,N
29.98499,55.84602,298.4,0.38,0.36,2019-09-24,22:00,N,nominal,1.0NRT,285.9,0.3,N
29.98971,55.19621,304.5,0.39,0.36,2019-09-24,22:00,N,nominal,1.0NRT,290.1,0.5,N
28.93954,58.7356,303.8,0.44,0.38,2019-09-24,22:00,N,nominal,1.0NRT,293,0.7,N
29.1512,55.368,304.8,0.38,0.36,2019-09-24,22:00,N,nominal,1.0NRT,292.2,0.8,N
29.20061,54.48397,303.8,0.39,0.36,2019-09-24,22:00,N,nominal,1.0NRT,290.7,0.8,N
26.09411,68.88129,304.7,0.61,0.71,2019-09-24,22:00,N,nominal,1.0NRT,290.4,0.4,N
25.38458,68.58524,308,0.61,0.71,2019-09-24,22:00,N,nominal,1.0NRT,288.8,1.5,N
25.38604,68.58222,306.3,0.61,0.71,2019-09-24,22:00,N,nominal,1.0NRT,288.8,1.3,N
27.30265,56.30585,311.9,0.39,0.36,2019-09-24,22:00,N,nominal,1.0NRT,297.7,1.5,N
27.17647,56.05867,320.7,0.39,0.36,2019-09-24,22:00,N,nominal,1.0NRT,299.1,2.1,N
27.17008,56.09768,311.4,0.39,0.36,2019-09-24,22:00,N,nominal,1.0NRT,299.1,1.5,N
27.16717,56.05274,339.1,0.39,0.36,2019-09-24,22:00,N,nominal,1.0NRT,302.1,11.2,N
27.1595,56.09955,326.4,0.39,0.36,2019-09-24,22:00,N,nominal,1.0NRT,299,3.3,N
27.15886,56.10345,318.2,0.39,0.36,2019-09-24,22:00,N,nominal,1.0NRT,298.7,1.9,N
27.15371,55.86611,310.3,0.39,0.36,2019-09-24,22:00,N,nominal,1.0NRT,297.4,0.5,N
26.95769,55.54449,313.1,0.39,0.36,2019-09-24,22:00,N,nominal,1.0NRT,300.4,2.3,N
26.85363,55.85083,314.8,0.39,0.36,2019-09-24,22:00,N,nominal,1.0NRT,298.8,0.7,N
26.85299,55.85471,317.4,0.39,0.36,2019-09-24,22:00,N,nominal,1.0NRT,298.9,0.7,N
26.85032,55.85017,321.1,0.39,0.36,2019-09-24,22:00,N,nominal,1.0NRT,299.4,4.2,N
26.84968,55.85404,334.3,0.39,0.36,2019-09-24,22:00,N,nominal,1.0NRT,301.1,4.2,N
25.97267,56.06899,314.1,0.39,0.36,2019-09-24,22:00,N,nominal,1.0NRT,302.1,0.9,N
25.90372,54.53432,337.5,0.38,0.36,2019-09-24,22:00,N,nominal,1.0NRT,302.6,1.8,N
25.90042,54.53369,345.1,0.38,0.36,2019-09-24,22:00,N,nominal,1.0NRT,306.7,5.9,N
25.89982,54.53751,315.7,0.38,0.36,2019-09-24,22:00,N,nominal,1.0NRT,300.9,5.9,N
25.89711,54.53306,324.8,0.38,0.36,2019-09-24,22:00,N,nominal,1.0NRT,301.7,5.9,N
25.55897,55.98492,312.6,0.39,0.36,2019-09-24,22:00,N,nominal,1.0NRT,301.8,1.2,N
25.55693,55.97647,313,0.39,0.36,2019-09-24,22:00,N,nominal,1.0NRT,301.7,1.2,N
25.70262,54.30066,330.3,0.39,0.36,2019-09-24,22:00,N,nominal,1.0NRT,303,2,N
25.59895,54.42364,314.8,0.38,0.36,2019-09-24,22:00,N,nominal,1.0NRT,302.9,0.5,N
25.37401,55.46128,311,0.39,0.36,2019-09-24,22:00,N,nominal,1.0NRT,300.8,1,N
25.3524,54.48422,318.6,0.38,0.36,2019-09-24,22:00,N,nominal,1.0NRT,303.2,0.9,N
22.40389,56.98854,334.5,0.45,0.39,2019-09-24,22:00,N,nominal,1.0NRT,296.1,6.4,N
22.33182,56.467,323.4,0.43,0.38,2019-09-24,22:00,N,nominal,1.0NRT,295.4,2.1,N
22.6746,54.13025,344.6,0.38,0.36,2019-09-24,22:00,N,nominal,1.0NRT,303.5,5,N
22.67402,54.13397,309,0.38,0.36,2019-09-24,22:00,N,nominal,1.0NRT,298.4,5,N
22.67132,54.13033,334.9,0.38,0.36,2019-09-24,22:00,N,nominal,1.0NRT,299.1,4.8,N
22.16167,57.04621,304.7,0.45,0.39,2019-09-24,22:00,N,nominal,1.0NRT,293.2,0.6,N
22.61136,54.05805,333.2,0.38,0.36,2019-09-24,22:00,N,nominal,1.0NRT,286.2,3.9,N
22.60806,54.05745,343.1,0.38,0.36,2019-09-24,22:00,N,nominal,1.0NRT,285.6,5.5,N
22.52754,54.05432,331.8,0.38,0.36,2019-09-24,22:00,N,nominal,1.0NRT,297.3,1.7,N
22.52813,54.0506,316.1,0.38,0.36,2019-09-24,22:00,N,nominal,1.0NRT,296.2,1.7,N
22.52483,54.05,317,0.38,0.36,2019-09-24,22:00,N,nominal,1.0NRT,296.7,1.7,N
22.52424,54.05371,309.9,0.38,0.36,2019-09-24,22:00,N,nominal,1.0NRT,296.6,1.7,N
22.15804,56.02864,312,0.41,0.37,2019-09-24,22:00,N,nominal,1.0NRT,295.4,1.9,N
21.94244,56.03835,304.9,0.42,0.37,2019-09-24,22:00,N,nominal,1.0NRT,293.1,0.3,N
21.66863,56.65318,307.9,0.44,0.38,2019-09-24,22:00,N,nominal,1.0NRT,275.9,0.9,N
21.66333,56.4143,305.6,0.43,0.38,2019-09-24,22:00,N,nominal,1.0NRT,286.4,0.6,N
21.46363,56.96916,309.4,0.46,0.39,2019-09-24,22:00,N,nominal,1.0NRT,284.5,0.9,N
21.50611,56.62668,296.8,0.44,0.38,2019-09-24,22:00,N,nominal,1.0NRT,265.9,0.3,N
21.5026,56.62597,297.4,0.44,0.38,2019-09-24,22:00,N,nominal,1.0NRT,265.6,0.3,N
21.37359,56.72066,307.4,0.45,0.39,2019-09-24,22:00,N,nominal,1.0NRT,284.6,1.5,N
21.33455,56.69698,296,0.45,0.39,2019-09-24,22:00,N,nominal,1.0NRT,274.4,0.4,N
20.99858,57.61052,297.2,0.49,0.41,2019-09-24,22:00,N,nominal,1.0NRT,271.6,0.4,N
21.00044,57.61293,296.9,0.49,0.41,2019-09-24,22:00,N,nominal,1.0NRT,271.1,0.5,N
