latitude,longitude,bright_ti4,scan,track,acq_date,acq_time,satellite,confidence,version,bright_ti5,frp,daynight
17.01052,100.2243,340,0.33,0.55,2019-09-14,05:54,N,nominal,1.0NRT,291.6,2.5,D
17.0099,100.2212,332.5,0.33,0.55,2019-09-14,05:54,N,nominal,1.0NRT,291,2.5,D
17.70284,100.1946,338.6,0.32,0.55,2019-09-14,05:54,N,nominal,1.0NRT,292.3,2.1,D
15.65798,99.83709,328,0.37,0.58,2019-09-14,05:54,N,nominal,1.0NRT,291.2,2.5,D
15.96289,100.14049,332.8,0.35,0.57,2019-09-14,05:54,N,nominal,1.0NRT,286.6,5.3,D
16.54811,99.76403,333.5,0.36,0.57,2019-09-14,05:54,N,nominal,1.0NRT,290.9,5.3,D
17.00776,100.22382,337.7,0.33,0.55,2019-09-14,05:54,N,nominal,1.0NRT,290.2,2.7,D
17.01281,100.22275,336.8,0.33,0.55,2019-09-14,05:54,N,nominal,1.0NRT,291.9,4,D
15.71976,100.94974,337.7,0.63,0.54,2019-09-14,05:54,N,nominal,1.0NRT,288.1,7,D
38.73906,100.57169,335.3,0.42,0.37,2019-09-14,06:00,N,nominal,1.0NRT,297.2,3.1,D
38.77213,100.53727,334.8,0.42,0.37,2019-09-14,06:00,N,nominal,1.0NRT,301.1,2.5,D
22.56054,101.77292,339,0.42,0.45,2019-09-14,06:00,N,nominal,1.0NRT,296.9,4.8,D
34.47824,100.2392,338.7,0.48,0.4,2019-09-14,06:00,N,nominal,1.0NRT,294.4,5.3,D
36.7063,101.75002,337.3,0.41,0.37,2019-09-14,06:00,N,nominal,1.0NRT,296.7,2.6,D
37.00904,98.81216,335.7,0.5,0.41,2019-09-14,06:00,N,nominal,1.0NRT,302.8,5.4,D
38.67055,100.76263,335.8,0.41,0.37,2019-09-14,06:00,N,nominal,1.0NRT,292.9,2,D
38.74728,101.1049,332.2,0.4,0.37,2019-09-14,06:00,N,nominal,1.0NRT,300.3,2.8,D
38.73989,100.57641,339.1,0.42,0.37,2019-09-14,06:00,N,nominal,1.0NRT,299.8,3.1,D
7.93026,80.771,331.1,0.39,0.44,2019-09-14,07:36,N,nominal,1.0NRT,295.7,2.9,D
7.98544,80.98546,330.7,0.57,0.43,2019-09-14,07:36,N,nominal,1.0NRT,295.6,3.7,D
7.98359,80.98405,330.2,0.57,0.43,2019-09-14,07:36,N,nominal,1.0NRT,295.9,6.4,D
7.87702,80.09964,340.7,0.43,0.46,2019-09-14,07:36,N,nominal,1.0NRT,293.3,5.3,D
7.97544,80.63886,367,0.4,0.44,2019-09-14,07:36,N,high,1.0NRT,297.1,10.8,D
8.03541,81.00183,337.2,0.57,0.43,2019-09-14,07:36,N,nominal,1.0NRT,298.5,5.8,D
8.03937,81.00117,332.1,0.57,0.43,2019-09-14,07:36,N,nominal,1.0NRT,298.3,5.8,D
7.89806,80.09611,334.6,0.43,0.46,2019-09-14,07:36,N,nominal,1.0NRT,293.8,2.9,D
7.9423,80.12864,330.2,0.43,0.46,2019-09-14,07:36,N,nominal,1.0NRT,292.6,3.8,D
8.14395,80.98125,341.3,0.57,0.43,2019-09-14,07:36,N,nominal,1.0NRT,295.9,7,D
8.29124,81.36291,333.4,0.53,0.42,2019-09-14,07:36,N,nominal,1.0NRT,295,5.5,D
8.2843,80.62235,337.8,0.39,0.44,2019-09-14,07:36,N,nominal,1.0NRT,297.8,3.3,D
8.24175,80.31749,341.3,0.41,0.45,2019-09-14,07:36,N,nominal,1.0NRT,293,4.8,D
8.25023,80.34289,341.9,0.41,0.45,2019-09-14,07:36,N,nominal,1.0NRT,295.4,7.9,D
8.27807,80.16837,330.1,0.42,0.45,2019-09-14,07:36,N,nominal,1.0NRT,293.3,6.2,D
8.3127,80.27157,342.3,0.41,0.45,2019-09-14,07:36,N,nominal,1.0NRT,294.4,2.9,D
8.49311,80.42738,330.2,0.4,0.44,2019-09-14,07:36,N,nominal,1.0NRT,294.2,1.8,D
8.47106,80.29468,337.3,0.41,0.45,2019-09-14,07:36,N,nominal,1.0NRT,293.9,18,D
8.43387,77.99876,334.4,0.58,0.52,2019-09-14,07:36,N,nominal,1.0NRT,294.6,2.6,D
8.53405,77.81376,345.6,0.6,0.53,2019-09-14,07:36,N,nominal,1.0NRT,292.1,9.4,D
8.50872,77.64313,332.5,0.61,0.54,2019-09-14,07:36,N,nominal,1.0NRT,294.2,4.1,D
9.4085,80.42527,332.1,0.39,0.44,2019-09-14,07:36,N,nominal,1.0NRT,295,3.1,D
9.4368,80.44596,343.5,0.39,0.44,2019-09-14,07:36,N,nominal,1.0NRT,297.7,8,D
9.46393,80.48479,338.6,0.39,0.44,2019-09-14,07:36,N,nominal,1.0NRT,294.9,3.7,D
9.31683,77.63251,340.6,0.59,0.53,2019-09-14,07:36,N,nominal,1.0NRT,290.3,9,D
9.61856,77.92818,330.3,0.56,0.52,2019-09-14,07:36,N,nominal,1.0NRT,294.8,1.8,D
9.61991,77.9305,335.7,0.56,0.52,2019-09-14,07:36,N,nominal,1.0NRT,293.3,2.9,D
12.95776,78.35766,335.8,0.46,0.47,2019-09-14,07:36,N,nominal,1.0NRT,297.9,3.8,D
15.54527,77.88776,341.9,0.45,0.47,2019-09-14,07:36,N,nominal,1.0NRT,294.4,5.3,D
17.19159,82.30435,332.9,0.4,0.37,2019-09-14,07:36,N,nominal,1.0NRT,297.4,3,D
18.34013,83.6637,335.7,0.38,0.36,2019-09-14,07:36,N,nominal,1.0NRT,297.5,3.6,D
18.33959,83.66008,334.3,0.38,0.36,2019-09-14,07:36,N,nominal,1.0NRT,297.9,3.6,D
20.79393,85.25352,338.5,0.43,0.38,2019-09-14,07:36,N,nominal,1.0NRT,295.6,6.4,D
20.95262,86.0492,335.1,0.46,0.39,2019-09-14,07:36,N,nominal,1.0NRT,298.5,6.1,D
22.47534,91.73415,334.3,0.35,0.56,2019-09-14,07:36,N,nominal,1.0NRT,291.3,2.9,D
21.67898,84.03934,330.1,0.4,0.37,2019-09-14,07:36,N,nominal,1.0NRT,298.7,2.6,D
23.77981,86.34263,335.6,0.51,0.41,2019-09-14,07:36,N,nominal,1.0NRT,297.1,8.7,D
23.78675,86.3365,330.6,0.51,0.41,2019-09-14,07:36,N,nominal,1.0NRT,298.4,5.3,D
23.79622,86.3504,330.1,0.51,0.41,2019-09-14,07:36,N,nominal,1.0NRT,294.4,8.7,D
23.88834,85.00515,339.9,0.44,0.39,2019-09-14,07:36,N,nominal,1.0NRT,299.7,9.6,D
23.89072,84.99586,332.4,0.44,0.39,2019-09-14,07:36,N,nominal,1.0NRT,292.8,4.2,D
7.07395,81.59014,332.1,0.54,0.42,2019-09-14,07:36,N,nominal,1.0NRT,298.2,3.8,D
7.07779,81.5645,330.4,0.54,0.42,2019-09-14,07:36,N,nominal,1.0NRT,297.2,3.9,D
7.12679,80.98789,332.7,0.39,0.44,2019-09-14,07:36,N,nominal,1.0NRT,293.8,2.8,D
7.27794,81.73398,332.1,0.53,0.42,2019-09-14,07:36,N,low,1.0NRT,299.2,2,D
7.30625,81.81175,338.6,0.52,0.41,2019-09-14,07:36,N,nominal,1.0NRT,302,9.4,D
7.36173,81.84125,330.5,0.52,0.41,2019-09-14,07:36,N,low,1.0NRT,299.1,3.9,D
7.36553,81.84062,330.7,0.52,0.41,2019-09-14,07:36,N,low,1.0NRT,298.4,3.9,D
7.36372,81.83768,336.6,0.52,0.41,2019-09-14,07:36,N,nominal,1.0NRT,299.3,8.3,D
7.70838,80.81231,341.3,0.39,0.44,2019-09-14,07:36,N,nominal,1.0NRT,297.8,5.2,D
7.70781,80.80878,340.3,0.39,0.44,2019-09-14,07:36,N,nominal,1.0NRT,296.4,3.3,D
7.70026,80.71146,343.3,0.4,0.44,2019-09-14,07:36,N,nominal,1.0NRT,297,5.2,D
7.76516,80.57333,342.5,0.4,0.45,2019-09-14,07:36,N,nominal,1.0NRT,296,3.9,D
7.89813,80.99977,339.6,0.57,0.43,2019-09-14,07:36,N,nominal,1.0NRT,297.2,8.1,D
7.89187,80.88837,336.7,0.38,0.44,2019-09-14,07:36,N,nominal,1.0NRT,298.6,3.6,D
7.89472,80.88081,331.9,0.39,0.44,2019-09-14,07:36,N,nominal,1.0NRT,296.2,3.4,D
7.90787,80.88577,343.7,0.38,0.44,2019-09-14,07:36,N,nominal,1.0NRT,298,8.4,D
7.90729,80.88229,333.4,0.38,0.44,2019-09-14,07:36,N,nominal,1.0NRT,296.9,5.7,D
30.61107,73.98886,334.3,0.41,0.45,2019-09-14,07:42,N,nominal,1.0NRT,296.9,3.4,D
27.45447,71.64925,339.7,0.32,0.55,2019-09-14,07:42,N,nominal,1.0NRT,302.5,2.2,D
29.81989,72.84317,337.3,0.49,0.49,2019-09-14,07:42,N,nominal,1.0NRT,303.4,3.8,D
29.82242,72.84457,341.6,0.49,0.49,2019-09-14,07:42,N,nominal,1.0NRT,303.2,4.3,D
30.5119,73.88105,338.9,0.42,0.45,2019-09-14,07:42,N,nominal,1.0NRT,297.1,6.1,D
30.60041,73.97837,347.8,0.41,0.45,2019-09-14,07:42,N,nominal,1.0NRT,299.7,10.2,D
30.60898,73.98569,341.4,0.41,0.45,2019-09-14,07:42,N,nominal,1.0NRT,299.2,3.5,D
31.00657,74.32661,340.8,0.39,0.44,2019-09-14,07:42,N,nominal,1.0NRT,299.5,4.2,D
31.00751,74.32646,341.3,0.39,0.44,2019-09-14,07:42,N,nominal,1.0NRT,300.1,3.9,D
31.01308,74.33338,343.8,0.39,0.44,2019-09-14,07:42,N,nominal,1.0NRT,301.5,5.5,D
31.16698,73.84705,336.9,0.41,0.45,2019-09-14,07:42,N,nominal,1.0NRT,301.4,2.8,D
31.36903,74.54523,332.6,0.56,0.43,2019-09-14,07:42,N,nominal,1.0NRT,299.6,3.9,D
31.61546,75.0993,338.1,0.52,0.41,2019-09-14,07:42,N,nominal,1.0NRT,298.3,4.8,D
31.6806,74.98524,334.6,0.52,0.42,2019-09-14,07:42,N,nominal,1.0NRT,297.5,5.8,D
31.68263,74.98241,337.2,0.52,0.42,2019-09-14,07:42,N,nominal,1.0NRT,298,5.4,D
31.71353,74.91673,333,0.53,0.42,2019-09-14,07:42,N,nominal,1.0NRT,298.1,7.5,D
31.70783,73.95342,330.1,0.39,0.44,2019-09-14,07:42,N,nominal,1.0NRT,298.5,2,D
39.55418,82.76461,340.1,0.51,0.41,2019-09-14,07:42,N,low,1.0NRT,315,2.1,D
38.95162,75.79845,336.1,0.4,0.37,2019-09-14,07:42,N,nominal,1.0NRT,304.5,2.1,D
39.11889,70.86895,332,0.4,0.44,2019-09-14,07:42,N,nominal,1.0NRT,306.4,1.5,D
37.26704,60.19218,335.1,0.77,0.77,2019-09-14,07:42,N,nominal,1.0NRT,294.4,3.9,D
39.91098,69.61568,330.8,0.44,0.46,2019-09-14,07:42,N,low,1.0NRT,303.3,0.9,D
38.80059,64.64529,341.6,0.42,0.61,2019-09-14,07:42,N,nominal,1.0NRT,302,12,D
38.79927,64.64059,356.5,0.42,0.61,2019-09-14,07:42,N,nominal,1.0NRT,309.3,14.4,D
20.98774,57.7963,338.2,0.39,0.36,2019-09-14,09:18,N,low,1.0NRT,311.3,4.5,D
21.30277,57.79903,343,0.39,0.36,2019-09-14,09:18,N,nominal,1.0NRT,314.2,4,D
22.2879,57.4236,348.2,0.39,0.36,2019-09-14,09:18,N,nominal,1.0NRT,315.4,13.1,D
22.4052,56.99075,346.2,0.38,0.36,2019-09-14,09:18,N,low,1.0NRT,319.2,19.5,D
23.76592,57.63588,338.8,0.39,0.36,2019-09-14,09:18,N,low,1.0NRT,313.6,9.4,D
24.50564,56.60682,349.7,0.38,0.36,2019-09-14,09:18,N,nominal,1.0NRT,315.8,16.8,D
20.98443,57.79686,341.1,0.39,0.36,2019-09-14,09:18,N,low,1.0NRT,313.1,4.5,D
27.16023,56.10124,341.1,0.38,0.36,2019-09-14,09:24,N,nominal,1.0NRT,309.7,9.7,D
27.16913,56.05175,350.2,0.38,0.36,2019-09-14,09:24,N,nominal,1.0NRT,312,12.6,D
27.30138,56.30273,340.3,0.39,0.36,2019-09-14,09:24,N,nominal,1.0NRT,309.7,3.6,D
28.07507,67.68487,367,0.48,0.65,2019-09-14,09:24,N,high,1.0NRT,311.3,17.6,D
28.07472,67.67986,349.4,0.48,0.65,2019-09-14,09:24,N,nominal,1.0NRT,310.2,12,D
28.07699,67.68399,367,0.48,0.65,2019-09-14,09:24,N,high,1.0NRT,310.5,11.8,D
28.07668,67.67898,349,0.48,0.65,2019-09-14,09:24,N,nominal,1.0NRT,309.6,11.8,D
26.85193,55.85381,344.3,0.38,0.36,2019-09-14,09:24,N,nominal,1.0NRT,313.5,8.1,D
26.85134,55.84996,343.7,0.38,0.36,2019-09-14,09:24,N,nominal,1.0NRT,312.7,8.1,D
39.35111,55.85009,336.2,0.45,0.39,2019-09-14,09:24,N,nominal,1.0NRT,306.9,1.9,D
39.34271,55.66187,335.6,0.44,0.38,2019-09-14,09:24,N,low,1.0NRT,306.9,5.5,D
35.13173,63.36473,335.3,0.63,0.54,2019-09-14,09:24,N,low,1.0NRT,308.2,67.1,D
35.13123,63.35801,367,0.63,0.54,2019-09-14,09:24,N,low,1.0NRT,332.3,89.8,D
35.13623,63.3574,342.1,0.63,0.54,2019-09-14,09:24,N,nominal,1.0NRT,307.8,89.8,D
35.1358,63.35666,347.5,0.63,0.54,2019-09-14,09:24,N,nominal,1.0NRT,308.6,10.4,D
36.95674,60.81725,338.5,0.47,0.48,2019-09-14,09:24,N,nominal,1.0NRT,306,4.2,D
36.95946,60.81382,340.3,0.47,0.48,2019-09-14,09:24,N,nominal,1.0NRT,306.7,4.6,D
37.04811,60.56121,340.2,0.46,0.47,2019-09-14,09:24,N,nominal,1.0NRT,305.1,5,D
37.04402,60.55902,333,0.46,0.47,2019-09-14,09:24,N,nominal,1.0NRT,303.2,2.4,D
37.04839,60.55844,339.8,0.46,0.47,2019-09-14,09:24,N,nominal,1.0NRT,304.7,2.4,D
37.1772,60.6178,344.7,0.46,0.47,2019-09-14,09:24,N,nominal,1.0NRT,305.2,9.3,D
37.17674,60.61251,341.5,0.46,0.47,2019-09-14,09:24,N,nominal,1.0NRT,303.3,4,D
37.52561,61.70927,342.5,0.54,0.5,2019-09-14,09:24,N,nominal,1.0NRT,307.4,19.7,D
37.52512,61.70312,337.7,0.53,0.5,2019-09-14,09:24,N,nominal,1.0NRT,305,12,D
37.52981,61.70258,330.3,0.53,0.5,2019-09-14,09:24,N,low,1.0NRT,304.8,3.1,D
37.7392,64.26868,335.1,0.37,0.58,2019-09-14,09:24,N,low,1.0NRT,307.3,1.6,D
37.81425,60.02491,343.1,0.44,0.46,2019-09-14,09:24,N,nominal,1.0NRT,301.6,14.7,D
37.90039,60.63272,335.7,0.47,0.48,2019-09-14,09:24,N,low,1.0NRT,310.3,3.5,D
37.90363,60.62992,342,0.47,0.48,2019-09-14,09:24,N,nominal,1.0NRT,309.6,4.3,D
38.70417,60.3676,332.2,0.47,0.48,2019-09-14,09:24,N,nominal,1.0NRT,302,2.1,D
27.42245,56.50058,342.4,0.39,0.36,2019-09-14,09:24,N,nominal,1.0NRT,310.5,4.3,D
39.25454,56.16361,338.6,0.46,0.39,2019-09-14,09:24,N,nominal,1.0NRT,306.2,4.2,D
39.25494,56.16161,335.5,0.46,0.39,2019-09-14,09:24,N,low,1.0NRT,306.5,3,D
39.28628,55.69687,333.4,0.44,0.38,2019-09-14,09:24,N,nominal,1.0NRT,301.6,2.6,D
39.34694,55.84561,354.3,0.45,0.39,2019-09-14,09:24,N,nominal,1.0NRT,309.8,4.5,D
39.34631,55.84042,338.4,0.45,0.39,2019-09-14,09:24,N,nominal,1.0NRT,306,4.5,D
39.84384,98.27488,298.8,0.52,0.67,2019-09-14,18:18,N,nominal,1.0NRT,280.9,0.6,N
39.84202,98.27437,299.5,0.52,0.67,2019-09-14,18:18,N,nominal,1.0NRT,280.9,1,N
37.00698,98.81376,296.7,0.46,0.64,2019-09-14,18:24,N,nominal,1.0NRT,276,1.1,N
37.01005,98.81069,299.7,0.46,0.64,2019-09-14,18:24,N,nominal,1.0NRT,276.3,2.1,N
14.67151,100.80164,318.2,0.39,0.44,2019-09-14,18:30,N,nominal,1.0NRT,287.6,1.4,N
14.6299,101.0779,302.9,0.57,0.43,2019-09-14,18:30,N,nominal,1.0NRT,286.7,0.9,N
14.62703,101.09896,309.8,0.57,0.43,2019-09-14,18:30,N,nominal,1.0NRT,287.5,2.4,N
39.18464,83.71705,295.1,0.44,0.39,2019-09-14,20:00,N,nominal,1.0NRT,282.5,0.7,N
37.87994,69.46783,300.6,0.76,0.77,2019-09-14,20:00,N,nominal,1.0NRT,280.1,2.6,N
39.84214,98.25916,295.1,0.63,0.54,2019-09-14,20:00,N,nominal,1.0NRT,282.3,0.9,N
39.81189,98.2935,299.1,0.63,0.54,2019-09-14,20:00,N,nominal,1.0NRT,286,2.8,N
39.81,98.30073,295.8,0.63,0.54,2019-09-14,20:00,N,nominal,1.0NRT,282.8,1.1,N
39.84111,98.25976,296.7,0.63,0.54,2019-09-14,20:00,N,nominal,1.0NRT,282.2,0.8,N
35.9907,94.8293,298.9,0.52,0.5,2019-09-14,20:00,N,nominal,1.0NRT,271.6,1.2,N
39.81111,98.2942,300.9,0.63,0.54,2019-09-14,20:00,N,nominal,1.0NRT,286.4,3,N
37.01146,98.8123,297.2,0.4,0.6,2019-09-14,20:00,N,nominal,1.0NRT,279.2,0.8,N
37.01028,98.81663,295.5,0.4,0.6,2019-09-14,20:00,N,nominal,1.0NRT,278.3,0.8,N
37.01018,98.81452,302.3,0.4,0.6,2019-09-14,20:00,N,nominal,1.0NRT,279.6,1.2,N
37.34532,97.41042,306.5,0.33,0.55,2019-09-14,20:00,N,nominal,1.0NRT,281.8,1.5,N
37.28835,97.38049,295.3,0.33,0.55,2019-09-14,20:00,N,nominal,1.0NRT,278.2,0.6,N
39.32237,83.44839,301.3,0.45,0.39,2019-09-14,20:00,N,nominal,1.0NRT,281.8,1.2,N
23.75257,85.85574,330.1,0.44,0.39,2019-09-14,20:06,N,nominal,1.0NRT,293.2,6.3,N
17.57722,80.31902,308.6,0.39,0.36,2019-09-14,20:06,N,nominal,1.0NRT,290.9,1.9,N
19.28293,71.43568,301.8,0.41,0.6,2019-09-14,20:06,N,nominal,1.0NRT,283.4,0.6,N
21.10586,72.62843,303.6,0.36,0.57,2019-09-14,20:06,N,nominal,1.0NRT,273,1.9,N
21.10551,72.63197,322.8,0.36,0.57,2019-09-14,20:06,N,nominal,1.0NRT,273.4,2,N
21.18516,81.38773,311.4,0.39,0.36,2019-09-14,20:06,N,nominal,1.0NRT,291.2,1,N
21.18791,81.39204,305.4,0.39,0.36,2019-09-14,20:06,N,nominal,1.0NRT,290.7,1,N
21.1978,81.41672,320.5,0.39,0.36,2019-09-14,20:06,N,nominal,1.0NRT,290.5,2,N
21.24004,81.38578,305.6,0.39,0.36,2019-09-14,20:06,N,nominal,1.0NRT,291,0.7,N
21.30116,81.60608,304.4,0.39,0.36,2019-09-14,20:06,N,nominal,1.0NRT,289.5,0.7,N
21.34549,81.66637,314.3,0.39,0.36,2019-09-14,20:06,N,nominal,1.0NRT,290.1,1,N
21.34881,81.66695,308.2,0.39,0.36,2019-09-14,20:06,N,nominal,1.0NRT,289.9,1,N
21.34938,81.66325,315.7,0.39,0.36,2019-09-14,20:06,N,nominal,1.0NRT,290.1,2,N
21.36434,81.65443,308.4,0.39,0.36,2019-09-14,20:06,N,nominal,1.0NRT,290.4,0.8,N
21.36309,81.68472,307.7,0.39,0.36,2019-09-14,20:06,N,nominal,1.0NRT,290,0.7,N
21.36423,81.6773,305.3,0.39,0.36,2019-09-14,20:06,N,nominal,1.0NRT,289.5,1.4,N
21.36936,81.64388,305.4,0.39,0.36,2019-09-14,20:06,N,nominal,1.0NRT,290.2,0.7,N
21.37656,81.64132,305.5,0.39,0.36,2019-09-14,20:06,N,nominal,1.0NRT,290.2,1.1,N
21.38924,81.64737,311.8,0.39,0.36,2019-09-14,20:06,N,nominal,1.0NRT,290.7,1.4,N
21.48606,81.7674,307.9,0.39,0.36,2019-09-14,20:06,N,nominal,1.0NRT,289.7,0.8,N
20.95768,85.11097,307.3,0.44,0.39,2019-09-14,20:06,N,nominal,1.0NRT,290.1,2.2,N
20.95641,85.18135,308.8,0.45,0.39,2019-09-14,20:06,N,nominal,1.0NRT,290.1,2.9,N
20.96086,85.15572,313.8,0.45,0.39,2019-09-14,20:06,N,nominal,1.0NRT,290.6,3.3,N
20.96455,85.13448,308.9,0.45,0.39,2019-09-14,20:06,N,nominal,1.0NRT,290,2.9,N
20.95716,85.17707,323.4,0.45,0.39,2019-09-14,20:06,N,nominal,1.0NRT,290.6,4.9,N
20.9592,85.18636,318.1,0.45,0.39,2019-09-14,20:06,N,nominal,1.0NRT,290.8,4.4,N
20.96218,85.16924,308,0.45,0.39,2019-09-14,20:06,N,nominal,1.0NRT,290.3,2.1,N
20.95995,85.18207,335.9,0.45,0.39,2019-09-14,20:06,N,nominal,1.0NRT,291.9,4.4,N
20.96069,85.1778,342,0.45,0.39,2019-09-14,20:06,N,nominal,1.0NRT,291.9,4.1,N
20.96144,85.17351,332.4,0.45,0.39,2019-09-14,20:06,N,nominal,1.0NRT,291.2,4.1,N
20.96497,85.17422,308.8,0.45,0.39,2019-09-14,20:06,N,nominal,1.0NRT,290.4,4.1,N
20.96571,85.16997,305.6,0.45,0.39,2019-09-14,20:06,N,nominal,1.0NRT,290.1,2.1,N
20.97721,85.14578,310.6,0.45,0.39,2019-09-14,20:06,N,nominal,1.0NRT,290.3,2.4,N
21.07824,85.04116,315.4,0.44,0.38,2019-09-14,20:06,N,nominal,1.0NRT,291.1,1.8,N
21.07897,85.03696,316.9,0.44,0.38,2019-09-14,20:06,N,nominal,1.0NRT,291.2,1.8,N
21.57508,82.02207,306.9,0.38,0.36,2019-09-14,20:06,N,nominal,1.0NRT,289.9,0.9,N
20.95188,86.05096,311.4,0.49,0.4,2019-09-14,20:06,N,nominal,1.0NRT,290.7,3,N
20.96322,86.00967,307.3,0.49,0.4,2019-09-14,20:06,N,nominal,1.0NRT,289.9,1.7,N
20.96605,86.01511,309.8,0.49,0.4,2019-09-14,20:06,N,nominal,1.0NRT,290.7,1.7,N
20.97227,86.00188,310,0.49,0.4,2019-09-14,20:06,N,nominal,1.0NRT,291.1,2,N
20.9751,86.00731,309.9,0.49,0.4,2019-09-14,20:06,N,nominal,1.0NRT,290.5,2,N
21.002,86.02732,308.8,0.49,0.4,2019-09-14,20:06,N,nominal,1.0NRT,290.6,2.4,N
22.00216,82.66746,307.9,0.38,0.36,2019-09-14,20:06,N,nominal,1.0NRT,289.9,2.9,N
22.00487,82.67176,318.7,0.38,0.36,2019-09-14,20:06,N,nominal,1.0NRT,291.1,3.7,N
21.98519,83.23457,306.2,0.39,0.36,2019-09-14,20:06,N,nominal,1.0NRT,289.2,1,N
22.02298,83.38086,305.3,0.39,0.36,2019-09-14,20:06,N,nominal,1.0NRT,290.1,1.3,N
22.02814,83.3702,305.5,0.39,0.36,2019-09-14,20:06,N,nominal,1.0NRT,289.4,1.7,N
21.93158,85.21922,306.2,0.44,0.38,2019-09-14,20:06,N,nominal,1.0NRT,287,1.5,N
22.05493,85.466,304.2,0.45,0.39,2019-09-14,20:06,N,nominal,1.0NRT,287,0.6,N
22.20572,84.84788,311.1,0.42,0.38,2019-09-14,20:06,N,nominal,1.0NRT,288.6,1.4,N
22.20916,84.84856,312,0.42,0.38,2019-09-14,20:06,N,nominal,1.0NRT,288.8,1.4,N
22.05267,88.12566,310.5,0.41,0.45,2019-09-14,20:06,N,nominal,1.0NRT,289.3,2.7,N
22.06487,88.12316,320.1,0.41,0.45,2019-09-14,20:06,N,nominal,1.0NRT,287.8,2.5,N
23.16752,82.3425,306.4,0.38,0.36,2019-09-14,20:06,N,nominal,1.0NRT,287.7,0.8,N
23.16869,82.33501,304.3,0.38,0.36,2019-09-14,20:06,N,nominal,1.0NRT,287.7,1.1,N
22.58758,85.90688,307.8,0.46,0.39,2019-09-14,20:06,N,nominal,1.0NRT,290.1,2.3,N
22.58893,85.90474,309.3,0.46,0.39,2019-09-14,20:06,N,nominal,1.0NRT,290.5,2.3,N
22.79954,86.08875,318.2,0.47,0.39,2019-09-14,20:06,N,nominal,1.0NRT,290.9,4.5,N
22.7971,86.20583,306,0.47,0.4,2019-09-14,20:06,N,nominal,1.0NRT,286.5,2.1,N
22.85714,86.05882,310.7,0.46,0.39,2019-09-14,20:06,N,nominal,1.0NRT,290.9,2.4,N
22.8751,86.06262,305.6,0.46,0.39,2019-09-14,20:06,N,nominal,1.0NRT,290.4,2.5,N
23.36062,83.22304,309.6,0.39,0.36,2019-09-14,20:06,N,nominal,1.0NRT,288.9,2,N
23.64729,85.43997,305.5,0.43,0.38,2019-09-14,20:06,N,nominal,1.0NRT,290.9,0.8,N
23.64802,85.43577,306.1,0.43,0.38,2019-09-14,20:06,N,nominal,1.0NRT,290.7,0.8,N
23.60908,85.68169,304.9,0.44,0.38,2019-09-14,20:06,N,nominal,1.0NRT,285.3,0.7,N
23.64881,85.43862,308.2,0.43,0.38,2019-09-14,20:06,N,nominal,1.0NRT,291,0.9,N
23.72434,85.00712,304.8,0.42,0.37,2019-09-14,20:06,N,nominal,1.0NRT,290.1,1.1,N
23.60959,85.67995,304.6,0.44,0.38,2019-09-14,20:06,N,nominal,1.0NRT,286.4,0.9,N
23.73117,85.00849,310.7,0.42,0.37,2019-09-14,20:06,N,nominal,1.0NRT,290.2,1.5,N
23.73388,85.01324,307.7,0.42,0.37,2019-09-14,20:06,N,nominal,1.0NRT,291.2,1.7,N
23.7373,85.01394,311.3,0.42,0.37,2019-09-14,20:06,N,nominal,1.0NRT,290.7,0.9,N
23.74071,85.01463,305,0.42,0.37,2019-09-14,20:06,N,nominal,1.0NRT,289.9,0.9,N
23.71179,85.28369,313.9,0.42,0.38,2019-09-14,20:06,N,nominal,1.0NRT,290.4,1.5,N
23.80782,84.84927,311,0.41,0.37,2019-09-14,20:06,N,nominal,1.0NRT,290.2,1.7,N
23.83225,84.95382,308,0.41,0.37,2019-09-14,20:06,N,nominal,1.0NRT,290.8,0.9,N
23.83294,84.94979,305.9,0.41,0.37,2019-09-14,20:06,N,nominal,1.0NRT,290.4,0.9,N
23.83975,84.95115,306.7,0.41,0.37,2019-09-14,20:06,N,nominal,1.0NRT,290.2,0.6,N
23.6751,86.0845,300.7,0.45,0.39,2019-09-14,20:06,N,nominal,1.0NRT,284.5,0.6,N
23.67866,86.08526,307.3,0.45,0.39,2019-09-14,20:06,N,nominal,1.0NRT,287.5,2,N
23.68062,86.09488,320.3,0.45,0.39,2019-09-14,20:06,N,nominal,1.0NRT,289.3,2.9,N
23.69802,86.08023,316.3,0.45,0.39,2019-09-14,20:06,N,nominal,1.0NRT,289.2,2.3,N
23.69881,86.07581,313.3,0.45,0.39,2019-09-14,20:06,N,nominal,1.0NRT,289.9,3.1,N
23.88818,84.99355,306.3,0.41,0.37,2019-09-14,20:06,N,nominal,1.0NRT,288.3,0.6,N
23.88541,85.00971,321.7,0.41,0.37,2019-09-14,20:06,N,nominal,1.0NRT,291,2.1,N
23.8861,85.00568,324.5,0.41,0.37,2019-09-14,20:06,N,nominal,1.0NRT,290.9,2.7,N
23.84164,85.30495,304.5,0.42,0.38,2019-09-14,20:06,N,nominal,1.0NRT,288.3,0.6,N
23.75457,85.8651,307.4,0.44,0.39,2019-09-14,20:06,N,nominal,1.0NRT,290.6,1.8,N
23.75609,85.85646,307.4,0.44,0.39,2019-09-14,20:06,N,nominal,1.0NRT,289.8,1.7,N
23.75885,85.86153,310.6,0.44,0.39,2019-09-14,20:06,N,nominal,1.0NRT,289.7,1.7,N
23.82227,85.49912,312.2,0.43,0.38,2019-09-14,20:06,N,nominal,1.0NRT,291.1,1.5,N
23.65848,86.44613,318.6,0.47,0.4,2019-09-14,20:06,N,nominal,1.0NRT,288.9,3.9,N
23.67836,86.39804,322.9,0.47,0.4,2019-09-14,20:06,N,nominal,1.0NRT,289.5,3.9,N
23.76499,86.0349,314,0.45,0.39,2019-09-14,20:06,N,nominal,1.0NRT,289.2,2.6,N
23.56032,87.23907,303.9,0.52,0.41,2019-09-14,20:06,N,nominal,1.0NRT,284,1.1,N
23.71954,86.44223,311.4,0.47,0.4,2019-09-14,20:06,N,nominal,1.0NRT,287.4,3,N
23.72399,86.43844,313.6,0.47,0.4,2019-09-14,20:06,N,nominal,1.0NRT,287.3,3.2,N
23.72316,86.443,329.9,0.47,0.4,2019-09-14,20:06,N,nominal,1.0NRT,287.7,3.2,N
23.7773,86.2056,309.4,0.46,0.39,2019-09-14,20:06,N,nominal,1.0NRT,290.5,2.8,N
23.79393,86.23702,310.7,0.46,0.39,2019-09-14,20:06,N,nominal,1.0NRT,288.7,2.1,N
23.76998,86.39134,307.3,0.47,0.4,2019-09-14,20:06,N,nominal,1.0NRT,282.4,1.6,N
23.7708,86.38678,316.9,0.47,0.4,2019-09-14,20:06,N,nominal,1.0NRT,283.2,3.8,N
23.77488,86.36409,302.2,0.47,0.39,2019-09-14,20:06,N,nominal,1.0NRT,279.3,0.7,N
23.77813,86.34598,305.8,0.47,0.39,2019-09-14,20:06,N,nominal,1.0NRT,280.6,1.3,N
23.77894,86.34146,313.1,0.46,0.39,2019-09-14,20:06,N,nominal,1.0NRT,279.8,1.8,N
23.78542,86.3053,310.8,0.46,0.39,2019-09-14,20:06,N,nominal,1.0NRT,287.6,3,N
23.77277,86.39666,308.6,0.47,0.4,2019-09-14,20:06,N,nominal,1.0NRT,285.6,1.6,N
23.77359,86.39209,314.4,0.47,0.4,2019-09-14,20:06,N,nominal,1.0NRT,287.3,1.6,N
23.78335,86.33768,307.2,0.46,0.39,2019-09-14,20:06,N,nominal,1.0NRT,284.6,1.8,N
23.7874,86.31508,307.8,0.46,0.39,2019-09-14,20:06,N,nominal,1.0NRT,282,3,N
23.77719,86.39285,317.3,0.47,0.4,2019-09-14,20:06,N,nominal,1.0NRT,287.3,4.8,N
23.7808,86.3936,340.7,0.47,0.4,2019-09-14,20:06,N,nominal,1.0NRT,287.9,4.8,N
23.79171,86.35352,314.5,0.47,0.39,2019-09-14,20:06,N,nominal,1.0NRT,279.9,1.4,N
23.79251,86.34902,303.5,0.47,0.39,2019-09-14,20:06,N,nominal,1.0NRT,279.2,1.4,N
23.79332,86.3445,303,0.46,0.39,2019-09-14,20:06,N,nominal,1.0NRT,278.7,0.6,N
23.79611,86.34978,313.4,0.47,0.39,2019-09-14,20:06,N,nominal,1.0NRT,279.5,1.4,N
23.79692,86.34526,300.1,0.46,0.39,2019-09-14,20:06,N,nominal,1.0NRT,277.8,0.6,N
23.80016,86.32709,304.7,0.46,0.39,2019-09-14,20:06,N,nominal,1.0NRT,279.5,0.9,N
23.80535,86.31889,302.4,0.46,0.39,2019-09-14,20:06,N,nominal,1.0NRT,281,1,N
23.7301,86.75926,312.5,0.49,0.4,2019-09-14,20:06,N,nominal,1.0NRT,290.4,3.3,N
23.66359,87.20615,305.2,0.51,0.41,2019-09-14,20:06,N,nominal,1.0NRT,288.8,1,N
23.69069,87.12442,307.8,0.51,0.41,2019-09-14,20:06,N,nominal,1.0NRT,289,1.8,N
23.69443,87.12521,306.2,0.51,0.41,2019-09-14,20:06,N,nominal,1.0NRT,289.4,1.8,N
23.80025,87.05646,308.1,0.5,0.41,2019-09-14,20:06,N,nominal,1.0NRT,291.1,3.4,N
23.80293,87.04171,313.9,0.5,0.41,2019-09-14,20:06,N,nominal,1.0NRT,290.9,3.7,N
23.80438,87.03893,311.6,0.5,0.41,2019-09-14,20:06,N,nominal,1.0NRT,290.6,4,N
23.80992,87.03001,312.5,0.5,0.41,2019-09-14,20:06,N,nominal,1.0NRT,290.6,3,N
28.05207,69.36762,307.6,0.67,0.74,2019-09-14,20:06,N,nominal,1.0NRT,272.5,1.6,N
28.05201,69.36628,302.8,0.67,0.74,2019-09-14,20:06,N,nominal,1.0NRT,270.5,4,N
29.45518,76.86849,313,0.49,0.49,2019-09-14,20:06,N,nominal,1.0NRT,292,5.4,N
29.90775,74.94776,314.8,0.32,0.55,2019-09-14,20:06,N,nominal,1.0NRT,293.7,1,N
15.17633,76.65615,312,0.51,0.41,2019-09-14,20:12,N,nominal,1.0NRT,288.4,1.5,N
15.17568,76.6609,300.5,0.51,0.41,2019-09-14,20:12,N,nominal,1.0NRT,280.2,1.5,N
15.17363,76.37754,305.6,0.53,0.42,2019-09-14,20:12,N,nominal,1.0NRT,288.6,2.2,N
7.26653,80.85599,315.9,0.41,0.37,2019-09-14,20:12,N,nominal,1.0NRT,291.3,1.4,N
7.98847,79.86738,306.4,0.39,0.36,2019-09-14,20:12,N,nominal,1.0NRT,292.6,2.2,N
8.53612,80.30327,296.9,0.39,0.36,2019-09-14,20:12,N,nominal,1.0NRT,275.3,1,N
8.53669,80.2997,317.4,0.39,0.36,2019-09-14,20:12,N,nominal,1.0NRT,275,1,N
12.98836,79.91257,306.2,0.38,0.36,2019-09-14,20:12,N,nominal,1.0NRT,288.3,0.9,N
13.30308,80.15237,304.2,0.38,0.36,2019-09-14,20:12,N,nominal,1.0NRT,290.7,1,N
13.42075,80.09137,305.9,0.38,0.36,2019-09-14,20:12,N,nominal,1.0NRT,291.4,1.3,N
39.09281,63.43793,304.8,0.4,0.37,2019-09-14,21:42,N,nominal,1.0NRT,285.6,0.9,N
39.07877,63.51954,300.5,0.4,0.37,2019-09-14,21:42,N,nominal,1.0NRT,285.4,0.5,N
37.88285,69.46638,307.6,0.47,0.48,2019-09-14,21:42,N,nominal,1.0NRT,286.4,1.3,N
37.8816,69.47181,302.1,0.47,0.48,2019-09-14,21:42,N,nominal,1.0NRT,286,0.9,N
37.88036,69.47718,302.4,0.47,0.48,2019-09-14,21:42,N,nominal,1.0NRT,285.7,0.9,N
39.03672,63.64127,302.3,0.4,0.37,2019-09-14,21:42,N,nominal,1.0NRT,284.4,0.8,N
39.07502,63.3997,299.5,0.4,0.37,2019-09-14,21:42,N,nominal,1.0NRT,286.1,0.4,N
39.06739,63.38334,296.6,0.4,0.37,2019-09-14,21:42,N,nominal,1.0NRT,285.8,1.3,N
39.15707,62.58754,297,0.39,0.36,2019-09-14,21:42,N,nominal,1.0NRT,285.3,0.5,N
38.80171,64.64235,301.7,0.42,0.38,2019-09-14,21:42,N,nominal,1.0NRT,286.8,0.5,N
38.97385,63.65462,295.8,0.4,0.37,2019-09-14,21:42,N,nominal,1.0NRT,285.1,0.4,N
38.79741,64.64613,317.5,0.42,0.38,2019-09-14,21:42,N,nominal,1.0NRT,286.7,1.4,N
38.97079,63.59155,296.6,0.4,0.37,2019-09-14,21:42,N,nominal,1.0NRT,286.6,0.4,N
38.44475,66.39405,297.4,0.49,0.4,2019-09-14,21:42,N,nominal,1.0NRT,283.3,0.5,N
38.91584,63.8063,296.9,0.4,0.37,2019-09-14,21:42,N,nominal,1.0NRT,284,0.4,N
37.65708,62.24515,310.8,0.39,0.36,2019-09-14,21:42,N,nominal,1.0NRT,284.1,0.7,N
37.65379,62.24429,298.2,0.39,0.36,2019-09-14,21:42,N,nominal,1.0NRT,283.9,0.7,N
37.6505,62.24343,309.4,0.39,0.36,2019-09-14,21:42,N,nominal,1.0NRT,285.6,1.1,N
37.63977,62.20432,309,0.39,0.36,2019-09-14,21:42,N,nominal,1.0NRT,287,1.1,N
37.63647,62.20346,301.6,0.39,0.36,2019-09-14,21:42,N,nominal,1.0NRT,284,0.9,N
37.62774,62.21479,304,0.39,0.36,2019-09-14,21:42,N,nominal,1.0NRT,285.9,1.1,N
37.62629,62.12607,296.3,0.39,0.36,2019-09-14,21:42,N,nominal,1.0NRT,285,0.5,N
37.62086,62.13825,296.4,0.39,0.36,2019-09-14,21:42,N,nominal,1.0NRT,283.5,1,N
37.62015,62.1426,307.4,0.39,0.36,2019-09-14,21:42,N,nominal,1.0NRT,278.2,1,N
37.65497,61.90741,316.5,0.39,0.36,2019-09-14,21:42,N,nominal,1.0NRT,287.8,1.6,N
38.21048,57.98912,301.1,0.45,0.39,2019-09-14,21:42,N,nominal,1.0NRT,286.2,0.7,N
38.14769,58.39278,296.3,0.43,0.38,2019-09-14,21:42,N,nominal,1.0NRT,286.3,0.8,N
38.17498,57.98199,299.4,0.45,0.39,2019-09-14,21:42,N,nominal,1.0NRT,286.9,0.6,N
37.62954,61.72523,298.6,0.38,0.36,2019-09-14,21:42,N,nominal,1.0NRT,285.3,0.4,N
37.55538,61.93352,325.9,0.39,0.36,2019-09-14,21:42,N,nominal,1.0NRT,288.2,2.7,N
37.61298,61.57461,304.4,0.38,0.36,2019-09-14,21:42,N,nominal,1.0NRT,283.4,1.2,N
37.609,61.5781,308.8,0.38,0.36,2019-09-14,21:42,N,nominal,1.0NRT,284.8,0.5,N
37.60587,61.55484,309.7,0.38,0.36,2019-09-14,21:42,N,nominal,1.0NRT,279.1,0.7,N
37.60258,61.55401,308.8,0.38,0.36,2019-09-14,21:42,N,nominal,1.0NRT,281.3,0.7,N
37.58807,61.55934,313.4,0.38,0.36,2019-09-14,21:42,N,nominal,1.0NRT,283.3,2,N
37.58738,61.56366,310.7,0.38,0.36,2019-09-14,21:42,N,nominal,1.0NRT,283.4,1.4,N
37.48137,62.00924,297,0.39,0.36,2019-09-14,21:42,N,nominal,1.0NRT,287,0.5,N
37.48303,61.97807,305.8,0.39,0.36,2019-09-14,21:42,N,nominal,1.0NRT,285.2,1,N
38.02781,58.17823,303.7,0.44,0.38,2019-09-14,21:42,N,nominal,1.0NRT,288.4,1,N
37.49754,61.84659,309.5,0.39,0.36,2019-09-14,21:42,N,nominal,1.0NRT,286.3,1.1,N
37.49684,61.85091,309.8,0.39,0.36,2019-09-14,21:42,N,nominal,1.0NRT,287.3,1.1,N
37.93497,58.86242,300.7,0.42,0.37,2019-09-14,21:42,N,nominal,1.0NRT,286.3,0.6,N
37.87683,58.80934,295.8,0.42,0.38,2019-09-14,21:42,N,nominal,1.0NRT,285.4,0.2,N
37.63238,60.34288,303.9,0.39,0.36,2019-09-14,21:42,N,nominal,1.0NRT,288.8,0.6,N
37.50994,61.01711,311.1,0.38,0.36,2019-09-14,21:42,N,nominal,1.0NRT,287.7,0.9,N
37.73816,59.31238,303.2,0.41,0.37,2019-09-14,21:42,N,nominal,1.0NRT,285.2,0.4,N
37.73783,59.31401,300.6,0.41,0.37,2019-09-14,21:42,N,nominal,1.0NRT,284.9,1.2,N
37.73444,59.31327,325.1,0.41,0.37,2019-09-14,21:42,N,nominal,1.0NRT,287.3,1.2,N
37.35028,61.36433,311,0.38,0.36,2019-09-14,21:42,N,nominal,1.0NRT,286.6,1.4,N
37.48592,60.45915,299.6,0.39,0.36,2019-09-14,21:42,N,nominal,1.0NRT,282.7,0.9,N
37.347,61.36351,319.2,0.38,0.36,2019-09-14,21:42,N,nominal,1.0NRT,286.7,1.4,N
37.32811,61.0971,299.3,0.38,0.36,2019-09-14,21:42,N,nominal,1.0NRT,286.5,0.5,N
37.32482,61.09629,301.2,0.38,0.36,2019-09-14,21:42,N,nominal,1.0NRT,286.1,0.6,N
37.38971,60.47034,299.5,0.39,0.36,2019-09-14,21:42,N,nominal,1.0NRT,287.4,0.3,N
37.42675,59.95024,296.6,0.39,0.36,2019-09-14,21:42,N,nominal,1.0NRT,286.1,0.2,N
37.18692,59.99107,306.2,0.39,0.36,2019-09-14,21:42,N,nominal,1.0NRT,288.4,1,N
37.18628,59.99545,310.7,0.39,0.36,2019-09-14,21:42,N,nominal,1.0NRT,289,1.1,N
37.45485,57.68859,306.7,0.45,0.39,2019-09-14,21:42,N,nominal,1.0NRT,285.7,0.7,N
37.45129,57.68782,308,0.45,0.39,2019-09-14,21:42,N,nominal,1.0NRT,286.3,1.1,N
36.96674,60.71374,299.6,0.38,0.36,2019-09-14,21:42,N,nominal,1.0NRT,285.5,0.5,N
36.43963,61.21905,326.6,0.38,0.36,2019-09-14,21:42,N,nominal,1.0NRT,289.2,2.4,N
36.46768,60.84578,304.8,0.38,0.36,2019-09-14,21:42,N,nominal,1.0NRT,291,1.5,N
36.28403,61.40376,301.5,0.39,0.36,2019-09-14,21:42,N,nominal,1.0NRT,285.2,0.4,N
36.48194,59.74679,305.6,0.39,0.36,2019-09-14,21:42,N,nominal,1.0NRT,286.7,0.8,N
36.47861,59.74604,296.2,0.39,0.36,2019-09-14,21:42,N,nominal,1.0NRT,285.8,0.9,N
35.94881,62.91819,306.2,0.41,0.37,2019-09-14,21:42,N,nominal,1.0NRT,288,1.1,N
36.42594,59.70707,296.4,0.39,0.36,2019-09-14,21:42,N,nominal,1.0NRT,281.9,0.9,N
33.90364,71.91408,305,0.39,0.59,2019-09-14,21:42,N,nominal,1.0NRT,291.6,1,N
36.23667,59.73159,304.1,0.39,0.36,2019-09-14,21:42,N,nominal,1.0NRT,285.1,1,N
36.34497,58.67681,300,0.41,0.37,2019-09-14,21:42,N,nominal,1.0NRT,287.8,1.5,N
36.33602,58.6654,299.2,0.41,0.37,2019-09-14,21:42,N,nominal,1.0NRT,284.8,0.9,N
36.3354,58.66999,309.2,0.41,0.37,2019-09-14,21:42,N,nominal,1.0NRT,285.2,1.2,N
36.32425,54.61989,296.7,0.4,0.44,2019-09-14,21:42,N,nominal,1.0NRT,285.8,0.2,N
35.35398,60.21442,300.6,0.39,0.36,2019-09-14,21:42,N,nominal,1.0NRT,282.9,0.9,N
32.88871,71.61932,305.6,0.4,0.6,2019-09-14,21:42,N,nominal,1.0NRT,292.5,1.4,N
32.88866,71.61916,307,0.4,0.6,2019-09-14,21:42,N,nominal,1.0NRT,292.7,1.3,N
37.89682,69.46574,309.7,0.47,0.48,2019-09-14,21:42,N,nominal,1.0NRT,286.2,2.9,N
37.8926,69.46403,322.1,0.47,0.48,2019-09-14,21:42,N,nominal,1.0NRT,288.3,2.5,N
37.89136,69.46944,339.2,0.47,0.48,2019-09-14,21:42,N,nominal,1.0NRT,289.4,2.5,N
39.10565,63.40361,295.4,0.4,0.37,2019-09-14,21:42,N,nominal,1.0NRT,284.9,0.2,N
37.89009,69.47497,318.3,0.47,0.48,2019-09-14,21:42,N,nominal,1.0NRT,287.3,2.6,N
37.88586,69.47332,331.3,0.47,0.48,2019-09-14,21:42,N,nominal,1.0NRT,287.2,2.6,N
39.08678,63.49326,296.3,0.4,0.37,2019-09-14,21:42,N,nominal,1.0NRT,284.9,0.4,N
37.88837,69.46242,295.6,0.47,0.48,2019-09-14,21:42,N,nominal,1.0NRT,285.2,2.5,N
37.88712,69.46784,305.7,0.47,0.48,2019-09-14,21:42,N,nominal,1.0NRT,286,2.5,N
37.88461,69.4788,295.4,0.47,0.48,2019-09-14,21:42,N,nominal,1.0NRT,284.7,2.6,N
37.73969,62.07616,316.7,0.39,0.36,2019-09-14,21:42,N,nominal,1.0NRT,286,0.9,N
37.72628,62.09533,318.8,0.39,0.36,2019-09-14,21:42,N,nominal,1.0NRT,287,1.8,N
37.6684,62.23903,319.7,0.39,0.36,2019-09-14,21:42,N,nominal,1.0NRT,286.3,1.4,N
38.68048,54.31749,307.4,0.44,0.46,2019-09-14,21:42,N,nominal,1.0NRT,287.5,0.8,N
37.66109,62.24166,306.8,0.39,0.36,2019-09-14,21:42,N,nominal,1.0NRT,284.4,0.8,N
37.96746,65.04505,295.7,0.45,0.39,2019-09-14,21:42,N,nominal,1.0NRT,285.2,0.7,N
38.00216,64.99753,296.9,0.44,0.39,2019-09-14,21:42,N,nominal,1.0NRT,285.2,0.2,N
38.05559,64.88428,303.4,0.44,0.38,2019-09-14,21:42,N,nominal,1.0NRT,285.9,0.7,N
39.50784,54.33082,298.6,0.45,0.47,2019-09-14,21:42,N,nominal,1.0NRT,287.6,0.7,N
38.0736,64.82732,295.8,0.44,0.38,2019-09-14,21:42,N,nominal,1.0NRT,285.3,0.3,N
38.05016,65.10865,298,0.45,0.39,2019-09-14,21:42,N,nominal,1.0NRT,284.9,0.4,N
38.11859,64.74258,297.3,0.43,0.38,2019-09-14,21:42,N,nominal,1.0NRT,285.2,0.5,N
38.16354,64.5972,296.3,0.43,0.38,2019-09-14,21:42,N,nominal,1.0NRT,284.6,0.4,N
38.16442,64.59236,308.4,0.43,0.38,2019-09-14,21:42,N,nominal,1.0NRT,285.2,1.3,N
38.78535,63.86758,296.1,0.41,0.37,2019-09-14,21:42,N,nominal,1.0NRT,285.4,0.5,N
38.45448,65.80709,301.1,0.47,0.39,2019-09-14,21:42,N,nominal,1.0NRT,284.9,0.5,N
38.87103,63.80036,309.4,0.4,0.37,2019-09-14,21:42,N,nominal,1.0NRT,285.1,0.6,N
38.87582,63.77279,296.7,0.4,0.37,2019-09-14,21:42,N,nominal,1.0NRT,284.2,0.2,N
39.06828,62.73024,330.5,0.39,0.36,2019-09-14,21:42,N,nominal,1.0NRT,291.5,9.2,N
37.90427,65.10543,299.1,0.45,0.39,2019-09-14,21:42,N,nominal,1.0NRT,285.2,0.7,N
37.87275,65.25086,295,0.45,0.39,2019-09-14,21:42,N,nominal,1.0NRT,284.5,0.4,N
37.82898,65.17693,297.3,0.45,0.39,2019-09-14,21:42,N,nominal,1.0NRT,284.9,0.6,N
37.73324,65.50074,297.6,0.47,0.39,2019-09-14,21:42,N,nominal,1.0NRT,286.6,0.8,N
37.71462,65.24202,295.2,0.46,0.39,2019-09-14,21:42,N,nominal,1.0NRT,283.4,0.5,N
37.95903,62.66677,300,0.39,0.36,2019-09-14,21:42,N,nominal,1.0NRT,285.3,0.5,N
37.7965,62.55202,317.4,0.39,0.36,2019-09-14,21:42,N,nominal,1.0NRT,284.1,1.4,N
37.78475,62.52839,299.4,0.39,0.36,2019-09-14,21:42,N,nominal,1.0NRT,281.7,0.5,N
37.78145,62.52751,299.2,0.39,0.36,2019-09-14,21:42,N,nominal,1.0NRT,284.2,1,N
37.77592,62.10238,301.5,0.39,0.36,2019-09-14,21:42,N,nominal,1.0NRT,285.5,0.8,N
37.84573,61.60529,303.8,0.38,0.36,2019-09-14,21:42,N,nominal,1.0NRT,280.8,1.1,N
37.84244,61.60446,295.8,0.38,0.36,2019-09-14,21:42,N,nominal,1.0NRT,276.4,0.9,N
37.74435,62.13176,313.7,0.39,0.36,2019-09-14,21:42,N,nominal,1.0NRT,286.8,0.7,N
37.74106,62.13091,296,0.39,0.36,2019-09-14,21:42,N,nominal,1.0NRT,283.8,0.7,N
39.74905,75.38895,299.7,0.42,0.61,2019-09-14,21:42,N,nominal,1.0NRT,277.2,0.8,N
39.52934,64.84023,303.8,0.42,0.38,2019-09-14,21:42,N,nominal,1.0NRT,286.8,0.8,N
39.18713,65.28719,295.7,0.44,0.38,2019-09-14,21:42,N,nominal,1.0NRT,284.5,1.1,N
38.32423,68.98699,299.5,0.43,0.46,2019-09-14,21:42,N,nominal,1.0NRT,286.1,1,N
39.35175,63.24084,307.1,0.39,0.36,2019-09-14,21:42,N,nominal,1.0NRT,285.6,0.5,N
39.41033,62.8493,299,0.39,0.36,2019-09-14,21:42,N,nominal,1.0NRT,286.4,0.6,N
39.21562,63.56047,299.8,0.4,0.37,2019-09-14,21:42,N,nominal,1.0NRT,284.4,0.6,N
39.25021,63.21478,299.8,0.39,0.36,2019-09-14,21:42,N,nominal,1.0NRT,285.3,0.6,N
39.25043,63.17249,300.9,0.39,0.36,2019-09-14,21:42,N,nominal,1.0NRT,284.8,0.5,N
39.17767,63.57828,297.7,0.4,0.37,2019-09-14,21:42,N,nominal,1.0NRT,284.4,0.4,N
38.91272,65.01312,298.3,0.43,0.38,2019-09-14,21:42,N,nominal,1.0NRT,286.2,0.4,N
39.19345,63.28372,304.2,0.39,0.36,2019-09-14,21:42,N,nominal,1.0NRT,285.6,0.6,N
39.15837,63.46799,306,0.4,0.37,2019-09-14,21:42,N,nominal,1.0NRT,285.3,0.8,N
39.15687,63.47034,309.2,0.4,0.37,2019-09-14,21:42,N,nominal,1.0NRT,286.5,1,N
39.19612,63.19762,312.1,0.39,0.36,2019-09-14,21:42,N,nominal,1.0NRT,286.1,1.1,N
39.18399,63.26961,296.8,0.39,0.36,2019-09-14,21:42,N,nominal,1.0NRT,284.3,0.4,N
39.17789,63.30567,299.9,0.39,0.36,2019-09-14,21:42,N,nominal,1.0NRT,285.4,0.5,N
39.17356,63.29029,296.8,0.39,0.36,2019-09-14,21:42,N,nominal,1.0NRT,285.9,0.5,N
38.68425,65.99023,314.9,0.47,0.4,2019-09-14,21:42,N,nominal,1.0NRT,285,1.8,N
39.17253,63.27583,297.1,0.39,0.36,2019-09-14,21:42,N,nominal,1.0NRT,286.1,0.5,N
39.17101,63.28484,305.4,0.39,0.36,2019-09-14,21:42,N,nominal,1.0NRT,288,0.9,N
39.16922,63.2749,305.9,0.39,0.36,2019-09-14,21:42,N,nominal,1.0NRT,286.4,1,N
39.16896,63.25596,311.7,0.39,0.36,2019-09-14,21:42,N,nominal,1.0NRT,287.4,1,N
39.1682,63.26046,312.9,0.39,0.36,2019-09-14,21:42,N,nominal,1.0NRT,286.8,1.1,N
39.13131,63.47735,296.4,0.4,0.37,2019-09-14,21:42,N,nominal,1.0NRT,285.3,0.2,N
38.67971,65.9549,295.8,0.47,0.4,2019-09-14,21:42,N,nominal,1.0NRT,283.8,1.5,N
38.67868,65.96019,300.7,0.47,0.4,2019-09-14,21:42,N,nominal,1.0NRT,283.9,0.8,N
38.67765,65.9655,298.8,0.47,0.4,2019-09-14,21:42,N,nominal,1.0NRT,283.4,0.8,N
39.15496,63.31812,307.8,0.39,0.36,2019-09-14,21:42,N,nominal,1.0NRT,285.8,0.6,N
39.127,63.46187,300.2,0.4,0.37,2019-09-14,21:42,N,nominal,1.0NRT,285.4,0.3,N
39.13403,63.35953,297.5,0.39,0.37,2019-09-14,21:42,N,nominal,1.0NRT,285,0.3,N
39.11792,63.39286,301.3,0.4,0.37,2019-09-14,21:42,N,nominal,1.0NRT,285.5,0.4,N
37.901,69.46754,297.9,0.47,0.48,2019-09-14,21:42,N,nominal,1.0NRT,285.5,2.9,N
37.89558,69.47111,341.2,0.47,0.48,2019-09-14,21:42,N,nominal,1.0NRT,289.8,2.9,N
37.89431,69.47668,317.2,0.47,0.48,2019-09-14,21:42,N,nominal,1.0NRT,287.4,3.7,N
26.85245,55.85339,332.2,0.42,0.38,2019-09-14,21:48,N,nominal,1.0NRT,302.1,2.1,N
27.15886,56.10029,311.9,0.42,0.37,2019-09-14,21:48,N,nominal,1.0NRT,300.5,1.2,N
27.17513,56.06018,312,0.42,0.37,2019-09-14,21:48,N,nominal,1.0NRT,300.5,1.6,N
28.20709,61.30337,304.5,0.43,0.38,2019-09-14,21:48,N,nominal,1.0NRT,291.2,1,N
28.63519,59.07579,305.9,0.38,0.36,2019-09-14,21:48,N,nominal,1.0NRT,288.4,0.7,N
29.98277,55.84892,295.5,0.45,0.39,2019-09-14,21:48,N,nominal,1.0NRT,283.5,0.5,N
29.98928,55.85462,314,0.45,0.39,2019-09-14,21:48,N,nominal,1.0NRT,284.4,1.6,N
29.99282,55.85527,328.5,0.45,0.39,2019-09-14,21:48,N,nominal,1.0NRT,288.3,2.7,N
29.47552,60.80605,296.8,0.4,0.37,2019-09-14,21:48,N,nominal,1.0NRT,284.4,0.4,N
30.21566,55.98368,304.1,0.44,0.39,2019-09-14,21:48,N,nominal,1.0NRT,286.8,0.9,N
30.3207,55.97446,304.4,0.45,0.39,2019-09-14,21:48,N,nominal,1.0NRT,288.4,0.9,N
30.32425,55.97507,307.6,0.45,0.39,2019-09-14,21:48,N,nominal,1.0NRT,288.7,0.9,N
30.3786,55.86495,312.9,0.45,0.39,2019-09-14,21:48,N,nominal,1.0NRT,288.8,1.7,N
30.38155,55.87026,299.6,0.45,0.39,2019-09-14,21:48,N,nominal,1.0NRT,287.9,0.8,N
30.34961,56.13982,301.2,0.44,0.38,2019-09-14,21:48,N,nominal,1.0NRT,286.6,0.4,N
30.35788,56.1319,298.8,0.44,0.38,2019-09-14,21:48,N,nominal,1.0NRT,287.3,0.4,N
30.36907,56.12918,315.1,0.44,0.38,2019-09-14,21:48,N,nominal,1.0NRT,288.5,2.2,N
25.96536,56.0668,314.5,0.41,0.37,2019-09-14,21:48,N,nominal,1.0NRT,302,1.3,N
26.849,55.85277,325.4,0.42,0.38,2019-09-14,21:48,N,nominal,1.0NRT,300.6,1.5,N
26.95662,55.54436,312.9,0.43,0.38,2019-09-14,21:48,N,nominal,1.0NRT,301.6,1.3,N
30.15522,60.73314,301.4,0.4,0.37,2019-09-14,21:48,N,nominal,1.0NRT,289,0.8,N
27.30045,56.3024,315.7,0.41,0.37,2019-09-14,21:48,N,nominal,1.0NRT,299.5,1.1,N
27.30387,56.30302,310.4,0.41,0.37,2019-09-14,21:48,N,nominal,1.0NRT,299.5,1.1,N
27.42223,56.50074,327.2,0.41,0.37,2019-09-14,21:48,N,nominal,1.0NRT,297.6,2.7,N
27.2263,60.49011,312.3,0.41,0.37,2019-09-14,21:48,N,nominal,1.0NRT,293.4,2.3,N
22.52624,54.05358,339.4,0.45,0.39,2019-09-14,21:48,N,nominal,1.0NRT,302.3,9.3,N
21.94495,56.03551,323.6,0.39,0.36,2019-09-14,21:48,N,nominal,1.0NRT,298.6,1.7,N
21.94162,56.03492,309.3,0.39,0.36,2019-09-14,21:48,N,nominal,1.0NRT,297.7,1.7,N
21.45963,57.24454,305.5,0.38,0.36,2019-09-14,21:48,N,nominal,1.0NRT,294.9,0.8,N
21.33496,57.80683,306.2,0.39,0.36,2019-09-14,21:48,N,nominal,1.0NRT,285.2,0.6,N
21.32986,57.77506,311.6,0.39,0.36,2019-09-14,21:48,N,nominal,1.0NRT,295.4,1.2,N
21.30233,57.79691,312.5,0.39,0.36,2019-09-14,21:48,N,nominal,1.0NRT,293.3,0.9,N
21.30172,57.80065,308.1,0.39,0.36,2019-09-14,21:48,N,nominal,1.0NRT,292.3,0.9,N
21.42491,55.73922,322.6,0.39,0.36,2019-09-14,21:48,N,nominal,1.0NRT,297.5,2.6,N
20.98672,57.7977,313.6,0.39,0.36,2019-09-14,21:48,N,nominal,1.0NRT,270.9,1.3,N
20.99997,57.61175,309.9,0.39,0.36,2019-09-14,21:48,N,nominal,1.0NRT,286.8,0.9,N
20.37427,55.9361,330.2,0.39,0.36,2019-09-14,21:48,N,nominal,1.0NRT,292.7,2.4,N
20.37484,55.9324,303.9,0.39,0.36,2019-09-14,21:48,N,nominal,1.0NRT,291.9,2,N
20.38413,55.64809,308.6,0.39,0.36,2019-09-14,21:48,N,nominal,1.0NRT,291,0.7,N
20.21424,55.738,313.3,0.39,0.36,2019-09-14,21:48,N,nominal,1.0NRT,290.6,0.7,N
18.68797,55.50437,331.3,0.39,0.36,2019-09-14,21:48,N,nominal,1.0NRT,290.8,3.1,N
25.50183,72.08924,297.6,0.63,0.72,2019-09-14,21:48,N,nominal,1.0NRT,276.7,1.3,N
25.49946,72.08843,297.9,0.63,0.72,2019-09-14,21:48,N,nominal,1.0NRT,276.6,1.2,N
31.62331,54.74372,306.8,0.52,0.42,2019-09-14,21:48,N,nominal,1.0NRT,291.2,1.2,N
33.04158,56.85062,306,0.44,0.38,2019-09-14,21:48,N,nominal,1.0NRT,293.5,0.9,N
32.92255,60.23337,307.1,0.38,0.36,2019-09-14,21:48,N,nominal,1.0NRT,285.9,1.2,N
33.62899,59.16999,296.9,0.39,0.36,2019-09-14,21:48,N,nominal,1.0NRT,286.8,0.7,N
33.75124,59.14692,296.4,0.39,0.36,2019-09-14,21:48,N,nominal,1.0NRT,282.7,0.5,N
33.75455,59.14763,309.9,0.39,0.36,2019-09-14,21:48,N,nominal,1.0NRT,284.4,1.2,N
18.17143,55.25356,295.1,0.39,0.36,2019-09-14,21:48,N,nominal,1.0NRT,270.7,0.5,N
18.03367,54.64328,310.8,0.4,0.37,2019-09-14,21:48,N,nominal,1.0NRT,289,1.3,N
18.68741,55.50803,329.3,0.39,0.36,2019-09-14,21:48,N,nominal,1.0NRT,290.1,3.1,N
18.70941,55.34224,312.2,0.39,0.36,2019-09-14,21:48,N,nominal,1.0NRT,290.5,0.9,N
18.55653,55.87112,312.5,0.38,0.36,2019-09-14,21:48,N,nominal,1.0NRT,279.8,0.7,N
18.31964,55.10494,326.4,0.39,0.36,2019-09-14,21:48,N,nominal,1.0NRT,279.2,1.9,N
22.16185,57.04533,314.7,0.38,0.36,2019-09-14,21:48,N,nominal,1.0NRT,296.8,1.4,N
22.60798,54.05555,336,0.45,0.39,2019-09-14,21:48,N,nominal,1.0NRT,300.2,5.3,N
22.61156,54.05612,338.1,0.45,0.39,2019-09-14,21:48,N,nominal,1.0NRT,300.9,5.3,N
22.67451,54.12873,314.3,0.45,0.39,2019-09-14,21:48,N,nominal,1.0NRT,297.9,1.3,N
22.28845,57.42281,326,0.38,0.36,2019-09-14,21:48,N,nominal,1.0NRT,295.3,2.6,N
22.404,56.98843,334.4,0.38,0.36,2019-09-14,21:48,N,nominal,1.0NRT,300.1,3.9,N
23.31052,54.17966,309.9,0.45,0.39,2019-09-14,21:48,N,nominal,1.0NRT,296.6,1.9,N
23.15183,55.44714,313.3,0.41,0.37,2019-09-14,21:48,N,nominal,1.0NRT,300.2,1.3,N
23.19126,55.46494,313.4,0.41,0.37,2019-09-14,21:48,N,nominal,1.0NRT,301.5,2.2,N
22.6572,59.40929,311.5,0.42,0.37,2019-09-14,21:48,N,nominal,1.0NRT,297.9,3.3,N
22.65992,59.41403,310.3,0.42,0.37,2019-09-14,21:48,N,nominal,1.0NRT,296.1,3.3,N
22.66062,59.41,336,0.42,0.37,2019-09-14,21:48,N,nominal,1.0NRT,301,3.3,N
23.48299,58.2808,325.1,0.39,0.36,2019-09-14,21:48,N,nominal,1.0NRT,301.9,1.9,N
23.48521,58.28092,316.7,0.39,0.36,2019-09-14,21:48,N,nominal,1.0NRT,301,0.5,N
23.55306,58.20036,311.8,0.39,0.36,2019-09-14,21:48,N,nominal,1.0NRT,299.9,2.3,N
24.50555,56.59546,312.4,0.39,0.36,2019-09-14,21:48,N,nominal,1.0NRT,300.7,1.4,N
24.5038,56.607,340.1,0.39,0.36,2019-09-14,21:48,N,nominal,1.0NRT,302,5.2,N
24.50612,56.60649,333.4,0.39,0.36,2019-09-14,21:48,N,nominal,1.0NRT,301.6,4,N
25.0638,55.11818,315.4,0.43,0.38,2019-09-14,21:48,N,nominal,1.0NRT,302.3,1.8,N
25.34981,54.4842,314.7,0.46,0.39,2019-09-14,21:48,N,nominal,1.0NRT,301.5,0.7,N
25.59852,54.42619,329.6,0.46,0.39,2019-09-14,21:48,N,nominal,1.0NRT,301.8,2.2,N
25.70021,54.30184,318.1,0.47,0.4,2019-09-14,21:48,N,nominal,1.0NRT,301.7,1.2,N
25.70386,54.30243,319.8,0.47,0.4,2019-09-14,21:48,N,nominal,1.0NRT,301.6,1,N
25.55918,55.98399,312.4,0.41,0.37,2019-09-14,21:48,N,nominal,1.0NRT,301.9,0.9,N
25.89935,54.53849,310.7,0.46,0.39,2019-09-14,21:48,N,nominal,1.0NRT,299.8,0.8,N
25.89995,54.53386,335,0.46,0.39,2019-09-14,21:48,N,nominal,1.0NRT,302.1,2.8,N
25.90357,54.53446,331.6,0.46,0.39,2019-09-14,21:48,N,nominal,1.0NRT,301.9,1.3,N
38.67683,54.31424,295.4,0.72,0.76,2019-09-14,23:24,N,nominal,1.0NRT,284.4,0.5,N
38.6834,54.31775,295.1,0.72,0.76,2019-09-14,23:24,N,nominal,1.0NRT,284.8,0.5,N
38.67745,54.31728,304.3,0.73,0.76,2019-09-14,23:24,N,nominal,1.0NRT,285,0.9,N
