latitude,longitude,bright_ti4,scan,track,acq_date,acq_time,satellite,confidence,version,bright_ti5,frp,daynight
9.65097,-63.52981,332.5,0.4,0.37,2019-10-08,05:48,N,nominal,1.0NRT,288.3,4.5,N
11.74789,-70.17173,305.7,0.43,0.46,2019-10-08,05:48,N,nominal,1.0NRT,286.6,0.5,N
11.74322,-70.20103,310.9,0.43,0.46,2019-10-08,05:48,N,nominal,1.0NRT,284.5,2.4,N
11.74266,-70.19694,315.1,0.43,0.46,2019-10-08,05:48,N,nominal,1.0NRT,287.1,3.3,N
11.73899,-70.20175,344.4,0.43,0.46,2019-10-08,05:48,N,nominal,1.0NRT,286.6,22.7,N
11.73843,-70.1976,317.7,0.43,0.46,2019-10-08,05:48,N,nominal,1.0NRT,290.7,13.9,N
11.73788,-70.19353,311.5,0.43,0.46,2019-10-08,05:48,N,nominal,1.0NRT,287.9,13.9,N
11.73474,-70.20235,308.1,0.43,0.46,2019-10-08,05:48,N,nominal,1.0NRT,285.5,22.7,N
11.73419,-70.19824,311.2,0.43,0.46,2019-10-08,05:48,N,nominal,1.0NRT,286.2,13.9,N
11.63173,-70.23629,349.6,0.44,0.46,2019-10-08,05:48,N,nominal,1.0NRT,292,7.9,N
11.62162,-70.22545,333.5,0.43,0.46,2019-10-08,05:48,N,nominal,1.0NRT,291.9,4.4,N
10.18552,-61.69536,309.8,0.46,0.39,2019-10-08,05:48,N,nominal,1.0NRT,287.1,1.3,N
10.18127,-61.69184,321.1,0.46,0.39,2019-10-08,05:48,N,nominal,1.0NRT,287.9,2.8,N
10.18194,-61.69596,306.3,0.46,0.39,2019-10-08,05:48,N,nominal,1.0NRT,287,1.3,N
10.17769,-61.69245,316.8,0.46,0.39,2019-10-08,05:48,N,nominal,1.0NRT,287.8,2.4,N
10.39981,-64.16702,318.4,0.39,0.36,2019-10-08,05:48,N,nominal,1.0NRT,291.4,1.4,N
10.00665,-62.23707,311.1,0.43,0.38,2019-10-08,05:48,N,nominal,1.0NRT,289.3,5.5,N
10.24433,-64.55441,302.3,0.38,0.36,2019-10-08,05:48,N,nominal,1.0NRT,279,0.6,N
10.58855,-67.07711,304.4,0.43,0.38,2019-10-08,05:48,N,nominal,1.0NRT,282.6,1,N
9.97824,-63.17914,305.6,0.4,0.37,2019-10-08,05:48,N,nominal,1.0NRT,290.4,0.4,N
9.97486,-63.17971,311.7,0.4,0.37,2019-10-08,05:48,N,nominal,1.0NRT,290.2,0.4,N
10.41962,-66.95472,304.4,0.42,0.38,2019-10-08,05:48,N,nominal,1.0NRT,285.1,0.8,N
9.85399,-63.33773,335.4,0.4,0.37,2019-10-08,05:48,N,nominal,1.0NRT,291.3,6.7,N
10.08127,-64.8744,330.6,0.38,0.36,2019-10-08,05:48,N,nominal,1.0NRT,287.2,5.5,N
10.08073,-64.8709,327.2,0.38,0.36,2019-10-08,05:48,N,nominal,1.0NRT,287.3,4.7,N
10.07578,-64.86095,325.5,0.38,0.36,2019-10-08,05:48,N,nominal,1.0NRT,288.9,2.2,N
10.08069,-64.89239,306.3,0.38,0.36,2019-10-08,05:48,N,nominal,1.0NRT,287.4,1,N
10.07793,-64.89642,309.7,0.38,0.36,2019-10-08,05:48,N,nominal,1.0NRT,287.4,1.8,N
10.07738,-64.89291,315.6,0.38,0.36,2019-10-08,05:48,N,nominal,1.0NRT,287.7,1,N
10.05978,-64.86709,321.4,0.38,0.36,2019-10-08,05:48,N,nominal,1.0NRT,289,2.1,N
10.06032,-64.87057,309,0.38,0.36,2019-10-08,05:48,N,nominal,1.0NRT,288.5,1.4,N
10.06029,-64.89207,329.5,0.38,0.36,2019-10-08,05:48,N,nominal,1.0NRT,288.8,3.7,N
10.05701,-64.87111,342.9,0.38,0.36,2019-10-08,05:48,N,nominal,1.0NRT,291.5,4.2,N
10.05647,-64.86761,349.6,0.38,0.36,2019-10-08,05:48,N,nominal,1.0NRT,291.6,8.7,N
10.0592,-64.88509,311,0.38,0.36,2019-10-08,05:48,N,nominal,1.0NRT,287.3,1.4,N
10.05756,-64.8746,306.2,0.38,0.36,2019-10-08,05:48,N,nominal,1.0NRT,287.8,4.2,N
9.77568,-63.26766,333.5,0.4,0.37,2019-10-08,05:48,N,nominal,1.0NRT,290.6,5.5,N
9.77171,-63.26455,312.2,0.4,0.37,2019-10-08,05:48,N,nominal,1.0NRT,288.9,1,N
11.13369,-72.57151,300.3,0.61,0.54,2019-10-08,05:48,N,nominal,1.0NRT,277.5,1.7,N
11.13023,-72.58352,302.9,0.61,0.54,2019-10-08,05:48,N,nominal,1.0NRT,278.1,3.1,N
9.74297,-63.42998,332.4,0.4,0.37,2019-10-08,05:48,N,nominal,1.0NRT,290.3,2.8,N
9.73989,-63.47503,303.1,0.4,0.37,2019-10-08,05:48,N,nominal,1.0NRT,288.1,2.9,N
9.73931,-63.47142,317.3,0.4,0.37,2019-10-08,05:48,N,nominal,1.0NRT,288,5,N
9.73652,-63.47556,344.4,0.4,0.37,2019-10-08,05:48,N,nominal,1.0NRT,291.4,2.9,N
9.73594,-63.47196,352,0.4,0.37,2019-10-08,05:48,N,nominal,1.0NRT,293.2,5,N
9.73711,-63.47916,303.6,0.4,0.37,2019-10-08,05:48,N,nominal,1.0NRT,287.6,2.9,N
9.73536,-63.46835,304.8,0.4,0.37,2019-10-08,05:48,N,nominal,1.0NRT,289.2,5,N
9.73316,-63.4761,339.7,0.4,0.37,2019-10-08,05:48,N,nominal,1.0NRT,289.8,3.1,N
9.73023,-63.45804,330.1,0.4,0.37,2019-10-08,05:48,N,nominal,1.0NRT,289.6,1.5,N
9.73374,-63.47969,303.2,0.4,0.37,2019-10-08,05:48,N,nominal,1.0NRT,287.7,3.1,N
9.73257,-63.47248,308.6,0.4,0.37,2019-10-08,05:48,N,nominal,1.0NRT,289.8,2.2,N
9.73082,-63.46165,305.6,0.4,0.37,2019-10-08,05:48,N,nominal,1.0NRT,289.4,2.2,N
9.72745,-63.4622,330.6,0.4,0.37,2019-10-08,05:48,N,nominal,1.0NRT,289.8,2.2,N
9.72687,-63.45858,314.5,0.4,0.37,2019-10-08,05:48,N,nominal,1.0NRT,288.6,1.5,N
9.70253,-63.52885,334.6,0.4,0.37,2019-10-08,05:48,N,nominal,1.0NRT,287.9,4.6,N
9.68318,-63.47267,306.7,0.4,0.37,2019-10-08,05:48,N,nominal,1.0NRT,287.2,0.5,N
9.6826,-63.46904,301.7,0.4,0.37,2019-10-08,05:48,N,nominal,1.0NRT,286.6,0.5,N
9.67982,-63.47321,337.2,0.4,0.37,2019-10-08,05:48,N,nominal,1.0NRT,288.6,1.6,N
9.6804,-63.47683,309,0.4,0.37,2019-10-08,05:48,N,nominal,1.0NRT,287.8,1.2,N
9.67924,-63.46959,309.7,0.4,0.37,2019-10-08,05:48,N,nominal,1.0NRT,286.9,1.6,N
9.67645,-63.47375,328.3,0.4,0.37,2019-10-08,05:48,N,nominal,1.0NRT,286.9,1.6,N
9.67703,-63.47737,309,0.4,0.37,2019-10-08,05:48,N,nominal,1.0NRT,286.6,1.2,N
9.67587,-63.47013,309.7,0.4,0.37,2019-10-08,05:48,N,nominal,1.0NRT,286.9,1.6,N
9.67309,-63.47429,304.4,0.4,0.37,2019-10-08,05:48,N,nominal,1.0NRT,286.7,0.9,N
9.65433,-63.52928,331,0.4,0.37,2019-10-08,05:48,N,nominal,1.0NRT,290.3,4.5,N
9.6555,-63.53649,314,0.4,0.37,2019-10-08,05:48,N,nominal,1.0NRT,288.1,4.1,N
9.65491,-63.53288,314,0.4,0.37,2019-10-08,05:48,N,nominal,1.0NRT,288.2,4.1,N
9.65213,-63.53704,334.2,0.4,0.37,2019-10-08,05:48,N,nominal,1.0NRT,291.2,4.1,N
11.75213,-70.17111,303.1,0.43,0.46,2019-10-08,05:48,N,nominal,1.0NRT,285.8,0.5,N
9.65155,-63.53342,313.2,0.4,0.37,2019-10-08,05:48,N,nominal,1.0NRT,288.6,4.1,N
9.65343,-63.56643,332.1,0.4,0.37,2019-10-08,05:48,N,nominal,1.0NRT,288.4,11.3,N
9.65285,-63.56282,341.8,0.4,0.37,2019-10-08,05:48,N,nominal,1.0NRT,292.6,11.3,N
9.64702,-63.52674,330.6,0.4,0.37,2019-10-08,05:48,N,nominal,1.0NRT,287.4,3.7,N
9.65715,-63.63219,304.3,0.4,0.37,2019-10-08,05:48,N,nominal,1.0NRT,286.2,1,N
9.65657,-63.6286,310.2,0.4,0.37,2019-10-08,05:48,N,nominal,1.0NRT,287.1,1,N
9.65599,-63.62502,316.2,0.4,0.37,2019-10-08,05:48,N,nominal,1.0NRT,284.5,11.2,N
9.65542,-63.62144,317.9,0.4,0.37,2019-10-08,05:48,N,nominal,1.0NRT,284.8,11.2,N
9.65484,-63.61784,310.4,0.4,0.37,2019-10-08,05:48,N,nominal,1.0NRT,286.4,1.7,N
9.64787,-63.57469,307.4,0.4,0.37,2019-10-08,05:48,N,nominal,1.0NRT,286.5,3.2,N
9.65264,-63.62556,330.7,0.4,0.37,2019-10-08,05:48,N,nominal,1.0NRT,287.3,11.2,N
9.65206,-63.62197,346.5,0.4,0.37,2019-10-08,05:48,N,nominal,1.0NRT,299.2,11.2,N
9.64393,-63.57163,342.2,0.4,0.37,2019-10-08,05:48,N,nominal,1.0NRT,287.9,3.2,N
9.64335,-63.56803,330.1,0.4,0.37,2019-10-08,05:48,N,nominal,1.0NRT,287.2,23.2,N
9.64277,-63.56443,350.1,0.4,0.37,2019-10-08,05:48,N,nominal,1.0NRT,294.7,23.2,N
9.64219,-63.56083,326.6,0.4,0.37,2019-10-08,05:48,N,nominal,1.0NRT,296,22,N
9.6416,-63.55722,336.4,0.4,0.37,2019-10-08,05:48,N,nominal,1.0NRT,288.9,22,N
9.64102,-63.55361,329,0.4,0.37,2019-10-08,05:48,N,nominal,1.0NRT,288.2,3.8,N
9.64044,-63.55001,330.5,0.4,0.37,2019-10-08,05:48,N,nominal,1.0NRT,287.9,3.8,N
9.6538,-63.63272,311.2,0.4,0.37,2019-10-08,05:48,N,nominal,1.0NRT,285.9,1,N
9.65322,-63.62915,313.7,0.4,0.37,2019-10-08,05:48,N,nominal,1.0NRT,286.4,1,N
9.65148,-63.61839,312.7,0.4,0.37,2019-10-08,05:48,N,nominal,1.0NRT,286,1.7,N
9.64974,-63.60761,305,0.4,0.37,2019-10-08,05:48,N,nominal,1.0NRT,283.9,1.1,N
9.64451,-63.57522,303.7,0.4,0.37,2019-10-08,05:48,N,nominal,1.0NRT,284.9,3.2,N
9.64929,-63.62609,335.1,0.4,0.37,2019-10-08,05:48,N,nominal,1.0NRT,284.2,2,N
9.64986,-63.62969,311.3,0.4,0.37,2019-10-08,05:48,N,nominal,1.0NRT,284.5,1.7,N
9.64871,-63.62251,312.5,0.4,0.37,2019-10-08,05:48,N,nominal,1.0NRT,281.5,2,N
9.64813,-63.61893,304.5,0.4,0.37,2019-10-08,05:48,N,nominal,1.0NRT,282.7,1.3,N
9.64057,-63.57216,301.7,0.4,0.37,2019-10-08,05:48,N,nominal,1.0NRT,284.5,0.9,N
9.63999,-63.56857,312.5,0.4,0.37,2019-10-08,05:48,N,nominal,1.0NRT,286.7,1.6,N
9.63941,-63.56496,314.5,0.4,0.37,2019-10-08,05:48,N,nominal,1.0NRT,287.3,1.6,N
9.63883,-63.56136,314.6,0.4,0.37,2019-10-08,05:48,N,nominal,1.0NRT,287.3,1.2,N
9.63824,-63.55775,305.2,0.4,0.37,2019-10-08,05:48,N,nominal,1.0NRT,287.1,1.2,N
9.64651,-63.63022,312.4,0.4,0.37,2019-10-08,05:48,N,nominal,1.0NRT,285.2,1.7,N
9.64593,-63.62664,312.3,0.4,0.37,2019-10-08,05:48,N,nominal,1.0NRT,282.1,2,N
9.63026,-63.6916,305.1,0.39,0.37,2019-10-08,05:48,N,nominal,1.0NRT,283.1,1.8,N
9.62748,-63.69572,306.7,0.39,0.37,2019-10-08,05:48,N,nominal,1.0NRT,281.7,0.6,N
9.62413,-63.69626,305.9,0.39,0.37,2019-10-08,05:48,N,nominal,1.0NRT,283.1,0.6,N
9.62356,-63.69268,305.5,0.39,0.37,2019-10-08,05:48,N,nominal,1.0NRT,281.5,0.6,N
9.56179,-63.62914,330.8,0.4,0.37,2019-10-08,05:48,N,nominal,1.0NRT,289.2,2.9,N
9.56237,-63.63272,311.1,0.4,0.37,2019-10-08,05:48,N,nominal,1.0NRT,288.6,2.9,N
9.47303,-64.38789,314.7,0.39,0.36,2019-10-08,05:48,N,nominal,1.0NRT,283.9,1,N
9.29722,-63.89886,304,0.39,0.36,2019-10-08,05:48,N,nominal,1.0NRT,286.5,0.5,N
9.29387,-63.89941,307.6,0.39,0.36,2019-10-08,05:48,N,nominal,1.0NRT,286.1,0.8,N
9.39021,-64.54787,299,0.39,0.36,2019-10-08,05:48,N,nominal,1.0NRT,273.7,1.4,N
9.38965,-64.54439,298.3,0.39,0.36,2019-10-08,05:48,N,nominal,1.0NRT,279.4,3.5,N
9.38634,-64.54492,346.4,0.39,0.36,2019-10-08,05:48,N,nominal,1.0NRT,286.5,3.5,N
9.38689,-64.54841,318.9,0.39,0.36,2019-10-08,05:48,N,nominal,1.0NRT,278.6,1.4,N
9.3764,-64.52502,336,0.39,0.36,2019-10-08,05:48,N,nominal,1.0NRT,286.5,3.3,N
9.37585,-64.52153,309.4,0.39,0.36,2019-10-08,05:48,N,nominal,1.0NRT,284.9,3.3,N
9.3742,-64.53254,331.8,0.39,0.36,2019-10-08,05:48,N,nominal,1.0NRT,281.9,4.8,N
9.37309,-64.52556,339.2,0.39,0.36,2019-10-08,05:48,N,nominal,1.0NRT,288,14.8,N
9.37254,-64.52206,322.5,0.39,0.36,2019-10-08,05:48,N,nominal,1.0NRT,285.5,14.8,N
9.37199,-64.51858,328.6,0.39,0.36,2019-10-08,05:48,N,nominal,1.0NRT,286,1.9,N
9.37475,-64.53603,302.3,0.39,0.36,2019-10-08,05:48,N,nominal,1.0NRT,280.3,2.6,N
9.27601,-64.04424,305.8,0.39,0.36,2019-10-08,05:48,N,nominal,1.0NRT,281.4,2.1,N
9.27268,-64.04478,330.6,0.39,0.36,2019-10-08,05:48,N,nominal,1.0NRT,281.8,2.1,N
9.27211,-64.04124,307.1,0.39,0.36,2019-10-08,05:48,N,nominal,1.0NRT,281.2,2.1,N
9.22792,-64.0591,341.2,0.39,0.36,2019-10-08,05:48,N,nominal,1.0NRT,287.8,6,N
9.22459,-64.05964,303.6,0.39,0.36,2019-10-08,05:48,N,nominal,1.0NRT,285.3,0.9,N
9.02434,-62.94625,300.2,0.42,0.37,2019-10-08,05:48,N,nominal,1.0NRT,284.7,0.5,N
9.23888,-64.29944,305.6,0.39,0.36,2019-10-08,05:48,N,nominal,1.0NRT,281.1,0.8,N
9.23556,-64.29997,324.7,0.39,0.36,2019-10-08,05:48,N,nominal,1.0NRT,281.5,26.8,N
9.23668,-64.307,301,0.39,0.36,2019-10-08,05:48,N,nominal,1.0NRT,282.3,0.5,N
9.23612,-64.30349,317.1,0.39,0.36,2019-10-08,05:48,N,nominal,1.0NRT,282.4,26.8,N
9.235,-64.29646,306,0.39,0.36,2019-10-08,05:48,N,nominal,1.0NRT,280.2,1.3,N
9.2328,-64.30403,341.4,0.39,0.36,2019-10-08,05:48,N,nominal,1.0NRT,283.3,26.8,N
9.23224,-64.30051,328.9,0.39,0.36,2019-10-08,05:48,N,nominal,1.0NRT,296.9,26.8,N
9.23336,-64.30754,305,0.39,0.36,2019-10-08,05:48,N,nominal,1.0NRT,282.3,0.5,N
9.23168,-64.297,313.7,0.39,0.36,2019-10-08,05:48,N,nominal,1.0NRT,281.8,1.3,N
9.22892,-64.30105,328.3,0.39,0.36,2019-10-08,05:48,N,nominal,1.0NRT,284.1,2.5,N
9.23004,-64.30807,301.4,0.39,0.36,2019-10-08,05:48,N,nominal,1.0NRT,282.9,0.6,N
9.22948,-64.30456,319.6,0.39,0.36,2019-10-08,05:48,N,nominal,1.0NRT,283,2.5,N
9.22836,-64.29754,306.1,0.39,0.36,2019-10-08,05:48,N,nominal,1.0NRT,283.1,1,N
9.22204,-64.5107,315.3,0.39,0.36,2019-10-08,05:48,N,nominal,1.0NRT,279.9,0.8,N
9.22695,-64.67098,299.2,0.38,0.36,2019-10-08,05:48,N,nominal,1.0NRT,272,0.3,N
9.2264,-64.6675,297.5,0.38,0.36,2019-10-08,05:48,N,nominal,1.0NRT,271.8,0.3,N
9.04521,-64.20821,311.5,0.39,0.36,2019-10-08,05:48,N,nominal,1.0NRT,283.5,1.4,N
9.04465,-64.20469,309.4,0.39,0.36,2019-10-08,05:48,N,nominal,1.0NRT,283.2,0.8,N
8.93491,-63.92457,321.7,0.39,0.36,2019-10-08,05:48,N,nominal,1.0NRT,285.3,1.4,N
8.90866,-63.80428,301,0.4,0.37,2019-10-08,05:48,N,nominal,1.0NRT,283.2,0.6,N
8.90808,-63.80069,313.7,0.4,0.37,2019-10-08,05:48,N,nominal,1.0NRT,284.4,0.6,N
8.90714,-63.80399,312.7,0.4,0.37,2019-10-08,05:48,N,nominal,1.0NRT,283.4,0.7,N
8.90657,-63.8004,304.6,0.4,0.37,2019-10-08,05:48,N,nominal,1.0NRT,284.1,0.7,N
8.74096,-63.04913,304.4,0.42,0.37,2019-10-08,05:48,N,nominal,1.0NRT,287.7,0.5,N
8.68792,-63.1534,320.4,0.41,0.37,2019-10-08,05:48,N,nominal,1.0NRT,279.6,3,N
8.6845,-63.15396,339.5,0.41,0.37,2019-10-08,05:48,N,nominal,1.0NRT,278.9,3,N
8.5558,-64.13459,332.5,0.39,0.36,2019-10-08,05:48,N,nominal,1.0NRT,284.7,4.1,N
8.52498,-64.07045,304.2,0.39,0.36,2019-10-08,05:48,N,nominal,1.0NRT,285.2,0.4,N
9.51591,-70.97801,311.1,0.45,0.47,2019-10-08,05:48,N,nominal,1.0NRT,287.5,1.7,N
9.51157,-70.97864,316,0.45,0.47,2019-10-08,05:48,N,nominal,1.0NRT,286.5,2,N
8.9344,-67.35198,307.9,0.43,0.38,2019-10-08,05:48,N,nominal,1.0NRT,287.8,0.7,N
8.21827,-62.87101,310.3,0.43,0.38,2019-10-08,05:48,N,nominal,1.0NRT,288.7,1.1,N
8.21706,-62.87426,309.4,0.43,0.38,2019-10-08,05:48,N,nominal,1.0NRT,288.7,1.1,N
8.07654,-72.60115,296.9,0.56,0.51,2019-10-08,05:48,N,nominal,1.0NRT,269.5,0.7,N
18.9277,-70.35515,340,0.55,0.51,2019-10-08,05:48,N,nominal,1.0NRT,289,6.6,N
18.92706,-70.34956,325.1,0.55,0.51,2019-10-08,05:48,N,nominal,1.0NRT,287.9,6.6,N
9.65227,-63.55922,316.6,0.4,0.37,2019-10-08,05:48,N,nominal,1.0NRT,286.5,1.6,N
9.65007,-63.56696,345.6,0.4,0.37,2019-10-08,05:48,N,nominal,1.0NRT,288,11.3,N
9.64949,-63.56335,349.3,0.4,0.37,2019-10-08,05:48,N,nominal,1.0NRT,290.1,11.3,N
9.64891,-63.55975,328.1,0.4,0.37,2019-10-08,05:48,N,nominal,1.0NRT,287.4,1.6,N
9.65935,-63.62448,308.4,0.4,0.37,2019-10-08,05:48,N,nominal,1.0NRT,284.7,0.8,N
9.65877,-63.6209,309.8,0.4,0.37,2019-10-08,05:48,N,nominal,1.0NRT,284.3,0.8,N
9.65123,-63.57416,304.4,0.4,0.37,2019-10-08,05:48,N,nominal,1.0NRT,285.8,1.1,N
9.65065,-63.57056,312.9,0.4,0.37,2019-10-08,05:48,N,nominal,1.0NRT,286.2,1.1,N
9.64832,-63.55615,317,0.4,0.37,2019-10-08,05:48,N,nominal,1.0NRT,286.4,1.6,N
9.64774,-63.55254,307.7,0.4,0.37,2019-10-08,05:48,N,nominal,1.0NRT,286.5,1.3,N
9.64729,-63.57109,343.5,0.4,0.37,2019-10-08,05:48,N,nominal,1.0NRT,287.8,3.2,N
9.64671,-63.56749,324.7,0.4,0.37,2019-10-08,05:48,N,nominal,1.0NRT,286.5,23.2,N
9.64613,-63.56389,341.6,0.4,0.37,2019-10-08,05:48,N,nominal,1.0NRT,287.5,23.2,N
9.64555,-63.56029,337.1,0.4,0.37,2019-10-08,05:48,N,nominal,1.0NRT,288.3,22,N
9.64497,-63.55669,339.7,0.4,0.37,2019-10-08,05:48,N,nominal,1.0NRT,289.7,22,N
9.64438,-63.55308,330.4,0.4,0.37,2019-10-08,05:48,N,nominal,1.0NRT,288.9,3.8,N
26.85328,-101.39609,297.6,0.76,0.77,2019-10-08,07:24,N,nominal,1.0NRT,285.5,3.3,N
25.60397,-100.91912,297.4,0.7,0.75,2019-10-08,07:24,N,nominal,1.0NRT,284.7,1.2,N
23.08386,-81.27121,317.1,0.41,0.45,2019-10-08,07:24,N,nominal,1.0NRT,288.2,1.6,N
22.44141,-97.93944,302.3,0.42,0.61,2019-10-08,07:24,N,nominal,1.0NRT,288.4,1,N
22.41439,-97.95968,303,0.42,0.61,2019-10-08,07:24,N,nominal,1.0NRT,288.4,0.5,N
22.47449,-100.38136,297,0.61,0.71,2019-10-08,07:24,N,nominal,1.0NRT,282.4,0.9,N
22.26748,-97.80956,311.5,0.41,0.61,2019-10-08,07:24,N,nominal,1.0NRT,286,2.5,N
22.26219,-97.81429,311.8,0.41,0.61,2019-10-08,07:24,N,nominal,1.0NRT,286.5,2,N
22.26183,-97.81019,316.6,0.41,0.61,2019-10-08,07:24,N,nominal,1.0NRT,285.2,2.1,N
22.26146,-97.80608,304.2,0.41,0.61,2019-10-08,07:24,N,nominal,1.0NRT,285.8,2.1,N
22.25653,-97.81493,314.1,0.41,0.61,2019-10-08,07:24,N,nominal,1.0NRT,285.7,2,N
22.25937,-97.81277,316.5,0.41,0.61,2019-10-08,07:24,N,nominal,1.0NRT,286.2,3.3,N
22.04343,-98.87059,302.7,0.48,0.65,2019-10-08,07:24,N,nominal,1.0NRT,287.2,1.3,N
22.04204,-98.87135,304.8,0.48,0.65,2019-10-08,07:24,N,nominal,1.0NRT,287.2,1.8,N
19.56455,-92.18797,311.1,0.52,0.41,2019-10-08,07:24,N,nominal,1.0NRT,277.5,3.8,N
19.56734,-92.23796,321.4,0.52,0.41,2019-10-08,07:24,N,nominal,1.0NRT,278.2,3.1,N
19.56352,-92.23853,300,0.52,0.41,2019-10-08,07:24,N,nominal,1.0NRT,277.8,3.1,N
18.04438,-88.26008,316,0.38,0.36,2019-10-08,07:24,N,nominal,1.0NRT,288.5,1.1,N
28.40609,-99.5567,300.1,0.61,0.71,2019-10-08,07:24,N,nominal,1.0NRT,286.7,0.7,N
28.36514,-98.84273,299.5,0.55,0.68,2019-10-08,07:24,N,nominal,1.0NRT,286.9,0.5,N
27.4736,-98.05526,301.2,0.48,0.65,2019-10-08,07:24,N,nominal,1.0NRT,287.7,0.4,N
26.8553,-101.39413,297.1,0.76,0.77,2019-10-08,07:24,N,nominal,1.0NRT,285,3.9,N
26.88313,-101.41221,296.3,0.76,0.77,2019-10-08,07:24,N,nominal,1.0NRT,285.7,3.6,N
26.87669,-101.42874,295.7,0.77,0.77,2019-10-08,07:24,N,nominal,1.0NRT,285.4,3.4,N
17.90105,-93.18374,301.4,0.56,0.43,2019-10-08,07:24,N,nominal,1.0NRT,255.9,2.4,N
32.84469,-83.21518,300.6,0.39,0.36,2019-10-08,07:24,N,nominal,1.0NRT,289.7,0.8,N
32.80465,-94.40353,298.1,0.33,0.55,2019-10-08,07:24,N,nominal,1.0NRT,284.9,0.4,N
31.51955,-84.31792,300.1,0.39,0.36,2019-10-08,07:24,N,nominal,1.0NRT,289.3,0.3,N
31.36284,-84.18777,302.9,0.39,0.36,2019-10-08,07:24,N,nominal,1.0NRT,289,0.7,N
32.45627,-97.03484,301.2,0.47,0.64,2019-10-08,07:24,N,nominal,1.0NRT,288.1,2.2,N
32.4595,-97.03561,306.7,0.47,0.64,2019-10-08,07:24,N,nominal,1.0NRT,289,1.2,N
30.69304,-83.30258,303,0.4,0.37,2019-10-08,07:24,N,nominal,1.0NRT,291.7,0.7,N
32.11946,-96.22683,297.1,0.42,0.61,2019-10-08,07:24,N,nominal,1.0NRT,284.9,0.4,N
31.14997,-87.9882,326.1,0.44,0.38,2019-10-08,07:24,N,nominal,1.0NRT,291.8,2.3,N
31.14936,-87.9836,309.7,0.44,0.38,2019-10-08,07:24,N,nominal,1.0NRT,290.7,2.3,N
30.94117,-88.01089,320.2,0.44,0.38,2019-10-08,07:24,N,nominal,1.0NRT,291.3,1.7,N
30.94178,-88.01548,301.8,0.44,0.38,2019-10-08,07:24,N,nominal,1.0NRT,289.9,1.3,N
30.93825,-88.01611,306.7,0.44,0.38,2019-10-08,07:24,N,nominal,1.0NRT,289.6,1.3,N
30.93764,-88.01154,309.3,0.44,0.38,2019-10-08,07:24,N,nominal,1.0NRT,290.3,1.2,N
31.38212,-94.89172,297.9,0.34,0.56,2019-10-08,07:24,N,nominal,1.0NRT,285.9,0.3,N
31.3554,-96.16625,306.5,0.41,0.6,2019-10-08,07:24,N,nominal,1.0NRT,288,1.1,N
31.35009,-96.17123,303.9,0.41,0.6,2019-10-08,07:24,N,nominal,1.0NRT,288.1,1.3,N
30.34296,-88.48731,308.6,0.45,0.39,2019-10-08,07:24,N,nominal,1.0NRT,292.7,1.5,N
31.29474,-101.18587,303.5,0.8,0.78,2019-10-08,07:24,N,nominal,1.0NRT,281.3,0.9,N
30.35012,-91.2086,322.6,0.41,0.45,2019-10-08,07:24,N,nominal,1.0NRT,289.2,1.5,N
30.35058,-91.21287,303,0.41,0.45,2019-10-08,07:24,N,nominal,1.0NRT,288.6,1.5,N
30.346,-91.20921,307.2,0.41,0.45,2019-10-08,07:24,N,nominal,1.0NRT,288.5,1.5,N
30.81192,-96.65213,301.4,0.43,0.62,2019-10-08,07:24,N,nominal,1.0NRT,287.5,0.5,N
30.26676,-90.86168,299.2,0.39,0.44,2019-10-08,07:24,N,nominal,1.0NRT,289,0.5,N
30.18614,-90.98996,309.1,0.39,0.44,2019-10-08,07:24,N,nominal,1.0NRT,290,1.2,N
30.00167,-90.39999,313,0.55,0.42,2019-10-08,07:24,N,nominal,1.0NRT,292.8,2.8,N
29.99775,-90.4006,320.9,0.55,0.42,2019-10-08,07:24,N,nominal,1.0NRT,293.1,2.5,N
29.9984,-90.40631,306.6,0.55,0.42,2019-10-08,07:24,N,nominal,1.0NRT,291.8,1.4,N
29.99711,-90.3949,308.7,0.55,0.42,2019-10-08,07:24,N,nominal,1.0NRT,293.8,2.5,N
29.99449,-90.40693,302.4,0.55,0.42,2019-10-08,07:24,N,nominal,1.0NRT,291,1.4,N
30.00218,-90.40088,303.7,0.55,0.42,2019-10-08,07:24,N,nominal,1.0NRT,292.7,3.5,N
30.0015,-90.39519,308.3,0.55,0.42,2019-10-08,07:24,N,nominal,1.0NRT,291.9,1.4,N
29.99826,-90.40149,333.2,0.55,0.42,2019-10-08,07:24,N,nominal,1.0NRT,293.7,3.5,N
29.99758,-90.3958,305.8,0.55,0.42,2019-10-08,07:24,N,nominal,1.0NRT,293.3,1.4,N
28.72143,-82.32594,295.5,0.45,0.39,2019-10-08,07:24,N,nominal,1.0NRT,274.5,0.8,N
29.68366,-91.4743,304.4,0.41,0.45,2019-10-08,07:24,N,nominal,1.0NRT,290.6,1,N
29.68603,-91.47191,301.1,0.41,0.45,2019-10-08,07:24,N,nominal,1.0NRT,290.1,0.4,N
29.57577,-98.03326,327.1,0.5,0.66,2019-10-08,07:24,N,nominal,1.0NRT,289,3.3,N
29.16887,-97.42324,305.3,0.46,0.64,2019-10-08,07:24,N,nominal,1.0NRT,287.9,0.7,N
29.13338,-97.56993,299.5,0.47,0.64,2019-10-08,07:24,N,nominal,1.0NRT,287.9,0.4,N
29.0131,-97.88433,308,0.49,0.65,2019-10-08,07:24,N,nominal,1.0NRT,287.7,0.8,N
28.95965,-97.91003,301.5,0.49,0.65,2019-10-08,07:24,N,nominal,1.0NRT,288.4,0.9,N
28.95603,-97.95216,314.6,0.49,0.65,2019-10-08,07:24,N,nominal,1.0NRT,288,1.4,N
28.95891,-97.9116,298.4,0.49,0.65,2019-10-08,07:24,N,nominal,1.0NRT,287.8,0.8,N
28.95856,-97.90644,308.3,0.49,0.65,2019-10-08,07:24,N,nominal,1.0NRT,287.9,0.8,N
28.95554,-97.95372,304.1,0.49,0.65,2019-10-08,07:24,N,nominal,1.0NRT,288.1,0.6,N
28.9552,-97.94844,300.3,0.49,0.65,2019-10-08,07:24,N,nominal,1.0NRT,287.5,0.6,N
28.94542,-97.89233,298.7,0.49,0.65,2019-10-08,07:24,N,nominal,1.0NRT,287.9,0.5,N
17.89246,-93.17959,300.6,0.56,0.43,2019-10-08,07:24,N,nominal,1.0NRT,255.3,1.4,N
17.89314,-93.18489,304,0.56,0.43,2019-10-08,07:24,N,nominal,1.0NRT,256,1.4,N
28.93249,-97.97683,300,0.49,0.65,2019-10-08,07:24,N,nominal,1.0NRT,288.1,0.6,N
28.66359,-98.2848,304,0.51,0.66,2019-10-08,07:24,N,nominal,1.0NRT,288,0.4,N
28.59472,-98.38357,300.6,0.52,0.67,2019-10-08,07:24,N,nominal,1.0NRT,288,0.4,N
28.59598,-98.38181,303.9,0.52,0.67,2019-10-08,07:24,N,nominal,1.0NRT,287.8,0.5,N
28.59721,-99.36409,304.7,0.59,0.7,2019-10-08,07:24,N,nominal,1.0NRT,287.4,1,N
28.50701,-99.27785,301.1,0.59,0.7,2019-10-08,07:24,N,nominal,1.0NRT,287.7,1.1,N
28.54723,-99.27316,304.9,0.59,0.7,2019-10-08,07:24,N,nominal,1.0NRT,287.1,1.2,N
28.50836,-99.28275,302.6,0.59,0.7,2019-10-08,07:24,N,nominal,1.0NRT,287.6,1,N
28.49247,-99.23415,310,0.58,0.7,2019-10-08,07:24,N,nominal,1.0NRT,287.4,1.2,N
28.4097,-99.03423,298.9,0.57,0.69,2019-10-08,07:24,N,nominal,1.0NRT,286.7,0.9,N
28.40889,-99.03433,298.8,0.56,0.69,2019-10-08,07:24,N,nominal,1.0NRT,286.7,1,N
17.97892,-94.11728,310.1,0.42,0.46,2019-10-08,07:30,N,nominal,1.0NRT,262.4,0.8,N
17.84139,-93.11858,332.7,0.55,0.43,2019-10-08,07:30,N,nominal,1.0NRT,244.9,6.5,N
16.21166,-95.17466,306.9,0.47,0.48,2019-10-08,07:30,N,nominal,1.0NRT,281.2,2.5,N
16.2023,-95.17146,307.4,0.47,0.48,2019-10-08,07:30,N,nominal,1.0NRT,283.4,2.2,N
16.20173,-95.16705,306.5,0.47,0.48,2019-10-08,07:30,N,nominal,1.0NRT,281.2,2.2,N
14.47364,-90.88406,330.7,0.41,0.37,2019-10-08,07:30,N,nominal,1.0NRT,269.9,8.2,N
14.47307,-90.88015,313.5,0.41,0.37,2019-10-08,07:30,N,nominal,1.0NRT,263.8,3.2,N
31.18713,-103.63631,302.2,0.43,0.46,2019-10-08,09:06,N,nominal,1.0NRT,285,0.7,N
32.21351,-101.93455,309.2,0.51,0.49,2019-10-08,09:06,N,nominal,1.0NRT,284.7,1.3,N
32.84741,-104.39382,297,0.55,0.42,2019-10-08,09:06,N,nominal,1.0NRT,286.6,1.2,N
32.35279,-101.95742,303,0.5,0.49,2019-10-08,09:06,N,nominal,1.0NRT,285.2,1.2,N
32.42577,-102.11721,304.4,0.49,0.48,2019-10-08,09:06,N,nominal,1.0NRT,285.2,1.3,N
32.40434,-101.54938,300.8,0.53,0.5,2019-10-08,09:06,N,nominal,1.0NRT,282.7,1.2,N
32.46448,-101.71092,297,0.51,0.5,2019-10-08,09:06,N,nominal,1.0NRT,283.4,0.6,N
32.47637,-101.67846,308.7,0.52,0.5,2019-10-08,09:06,N,nominal,1.0NRT,284.1,1.2,N
32.47658,-101.67713,306.9,0.52,0.5,2019-10-08,09:06,N,nominal,1.0NRT,283.4,1.2,N
31.70679,-97.59145,304.2,0.45,0.63,2019-10-08,09:06,N,nominal,1.0NRT,285.9,1.1,N
31.70642,-97.58999,302.2,0.45,0.63,2019-10-08,09:06,N,nominal,1.0NRT,286,1,N
31.3471,-96.16815,318,0.56,0.68,2019-10-08,09:06,N,nominal,1.0NRT,286.9,2.4,N
31.35479,-96.1716,300.6,0.55,0.68,2019-10-08,09:06,N,nominal,1.0NRT,285.5,2.8,N
31.35321,-96.16591,329.7,0.56,0.68,2019-10-08,09:06,N,nominal,1.0NRT,286.9,3.2,N
33.00007,-102.81759,296.7,0.44,0.46,2019-10-08,09:06,N,nominal,1.0NRT,283,0.5,N
32.24366,-97.54871,301.7,0.44,0.63,2019-10-08,09:06,N,nominal,1.0NRT,284.9,0.6,N
32.24458,-97.55221,302.4,0.44,0.63,2019-10-08,09:06,N,nominal,1.0NRT,285.2,1.1,N
32.45483,-97.04322,299,0.47,0.64,2019-10-08,09:06,N,nominal,1.0NRT,286.6,1.9,N
32.45231,-97.04024,297.6,0.47,0.64,2019-10-08,09:06,N,nominal,1.0NRT,286.4,1.8,N
19.67301,-103.37715,305.7,0.38,0.58,2019-10-08,09:06,N,nominal,1.0NRT,275.1,1.2,N
20.63803,-103.33735,296.4,0.36,0.58,2019-10-08,09:06,N,nominal,1.0NRT,279.3,0.4,N
22.18315,-102.20517,296.1,0.4,0.6,2019-10-08,09:06,N,nominal,1.0NRT,283.3,0.7,N
22.0436,-98.86936,301.8,0.64,0.72,2019-10-08,09:06,N,nominal,1.0NRT,283.9,1.4,N
25.48569,-103.39701,299.2,0.57,0.52,2019-10-08,09:06,N,nominal,1.0NRT,288.9,0.7,N
26.80045,-109.65195,307.5,0.4,0.37,2019-10-08,09:06,N,nominal,1.0NRT,295.3,0.7,N
25.60074,-100.92136,299,0.4,0.6,2019-10-08,09:06,N,nominal,1.0NRT,286,0.7,N
25.59992,-100.92182,299.1,0.4,0.6,2019-10-08,09:06,N,nominal,1.0NRT,285.6,1.2,N
27.54237,-109.992,304.9,0.39,0.36,2019-10-08,09:06,N,nominal,1.0NRT,294.4,0.5,N
25.69888,-100.29619,299.2,0.44,0.62,2019-10-08,09:06,N,nominal,1.0NRT,280.5,1.1,N
25.69817,-100.26833,307.4,0.44,0.62,2019-10-08,09:06,N,nominal,1.0NRT,286,1.3,N
25.71671,-100.2954,301.2,0.44,0.62,2019-10-08,09:06,N,nominal,1.0NRT,283.7,1.6,N
25.71776,-100.29977,298.4,0.44,0.62,2019-10-08,09:06,N,nominal,1.0NRT,281.4,1.4,N
25.71881,-100.30412,309.6,0.44,0.62,2019-10-08,09:06,N,nominal,1.0NRT,281.9,1.4,N
25.75196,-100.31741,298.7,0.43,0.62,2019-10-08,09:06,N,nominal,1.0NRT,286,2.1,N
26.01581,-98.4829,309.7,0.55,0.68,2019-10-08,09:06,N,nominal,1.0NRT,289,1.6,N
26.88267,-101.44911,309.4,0.35,0.57,2019-10-08,09:06,N,nominal,1.0NRT,285.8,1.4,N
26.88348,-101.45262,301.3,0.35,0.57,2019-10-08,09:06,N,nominal,1.0NRT,287.7,1.4,N
26.88428,-101.4561,306.3,0.35,0.57,2019-10-08,09:06,N,nominal,1.0NRT,288.8,2.6,N
26.88508,-101.45959,331.4,0.35,0.57,2019-10-08,09:06,N,nominal,1.0NRT,290.8,2.6,N
26.88777,-101.44753,317.2,0.35,0.57,2019-10-08,09:06,N,nominal,1.0NRT,284.9,1,N
26.89017,-101.45797,302.6,0.35,0.57,2019-10-08,09:06,N,nominal,1.0NRT,287.9,0.8,N
28.92626,-110.82539,306.6,0.38,0.36,2019-10-08,09:06,N,nominal,1.0NRT,295,1.8,N
28.68268,-106.0862,298.7,0.53,0.42,2019-10-08,09:06,N,nominal,1.0NRT,287.7,0.7,N
28.68648,-106.08525,305.6,0.53,0.42,2019-10-08,09:06,N,nominal,1.0NRT,288.6,0.7,N
28.68506,-106.08923,310.5,0.53,0.42,2019-10-08,09:06,N,nominal,1.0NRT,289.4,2,N
28.17286,-99.81283,300.4,0.41,0.61,2019-10-08,09:06,N,nominal,1.0NRT,288.5,0.4,N
30.58325,-111.43285,300.6,0.39,0.36,2019-10-08,09:06,N,nominal,1.0NRT,289.8,0.8,N
28.40554,-99.55212,298.3,0.42,0.61,2019-10-08,09:06,N,nominal,1.0NRT,288,0.2,N
30.49646,-109.63347,328.4,0.39,0.36,2019-10-08,09:06,N,nominal,1.0NRT,290.7,3.5,N
30.49976,-109.63275,312.7,0.39,0.36,2019-10-08,09:06,N,nominal,1.0NRT,290,1.4,N
28.40506,-99.0291,306.9,0.45,0.63,2019-10-08,09:06,N,nominal,1.0NRT,287.8,0.8,N
28.36371,-98.83852,308.8,0.46,0.64,2019-10-08,09:06,N,nominal,1.0NRT,287.3,0.6,N
28.51035,-99.27776,302,0.43,0.62,2019-10-08,09:06,N,nominal,1.0NRT,288.3,0.5,N
28.5505,-99.2699,306.8,0.43,0.62,2019-10-08,09:06,N,nominal,1.0NRT,288.4,0.9,N
28.5974,-99.36272,300.9,0.43,0.62,2019-10-08,09:06,N,nominal,1.0NRT,287.9,0.5,N
28.73312,-99.09547,300.4,0.44,0.62,2019-10-08,09:06,N,nominal,1.0NRT,287.6,0.4,N
28.59383,-98.38113,303.5,0.49,0.65,2019-10-08,09:06,N,nominal,1.0NRT,287.7,0.5,N
28.65718,-98.25758,305.5,0.49,0.65,2019-10-08,09:06,N,nominal,1.0NRT,287.5,0.6,N
28.65824,-98.25612,305.2,0.49,0.65,2019-10-08,09:06,N,nominal,1.0NRT,287.4,0.6,N
28.73261,-98.02407,299.2,0.51,0.66,2019-10-08,09:06,N,nominal,1.0NRT,287.6,0.4,N
28.92732,-97.97502,314.2,0.5,0.66,2019-10-08,09:06,N,nominal,1.0NRT,287.5,1.2,N
28.92842,-97.97335,313,0.5,0.66,2019-10-08,09:06,N,nominal,1.0NRT,287.4,1.4,N
32.37165,-117.06882,307.5,0.46,0.47,2019-10-08,09:06,N,nominal,1.0NRT,289.5,1.2,N
28.93643,-97.88109,306.5,0.51,0.66,2019-10-08,09:06,N,nominal,1.0NRT,287.5,0.8,N
28.95397,-97.94816,308.9,0.5,0.66,2019-10-08,09:06,N,nominal,1.0NRT,287.2,0.8,N
28.96238,-97.90632,299.1,0.51,0.66,2019-10-08,09:06,N,nominal,1.0NRT,287.4,0.5,N
28.98644,-97.8249,297.7,0.51,0.66,2019-10-08,09:06,N,nominal,1.0NRT,287.3,0.3,N
29.00838,-97.88493,297.9,0.51,0.66,2019-10-08,09:06,N,nominal,1.0NRT,286.7,0.8,N
28.98636,-97.82455,298.2,0.51,0.66,2019-10-08,09:06,N,nominal,1.0NRT,287.3,0.3,N
29.00868,-97.88445,303.3,0.51,0.66,2019-10-08,09:06,N,nominal,1.0NRT,287,0.8,N
29.13383,-97.71699,306.3,0.51,0.66,2019-10-08,09:06,N,nominal,1.0NRT,287,0.8,N
29.57676,-98.02941,303,0.48,0.65,2019-10-08,09:06,N,nominal,1.0NRT,288,1.5,N
29.57803,-98.03434,302.3,0.48,0.65,2019-10-08,09:06,N,nominal,1.0NRT,287.4,1.9,N
29.68253,-98.18266,305.9,0.47,0.64,2019-10-08,09:06,N,nominal,1.0NRT,287.3,1.1,N
31.0182,-103.4836,300.9,0.44,0.46,2019-10-08,09:06,N,nominal,1.0NRT,285.4,0.7,N
31.0932,-103.46168,295.9,0.44,0.46,2019-10-08,09:06,N,nominal,1.0NRT,285.8,0.4,N
31.28034,-103.62129,299,0.43,0.46,2019-10-08,09:06,N,nominal,1.0NRT,285.2,0.6,N
31.20696,-103.13004,300.4,0.46,0.47,2019-10-08,09:06,N,nominal,1.0NRT,285.8,0.3,N
31.31741,-103.61069,333,0.43,0.46,2019-10-08,09:06,N,nominal,1.0NRT,286,1.7,N
31.20645,-102.95795,306,0.47,0.47,2019-10-08,09:06,N,nominal,1.0NRT,284.9,0.4,N
31.35903,-103.62213,308,0.43,0.46,2019-10-08,09:06,N,nominal,1.0NRT,285.2,1.4,N
31.35995,-103.62655,313.7,0.42,0.46,2019-10-08,09:06,N,nominal,1.0NRT,285.5,1.4,N
31.35638,-103.62508,297.1,0.42,0.46,2019-10-08,09:06,N,nominal,1.0NRT,284.7,1.6,N
31.36049,-103.62389,323,0.42,0.46,2019-10-08,09:06,N,nominal,1.0NRT,286.4,1.6,N
31.96296,-106.5825,297.8,0.45,0.39,2019-10-08,09:06,N,nominal,1.0NRT,287.2,0.7,N
31.96648,-106.5816,317,0.45,0.39,2019-10-08,09:06,N,nominal,1.0NRT,288,0.7,N
31.4182,-103.69111,311.9,0.42,0.45,2019-10-08,09:06,N,nominal,1.0NRT,285.2,0.7,N
31.33183,-103.22017,321.7,0.45,0.47,2019-10-08,09:06,N,nominal,1.0NRT,286.7,2.3,N
31.39466,-103.39132,310.6,0.44,0.46,2019-10-08,09:06,N,nominal,1.0NRT,286.5,0.9,N
31.40488,-103.39794,333.5,0.44,0.46,2019-10-08,09:06,N,nominal,1.0NRT,287,3.2,N
31.35292,-103.04446,296.1,0.46,0.47,2019-10-08,09:06,N,nominal,1.0NRT,284.7,0.5,N
31.58526,-104.06972,315.9,0.4,0.44,2019-10-08,09:06,N,nominal,1.0NRT,285,2.1,N
31.58925,-104.06856,338,0.4,0.44,2019-10-08,09:06,N,nominal,1.0NRT,287.3,2.1,N
31.62392,-104.15474,314.1,0.39,0.44,2019-10-08,09:06,N,nominal,1.0NRT,285.4,1.5,N
31.60921,-104.00121,319,0.4,0.44,2019-10-08,09:06,N,nominal,1.0NRT,284.6,1.9,N
31.63031,-104.08329,311.6,0.4,0.44,2019-10-08,09:06,N,nominal,1.0NRT,284.2,1.5,N
31.62547,-104.01843,336.1,0.4,0.44,2019-10-08,09:06,N,nominal,1.0NRT,286.8,3.9,N
31.6504,-104.09905,308.3,0.4,0.44,2019-10-08,09:06,N,nominal,1.0NRT,284.6,0.6,N
31.67698,-104.12631,296.5,0.39,0.44,2019-10-08,09:06,N,nominal,1.0NRT,283.5,0.3,N
31.49879,-103.14149,295.5,0.45,0.47,2019-10-08,09:06,N,nominal,1.0NRT,283.9,0.2,N
31.717,-104.15446,300.4,0.39,0.44,2019-10-08,09:06,N,nominal,1.0NRT,284.4,0.5,N
31.74313,-104.1386,299,0.39,0.44,2019-10-08,09:06,N,nominal,1.0NRT,284,0.3,N
31.71145,-103.86059,325.5,0.41,0.45,2019-10-08,09:06,N,nominal,1.0NRT,286.6,1.7,N
31.15044,-101.227,295.8,0.58,0.52,2019-10-08,09:06,N,nominal,1.0NRT,282.6,0.4,N
31.19979,-101.33392,302.9,0.57,0.52,2019-10-08,09:06,N,nominal,1.0NRT,284.5,0.9,N
31.14886,-101.22733,304.3,0.58,0.52,2019-10-08,09:06,N,nominal,1.0NRT,283.9,1.5,N
31.20031,-101.33984,299.7,0.57,0.52,2019-10-08,09:06,N,nominal,1.0NRT,284.8,1.9,N
31.499,-102.63995,296.4,0.48,0.48,2019-10-08,09:06,N,nominal,1.0NRT,284.3,1.5,N
31.50333,-102.63869,321.1,0.48,0.48,2019-10-08,09:06,N,nominal,1.0NRT,285.6,1.5,N
31.76584,-103.84272,314.4,0.41,0.45,2019-10-08,09:06,N,nominal,1.0NRT,285.9,1.1,N
33.00182,-110.7692,322,0.39,0.36,2019-10-08,09:06,N,nominal,1.0NRT,295.1,2.5,N
31.20111,-101.25641,312.2,0.58,0.52,2019-10-08,09:06,N,nominal,1.0NRT,285.1,1.6,N
31.87211,-104.27583,295.4,0.38,0.44,2019-10-08,09:06,N,nominal,1.0NRT,283.2,0.5,N
31.26715,-101.41289,295.1,0.57,0.52,2019-10-08,09:06,N,nominal,1.0NRT,284.4,0.7,N
31.4418,-102.19016,300.3,0.51,0.49,2019-10-08,09:06,N,nominal,1.0NRT,285.5,0.7,N
31.80799,-103.90208,301,0.4,0.44,2019-10-08,09:06,N,nominal,1.0NRT,286,0.9,N
31.36032,-101.78127,296.5,0.54,0.51,2019-10-08,09:06,N,nominal,1.0NRT,284,0.8,N
31.36486,-101.77987,323.5,0.54,0.51,2019-10-08,09:06,N,nominal,1.0NRT,285.6,3,N
31.76125,-103.51035,303.7,0.42,0.45,2019-10-08,09:06,N,nominal,1.0NRT,285.7,1.3,N
31.29989,-101.18496,307.2,0.58,0.52,2019-10-08,09:06,N,nominal,1.0NRT,282.5,1.2,N
31.92133,-104.02126,310,0.4,0.44,2019-10-08,09:06,N,nominal,1.0NRT,285.8,1.4,N
30.45593,-97.71857,297.3,0.48,0.65,2019-10-08,09:06,N,nominal,1.0NRT,285.8,0.6,N
31.91171,-103.68597,302.3,0.41,0.45,2019-10-08,09:06,N,nominal,1.0NRT,285.4,0.4,N
32.06468,-104.35818,296,0.57,0.43,2019-10-08,09:06,N,nominal,1.0NRT,284,0.7,N
33.39298,-112.2454,302.3,0.42,0.38,2019-10-08,09:06,N,nominal,1.0NRT,291.8,1.3,N
31.92745,-103.62904,303.9,0.41,0.45,2019-10-08,09:06,N,nominal,1.0NRT,285.2,0.9,N
31.93152,-103.6279,302.8,0.41,0.45,2019-10-08,09:06,N,nominal,1.0NRT,285.4,0.6,N
31.74467,-102.54855,299.1,0.48,0.48,2019-10-08,09:06,N,nominal,1.0NRT,285.4,0.9,N
31.68148,-101.93527,305.6,0.52,0.5,2019-10-08,09:06,N,nominal,1.0NRT,283.3,1.8,N
31.94847,-103.04537,340.6,0.44,0.46,2019-10-08,09:06,N,nominal,1.0NRT,286,5.2,N
32.0196,-103.27615,307.7,0.43,0.46,2019-10-08,09:06,N,nominal,1.0NRT,284.1,1.6,N
31.73013,-101.87408,304.9,0.52,0.5,2019-10-08,09:06,N,nominal,1.0NRT,284.3,1.1,N
32.18999,-104.01646,323.8,0.39,0.44,2019-10-08,09:06,N,nominal,1.0NRT,284.5,1.8,N
32.07864,-103.28575,296.1,0.43,0.46,2019-10-08,09:06,N,nominal,1.0NRT,283.3,0.4,N
32.08246,-103.30366,303.6,0.43,0.46,2019-10-08,09:06,N,nominal,1.0NRT,283.7,1.2,N
31.8451,-102.02655,299.4,0.51,0.49,2019-10-08,09:06,N,nominal,1.0NRT,284.3,0.6,N
31.79266,-101.7487,311.2,0.53,0.5,2019-10-08,09:06,N,nominal,1.0NRT,285.6,1.6,N
32.21021,-103.60206,318.2,0.41,0.45,2019-10-08,09:06,N,nominal,1.0NRT,285.4,1.7,N
32.33309,-104.20319,303,0.57,0.43,2019-10-08,09:06,N,nominal,1.0NRT,284.5,0.9,N
32.337,-104.20208,303.5,0.57,0.43,2019-10-08,09:06,N,nominal,1.0NRT,284.1,1,N
32.30317,-103.92726,300.4,0.39,0.44,2019-10-08,09:06,N,nominal,1.0NRT,284.8,0.3,N
32.30714,-103.92613,303.1,0.39,0.44,2019-10-08,09:06,N,nominal,1.0NRT,285.1,0.4,N
30.80947,-96.64944,298.2,0.54,0.68,2019-10-08,09:06,N,nominal,1.0NRT,286,0.7,N
32.15411,-101.92696,305.6,0.51,0.49,2019-10-08,09:06,N,nominal,1.0NRT,282.9,2.2,N
32.15528,-101.93225,326.4,0.51,0.49,2019-10-08,09:06,N,nominal,1.0NRT,286.1,3.9,N
32.21201,-101.93173,315.1,0.51,0.49,2019-10-08,09:06,N,nominal,1.0NRT,283.9,1.7,N
32.21316,-101.93702,298.8,0.51,0.49,2019-10-08,09:06,N,nominal,1.0NRT,284.8,2.2,N
32.20908,-101.9359,307.1,0.51,0.49,2019-10-08,09:06,N,nominal,1.0NRT,283.9,1.2,N
17.69804,-64.78235,355,0.32,0.55,2019-10-08,16:54,N,nominal,1.0NRT,300.8,4.3,D
18.92937,-70.35475,345.2,0.69,0.74,2019-10-08,16:54,N,nominal,1.0NRT,291,9.6,D
18.9296,-70.35674,344.1,0.69,0.74,2019-10-08,16:54,N,nominal,1.0NRT,290.9,13.2,D
9.0285,-62.94967,343,0.35,0.57,2019-10-08,16:54,N,nominal,1.0NRT,281.8,6,D
9.22985,-64.06163,326.9,0.42,0.61,2019-10-08,16:54,N,nominal,1.0NRT,287.4,2.8,D
9.27321,-64.04597,337.3,0.41,0.61,2019-10-08,16:54,N,nominal,1.0NRT,282.8,3.8,D
8.9058,-72.11107,329.7,0.54,0.51,2019-10-08,18:36,N,nominal,1.0NRT,286.4,5.5,D
8.64169,-74.08418,334.8,0.4,0.44,2019-10-08,18:36,N,nominal,1.0NRT,292.7,2.4,D
8.78762,-73.16047,336.8,0.46,0.47,2019-10-08,18:36,N,nominal,1.0NRT,294.5,5,D
9.31805,-69.31039,337.3,0.43,0.62,2019-10-08,18:36,N,nominal,1.0NRT,278.3,4.5,D
8.87801,-72.92334,342.4,0.48,0.48,2019-10-08,18:36,N,nominal,1.0NRT,295.1,5.3,D
8.91644,-72.67699,344.9,0.5,0.49,2019-10-08,18:36,N,nominal,1.0NRT,289,25.7,D
8.88246,-72.92384,338.5,0.48,0.48,2019-10-08,18:36,N,nominal,1.0NRT,293.6,5.3,D
8.9736,-73.00537,342.1,0.47,0.48,2019-10-08,18:36,N,nominal,1.0NRT,294.7,13.6,D
9.02135,-72.82349,335.2,0.49,0.48,2019-10-08,18:36,N,nominal,1.0NRT,289.2,46.1,D
9.02074,-72.82796,350.5,0.49,0.48,2019-10-08,18:36,N,nominal,1.0NRT,297.1,46.1,D
9.02521,-72.82851,346.1,0.49,0.48,2019-10-08,18:36,N,nominal,1.0NRT,290.3,12.4,D
8.99439,-73.04755,332.2,0.47,0.48,2019-10-08,18:36,N,nominal,1.0NRT,295,3.7,D
9.23826,-72.9934,330.8,0.48,0.48,2019-10-08,18:36,N,nominal,1.0NRT,293.2,6.9,D
9.51496,-70.97948,330.7,0.33,0.55,2019-10-08,18:36,N,nominal,1.0NRT,291.4,1.7,D
9.29902,-72.63851,332.3,0.51,0.49,2019-10-08,18:36,N,nominal,1.0NRT,286.8,4.7,D
9.80493,-70.70834,367,0.35,0.57,2019-10-08,18:36,N,high,1.0NRT,292.7,14,D
11.0903,-68.59966,334.9,0.5,0.66,2019-10-08,18:36,N,nominal,1.0NRT,284.7,9.1,D
11.09085,-68.5949,367,0.5,0.66,2019-10-08,18:36,N,low,1.0NRT,286.3,9.1,D
11.21961,-69.63969,350,0.43,0.62,2019-10-08,18:36,N,nominal,1.0NRT,289.4,5.7,D
14.11978,-86.1442,339.7,0.42,0.45,2019-10-08,18:36,N,nominal,1.0NRT,289.1,10,D
14.21237,-85.87422,337.4,0.4,0.44,2019-10-08,18:36,N,nominal,1.0NRT,281.2,2.3,D
15.08764,-86.95787,329.6,0.45,0.47,2019-10-08,18:36,N,nominal,1.0NRT,293.6,3.1,D
15.1119,-86.99483,332.1,0.45,0.47,2019-10-08,18:36,N,nominal,1.0NRT,292.4,4.3,D
15.27116,-86.52292,340,0.42,0.45,2019-10-08,18:36,N,nominal,1.0NRT,295.6,24.9,D
15.43626,-85.83433,333.6,0.57,0.43,2019-10-08,18:36,N,nominal,1.0NRT,295.9,7.1,D
15.32852,-86.80515,333.1,0.44,0.46,2019-10-08,18:36,N,nominal,1.0NRT,291.9,3.8,D
15.55697,-86.69769,330.3,0.43,0.46,2019-10-08,18:36,N,nominal,1.0NRT,279.9,6.2,D
15.72979,-85.81147,340.5,0.56,0.43,2019-10-08,18:36,N,nominal,1.0NRT,290.6,6.1,D
15.85011,-86.09132,327.6,0.39,0.44,2019-10-08,18:36,N,nominal,1.0NRT,294.4,3.9,D
18.37924,-71.50824,330.2,0.4,0.6,2019-10-08,18:36,N,nominal,1.0NRT,294.2,4.6,D
18.54473,-71.79409,355.1,0.38,0.59,2019-10-08,18:36,N,nominal,1.0NRT,298.7,6.6,D
18.7242,-70.17246,350.6,0.49,0.65,2019-10-08,18:36,N,nominal,1.0NRT,288.1,9.2,D
18.88352,-69.91453,337.8,0.51,0.66,2019-10-08,18:36,N,nominal,1.0NRT,291.4,6.2,D
24.77392,-76.26572,336.2,0.47,0.48,2019-10-08,18:36,N,nominal,1.0NRT,292.4,4.1,D
18.61316,-74.1116,339.3,0.54,0.51,2019-10-08,18:36,N,nominal,1.0NRT,298.1,5.5,D
7.41832,-71.56712,342.3,0.56,0.52,2019-10-08,18:36,N,nominal,1.0NRT,293.7,11,D
8.04765,-67.57722,329.1,0.53,0.67,2019-10-08,18:36,N,nominal,1.0NRT,286.4,4,D
8.6633,-72.41759,334.8,0.51,0.5,2019-10-08,18:36,N,nominal,1.0NRT,294.2,3.5,D
8.51749,-74.3868,330.6,0.57,0.43,2019-10-08,18:36,N,nominal,1.0NRT,292.5,3.1,D
8.72706,-73.01248,337.2,0.47,0.48,2019-10-08,18:36,N,nominal,1.0NRT,293.4,3.6,D
30.12367,-83.29008,328.4,0.39,0.36,2019-10-08,18:42,N,nominal,1.0NRT,298.2,2.5,D
33.21967,-94.22084,331.8,0.55,0.51,2019-10-08,18:42,N,nominal,1.0NRT,299.5,2.2,D
31.36481,-101.78203,344.2,0.79,0.78,2019-10-08,18:42,N,nominal,1.0NRT,295.5,8,D
31.36457,-101.78723,346,0.79,0.78,2019-10-08,18:42,N,nominal,1.0NRT,294.8,9.6,D
33.12849,-95.45301,330.7,0.32,0.55,2019-10-08,18:42,N,nominal,1.0NRT,297.9,2.3,D
33.27295,-95.68222,354.2,0.33,0.55,2019-10-08,18:42,N,nominal,1.0NRT,297.6,2.2,D
33.38688,-95.42793,353.7,0.63,0.54,2019-10-08,18:42,N,nominal,1.0NRT,304.7,31.4,D
33.3853,-95.43462,335.8,0.64,0.54,2019-10-08,18:42,N,nominal,1.0NRT,298.4,12.9,D
33.3867,-95.42907,367,0.63,0.54,2019-10-08,18:42,N,high,1.0NRT,305.9,23.8,D
33.38508,-95.43574,335.6,0.63,0.54,2019-10-08,18:42,N,nominal,1.0NRT,296.4,23.8,D
31.74004,-101.80235,336.7,0.78,0.78,2019-10-08,18:42,N,nominal,1.0NRT,294.1,4.7,D
26.59103,-81.39946,330.6,0.41,0.37,2019-10-08,18:42,N,nominal,1.0NRT,297.3,1.8,D
26.70693,-81.00294,344.6,0.43,0.38,2019-10-08,18:42,N,nominal,1.0NRT,297.7,7.8,D
26.85719,-81.25306,350.6,0.42,0.38,2019-10-08,18:42,N,nominal,1.0NRT,300.8,10.5,D
26.85662,-81.25729,350.7,0.42,0.38,2019-10-08,18:42,N,nominal,1.0NRT,299.1,4.8,D
26.85606,-81.26153,334.9,0.42,0.38,2019-10-08,18:42,N,nominal,1.0NRT,296.9,4.8,D
26.86008,-81.25787,333.2,0.42,0.38,2019-10-08,18:42,N,nominal,1.0NRT,297.6,3,D
27.79793,-81.52457,340.6,0.42,0.38,2019-10-08,18:42,N,nominal,1.0NRT,297.3,6.4,D
28.05861,-82.11511,332.8,0.41,0.37,2019-10-08,18:42,N,nominal,1.0NRT,295.5,5.1,D
28.15017,-81.95226,333.1,0.41,0.37,2019-10-08,18:42,N,nominal,1.0NRT,295,3.9,D
29.34089,-88.0675,332.3,0.47,0.4,2019-10-08,18:42,N,nominal,1.0NRT,294.4,2.8,D
29.34448,-88.06834,332.1,0.47,0.4,2019-10-08,18:42,N,nominal,1.0NRT,292.9,2.8,D
30.12734,-91.17135,336.8,0.43,0.46,2019-10-08,18:42,N,nominal,1.0NRT,298.1,5,D
30.15113,-91.1405,331.7,0.43,0.46,2019-10-08,18:42,N,nominal,1.0NRT,298.5,1.8,D
30.03468,-91.70786,343,0.46,0.47,2019-10-08,18:42,N,nominal,1.0NRT,296.7,4.1,D
30.03897,-91.70904,340.1,0.46,0.47,2019-10-08,18:42,N,nominal,1.0NRT,296.2,4.1,D
29.01438,-96.25771,330.7,0.45,0.63,2019-10-08,18:42,N,nominal,1.0NRT,294.5,3.4,D
28.7222,-97.57216,345.7,0.54,0.68,2019-10-08,18:42,N,nominal,1.0NRT,297.7,7.3,D
30.06694,-92.05795,352.6,0.48,0.48,2019-10-08,18:42,N,nominal,1.0NRT,301.2,28.5,D
30.24648,-91.23396,339,0.43,0.46,2019-10-08,18:42,N,nominal,1.0NRT,298.7,5.1,D
30.00469,-92.44047,335.5,0.51,0.49,2019-10-08,18:42,N,nominal,1.0NRT,298.1,3.8,D
31.54226,-83.90627,333.4,0.39,0.36,2019-10-08,18:42,N,nominal,1.0NRT,300.4,2.9,D
30.00447,-92.44347,332.8,0.51,0.49,2019-10-08,18:42,N,nominal,1.0NRT,298.1,2.8,D
30.02514,-92.56683,337.3,0.52,0.5,2019-10-08,18:42,N,nominal,1.0NRT,296.7,4.9,D
30.94118,-88.01315,340,0.44,0.39,2019-10-08,18:42,N,nominal,1.0NRT,303.4,7.6,D
30.94552,-88.00937,328.7,0.44,0.39,2019-10-08,18:42,N,nominal,1.0NRT,298.6,3.2,D
30.34777,-91.20912,336.2,0.43,0.46,2019-10-08,18:42,N,nominal,1.0NRT,295,3.3,D
31.3957,-85.49682,346.7,0.39,0.36,2019-10-08,18:42,N,nominal,1.0NRT,296.4,5.3,D
31.399,-85.49751,347.5,0.39,0.36,2019-10-08,18:42,N,nominal,1.0NRT,302.5,5.3,D
29.93571,-93.55826,326,0.59,0.53,2019-10-08,18:42,N,nominal,1.0NRT,291,5.3,D
29.93434,-93.56435,334.9,0.59,0.53,2019-10-08,18:42,N,nominal,1.0NRT,291.2,5.3,D
30.18266,-92.50224,326,0.51,0.49,2019-10-08,18:42,N,nominal,1.0NRT,296.7,1.8,D
30.41705,-91.51625,326.5,0.44,0.46,2019-10-08,18:42,N,nominal,1.0NRT,295.8,2.6,D
30.41455,-91.51907,327,0.44,0.46,2019-10-08,18:42,N,low,1.0NRT,297.5,2.1,D
31.60755,-85.17842,340,0.38,0.36,2019-10-08,18:42,N,nominal,1.0NRT,297.8,4.1,D
31.14926,-87.98775,344.7,0.44,0.38,2019-10-08,18:42,N,nominal,1.0NRT,304.9,10.2,D
30.48327,-91.55243,326.4,0.45,0.47,2019-10-08,18:42,N,nominal,1.0NRT,295.4,3.4,D
30.55696,-91.30117,340.7,0.43,0.46,2019-10-08,18:42,N,nominal,1.0NRT,296.6,6.5,D
30.27353,-92.67699,356,0.52,0.5,2019-10-08,18:42,N,nominal,1.0NRT,298.6,17.3,D
30.27238,-92.68234,338.1,0.52,0.5,2019-10-08,18:42,N,nominal,1.0NRT,295.5,5.3,D
30.27318,-92.67797,367,0.52,0.5,2019-10-08,18:42,N,high,1.0NRT,299.1,20,D
30.58722,-91.32567,340.5,0.43,0.46,2019-10-08,18:42,N,nominal,1.0NRT,298.7,5.5,D
30.58347,-91.38583,326.2,0.43,0.46,2019-10-08,18:42,N,nominal,1.0NRT,296.4,1.2,D
32.40923,-80.64792,337.4,0.5,0.41,2019-10-08,18:42,N,nominal,1.0NRT,296.2,7.7,D
30.76103,-91.11826,343.3,0.42,0.45,2019-10-08,18:42,N,nominal,1.0NRT,296.1,6.4,D
30.9053,-90.65554,334.2,0.39,0.44,2019-10-08,18:42,N,nominal,1.0NRT,295.3,24,D
30.90449,-90.65962,341.8,0.39,0.44,2019-10-08,18:42,N,nominal,1.0NRT,297.7,7.9,D
30.90928,-90.65659,356.1,0.39,0.44,2019-10-08,18:42,N,nominal,1.0NRT,304.5,24,D
30.90847,-90.66068,338.2,0.39,0.44,2019-10-08,18:42,N,nominal,1.0NRT,298.3,7.9,D
30.91326,-90.65765,332.8,0.39,0.44,2019-10-08,18:42,N,nominal,1.0NRT,295.3,3.7,D
30.98386,-90.95314,343.9,0.4,0.45,2019-10-08,18:42,N,nominal,1.0NRT,294,5.2,D
29.9453,-95.82918,367,0.4,0.6,2019-10-08,18:42,N,high,1.0NRT,300.1,17.6,D
30.75304,-92.70849,352.9,0.51,0.49,2019-10-08,18:42,N,nominal,1.0NRT,298,28.1,D
30.44066,-94.88919,333.5,0.35,0.56,2019-10-08,18:42,N,nominal,1.0NRT,298.3,3.7,D
30.44657,-94.88721,326.7,0.35,0.56,2019-10-08,18:42,N,low,1.0NRT,297.6,3.2,D
31.65831,-89.17733,327.7,0.48,0.4,2019-10-08,18:42,N,nominal,1.0NRT,297,4.1,D
30.44165,-94.89046,325.9,0.34,0.56,2019-10-08,18:42,N,low,1.0NRT,299,3.5,D
30.44759,-94.88849,331.7,0.34,0.56,2019-10-08,18:42,N,nominal,1.0NRT,298.2,4.1,D
30.73631,-94.12785,367,0.62,0.54,2019-10-08,18:42,N,high,1.0NRT,302.9,14.8,D
30.73775,-94.12151,340.5,0.61,0.54,2019-10-08,18:42,N,nominal,1.0NRT,299.6,11.8,D
30.74259,-94.12298,332,0.61,0.54,2019-10-08,18:42,N,nominal,1.0NRT,299.7,11.8,D
30.74115,-94.12933,334.5,0.62,0.54,2019-10-08,18:42,N,nominal,1.0NRT,295.5,14.8,D
30.73825,-94.12368,348.2,0.61,0.54,2019-10-08,18:42,N,nominal,1.0NRT,302.3,21.7,D
30.73678,-94.13001,354.5,0.61,0.54,2019-10-08,18:42,N,nominal,1.0NRT,299.4,21.7,D
30.74456,-94.11882,332.7,0.61,0.54,2019-10-08,18:42,N,nominal,1.0NRT,296.6,6.1,D
30.74309,-94.12516,325.7,0.61,0.54,2019-10-08,18:42,N,low,1.0NRT,300,6.1,D
30.74162,-94.13148,326.3,0.61,0.54,2019-10-08,18:42,N,nominal,1.0NRT,294.2,6.1,D
30.7494,-94.12029,335.7,0.61,0.54,2019-10-08,18:42,N,nominal,1.0NRT,294.7,6.1,D
33.13811,-80.12039,339.1,0.54,0.42,2019-10-08,18:42,N,nominal,1.0NRT,294.4,4.6,D
30.78477,-94.55474,367,0.32,0.55,2019-10-08,18:42,N,high,1.0NRT,302.3,51.6,D
30.78323,-94.5613,353.8,0.32,0.55,2019-10-08,18:42,N,nominal,1.0NRT,304.7,24.5,D
30.01119,-97.67,340.9,0.51,0.66,2019-10-08,18:42,N,nominal,1.0NRT,305.1,5.2,D
30.784,-94.55802,316.4,0.32,0.55,2019-10-08,18:42,N,low,1.0NRT,318.7,51.6,D
31.24476,-92.53278,339.8,0.49,0.48,2019-10-08,18:42,N,nominal,1.0NRT,296.3,14.6,D
31.24367,-92.53782,353.1,0.49,0.48,2019-10-08,18:42,N,nominal,1.0NRT,298.2,19.6,D
32.70238,-85.15127,330.9,0.38,0.36,2019-10-08,18:42,N,nominal,1.0NRT,296.3,6.5,D
31.19258,-94.78005,339.6,0.33,0.55,2019-10-08,18:42,N,nominal,1.0NRT,298,2.2,D
31.38155,-94.89153,367,0.33,0.55,2019-10-08,18:42,N,high,1.0NRT,299.1,5.4,D
33.3521,-85.03931,343.2,0.38,0.36,2019-10-08,18:42,N,nominal,1.0NRT,300.7,23,D
33.35149,-85.04344,331.5,0.38,0.36,2019-10-08,18:42,N,nominal,1.0NRT,296.6,6.1,D
33.35602,-85.0359,330.2,0.39,0.36,2019-10-08,18:42,N,nominal,1.0NRT,294.9,15.5,D
33.3554,-85.04002,354.1,0.38,0.36,2019-10-08,18:42,N,nominal,1.0NRT,302.9,15.5,D
33.35479,-85.04414,334.3,0.38,0.36,2019-10-08,18:42,N,nominal,1.0NRT,295.5,3.2,D
31.55599,-94.5716,335.3,0.63,0.54,2019-10-08,18:42,N,nominal,1.0NRT,309.3,108.4,D
31.5545,-94.57798,339.6,0.63,0.54,2019-10-08,18:42,N,nominal,1.0NRT,299.5,17.6,D
33.10456,-86.79956,327.5,0.39,0.37,2019-10-08,18:42,N,low,1.0NRT,301.3,2.6,D
31.63531,-94.75042,367,0.32,0.54,2019-10-08,18:42,N,high,1.0NRT,306,8.7,D
31.63454,-94.75368,344.5,0.32,0.54,2019-10-08,18:42,N,nominal,1.0NRT,297,8.7,D
31.63945,-94.75523,367,0.32,0.54,2019-10-08,18:42,N,high,1.0NRT,301.4,5,D
31.64022,-94.75196,329.4,0.32,0.54,2019-10-08,18:42,N,nominal,1.0NRT,295.9,5,D
31.62641,-95.11765,367,0.33,0.56,2019-10-08,18:42,N,high,1.0NRT,302.3,15.5,D
31.62558,-95.12111,355.8,0.33,0.56,2019-10-08,18:42,N,nominal,1.0NRT,297,9.9,D
33.35085,-86.89874,333.3,0.4,0.37,2019-10-08,18:42,N,nominal,1.0NRT,300.5,5,D
32.07584,-93.66178,325.1,0.54,0.51,2019-10-08,18:42,N,nominal,1.0NRT,295.7,2.7,D
31.18969,-97.6972,334.9,0.48,0.65,2019-10-08,18:42,N,nominal,1.0NRT,302.7,4.5,D
31.19393,-97.69155,330.3,0.48,0.64,2019-10-08,18:42,N,low,1.0NRT,305.2,5,D
31.9246,-94.90314,325,0.32,0.55,2019-10-08,18:42,N,nominal,1.0NRT,297,2.3,D
32.22727,-93.96466,327.1,0.56,0.51,2019-10-08,18:42,N,nominal,1.0NRT,296.9,5,D
32.22593,-93.97051,333.2,0.56,0.51,2019-10-08,18:42,N,nominal,1.0NRT,296.1,3.9,D
32.77111,-91.62286,344.9,0.41,0.45,2019-10-08,18:42,N,nominal,1.0NRT,300.1,7.3,D
32.48825,-94.57652,328.4,0.6,0.53,2019-10-08,18:42,N,nominal,1.0NRT,297.8,4.1,D
30.14418,-83.31484,330.9,0.39,0.36,2019-10-08,18:42,N,nominal,1.0NRT,297,3,D
30.39407,-82.95083,330.1,0.4,0.37,2019-10-08,18:42,N,nominal,1.0NRT,293.8,3.2,D
30.51347,-83.36198,335.3,0.39,0.36,2019-10-08,18:42,N,nominal,1.0NRT,302.2,4.8,D
30.51681,-83.36261,331.3,0.39,0.36,2019-10-08,18:42,N,nominal,1.0NRT,299.8,2.8,D
30.89855,-84.72015,340.4,0.38,0.36,2019-10-08,18:42,N,nominal,1.0NRT,306.8,4.4,D
29.81127,-90.87772,341.7,0.42,0.45,2019-10-08,18:42,N,nominal,1.0NRT,300.1,7.6,D
29.81538,-90.87881,336.4,0.42,0.45,2019-10-08,18:42,N,nominal,1.0NRT,298.3,3.3,D
29.92461,-90.65738,345.9,0.41,0.45,2019-10-08,18:42,N,nominal,1.0NRT,297.6,4.4,D
28.7162,-96.10781,346.6,0.44,0.63,2019-10-08,18:42,N,nominal,1.0NRT,293.7,9.5,D
28.71509,-96.11233,345.8,0.44,0.63,2019-10-08,18:42,N,nominal,1.0NRT,293.8,7.1,D
29.92866,-90.65847,367,0.41,0.45,2019-10-08,18:42,N,high,1.0NRT,303.5,16.5,D
29.92783,-90.66266,343.9,0.41,0.45,2019-10-08,18:42,N,nominal,1.0NRT,303,16.5,D
29.99975,-90.40439,331.6,0.39,0.44,2019-10-08,18:42,N,low,1.0NRT,301.7,5.7,D
29.88693,-90.95644,341.5,0.42,0.45,2019-10-08,18:42,N,nominal,1.0NRT,300.1,8.4,D
29.88603,-90.96078,332.6,0.42,0.45,2019-10-08,18:42,N,nominal,1.0NRT,299.6,4.9,D
30.96806,-84.9736,334.7,0.38,0.36,2019-10-08,18:42,N,nominal,1.0NRT,302.9,4.6,D
28.71512,-96.11179,367,0.44,0.63,2019-10-08,18:42,N,high,1.0NRT,294.3,8.8,D
30.97136,-84.97428,341.7,0.38,0.36,2019-10-08,18:42,N,nominal,1.0NRT,304.9,4.6,D
28.71625,-96.10728,332.4,0.44,0.63,2019-10-08,18:42,N,nominal,1.0NRT,293,8.6,D
30.00676,-90.62167,341.1,0.4,0.45,2019-10-08,18:42,N,nominal,1.0NRT,298.3,7.2,D
29.98218,-90.76509,341.9,0.41,0.45,2019-10-08,18:42,N,nominal,1.0NRT,300.1,12.7,D
30.03126,-90.56285,327.6,0.4,0.44,2019-10-08,18:42,N,low,1.0NRT,297.6,10.7,D
30.03044,-90.56698,342.3,0.4,0.44,2019-10-08,18:42,N,nominal,1.0NRT,303.1,10.7,D
29.99763,-90.77362,340.7,0.41,0.45,2019-10-08,18:42,N,nominal,1.0NRT,299.3,3.8,D
30.02042,-90.96809,341.3,0.42,0.45,2019-10-08,18:42,N,nominal,1.0NRT,297.9,3.6,D
31.39635,-83.25501,344.6,0.4,0.37,2019-10-08,18:42,N,nominal,1.0NRT,304.6,6.5,D
30.39172,-89.47777,326.9,0.52,0.42,2019-10-08,18:42,N,nominal,1.0NRT,297.7,1.1,D
21.0262,-103.241,342.7,0.52,0.41,2019-10-08,20:18,N,nominal,1.0NRT,303.3,5.7,D
22.67299,-105.76335,332.5,0.42,0.37,2019-10-08,20:18,N,nominal,1.0NRT,299.8,2.4,D
22.67643,-105.76391,333.6,0.42,0.37,2019-10-08,20:18,N,nominal,1.0NRT,299.6,2.7,D
23.74712,-98.83324,339.1,0.34,0.56,2019-10-08,20:18,N,nominal,1.0NRT,295.5,2.4,D
23.97735,-106.89359,339.1,0.4,0.37,2019-10-08,20:18,N,nominal,1.0NRT,302.6,5,D
24.883,-107.49934,336.9,0.39,0.36,2019-10-08,20:18,N,nominal,1.0NRT,304.7,5.1,D
26.02688,-98.02098,331.3,0.41,0.61,2019-10-08,20:18,N,nominal,1.0NRT,292.5,3.6,D
24.99445,-111.57236,337.8,0.44,0.39,2019-10-08,20:18,N,low,1.0NRT,312.2,3.9,D
25.05167,-111.57433,340.2,0.44,0.39,2019-10-08,20:18,N,low,1.0NRT,313.2,5,D
26.69766,-98.50868,335.3,0.39,0.59,2019-10-08,20:18,N,nominal,1.0NRT,297.1,8.5,D
25.73737,-108.89236,337,0.38,0.36,2019-10-08,20:18,N,nominal,1.0NRT,304.8,1.8,D
25.85865,-108.47073,336.8,0.38,0.36,2019-10-08,20:18,N,nominal,1.0NRT,302.4,4,D
26.88266,-101.41326,347,0.52,0.5,2019-10-08,20:18,N,nominal,1.0NRT,306.4,8.4,D
26.88822,-101.4508,337.8,0.51,0.5,2019-10-08,20:18,N,nominal,1.0NRT,306.5,4.7,D
26.15576,-108.9897,333.8,0.38,0.36,2019-10-08,20:18,N,low,1.0NRT,304.6,2.9,D
26.20938,-108.97141,339.4,0.38,0.36,2019-10-08,20:18,N,nominal,1.0NRT,305,13,D
27.42808,-98.3598,332.8,0.4,0.6,2019-10-08,20:18,N,nominal,1.0NRT,294.5,3.8,D
27.2889,-100.2149,341.3,0.62,0.54,2019-10-08,20:18,N,nominal,1.0NRT,301.7,9.2,D
26.43636,-109.14813,342.9,0.38,0.36,2019-10-08,20:18,N,nominal,1.0NRT,306.5,10,D
26.43966,-109.14875,367,0.38,0.36,2019-10-08,20:18,N,high,1.0NRT,306.3,10,D
26.44296,-109.14938,335.8,0.38,0.36,2019-10-08,20:18,N,nominal,1.0NRT,304.7,3,D
26.48675,-109.06287,331.8,0.38,0.36,2019-10-08,20:18,N,low,1.0NRT,303.7,2.4,D
26.88118,-109.53384,335.5,0.39,0.36,2019-10-08,20:18,N,low,1.0NRT,309.1,2.7,D
16.2044,-95.17003,327,0.48,0.65,2019-10-08,20:18,N,nominal,1.0NRT,287.7,8.4,D
19.18155,-96.23694,337.2,0.45,0.63,2019-10-08,20:18,N,nominal,1.0NRT,283.7,4.1,D
18.8254,-102.13183,334.6,0.56,0.43,2019-10-08,20:18,N,nominal,1.0NRT,292.9,6.8,D
18.9983,-102.23707,336,0.55,0.43,2019-10-08,20:18,N,nominal,1.0NRT,297.2,8.1,D
19.06468,-102.37054,348.4,0.55,0.42,2019-10-08,20:18,N,nominal,1.0NRT,297.7,10.2,D
18.95584,-103.92604,334.1,0.45,0.39,2019-10-08,20:18,N,nominal,1.0NRT,291,4.2,D
19.11947,-102.81821,332.9,0.52,0.41,2019-10-08,20:18,N,nominal,1.0NRT,298.7,4.4,D
19.11884,-102.82314,328.6,0.52,0.41,2019-10-08,20:18,N,low,1.0NRT,299.3,4,D
19.16108,-102.94411,330.5,0.51,0.41,2019-10-08,20:18,N,nominal,1.0NRT,295,3.4,D
20.16186,-102.37169,342.6,0.56,0.43,2019-10-08,20:18,N,nominal,1.0NRT,299.6,7.8,D
21.02238,-103.2406,330.7,0.52,0.41,2019-10-08,20:18,N,low,1.0NRT,302.9,5.7,D
27.59729,-110.04844,341.5,0.39,0.36,2019-10-08,20:24,N,low,1.0NRT,315.5,8.8,D
27.6006,-110.0491,341.7,0.39,0.36,2019-10-08,20:24,N,low,1.0NRT,312.2,8.8,D
29.24298,-96.56293,341.1,0.54,0.68,2019-10-08,20:24,N,nominal,1.0NRT,302,6.1,D
28.97871,-100.77277,336,0.6,0.53,2019-10-08,20:24,N,nominal,1.0NRT,301.3,2.9,D
29.44916,-96.23222,334.7,0.56,0.69,2019-10-08,20:24,N,nominal,1.0NRT,297.3,2.6,D
29.45032,-96.23115,336.4,0.57,0.69,2019-10-08,20:24,N,nominal,1.0NRT,297.1,2.7,D
29.57942,-98.03321,331.7,0.44,0.63,2019-10-08,20:24,N,nominal,1.0NRT,299,2.6,D
29.48953,-100.39732,367,0.32,0.54,2019-10-08,20:24,N,high,1.0NRT,305.9,18.4,D
29.48925,-100.40074,350.1,0.32,0.54,2019-10-08,20:24,N,nominal,1.0NRT,302.6,10,D
29.94482,-95.82658,356.8,0.6,0.71,2019-10-08,20:24,N,nominal,1.0NRT,300.1,7.2,D
29.06296,-106.28289,333.7,0.45,0.39,2019-10-08,20:24,N,nominal,1.0NRT,299.9,3.8,D
29.06413,-106.28567,332.2,0.45,0.39,2019-10-08,20:24,N,nominal,1.0NRT,299.6,3.8,D
30.01434,-97.66555,342.2,0.47,0.64,2019-10-08,20:24,N,nominal,1.0NRT,303.8,5.9,D
30.78692,-94.55724,367,0.73,0.76,2019-10-08,20:24,N,high,1.0NRT,296.4,53.4,D
30.7866,-94.56532,352,0.72,0.76,2019-10-08,20:24,N,nominal,1.0NRT,294.2,33.2,D
30.78308,-94.55809,355.2,0.73,0.76,2019-10-08,20:24,N,nominal,1.0NRT,294.9,23.2,D
30.79019,-94.55849,367,0.73,0.76,2019-10-08,20:24,N,high,1.0NRT,293.1,23.2,D
30.78992,-94.56647,353.2,0.73,0.76,2019-10-08,20:24,N,nominal,1.0NRT,294.3,23.2,D
29.97154,-107.5966,343.2,0.42,0.37,2019-10-08,20:24,N,nominal,1.0NRT,302.9,2.6,D
31.19779,-97.69458,367,0.48,0.65,2019-10-08,20:24,N,high,1.0NRT,304.5,8.7,D
33.41802,-110.86493,339.4,0.38,0.36,2019-10-08,20:24,N,nominal,1.0NRT,314.3,2.5,D
31.1975,-97.69956,342.8,0.48,0.65,2019-10-08,20:24,N,nominal,1.0NRT,302.1,8.7,D
31.55783,-94.57657,327.5,0.73,0.76,2019-10-08,20:24,N,nominal,1.0NRT,295.2,5.7,D
31.62516,-95.11665,353,0.68,0.74,2019-10-08,20:24,N,nominal,1.0NRT,298,11.8,D
31.11466,-103.50574,337.4,0.44,0.46,2019-10-08,20:24,N,nominal,1.0NRT,307.1,2.5,D
31.36419,-101.78208,342.5,0.55,0.51,2019-10-08,20:24,N,nominal,1.0NRT,303.7,2.9,D
31.36496,-101.78274,341.7,0.55,0.51,2019-10-08,20:24,N,nominal,1.0NRT,303.5,5.5,D
30.49954,-109.63082,334.4,0.38,0.36,2019-10-08,20:24,N,low,1.0NRT,306.1,5.6,D
31.33271,-103.22008,340,0.46,0.47,2019-10-08,20:24,N,nominal,1.0NRT,304.1,1.9,D
31.333,-103.22367,336.2,0.46,0.47,2019-10-08,20:24,N,nominal,1.0NRT,303.9,1.5,D
31.32129,-103.61333,343.6,0.43,0.46,2019-10-08,20:24,N,nominal,1.0NRT,305.9,3.2,D
31.3954,-103.39151,343.3,0.45,0.47,2019-10-08,20:24,N,nominal,1.0NRT,305.9,2.2,D
31.40353,-103.39735,335.1,0.45,0.47,2019-10-08,20:24,N,low,1.0NRT,306.1,1.1,D
31.50093,-102.63828,346.7,0.49,0.49,2019-10-08,20:24,N,nominal,1.0NRT,308.1,8.7,D
31.50544,-102.63885,344.1,0.49,0.49,2019-10-08,20:24,N,nominal,1.0NRT,304,8.7,D
31.5023,-102.64107,344.8,0.49,0.49,2019-10-08,20:24,N,nominal,1.0NRT,307.7,11.6,D
31.73908,-101.79626,348.5,0.56,0.51,2019-10-08,20:24,N,nominal,1.0NRT,310.6,75.9,D
31.73856,-101.80221,351.3,0.56,0.51,2019-10-08,20:24,N,nominal,1.0NRT,305.2,75.9,D
32.21527,-94.60696,336.2,0.74,0.76,2019-10-08,20:24,N,nominal,1.0NRT,296.3,6.6,D
32.21876,-94.60668,337.4,0.74,0.76,2019-10-08,20:24,N,nominal,1.0NRT,297.1,6.9,D
31.84956,-101.80419,345.6,0.56,0.51,2019-10-08,20:24,N,nominal,1.0NRT,307.6,15.9,D
31.67922,-103.7083,335.6,0.43,0.46,2019-10-08,20:24,N,nominal,1.0NRT,298.6,3.2,D
32.21377,-101.93734,343.1,0.55,0.51,2019-10-08,20:24,N,nominal,1.0NRT,303.7,4,D
32.28576,-102.22459,338.5,0.53,0.5,2019-10-08,20:24,N,nominal,1.0NRT,303.6,3.3,D
32.77335,-94.43394,332.9,0.76,0.77,2019-10-08,20:24,N,nominal,1.0NRT,295,5.8,D
32.21059,-115.12434,345.1,0.5,0.41,2019-10-08,20:24,N,nominal,1.0NRT,318.3,5.3,D
32.27077,-115.1151,343.6,0.5,0.41,2019-10-08,20:24,N,nominal,1.0NRT,315.7,2.9,D
33.48368,-109.70776,339.3,0.39,0.36,2019-10-08,20:24,N,nominal,1.0NRT,307.9,4.1,D
32.57734,-115.55927,344.4,0.52,0.42,2019-10-08,20:24,N,low,1.0NRT,319.3,13.5,D
32.57511,-115.56121,353.4,0.52,0.42,2019-10-08,20:24,N,nominal,1.0NRT,325.2,48.1,D
28.72305,-97.56971,340.9,0.46,0.64,2019-10-08,20:24,N,nominal,1.0NRT,300.6,8.8,D
28.88534,-95.57384,330.4,0.61,0.71,2019-10-08,20:24,N,nominal,1.0NRT,289.5,6.1,D
28.89266,-95.56117,336.8,0.61,0.71,2019-10-08,20:24,N,nominal,1.0NRT,289.3,7.6,D
28.76094,-97.98319,336.2,0.44,0.62,2019-10-08,20:24,N,nominal,1.0NRT,298.3,4.1,D
28.76063,-97.9877,336.6,0.44,0.62,2019-10-08,20:24,N,nominal,1.0NRT,297.8,3,D
