latitude,longitude,bright_ti4,scan,track,acq_date,acq_time,satellite,confidence,version,bright_ti5,frp,daynight
10.07989,-64.8602,351.9,0.39,0.59,2019-09-08,05:12,N,nominal,1.0NRT,291.2,4.2,N
8.64356,-62.76737,300.2,0.54,0.51,2019-09-08,05:12,N,nominal,1.0NRT,275,1,N
8.74556,-63.0523,306.2,0.57,0.52,2019-09-08,05:12,N,nominal,1.0NRT,287.9,1.7,N
8.72547,-62.90875,337.2,0.55,0.51,2019-09-08,05:12,N,nominal,1.0NRT,289.5,5.7,N
9.18576,-64.87031,323.4,0.38,0.59,2019-09-08,05:12,N,nominal,1.0NRT,288.6,2.5,N
9.10407,-64.14,313,0.34,0.56,2019-09-08,05:12,N,nominal,1.0NRT,288.7,0.6,N
9.18493,-63.91286,308.2,0.33,0.55,2019-09-08,05:12,N,nominal,1.0NRT,284.8,1.3,N
9.22597,-64.05988,324.7,0.34,0.56,2019-09-08,05:12,N,nominal,1.0NRT,284.8,2.6,N
9.22754,-64.05926,316.6,0.34,0.56,2019-09-08,05:12,N,nominal,1.0NRT,281.9,1.8,N
9.27274,-64.04339,326.6,0.34,0.56,2019-09-08,05:12,N,nominal,1.0NRT,284.5,2.1,N
9.29488,-63.89742,297.1,0.33,0.55,2019-09-08,05:12,N,nominal,1.0NRT,280.9,0.5,N
9.29529,-63.90042,310.4,0.33,0.55,2019-09-08,05:12,N,nominal,1.0NRT,280.9,0.5,N
9.29759,-63.90029,314.3,0.33,0.55,2019-09-08,05:12,N,nominal,1.0NRT,279.9,1.3,N
9.62177,-63.69219,304.2,0.32,0.55,2019-09-08,05:12,N,nominal,1.0NRT,279.9,6.1,N
9.62215,-63.69515,309.5,0.32,0.55,2019-09-08,05:12,N,nominal,1.0NRT,279.9,18.3,N
9.62254,-63.6981,302.1,0.32,0.55,2019-09-08,05:12,N,nominal,1.0NRT,277.3,18.3,N
9.62643,-63.68847,308.9,0.32,0.55,2019-09-08,05:12,N,nominal,1.0NRT,282,6.1,N
9.62799,-63.70031,307.4,0.32,0.55,2019-09-08,05:12,N,nominal,1.0NRT,278.3,3.9,N
9.62682,-63.69143,351.1,0.32,0.55,2019-09-08,05:12,N,nominal,1.0NRT,283.9,6.1,N
9.62721,-63.69438,354.7,0.32,0.55,2019-09-08,05:12,N,nominal,1.0NRT,289.1,18.3,N
9.6276,-63.69735,342.1,0.32,0.55,2019-09-08,05:12,N,nominal,1.0NRT,279.5,18.3,N
9.63187,-63.69065,302.9,0.32,0.55,2019-09-08,05:12,N,nominal,1.0NRT,281.6,1.8,N
9.63226,-63.69361,303.7,0.32,0.55,2019-09-08,05:12,N,nominal,1.0NRT,280.8,1.9,N
9.64479,-63.63274,303.3,0.32,0.54,2019-09-08,05:12,N,nominal,1.0NRT,279.7,1,N
9.64518,-63.6357,302.2,0.32,0.54,2019-09-08,05:12,N,nominal,1.0NRT,279,1,N
9.6399,-63.55768,310.5,0.63,0.54,2019-09-08,05:12,N,nominal,1.0NRT,286.1,3.1,N
9.64067,-63.56344,316.2,0.63,0.54,2019-09-08,05:12,N,nominal,1.0NRT,285.7,2.5,N
9.64144,-63.56925,309.9,0.63,0.54,2019-09-08,05:12,N,nominal,1.0NRT,285,2.5,N
9.64222,-63.57504,302.2,0.63,0.54,2019-09-08,05:12,N,nominal,1.0NRT,284.6,2,N
9.64824,-63.62014,307.2,0.32,0.54,2019-09-08,05:12,N,nominal,1.0NRT,284.3,1.1,N
9.64863,-63.62308,316,0.32,0.54,2019-09-08,05:12,N,nominal,1.0NRT,283.7,1.1,N
9.64981,-63.63195,319.9,0.32,0.54,2019-09-08,05:12,N,nominal,1.0NRT,281.9,1,N
9.65061,-63.63789,310.4,0.32,0.54,2019-09-08,05:12,N,nominal,1.0NRT,281.5,1.2,N
9.651,-63.64085,301.5,0.32,0.54,2019-09-08,05:12,N,nominal,1.0NRT,279.4,1.2,N
9.65021,-63.63492,322,0.32,0.54,2019-09-08,05:12,N,nominal,1.0NRT,281.7,1,N
9.64412,-63.55107,304.8,0.63,0.54,2019-09-08,05:12,N,nominal,1.0NRT,286.9,9.9,N
9.65405,-63.62522,306.1,0.32,0.54,2019-09-08,05:12,N,nominal,1.0NRT,283.3,0.7,N
9.65484,-63.63113,308.5,0.32,0.54,2019-09-08,05:12,N,nominal,1.0NRT,282.9,0.8,N
9.65524,-63.63411,313.1,0.32,0.54,2019-09-08,05:12,N,nominal,1.0NRT,283.6,0.8,N
9.65564,-63.63708,300.7,0.32,0.54,2019-09-08,05:12,N,nominal,1.0NRT,281.6,1.2,N
9.64489,-63.55682,352.4,0.63,0.54,2019-09-08,05:12,N,nominal,1.0NRT,288.6,9.9,N
9.64566,-63.5626,337.8,0.63,0.54,2019-09-08,05:12,N,nominal,1.0NRT,286.6,29.2,N
9.64644,-63.56839,343,0.63,0.54,2019-09-08,05:12,N,nominal,1.0NRT,286.7,29.2,N
9.64722,-63.57419,337.9,0.63,0.54,2019-09-08,05:12,N,nominal,1.0NRT,286,12.1,N
9.64603,-63.52729,306.4,0.63,0.54,2019-09-08,05:12,N,nominal,1.0NRT,287.8,1.6,N
9.64989,-63.556,310.2,0.63,0.54,2019-09-08,05:12,N,nominal,1.0NRT,286.9,9.9,N
9.65987,-63.63034,301.9,0.32,0.54,2019-09-08,05:12,N,nominal,1.0NRT,283.8,0.8,N
9.66306,-63.65416,318.2,0.32,0.55,2019-09-08,05:12,N,nominal,1.0NRT,285.5,1.7,N
9.65066,-63.56177,331.2,0.63,0.54,2019-09-08,05:12,N,nominal,1.0NRT,288.1,29.2,N
9.65144,-63.56756,344.1,0.63,0.54,2019-09-08,05:12,N,nominal,1.0NRT,289.5,29.2,N
9.65102,-63.52648,310.2,0.63,0.54,2019-09-08,05:12,N,nominal,1.0NRT,287.9,3.9,N
9.65566,-63.56092,304.1,0.63,0.54,2019-09-08,05:12,N,nominal,1.0NRT,286.9,1.2,N
9.65644,-63.5667,306.9,0.63,0.54,2019-09-08,05:12,N,nominal,1.0NRT,286.7,1.2,N
9.65179,-63.53221,334.8,0.63,0.54,2019-09-08,05:12,N,nominal,1.0NRT,287.7,3.9,N
9.65256,-63.53793,339.9,0.63,0.54,2019-09-08,05:12,N,nominal,1.0NRT,288.1,10.9,N
9.65678,-63.53141,314.2,0.63,0.54,2019-09-08,05:12,N,nominal,1.0NRT,287.8,3.9,N
9.67891,-63.46968,303.2,0.62,0.54,2019-09-08,05:12,N,nominal,1.0NRT,289,4.8,N
9.6797,-63.47541,347.8,0.62,0.54,2019-09-08,05:12,N,nominal,1.0NRT,291.7,37.3,N
9.67743,-63.49875,304.3,0.63,0.54,2019-09-08,05:12,N,nominal,1.0NRT,287.9,2,N
9.67945,-63.47507,350.9,0.62,0.54,2019-09-08,05:12,N,nominal,1.0NRT,291.3,32.9,N
9.70191,-63.53026,339.1,0.63,0.54,2019-09-08,05:12,N,nominal,1.0NRT,289.7,7.8,N
9.72868,-63.46305,322.1,0.62,0.54,2019-09-08,05:12,N,nominal,1.0NRT,285,6.3,N
7.55363,-61.6514,312.5,0.44,0.46,2019-09-08,05:12,N,nominal,1.0NRT,290.4,2.1,N
7.55789,-61.65075,323.4,0.44,0.46,2019-09-08,05:12,N,nominal,1.0NRT,290.4,3.2,N
8.55395,-64.13422,319.3,0.33,0.55,2019-09-08,05:12,N,nominal,1.0NRT,289.1,1.8,N
8.55436,-64.13728,318.3,0.33,0.55,2019-09-08,05:12,N,nominal,1.0NRT,289.3,2.2,N
8.55908,-64.13348,332.6,0.33,0.55,2019-09-08,05:12,N,nominal,1.0NRT,289.8,3.6,N
8.5595,-64.13654,338.3,0.33,0.55,2019-09-08,05:12,N,nominal,1.0NRT,290,4.6,N
8.69161,-63.23134,305.7,0.58,0.52,2019-09-08,05:12,N,nominal,1.0NRT,290.3,0.8,N
8.68652,-63.15666,318.9,0.57,0.52,2019-09-08,05:12,N,nominal,1.0NRT,290.1,1.4,N
8.63887,-62.76803,318.9,0.54,0.51,2019-09-08,05:12,N,nominal,1.0NRT,281.2,2.4,N
8.69133,-63.15598,307.7,0.57,0.52,2019-09-08,05:12,N,nominal,1.0NRT,290,1.4,N
9.73597,-63.47957,315,0.62,0.54,2019-09-08,05:12,N,nominal,1.0NRT,287.5,13.1,N
9.7352,-63.47377,367,0.62,0.54,2019-09-08,05:12,N,high,1.0NRT,289.1,13.1,N
9.74017,-63.47293,340,0.62,0.54,2019-09-08,05:12,N,nominal,1.0NRT,286.1,7.6,N
9.74473,-63.43124,315.2,0.62,0.54,2019-09-08,05:12,N,nominal,1.0NRT,271.7,2.1,N
9.77417,-63.26555,305.7,0.6,0.53,2019-09-08,05:12,N,nominal,1.0NRT,282.1,2.5,N
9.77491,-63.27115,321.2,0.6,0.53,2019-09-08,05:12,N,nominal,1.0NRT,282.9,2.5,N
9.85448,-63.33934,319.9,0.61,0.54,2019-09-08,05:12,N,nominal,1.0NRT,274.8,3.7,N
10.05731,-64.85899,317,0.39,0.59,2019-09-08,05:12,N,nominal,1.0NRT,291,2,N
10.05825,-64.86623,310.2,0.39,0.59,2019-09-08,05:12,N,nominal,1.0NRT,290.6,2.2,N
10.06162,-64.89193,311.7,0.39,0.6,2019-09-08,05:12,N,nominal,1.0NRT,290.9,1.5,N
10.05874,-64.8699,329.8,0.39,0.59,2019-09-08,05:12,N,nominal,1.0NRT,291.6,2.2,N
10.48147,-68.11796,307.1,0.65,0.73,2019-09-08,05:12,N,nominal,1.0NRT,290.4,1.8,N
10.0787,-64.89363,304,0.39,0.6,2019-09-08,05:12,N,nominal,1.0NRT,290.7,1,N
10.07437,-64.86085,322.8,0.39,0.59,2019-09-08,05:12,N,nominal,1.0NRT,290.8,4.2,N
10.08037,-64.86382,305.8,0.39,0.59,2019-09-08,05:12,N,nominal,1.0NRT,290.4,5.5,N
10.08134,-64.87109,306.6,0.39,0.59,2019-09-08,05:12,N,nominal,1.0NRT,290.4,4,N
10.07941,-64.85658,333.2,0.39,0.59,2019-09-08,05:12,N,nominal,1.0NRT,290.6,4.2,N
10.39303,-61.48458,303.4,0.47,0.48,2019-09-08,05:12,N,nominal,1.0NRT,284.8,1.3,N
10.18922,-61.6965,309.3,0.48,0.48,2019-09-08,05:12,N,nominal,1.0NRT,282.1,1.1,N
10.18477,-61.69715,308.4,0.48,0.48,2019-09-08,05:12,N,nominal,1.0NRT,280.6,1.1,N
10.17973,-61.69334,315.4,0.48,0.48,2019-09-08,05:12,N,nominal,1.0NRT,284,2.1,N
10.186,-61.69601,316.1,0.48,0.48,2019-09-08,05:12,N,nominal,1.0NRT,280.8,1.5,N
10.18093,-61.6922,313.5,0.48,0.48,2019-09-08,05:12,N,nominal,1.0NRT,284.5,3.3,N
10.40125,-64.1663,307.4,0.35,0.57,2019-09-08,05:12,N,nominal,1.0NRT,290.4,0.8,N
9.9768,-63.18272,323.4,0.6,0.53,2019-09-08,05:12,N,nominal,1.0NRT,274.1,3.4,N
10.483,-68.12176,311.5,0.65,0.73,2019-09-08,05:12,N,nominal,1.0NRT,290.7,3,N
10.0811,-64.87427,367,0.39,0.59,2019-09-08,05:12,N,high,1.0NRT,291.1,6.6,N
10.07974,-64.86337,325.5,0.39,0.59,2019-09-08,05:12,N,nominal,1.0NRT,290.8,6.1,N
10.07928,-64.85973,367,0.39,0.59,2019-09-08,05:12,N,high,1.0NRT,291.1,4.7,N
10.07883,-64.8561,315.1,0.39,0.59,2019-09-08,05:12,N,nominal,1.0NRT,290.4,4.7,N
10.07376,-64.8604,310.3,0.39,0.59,2019-09-08,05:12,N,nominal,1.0NRT,291,1.6,N
10.05805,-64.86935,331.1,0.39,0.59,2019-09-08,05:12,N,nominal,1.0NRT,291.4,4,N
10.05672,-64.85857,320.5,0.39,0.59,2019-09-08,05:12,N,nominal,1.0NRT,291.2,2.5,N
10.0608,-64.89159,307.1,0.39,0.6,2019-09-08,05:12,N,nominal,1.0NRT,290.4,0.7,N
10.06036,-64.88802,304.1,0.39,0.6,2019-09-08,05:12,N,nominal,1.0NRT,290.5,0.7,N
10.05852,-64.87316,307.3,0.39,0.59,2019-09-08,05:12,N,nominal,1.0NRT,290.6,2.5,N
9.85545,-63.34298,299.7,0.61,0.54,2019-09-08,05:12,N,nominal,1.0NRT,272.8,2.2,N
9.85473,-63.33736,315.3,0.61,0.54,2019-09-08,05:12,N,nominal,1.0NRT,274.9,2.2,N
10.08182,-64.87471,367,0.39,0.59,2019-09-08,05:12,N,high,1.0NRT,291,4,N
33.03903,-79.58799,310,0.51,0.41,2019-09-08,06:42,N,nominal,1.0NRT,295.3,1.9,N
32.43114,-84.97532,312.5,0.33,0.55,2019-09-08,06:42,N,nominal,1.0NRT,295.5,1.4,N
33.08902,-86.80714,306.7,0.43,0.62,2019-09-08,06:42,N,nominal,1.0NRT,292.9,1.4,N
33.10602,-86.8009,310.2,0.43,0.62,2019-09-08,06:42,N,nominal,1.0NRT,292.8,1.9,N
33.10648,-86.79927,307.3,0.43,0.62,2019-09-08,06:42,N,nominal,1.0NRT,292.5,1.4,N
33.1794,-86.75877,306.1,0.43,0.62,2019-09-08,06:42,N,nominal,1.0NRT,292.6,0.7,N
33.23454,-87.51035,306.3,0.47,0.64,2019-09-08,06:42,N,nominal,1.0NRT,292.6,2.3,N
33.21627,-86.79333,307.3,0.43,0.62,2019-09-08,06:42,N,nominal,1.0NRT,292.2,1.5,N
33.22354,-86.81687,304.8,0.43,0.62,2019-09-08,06:42,N,nominal,1.0NRT,292.1,0.8,N
33.21625,-86.793,311.7,0.43,0.62,2019-09-08,06:42,N,nominal,1.0NRT,292.6,1.3,N
33.22336,-86.81654,308.1,0.43,0.62,2019-09-08,06:42,N,nominal,1.0NRT,292.3,1,N
33.24676,-86.81945,307.2,0.43,0.62,2019-09-08,06:42,N,nominal,1.0NRT,292.3,1.2,N
33.43655,-88.57121,304.2,0.55,0.68,2019-09-08,06:42,N,nominal,1.0NRT,291.6,1.3,N
33.43849,-88.57082,305.6,0.55,0.68,2019-09-08,06:42,N,nominal,1.0NRT,292,2.6,N
33.00501,-79.87925,306.3,0.53,0.42,2019-09-08,06:42,N,nominal,1.0NRT,295.4,2.5,N
33.01337,-79.88364,330.9,0.53,0.42,2019-09-08,06:42,N,nominal,1.0NRT,295.8,4.4,N
11.08278,-72.67829,316.3,0.58,0.52,2019-09-08,06:48,N,nominal,1.0NRT,291.5,5.8,N
11.02931,-72.27188,314.7,0.61,0.54,2019-09-08,06:48,N,nominal,1.0NRT,291.4,4.9,N
31.40674,-84.15015,304.2,0.58,0.52,2019-09-08,06:48,N,nominal,1.0NRT,293.3,0.8,N
31.64631,-89.90345,306.4,0.63,0.72,2019-09-08,06:48,N,nominal,1.0NRT,292.2,1.1,N
31.63957,-89.90389,310.3,0.63,0.72,2019-09-08,06:48,N,nominal,1.0NRT,292.3,1.1,N
31.16065,-87.98323,306.4,0.48,0.65,2019-09-08,06:48,N,nominal,1.0NRT,294.1,1.1,N
31.1546,-87.98372,307,0.48,0.65,2019-09-08,06:48,N,nominal,1.0NRT,294.4,1.1,N
31.14884,-87.98946,331.1,0.48,0.65,2019-09-08,06:48,N,nominal,1.0NRT,294.9,2.8,N
31.14854,-87.98425,308.6,0.48,0.65,2019-09-08,06:48,N,nominal,1.0NRT,294.3,2.8,N
31.11133,-91.03939,305.8,0.73,0.76,2019-09-08,06:48,N,nominal,1.0NRT,291.7,1.6,N
30.94134,-88.01368,306.5,0.48,0.65,2019-09-08,06:48,N,nominal,1.0NRT,294.4,2,N
30.06204,-84.45608,315,0.58,0.52,2019-09-08,06:48,N,nominal,1.0NRT,294.4,2.4,N
30.48369,-91.18473,305.1,0.74,0.76,2019-09-08,06:48,N,nominal,1.0NRT,291.4,4.2,N
30.34271,-88.4887,310.7,0.51,0.66,2019-09-08,06:48,N,nominal,1.0NRT,292.9,4.2,N
14.51908,-86.92592,300.3,0.54,0.51,2019-09-08,06:48,N,nominal,1.0NRT,273.8,1.2,N
15.07464,-86.08138,307,0.48,0.48,2019-09-08,06:48,N,nominal,1.0NRT,284.9,1.2,N
15.86904,-86.08566,319.2,0.49,0.49,2019-09-08,06:48,N,nominal,1.0NRT,291.6,2,N
15.86956,-86.0898,304.6,0.5,0.49,2019-09-08,06:48,N,nominal,1.0NRT,291.1,1.9,N
18.29933,-92.26119,297.5,0.67,0.74,2019-09-08,06:48,N,nominal,1.0NRT,273.6,3.4,N
18.16012,-88.283,300.5,0.37,0.58,2019-09-08,06:48,N,nominal,1.0NRT,280.9,0.6,N
18.27055,-88.3267,306.4,0.37,0.58,2019-09-08,06:48,N,nominal,1.0NRT,273.8,0.5,N
18.92439,-70.35147,309.8,0.59,0.53,2019-09-08,06:48,N,nominal,1.0NRT,285,4.2,N
18.92548,-70.35684,322.5,0.59,0.53,2019-09-08,06:48,N,nominal,1.0NRT,285,4.2,N
18.92908,-70.34985,309.7,0.59,0.53,2019-09-08,06:48,N,nominal,1.0NRT,284.6,4.2,N
18.93018,-70.35523,338.4,0.59,0.53,2019-09-08,06:48,N,nominal,1.0NRT,285.3,4.2,N
21.83082,-79.3134,306.1,0.4,0.37,2019-09-08,06:48,N,nominal,1.0NRT,292.1,0.5,N
11.73846,-70.19757,367,0.41,0.61,2019-09-08,06:48,N,high,1.0NRT,297.7,10.3,N
11.73774,-70.19389,350.6,0.41,0.61,2019-09-08,06:48,N,nominal,1.0NRT,294.6,11.4,N
9.76304,-73.47437,306.7,0.54,0.51,2019-09-08,06:48,N,nominal,1.0NRT,290.7,1.2,N
11.74331,-70.19282,306.7,0.41,0.61,2019-09-08,06:48,N,nominal,1.0NRT,294.2,0.9,N
9.7584,-73.4752,305.2,0.54,0.51,2019-09-08,06:48,N,nominal,1.0NRT,290.7,1.2,N
11.75071,-70.17154,308.9,0.41,0.61,2019-09-08,06:48,N,nominal,1.0NRT,293.3,0.7,N
14.50639,-86.91933,296.8,0.54,0.51,2019-09-08,06:48,N,nominal,1.0NRT,273.6,0.9,N
14.517,-86.92789,299,0.54,0.51,2019-09-08,06:48,N,nominal,1.0NRT,274.1,1,N
14.52102,-86.9221,297.3,0.54,0.51,2019-09-08,06:48,N,nominal,1.0NRT,274,0.6,N
14.52235,-86.93242,297.3,0.54,0.51,2019-09-08,06:48,N,nominal,1.0NRT,274.2,1,N
30.22948,-90.86233,303.4,0.7,0.75,2019-09-08,06:48,N,nominal,1.0NRT,290,0.9,N
30.00377,-90.40099,312.4,0.66,0.73,2019-09-08,06:48,N,nominal,1.0NRT,291.3,3,N
29.99691,-90.40147,307.9,0.66,0.73,2019-09-08,06:48,N,nominal,1.0NRT,291.4,4,N
30.00307,-90.40377,311,0.66,0.73,2019-09-08,06:48,N,nominal,1.0NRT,291.4,3.3,N
29.99588,-90.39714,307.7,0.66,0.73,2019-09-08,06:48,N,nominal,1.0NRT,291.4,3.3,N
28.33224,-82.21092,318.9,0.41,0.45,2019-09-08,06:48,N,nominal,1.0NRT,294.9,1.8,N
26.27682,-80.16091,306.4,0.46,0.39,2019-09-08,06:48,N,nominal,1.0NRT,293.4,2.6,N
22.7652,-80.58475,306.9,0.44,0.39,2019-09-08,06:48,N,nominal,1.0NRT,290,1,N
10.32046,-75.48663,306.2,0.39,0.44,2019-09-08,06:48,N,nominal,1.0NRT,291.9,1.7,N
10.08054,-71.7917,337.7,0.34,0.56,2019-09-08,06:48,N,nominal,1.0NRT,282.3,5.1,N
10.99958,-72.70823,308,0.58,0.52,2019-09-08,06:48,N,nominal,1.0NRT,291.9,2.6,N
10.9991,-72.70702,305.5,0.58,0.52,2019-09-08,06:48,N,nominal,1.0NRT,291.4,3.3,N
11.03513,-72.66125,306.5,0.58,0.52,2019-09-08,06:48,N,nominal,1.0NRT,290.8,1.6,N
11.73916,-70.20113,320.7,0.41,0.61,2019-09-08,06:48,N,nominal,1.0NRT,294.3,10.3,N
11.08654,-72.67178,304.6,0.58,0.52,2019-09-08,06:48,N,nominal,1.0NRT,290.8,2.9,N
11.03415,-72.27051,308.1,0.61,0.54,2019-09-08,06:48,N,nominal,1.0NRT,291.1,2.2,N
11.08616,-72.67494,305.8,0.58,0.52,2019-09-08,06:48,N,nominal,1.0NRT,290.6,3.4,N
11.02979,-72.26965,308.9,0.61,0.54,2019-09-08,06:48,N,nominal,1.0NRT,291.2,1.7,N
11.03086,-72.27534,305.6,0.61,0.54,2019-09-08,06:48,N,nominal,1.0NRT,290.8,2.8,N
11.03465,-72.26844,305.3,0.61,0.54,2019-09-08,06:48,N,nominal,1.0NRT,290.9,1.7,N
11.13661,-72.5729,304.1,0.58,0.52,2019-09-08,06:48,N,nominal,1.0NRT,289.5,1.3,N
11.14132,-72.54436,306.8,0.59,0.53,2019-09-08,06:48,N,nominal,1.0NRT,290.7,2.5,N
11.15672,-72.5468,305.3,0.59,0.53,2019-09-08,06:48,N,nominal,1.0NRT,290.4,1.5,N
10.48508,-68.12102,308.4,0.59,0.7,2019-09-08,06:48,N,nominal,1.0NRT,290.9,3.1,N
13.8791,-87.2133,297.7,0.55,0.51,2019-09-08,06:48,N,nominal,1.0NRT,278.2,1.2,N
13.8838,-87.21249,320.7,0.55,0.51,2019-09-08,06:48,N,nominal,1.0NRT,279.5,3.5,N
14.47547,-90.91533,305.5,0.5,0.66,2019-09-08,06:48,N,nominal,1.0NRT,269.5,1,N
14.47649,-90.92271,296.8,0.5,0.66,2019-09-08,06:48,N,nominal,1.0NRT,270.7,1.2,N
11.63217,-70.23309,315,0.41,0.61,2019-09-08,06:48,N,nominal,1.0NRT,293.4,1.9,N
11.63146,-70.22947,321.3,0.41,0.61,2019-09-08,06:48,N,nominal,1.0NRT,293.4,2.4,N
11.73878,-70.22857,319.6,0.41,0.6,2019-09-08,06:48,N,nominal,1.0NRT,293.7,1.3,N
11.73952,-70.23231,310.9,0.41,0.6,2019-09-08,06:48,N,nominal,1.0NRT,293.4,1.3,N
11.73989,-70.20483,309.3,0.41,0.61,2019-09-08,06:48,N,nominal,1.0NRT,293.7,2.3,N
30.32263,-91.24128,304,0.74,0.76,2019-09-08,06:48,N,nominal,1.0NRT,290.7,2.7,N
14.50913,-86.92236,297.3,0.54,0.51,2019-09-08,06:48,N,nominal,1.0NRT,274.4,0.7,N
14.51441,-86.92667,296.6,0.54,0.51,2019-09-08,06:48,N,nominal,1.0NRT,274.3,0.7,N
8.18425,-72.6191,314.6,0.33,0.55,2019-09-08,06:54,N,nominal,1.0NRT,289.7,2.2,N
8.18369,-72.616,310.2,0.33,0.55,2019-09-08,06:54,N,nominal,1.0NRT,290,1.3,N
8.08234,-72.59617,314,0.33,0.55,2019-09-08,06:54,N,nominal,1.0NRT,292.1,2.1,N
8.07844,-72.60352,310.9,0.33,0.55,2019-09-08,06:54,N,nominal,1.0NRT,290.6,2.1,N
8.0455,-72.42258,307.8,0.34,0.56,2019-09-08,06:54,N,nominal,1.0NRT,293.7,0.8,N
8.04485,-72.41904,311.6,0.34,0.56,2019-09-08,06:54,N,nominal,1.0NRT,293.6,0.8,N
8.03607,-72.39995,347.2,0.34,0.56,2019-09-08,06:54,N,nominal,1.0NRT,294,2.7,N
8.03654,-72.40255,311,0.34,0.56,2019-09-08,06:54,N,nominal,1.0NRT,293,4.4,N
8.03293,-72.4118,340.4,0.34,0.56,2019-09-08,06:54,N,nominal,1.0NRT,294.7,3.8,N
8.03407,-72.41806,314.8,0.34,0.56,2019-09-08,06:54,N,nominal,1.0NRT,294.1,3.8,N
8.03093,-72.40089,306.4,0.34,0.56,2019-09-08,06:54,N,nominal,1.0NRT,291.1,2.7,N
8.02728,-72.40994,346.8,0.34,0.56,2019-09-08,06:54,N,nominal,1.0NRT,295.2,2.8,N
8.03339,-72.44321,305.9,0.34,0.56,2019-09-08,06:54,N,nominal,1.0NRT,292.6,1,N
8.02781,-72.41281,311.7,0.34,0.56,2019-09-08,06:54,N,nominal,1.0NRT,293.2,2.8,N
8.02215,-72.4109,330.9,0.34,0.56,2019-09-08,06:54,N,nominal,1.0NRT,293.3,2.8,N
8.01901,-72.39374,310.2,0.34,0.56,2019-09-08,06:54,N,nominal,1.0NRT,292.3,0.8,N
8.03486,-72.4002,341.9,0.34,0.56,2019-09-08,06:54,N,nominal,1.0NRT,293.6,5,N
8.03165,-72.41213,345.6,0.34,0.56,2019-09-08,06:54,N,nominal,1.0NRT,294.7,4.7,N
8.03277,-72.41853,316.2,0.34,0.56,2019-09-08,06:54,N,nominal,1.0NRT,293.9,3.9,N
8.02602,-72.41024,367,0.34,0.56,2019-09-08,06:54,N,high,1.0NRT,295.8,7.9,N
8.03194,-72.44408,304.7,0.34,0.56,2019-09-08,06:54,N,nominal,1.0NRT,291.9,1.1,N
8.01786,-72.39412,318.2,0.34,0.56,2019-09-08,06:54,N,nominal,1.0NRT,292.6,1.3,N
8.02184,-72.44675,315.7,0.34,0.56,2019-09-08,06:54,N,nominal,1.0NRT,291.6,1.3,N
8.01322,-72.39785,305.8,0.34,0.56,2019-09-08,06:54,N,nominal,1.0NRT,292.2,0.9,N
8.00846,-72.40093,307.2,0.34,0.56,2019-09-08,06:54,N,nominal,1.0NRT,291.3,0.9,N
8.11096,-73.04085,311.3,0.61,0.54,2019-09-08,06:54,N,nominal,1.0NRT,262.2,1.9,N
8.10608,-73.04187,305.4,0.61,0.54,2019-09-08,06:54,N,nominal,1.0NRT,261.6,2,N
7.98912,-72.38176,305.2,0.34,0.56,2019-09-08,06:54,N,nominal,1.0NRT,289.8,0.8,N
7.98423,-72.38415,311.9,0.34,0.56,2019-09-08,06:54,N,nominal,1.0NRT,290.8,0.8,N
7.97524,-72.36356,311.5,0.34,0.56,2019-09-08,06:54,N,nominal,1.0NRT,289,1,N
7.96605,-72.46,310.1,0.34,0.56,2019-09-08,06:54,N,nominal,1.0NRT,293.1,1.6,N
7.88904,-72.57428,306.4,0.33,0.55,2019-09-08,06:54,N,nominal,1.0NRT,290.3,1.8,N
7.89282,-72.59541,308,0.33,0.55,2019-09-08,06:54,N,nominal,1.0NRT,290.8,1.1,N
7.89306,-72.56742,305.3,0.33,0.55,2019-09-08,06:54,N,nominal,1.0NRT,290.9,1.3,N
9.16703,-79.53728,306.6,0.4,0.37,2019-09-08,06:54,N,nominal,1.0NRT,291.1,0.8,N
7.95314,-72.41789,337,0.34,0.56,2019-09-08,06:54,N,nominal,1.0NRT,293,3.3,N
7.8885,-72.57128,314.2,0.33,0.55,2019-09-08,06:54,N,nominal,1.0NRT,290.9,1.3,N
33.41261,-110.86434,299.6,0.36,0.58,2019-09-08,08:24,N,nominal,1.0NRT,288.4,6.6,N
31.41997,-102.16527,312.8,0.4,0.37,2019-09-08,08:24,N,nominal,1.0NRT,293,0.9,N
31.52587,-101.76425,317.8,0.39,0.36,2019-09-08,08:24,N,nominal,1.0NRT,294.9,1.3,N
31.77753,-103.50359,312,0.43,0.38,2019-09-08,08:24,N,nominal,1.0NRT,292.4,1,N
30.0485,-93.33134,309.6,0.5,0.49,2019-09-08,08:24,N,nominal,1.0NRT,296.8,2.5,N
30.04087,-93.3324,309.6,0.5,0.49,2019-09-08,08:24,N,nominal,1.0NRT,297.3,3.1,N
30.05083,-93.33493,312.3,0.5,0.49,2019-09-08,08:24,N,nominal,1.0NRT,296,2.9,N
31.65205,-102.07661,323.4,0.4,0.37,2019-09-08,08:24,N,nominal,1.0NRT,293.9,1.2,N
30.18535,-93.9082,306.8,0.46,0.47,2019-09-08,08:24,N,nominal,1.0NRT,293.7,0.9,N
31.66906,-102.09895,305.7,0.4,0.37,2019-09-08,08:24,N,nominal,1.0NRT,292.5,0.5,N
31.64796,-101.90669,319.4,0.39,0.36,2019-09-08,08:24,N,nominal,1.0NRT,294.8,1.5,N
31.67279,-102.02968,303.5,0.4,0.37,2019-09-08,08:24,N,nominal,1.0NRT,292.6,0.6,N
31.67613,-102.02901,331,0.4,0.37,2019-09-08,08:24,N,nominal,1.0NRT,294,2.6,N
31.90914,-103.6854,314.3,0.44,0.38,2019-09-08,08:24,N,nominal,1.0NRT,292.8,1.1,N
30.11256,-93.29535,319.1,0.5,0.49,2019-09-08,08:24,N,nominal,1.0NRT,295.5,2.1,N
31.68345,-101.93787,312.9,0.39,0.36,2019-09-08,08:24,N,nominal,1.0NRT,293.5,1,N
31.93056,-103.62908,323.8,0.44,0.38,2019-09-08,08:24,N,nominal,1.0NRT,294.2,2.6,N
30.80993,-96.65079,306.4,0.49,0.4,2019-09-08,08:24,N,nominal,1.0NRT,294.2,0.9,N
31.89773,-103.35797,332.1,0.43,0.38,2019-09-08,08:24,N,nominal,1.0NRT,292.1,2.1,N
31.90121,-103.35732,315.1,0.43,0.38,2019-09-08,08:24,N,nominal,1.0NRT,292.8,2.1,N
31.94049,-103.62247,304.1,0.44,0.38,2019-09-08,08:24,N,nominal,1.0NRT,292.6,0.3,N
31.95956,-103.73846,321.4,0.44,0.39,2019-09-08,08:24,N,nominal,1.0NRT,293.5,1.5,N
31.70102,-101.87047,329.7,0.39,0.36,2019-09-08,08:24,N,nominal,1.0NRT,294.4,1.9,N
31.70436,-101.86979,310.6,0.39,0.36,2019-09-08,08:24,N,nominal,1.0NRT,294.3,1.9,N
32.00176,-104.00301,325.2,0.45,0.39,2019-09-08,08:24,N,nominal,1.0NRT,293.8,2.1,N
32.00307,-104.00077,321.6,0.45,0.39,2019-09-08,08:24,N,nominal,1.0NRT,294.4,0.9,N
32.0627,-104.35944,296.8,0.47,0.4,2019-09-08,08:24,N,nominal,1.0NRT,279.8,0.7,N
30.18168,-93.32217,308.9,0.49,0.49,2019-09-08,08:24,N,nominal,1.0NRT,298.1,2.9,N
30.3422,-94.06311,308.4,0.45,0.47,2019-09-08,08:24,N,nominal,1.0NRT,297.2,2.8,N
31.79981,-102.08728,331.1,0.4,0.37,2019-09-08,08:24,N,nominal,1.0NRT,295.7,3.1,N
30.25872,-93.2889,338.8,0.5,0.49,2019-09-08,08:24,N,nominal,1.0NRT,296.1,4.3,N
30.26312,-93.28761,309,0.5,0.49,2019-09-08,08:24,N,nominal,1.0NRT,296,4.3,N
32.01973,-103.27725,307.1,0.43,0.38,2019-09-08,08:24,N,nominal,1.0NRT,291.5,0.8,N
32.02066,-103.27903,308.4,0.43,0.38,2019-09-08,08:24,N,nominal,1.0NRT,291.6,0.7,N
32.02053,-103.25127,301.1,0.43,0.38,2019-09-08,08:24,N,nominal,1.0NRT,290.3,0.5,N
32.02401,-103.2506,304.1,0.43,0.38,2019-09-08,08:24,N,nominal,1.0NRT,290.7,0.5,N
30.25995,-93.286,339.6,0.49,0.49,2019-09-08,08:24,N,nominal,1.0NRT,298.7,8.5,N
32.12663,-103.9266,304.2,0.45,0.39,2019-09-08,08:24,N,nominal,1.0NRT,293.6,0.6,N
31.85187,-101.8214,306.9,0.39,0.36,2019-09-08,08:24,N,nominal,1.0NRT,294.4,0.7,N
32.1544,-104.0007,312.5,0.46,0.39,2019-09-08,08:24,N,nominal,1.0NRT,293.7,0.9,N
31.88129,-101.85812,313.6,0.39,0.36,2019-09-08,08:24,N,nominal,1.0NRT,294.8,0.7,N
31.91042,-101.86927,310.8,0.39,0.36,2019-09-08,08:24,N,nominal,1.0NRT,294.4,1,N
32.16237,-103.64328,317.3,0.44,0.38,2019-09-08,08:24,N,nominal,1.0NRT,292,0.9,N
31.90761,-101.78031,304.2,0.39,0.36,2019-09-08,08:24,N,nominal,1.0NRT,294,0.4,N
32.14883,-103.05868,303.5,0.42,0.38,2019-09-08,08:24,N,nominal,1.0NRT,291.8,0.7,N
32.28479,-104.00509,322.5,0.46,0.39,2019-09-08,08:24,N,nominal,1.0NRT,295.2,2,N
29.68135,-89.97328,303.8,0.4,0.6,2019-09-08,08:24,N,nominal,1.0NRT,286.9,0.8,N
33.00092,-110.77034,367,0.36,0.57,2019-09-08,08:24,N,high,1.0NRT,292.3,10,N
32.99887,-110.76933,322.5,0.36,0.57,2019-09-08,08:24,N,nominal,1.0NRT,291.1,4.2,N
32.99914,-110.77319,330.8,0.36,0.57,2019-09-08,08:24,N,nominal,1.0NRT,291.1,5.9,N
33.00415,-110.7682,313.1,0.36,0.57,2019-09-08,08:24,N,nominal,1.0NRT,290.5,3.1,N
33.00441,-110.77209,333.4,0.36,0.57,2019-09-08,08:24,N,nominal,1.0NRT,291.4,4.9,N
32.09621,-101.98977,305.1,0.4,0.37,2019-09-08,08:24,N,nominal,1.0NRT,293.7,0.3,N
32.3334,-103.41756,311.6,0.44,0.38,2019-09-08,08:24,N,nominal,1.0NRT,292.4,0.9,N
32.17973,-102.13748,310,0.4,0.37,2019-09-08,08:24,N,nominal,1.0NRT,294.7,0.6,N
32.15313,-101.93096,335.2,0.4,0.37,2019-09-08,08:24,N,nominal,1.0NRT,298.9,10.3,N
32.15489,-101.93221,335.1,0.4,0.37,2019-09-08,08:24,N,nominal,1.0NRT,299.4,7.3,N
32.41792,-103.73559,304.9,0.45,0.39,2019-09-08,08:24,N,nominal,1.0NRT,285.4,0.8,N
32.1898,-102.00713,307.9,0.4,0.37,2019-09-08,08:24,N,nominal,1.0NRT,294.3,0.8,N
32.21026,-101.93393,325.8,0.4,0.37,2019-09-08,08:24,N,nominal,1.0NRT,294.2,1.1,N
30.10757,-90.89783,307,0.34,0.56,2019-09-08,08:24,N,nominal,1.0NRT,293.6,2,N
32.4486,-103.60849,309.1,0.44,0.39,2019-09-08,08:24,N,nominal,1.0NRT,282,0.7,N
29.99985,-90.40181,309.1,0.37,0.58,2019-09-08,08:24,N,nominal,1.0NRT,293.9,2.4,N
29.99894,-90.39806,324.7,0.37,0.58,2019-09-08,08:24,N,nominal,1.0NRT,294,2.4,N
30.06329,-90.59666,307.6,0.36,0.57,2019-09-08,08:24,N,nominal,1.0NRT,293.9,2.1,N
31.48136,-97.24274,305.8,0.45,0.39,2019-09-08,08:24,N,nominal,1.0NRT,295.8,1.1,N
32.25793,-101.82716,315.1,0.39,0.37,2019-09-08,08:24,N,nominal,1.0NRT,294,1.1,N
32.26128,-101.82648,330.5,0.39,0.37,2019-09-08,08:24,N,nominal,1.0NRT,296,2.6,N
30.18514,-90.98965,310.9,0.34,0.56,2019-09-08,08:24,N,nominal,1.0NRT,291.3,1.3,N
30.2134,-91.01762,326.8,0.33,0.56,2019-09-08,08:24,N,nominal,1.0NRT,291.8,1.4,N
32.3415,-102.09578,306.7,0.4,0.37,2019-09-08,08:24,N,nominal,1.0NRT,293.5,0.7,N
32.21037,-101.11497,307.5,0.39,0.36,2019-09-08,08:24,N,nominal,1.0NRT,293.4,1.5,N
30.22992,-90.85962,313.5,0.34,0.56,2019-09-08,08:24,N,nominal,1.0NRT,292.1,0.9,N
30.32798,-91.27744,306.6,0.32,0.55,2019-09-08,08:24,N,nominal,1.0NRT,292.8,1.2,N
30.32367,-91.23623,309.5,0.32,0.55,2019-09-08,08:24,N,nominal,1.0NRT,294.4,2.1,N
32.35332,-101.76152,322.6,0.39,0.37,2019-09-08,08:24,N,nominal,1.0NRT,293.8,1.7,N
32.41223,-102.14817,310.2,0.4,0.37,2019-09-08,08:24,N,nominal,1.0NRT,291.4,1,N
32.65332,-103.89544,299.4,0.46,0.39,2019-09-08,08:24,N,nominal,1.0NRT,287.2,1.3,N
32.41932,-102.12489,308.1,0.4,0.37,2019-09-08,08:24,N,nominal,1.0NRT,291.3,0.6,N
32.42545,-102.1193,311.2,0.4,0.37,2019-09-08,08:24,N,nominal,1.0NRT,291.5,1,N
31.70829,-97.59137,309.6,0.44,0.38,2019-09-08,08:24,N,nominal,1.0NRT,295.5,1,N
33.41233,-110.86055,301,0.36,0.58,2019-09-08,08:24,N,nominal,1.0NRT,288.8,6.6,N
33.41768,-110.85979,351.3,0.36,0.58,2019-09-08,08:24,N,nominal,1.0NRT,290,6.6,N
33.41795,-110.86357,347.7,0.36,0.58,2019-09-08,08:24,N,nominal,1.0NRT,288.7,6.6,N
32.40461,-101.54964,304.7,0.39,0.36,2019-09-08,08:24,N,nominal,1.0NRT,291,0.8,N
32.40793,-101.54897,318.8,0.39,0.36,2019-09-08,08:24,N,nominal,1.0NRT,291.7,0.8,N
33.42019,-110.8618,344.4,0.36,0.58,2019-09-08,08:24,N,nominal,1.0NRT,288.7,3.9,N
30.48238,-91.17779,311.5,0.32,0.55,2019-09-08,08:24,N,nominal,1.0NRT,295.3,1.5,N
30.48317,-91.18108,307.3,0.32,0.55,2019-09-08,08:24,N,nominal,1.0NRT,294.6,1.5,N
30.74692,-92.25559,306.1,0.55,0.51,2019-09-08,08:24,N,nominal,1.0NRT,294.2,1.5,N
30.58167,-91.24213,312.7,0.32,0.54,2019-09-08,08:24,N,nominal,1.0NRT,293,1.5,N
32.24641,-97.54937,311,0.43,0.38,2019-09-08,08:24,N,nominal,1.0NRT,294.8,0.5,N
30.3409,-88.48363,308,0.46,0.64,2019-09-08,08:24,N,nominal,1.0NRT,294.1,2.8,N
30.34214,-88.48837,307.8,0.46,0.64,2019-09-08,08:24,N,nominal,1.0NRT,293.9,2.9,N
31.98652,-95.31301,307.1,0.54,0.42,2019-09-08,08:24,N,nominal,1.0NRT,293.6,0.9,N
30.36302,-88.15791,327.4,0.48,0.65,2019-09-08,08:24,N,nominal,1.0NRT,293.2,3.5,N
31.98697,-95.31205,305.9,0.54,0.42,2019-09-08,08:24,N,nominal,1.0NRT,294,0.5,N
30.35913,-88.15854,307.9,0.48,0.65,2019-09-08,08:24,N,nominal,1.0NRT,292.6,2.4,N
30.36494,-88.15653,309.6,0.48,0.65,2019-09-08,08:24,N,nominal,1.0NRT,292.9,1.7,N
30.36625,-88.16148,310.1,0.48,0.65,2019-09-08,08:24,N,nominal,1.0NRT,292.6,1.7,N
31.1098,-91.03555,315.7,0.32,0.54,2019-09-08,08:24,N,nominal,1.0NRT,293.5,0.8,N
31.11058,-91.03885,308.3,0.32,0.54,2019-09-08,08:24,N,nominal,1.0NRT,293.1,0.8,N
32.45582,-97.04137,324.5,0.45,0.39,2019-09-08,08:24,N,nominal,1.0NRT,297.8,2.4,N
32.45846,-97.0358,310.2,0.45,0.39,2019-09-08,08:24,N,nominal,1.0NRT,299.9,2.4,N
32.12527,-93.39764,322,0.45,0.47,2019-09-08,08:24,N,nominal,1.0NRT,294.5,4.3,N
32.12947,-93.39639,350.4,0.45,0.47,2019-09-08,08:24,N,nominal,1.0NRT,303,26.9,N
30.93714,-88.01423,318.5,0.48,0.64,2019-09-08,08:24,N,nominal,1.0NRT,293.9,2.3,N
30.9429,-88.01216,309.5,0.48,0.64,2019-09-08,08:24,N,nominal,1.0NRT,293.8,1.3,N
32.27411,-92.72971,306,0.48,0.48,2019-09-08,08:24,N,nominal,1.0NRT,295.9,1.5,N
31.15075,-87.98615,329.6,0.47,0.64,2019-09-08,08:24,N,nominal,1.0NRT,294.8,5,N
31.1552,-87.97914,306.2,0.47,0.64,2019-09-08,08:24,N,nominal,1.0NRT,294.4,1.4,N
31.64165,-89.90144,320,0.36,0.57,2019-09-08,08:24,N,nominal,1.0NRT,293.1,1.7,N
33.35543,-94.97208,308.4,0.53,0.42,2019-09-08,08:24,N,nominal,1.0NRT,294.8,1.2,N
33.35325,-94.97162,304.5,0.53,0.42,2019-09-08,08:24,N,nominal,1.0NRT,294,0.8,N
32.3121,-90.1356,321.7,0.34,0.56,2019-09-08,08:24,N,nominal,1.0NRT,294.7,2.2,N
32.45113,-89.48697,305.5,0.36,0.58,2019-09-08,08:24,N,nominal,1.0NRT,292.8,0.4,N
32.45494,-89.48727,306.8,0.36,0.58,2019-09-08,08:24,N,nominal,1.0NRT,292.7,0.6,N
33.30421,-89.33867,304.7,0.35,0.57,2019-09-08,08:24,N,nominal,1.0NRT,292.6,0.5,N
33.3036,-89.33835,304.6,0.35,0.57,2019-09-08,08:24,N,nominal,1.0NRT,292.4,0.6,N
33.4381,-88.56857,323.3,0.39,0.59,2019-09-08,08:24,N,nominal,1.0NRT,293,2.5,N
33.44649,-88.57892,309.1,0.39,0.59,2019-09-08,08:24,N,nominal,1.0NRT,293.5,1.4,N
33.43996,-88.57008,328.3,0.39,0.59,2019-09-08,08:24,N,nominal,1.0NRT,293,3.3,N
33.44843,-88.58041,303.8,0.39,0.59,2019-09-08,08:24,N,nominal,1.0NRT,293,2,N
33.23312,-87.50931,305.2,0.45,0.63,2019-09-08,08:24,N,nominal,1.0NRT,293,1.6,N
33.08876,-86.80488,308.9,0.49,0.65,2019-09-08,08:24,N,nominal,1.0NRT,292.1,1.4,N
33.10037,-86.80032,307.6,0.49,0.65,2019-09-08,08:24,N,nominal,1.0NRT,292,1.2,N
33.09062,-86.80634,302.6,0.49,0.65,2019-09-08,08:24,N,nominal,1.0NRT,292,1.5,N
33.10222,-86.8018,306.5,0.49,0.65,2019-09-08,08:24,N,nominal,1.0NRT,292.4,1.8,N
33.17938,-86.75499,306.9,0.49,0.65,2019-09-08,08:24,N,nominal,1.0NRT,291.9,0.7,N
33.21729,-86.79099,307.3,0.49,0.65,2019-09-08,08:24,N,nominal,1.0NRT,292,1,N
33.24432,-86.81953,308.6,0.49,0.65,2019-09-08,08:24,N,nominal,1.0NRT,291.7,1.1,N
28.99444,-97.84032,304.6,0.46,0.39,2019-09-08,08:24,N,nominal,1.0NRT,294.4,0.4,N
29.06815,-95.75214,308.9,0.57,0.43,2019-09-08,08:24,N,nominal,1.0NRT,298.6,2.5,N
29.00169,-95.40121,313.5,0.4,0.44,2019-09-08,08:24,N,nominal,1.0NRT,297.1,1.9,N
29.34005,-97.11046,310.4,0.49,0.4,2019-09-08,08:24,N,nominal,1.0NRT,294.8,1.5,N
29.57569,-98.03046,305,0.44,0.39,2019-09-08,08:24,N,nominal,1.0NRT,294,0.6,N
29.41916,-97.17175,305.2,0.48,0.4,2019-09-08,08:24,N,nominal,1.0NRT,293.8,0.9,N
29.37157,-94.91888,309.6,0.42,0.45,2019-09-08,08:24,N,nominal,1.0NRT,298.6,1.6,N
29.37244,-94.92313,311.6,0.42,0.45,2019-09-08,08:24,N,nominal,1.0NRT,298.7,1.6,N
29.37503,-94.93587,311,0.42,0.45,2019-09-08,08:24,N,nominal,1.0NRT,299.2,1.7,N
29.3759,-94.9401,310.4,0.42,0.45,2019-09-08,08:24,N,nominal,1.0NRT,298.6,1.7,N
30.13125,-97.80475,308.1,0.45,0.39,2019-09-08,08:24,N,nominal,1.0NRT,295.7,1.4,N
29.6124,-95.02654,310.7,0.41,0.45,2019-09-08,08:24,N,nominal,1.0NRT,296.7,1.7,N
31.07055,-103.64519,304.8,0.43,0.38,2019-09-08,08:24,N,nominal,1.0NRT,292.4,0.7,N
29.7257,-95.23147,309.8,0.4,0.44,2019-09-08,08:24,N,nominal,1.0NRT,297,1.2,N
29.72805,-95.2223,307.7,0.4,0.44,2019-09-08,08:24,N,nominal,1.0NRT,296.6,1.8,N
29.72421,-95.12022,310.3,0.4,0.44,2019-09-08,08:24,N,nominal,1.0NRT,300,2.9,N
29.73735,-95.1641,310.1,0.4,0.44,2019-09-08,08:24,N,nominal,1.0NRT,296.5,2,N
29.74195,-95.12406,315.5,0.4,0.44,2019-09-08,08:24,N,nominal,1.0NRT,296.4,2.8,N
31.18452,-103.63623,307.2,0.43,0.38,2019-09-08,08:24,N,nominal,1.0NRT,292.6,1,N
29.74197,-94.9977,311.6,0.41,0.45,2019-09-08,08:24,N,nominal,1.0NRT,298.9,3,N
29.74532,-95.01435,315.1,0.41,0.45,2019-09-08,08:24,N,nominal,1.0NRT,299.7,3,N
29.74281,-95.00187,329.5,0.41,0.45,2019-09-08,08:24,N,nominal,1.0NRT,300.2,4.9,N
29.74048,-94.99901,313.3,0.41,0.45,2019-09-08,08:24,N,nominal,1.0NRT,298.8,2.5,N
29.74134,-95.00317,309.4,0.41,0.45,2019-09-08,08:24,N,nominal,1.0NRT,298,3.3,N
29.74394,-95.01561,312.6,0.41,0.45,2019-09-08,08:24,N,nominal,1.0NRT,298.1,2.4,N
31.21402,-103.64208,306.3,0.43,0.38,2019-09-08,08:24,N,nominal,1.0NRT,292.3,0.5,N
29.74453,-94.99792,315.3,0.41,0.45,2019-09-08,08:24,N,nominal,1.0NRT,299.4,2.6,N
29.74539,-95.00208,313.5,0.41,0.45,2019-09-08,08:24,N,nominal,1.0NRT,298.2,2.1,N
30.34142,-97.61862,305.2,0.45,0.39,2019-09-08,08:24,N,nominal,1.0NRT,294.6,1.1,N
31.20917,-102.95778,310.3,0.41,0.37,2019-09-08,08:24,N,nominal,1.0NRT,292.2,0.7,N
31.35243,-103.04182,307.4,0.42,0.37,2019-09-08,08:24,N,nominal,1.0NRT,293,0.5,N
31.54388,-104.24422,301.4,0.46,0.39,2019-09-08,08:24,N,nominal,1.0NRT,289.8,0.4,N
31.40609,-103.0227,306.7,0.42,0.37,2019-09-08,08:24,N,nominal,1.0NRT,292.9,0.4,N
29.8347,-93.96147,315,0.46,0.47,2019-09-08,08:24,N,nominal,1.0NRT,296.3,3.3,N
31.20111,-101.33837,307.3,0.39,0.36,2019-09-08,08:24,N,nominal,1.0NRT,290.7,0.4,N
31.20205,-101.25506,330.4,0.39,0.36,2019-09-08,08:24,N,nominal,1.0NRT,292.5,2.6,N
31.60941,-104.00073,306.8,0.45,0.39,2019-09-08,08:24,N,nominal,1.0NRT,290.9,0.7,N
31.49892,-103.14216,313.8,0.42,0.38,2019-09-08,08:24,N,nominal,1.0NRT,292.4,0.9,N
31.62613,-104.01728,310.2,0.45,0.39,2019-09-08,08:24,N,nominal,1.0NRT,290.3,0.9,N
31.66208,-103.95757,302.3,0.45,0.39,2019-09-08,08:24,N,nominal,1.0NRT,291.1,0.7,N
31.41663,-102.16594,310.3,0.4,0.37,2019-09-08,08:24,N,nominal,1.0NRT,292.6,0.8,N
31.36342,-101.78207,314.8,0.39,0.36,2019-09-08,08:24,N,nominal,1.0NRT,294.2,1.1,N
30.11459,-94.00432,318.2,0.45,0.47,2019-09-08,08:24,N,nominal,1.0NRT,293.9,1.6,N
32.44853,-110.14742,305.8,0.32,0.55,2019-09-08,08:24,N,nominal,1.0NRT,286.1,0.7,N
31.80828,-103.90279,307.3,0.45,0.39,2019-09-08,08:24,N,nominal,1.0NRT,292.8,1,N
32.44421,-110.15819,303.8,0.32,0.55,2019-09-08,08:24,N,nominal,1.0NRT,285.9,0.8,N
32.43833,-110.14816,308.3,0.32,0.55,2019-09-08,08:24,N,nominal,1.0NRT,285.5,0.8,N
31.76781,-103.84254,305.1,0.45,0.39,2019-09-08,08:24,N,nominal,1.0NRT,291.9,0.5,N
31.76495,-103.84034,307.6,0.45,0.39,2019-09-08,08:24,N,nominal,1.0NRT,291.9,0.3,N
31.7219,-103.57255,329.9,0.44,0.38,2019-09-08,08:24,N,nominal,1.0NRT,293.6,3.6,N
32.43517,-110.1479,297.6,0.32,0.55,2019-09-08,08:24,N,nominal,1.0NRT,285.6,0.4,N
31.73888,-103.94616,304.1,0.45,0.39,2019-09-08,08:24,N,nominal,1.0NRT,292.2,0.7,N
30.01104,-93.97141,310.6,0.46,0.47,2019-09-08,08:24,N,nominal,1.0NRT,297,2,N
31.44214,-102.19197,330,0.4,0.37,2019-09-08,08:24,N,nominal,1.0NRT,293.7,2.2,N
31.50216,-102.63976,338,0.41,0.37,2019-09-08,08:24,N,nominal,1.0NRT,294.3,3.6,N
31.39046,-101.8948,312.2,0.39,0.36,2019-09-08,08:24,N,nominal,1.0NRT,293.3,0.7,N
31.36552,-101.77322,330.3,0.39,0.36,2019-09-08,08:24,N,nominal,1.0NRT,297.7,4.9,N
31.3628,-101.77798,323.8,0.39,0.36,2019-09-08,08:24,N,nominal,1.0NRT,295.1,4.9,N
31.36219,-101.7739,329.3,0.39,0.36,2019-09-08,08:24,N,nominal,1.0NRT,295.7,4.9,N
25.71719,-100.29697,332.8,0.41,0.37,2019-09-08,08:30,N,nominal,1.0NRT,293,5.4,N
28.65387,-98.22211,313.6,0.45,0.39,2019-09-08,08:30,N,nominal,1.0NRT,294.7,1,N
28.93405,-97.86153,307.6,0.46,0.39,2019-09-08,08:30,N,nominal,1.0NRT,294.6,0.9,N
28.93831,-97.88474,306.7,0.46,0.39,2019-09-08,08:30,N,nominal,1.0NRT,294.9,0.9,N
28.94271,-97.88853,305.2,0.46,0.39,2019-09-08,08:30,N,nominal,1.0NRT,294.6,0.7,N
28.96118,-97.90841,305.6,0.46,0.39,2019-09-08,08:30,N,nominal,1.0NRT,294.7,0.7,N
14.40255,-95.89835,295.6,0.35,0.57,2019-09-08,08:30,N,nominal,1.0NRT,285.3,3.8,N
14.46147,-90.81879,318.7,0.75,0.77,2019-09-08,08:30,N,nominal,1.0NRT,271.2,8,N
14.46357,-90.82838,331.8,0.75,0.77,2019-09-08,08:30,N,nominal,1.0NRT,273.4,13,N
14.4609,-90.8313,312.6,0.74,0.76,2019-09-08,08:30,N,nominal,1.0NRT,272.7,7.7,N
14.45868,-90.82148,334.3,0.75,0.77,2019-09-08,08:30,N,nominal,1.0NRT,272.6,7.7,N
17.92044,-102.19464,307.7,0.41,0.37,2019-09-08,08:30,N,nominal,1.0NRT,292.5,2.2,N
17.92515,-102.20174,331.1,0.41,0.37,2019-09-08,08:30,N,nominal,1.0NRT,292.3,2.4,N
17.92855,-102.20113,320.2,0.41,0.37,2019-09-08,08:30,N,nominal,1.0NRT,292.6,2.4,N
17.9292,-102.20499,327,0.41,0.37,2019-09-08,08:30,N,nominal,1.0NRT,293,2.4,N
17.93132,-102.19664,315.4,0.41,0.37,2019-09-08,08:30,N,nominal,1.0NRT,292.9,2.4,N
17.93326,-102.20822,313.9,0.41,0.37,2019-09-08,08:30,N,nominal,1.0NRT,293.9,1.9,N
17.9339,-102.21208,317.7,0.41,0.37,2019-09-08,08:30,N,nominal,1.0NRT,293.4,1.9,N
17.04288,-90.57814,301.4,0.68,0.74,2019-09-08,08:30,N,nominal,1.0NRT,283.8,0.7,N
17.78931,-92.68624,308.2,0.49,0.65,2019-09-08,08:30,N,nominal,1.0NRT,282,1.3,N
17.79258,-92.68832,304.9,0.49,0.65,2019-09-08,08:30,N,nominal,1.0NRT,281,1.7,N
19.0209,-98.62102,341.1,0.39,0.44,2019-09-08,08:30,N,nominal,1.0NRT,275,7.6,N
19.02171,-98.62528,336.3,0.39,0.44,2019-09-08,08:30,N,nominal,1.0NRT,270.2,8.3,N
19.0248,-98.61977,338.7,0.39,0.44,2019-09-08,08:30,N,nominal,1.0NRT,272.8,7.6,N
19.02558,-98.62394,336.8,0.39,0.44,2019-09-08,08:30,N,nominal,1.0NRT,272.5,8.3,N
18.8354,-97.27522,296,0.47,0.48,2019-09-08,08:30,N,nominal,1.0NRT,282.1,0.6,N
18.96958,-97.96089,299,0.43,0.46,2019-09-08,08:30,N,nominal,1.0NRT,282.7,0.8,N
17.89314,-92.48596,309.2,0.5,0.66,2019-09-08,08:30,N,nominal,1.0NRT,283.9,9,N
17.89418,-92.49068,367,0.5,0.66,2019-09-08,08:30,N,high,1.0NRT,285.7,9,N
19.17351,-98.32123,322.6,0.4,0.45,2019-09-08,08:30,N,nominal,1.0NRT,282.9,2.6,N
18.28553,-92.24501,305.8,0.51,0.66,2019-09-08,08:30,N,nominal,1.0NRT,285.8,5.1,N
19.34517,-96.70409,299.3,0.5,0.49,2019-09-08,08:30,N,nominal,1.0NRT,288,0.9,N
19.98779,-99.32893,295.2,0.52,0.41,2019-09-08,08:30,N,nominal,1.0NRT,281.9,0.9,N
19.97276,-99.18447,302.3,0.53,0.42,2019-09-08,08:30,N,nominal,1.0NRT,281.4,1.6,N
19.99719,-99.21006,297.9,0.52,0.42,2019-09-08,08:30,N,nominal,1.0NRT,284.5,1.1,N
20.03168,-99.26962,300.6,0.52,0.42,2019-09-08,08:30,N,nominal,1.0NRT,280.9,0.9,N
20.04742,-99.29156,295.3,0.52,0.41,2019-09-08,08:30,N,nominal,1.0NRT,278.2,0.8,N
20.05119,-99.29076,304.1,0.52,0.41,2019-09-08,08:30,N,nominal,1.0NRT,278.8,0.8,N
20.41765,-99.02213,298.8,0.53,0.42,2019-09-08,08:30,N,nominal,1.0NRT,284.7,0.7,N
19.29319,-92.16293,304.5,0.49,0.65,2019-09-08,08:30,N,nominal,1.0NRT,279.2,4,N
20.46093,-97.54361,313.6,0.43,0.46,2019-09-08,08:30,N,nominal,1.0NRT,290.6,0.6,N
20.49095,-97.40527,311.7,0.43,0.46,2019-09-08,08:30,N,nominal,1.0NRT,290.6,1.9,N
19.39214,-92.03732,324.4,0.5,0.65,2019-09-08,08:30,N,nominal,1.0NRT,286.3,12.7,N
19.39318,-92.04205,337.8,0.5,0.65,2019-09-08,08:30,N,nominal,1.0NRT,285.9,16.8,N
20.5132,-97.47655,302.8,0.43,0.46,2019-09-08,08:30,N,nominal,1.0NRT,290.6,0.7,N
20.49517,-97.4048,304.6,0.43,0.46,2019-09-08,08:30,N,nominal,1.0NRT,290.3,0.7,N
20.51374,-97.47692,305.8,0.43,0.46,2019-09-08,08:30,N,nominal,1.0NRT,290.5,0.6,N
19.36759,-92.00446,344.8,0.5,0.66,2019-09-08,08:30,N,nominal,1.0NRT,286.6,12.7,N
19.39412,-92.03773,332.8,0.5,0.65,2019-09-08,08:30,N,nominal,1.0NRT,286.3,13.4,N
19.3952,-92.04244,334.7,0.49,0.65,2019-09-08,08:30,N,nominal,1.0NRT,286,16.3,N
19.42857,-92.07866,308,0.49,0.65,2019-09-08,08:30,N,nominal,1.0NRT,279.7,5.3,N
19.43685,-92.03184,311.6,0.49,0.65,2019-09-08,08:30,N,nominal,1.0NRT,275.8,4.6,N
20.77148,-97.66973,306.5,0.41,0.45,2019-09-08,08:30,N,nominal,1.0NRT,291,0.6,N
28.604,-98.26407,326.4,0.45,0.39,2019-09-08,08:30,N,nominal,1.0NRT,295.5,2.1,N
28.60048,-98.26488,304.9,0.45,0.39,2019-09-08,08:30,N,nominal,1.0NRT,294.3,0.7,N
28.53637,-98.49669,306.9,0.44,0.38,2019-09-08,08:30,N,nominal,1.0NRT,295,1,N
28.546,-98.99663,307,0.42,0.38,2019-09-08,08:30,N,nominal,1.0NRT,295.5,0.8,N
28.54524,-98.99236,308.7,0.42,0.38,2019-09-08,08:30,N,nominal,1.0NRT,295.3,0.8,N
28.53575,-98.95895,310.7,0.42,0.38,2019-09-08,08:30,N,nominal,1.0NRT,295.4,1,N
28.29852,-99.28471,306.4,0.41,0.37,2019-09-08,08:30,N,nominal,1.0NRT,295.4,0.3,N
27.88829,-97.26919,308.8,0.5,0.41,2019-09-08,08:30,N,nominal,1.0NRT,295.2,2.5,N
27.88793,-97.27108,311.2,0.5,0.41,2019-09-08,08:30,N,nominal,1.0NRT,295.3,3.5,N
27.82147,-97.20753,312.6,0.51,0.41,2019-09-08,08:30,N,nominal,1.0NRT,295,2.8,N
27.83151,-97.52436,307.2,0.49,0.4,2019-09-08,08:30,N,nominal,1.0NRT,295.7,2.8,N
27.83041,-97.52638,307.2,0.49,0.4,2019-09-08,08:30,N,nominal,1.0NRT,295.6,3.3,N
28.10057,-101.10464,307.6,0.39,0.36,2019-09-08,08:30,N,nominal,1.0NRT,294.2,0.4,N
28.68601,-106.08878,307.8,0.52,0.41,2019-09-08,08:30,N,nominal,1.0NRT,288.5,1.3,N
27.66561,-101.33388,306,0.38,0.36,2019-09-08,08:30,N,nominal,1.0NRT,294.8,0.8,N
26.89231,-101.45946,309.5,0.39,0.36,2019-09-08,08:30,N,nominal,1.0NRT,293.9,1.1,N
26.88715,-101.44855,326.5,0.39,0.36,2019-09-08,08:30,N,nominal,1.0NRT,294.9,1.9,N
26.88901,-101.46012,313,0.39,0.36,2019-09-08,08:30,N,nominal,1.0NRT,293.5,1.1,N
26.88839,-101.45627,318.7,0.39,0.36,2019-09-08,08:30,N,nominal,1.0NRT,294,1.2,N
26.8851,-101.45692,332,0.39,0.36,2019-09-08,08:30,N,nominal,1.0NRT,295.1,3.4,N
26.88634,-101.46464,303.9,0.39,0.36,2019-09-08,08:30,N,nominal,1.0NRT,292.8,2.1,N
26.88572,-101.46078,318.4,0.39,0.36,2019-09-08,08:30,N,nominal,1.0NRT,295.6,2.1,N
26.87828,-101.41454,312.3,0.39,0.36,2019-09-08,08:30,N,nominal,1.0NRT,294.3,1.1,N
26.87766,-101.41069,311.4,0.39,0.36,2019-09-08,08:30,N,nominal,1.0NRT,294.1,0.9,N
26.87498,-101.41521,305.4,0.39,0.36,2019-09-08,08:30,N,nominal,1.0NRT,292.8,1.1,N
26.85482,-101.39447,312.1,0.39,0.36,2019-09-08,08:30,N,nominal,1.0NRT,293.1,0.9,N
27.03008,-103.37061,305.8,0.4,0.37,2019-09-08,08:30,N,nominal,1.0NRT,292.9,1.1,N
26.22141,-98.87927,304.5,0.45,0.39,2019-09-08,08:30,N,nominal,1.0NRT,293.8,0.5,N
26.05956,-98.39016,319.2,0.47,0.4,2019-09-08,08:30,N,nominal,1.0NRT,294.2,2.2,N
26.01712,-98.48536,305.3,0.47,0.4,2019-09-08,08:30,N,nominal,1.0NRT,294.3,1.1,N
25.72196,-100.30433,317.2,0.41,0.37,2019-09-08,08:30,N,nominal,1.0NRT,292.9,2.2,N
28.65692,-98.25904,308.6,0.45,0.39,2019-09-08,08:30,N,nominal,1.0NRT,294.7,1,N
20.77391,-97.67036,305.2,0.41,0.45,2019-09-08,08:30,N,nominal,1.0NRT,290.7,0.4,N
22.18309,-102.20373,296.8,0.39,0.36,2019-09-08,08:30,N,nominal,1.0NRT,286.1,0.8,N
21.74993,-98.74574,314.4,0.52,0.42,2019-09-08,08:30,N,nominal,1.0NRT,291.9,2.2,N
22.04553,-98.86926,308.5,0.51,0.41,2019-09-08,08:30,N,nominal,1.0NRT,294,1.6,N
22.16235,-98.97507,303.1,0.5,0.41,2019-09-08,08:30,N,nominal,1.0NRT,290.9,0.7,N
22.44187,-99.65436,297.4,0.46,0.39,2019-09-08,08:30,N,nominal,1.0NRT,287.3,0.4,N
22.35173,-97.87276,308.2,0.57,0.43,2019-09-08,08:30,N,nominal,1.0NRT,293.8,3.4,N
25.48854,-103.39458,301.9,0.39,0.36,2019-09-08,08:30,N,nominal,1.0NRT,291.5,0.2,N
25.64034,-103.43612,303.9,0.39,0.36,2019-09-08,08:30,N,nominal,1.0NRT,291.1,0.7,N
25.74731,-103.54233,314.6,0.4,0.37,2019-09-08,08:30,N,nominal,1.0NRT,290.3,1.3,N
25.44324,-101.2102,300.8,0.39,0.36,2019-09-08,08:30,N,nominal,1.0NRT,287.8,0.4,N
25.60174,-100.91855,308,0.4,0.37,2019-09-08,08:30,N,nominal,1.0NRT,289.1,1.6,N
25.60507,-100.91785,310.2,0.4,0.37,2019-09-08,08:30,N,nominal,1.0NRT,289.6,1.1,N
25.61389,-100.86752,302,0.4,0.37,2019-09-08,08:30,N,nominal,1.0NRT,290.3,0.7,N
25.58115,-99.93455,316.7,0.42,0.38,2019-09-08,08:30,N,nominal,1.0NRT,288,2.3,N
25.69666,-100.29974,309.9,0.41,0.37,2019-09-08,08:30,N,nominal,1.0NRT,292.5,1.1,N
25.69525,-100.27074,311.7,0.41,0.37,2019-09-08,08:30,N,nominal,1.0NRT,293.1,1.5,N
33.4141,-110.85952,300.2,0.57,0.69,2019-09-08,10:06,N,nominal,1.0NRT,287.5,1.1,N
9.53644,-66.86128,337.2,0.46,0.39,2019-09-08,17:54,N,nominal,1.0NRT,297.2,6.3,D
11.73816,-70.23045,367,0.38,0.36,2019-09-08,17:54,N,high,1.0NRT,315.2,18.6,D
11.73633,-70.19776,344.4,0.38,0.36,2019-09-08,17:54,N,low,1.0NRT,314.5,55.1,D
11.63017,-70.22746,342,0.38,0.36,2019-09-08,17:54,N,nominal,1.0NRT,311.7,17.4,D
11.09043,-72.67443,333.7,0.43,0.38,2019-09-08,17:54,N,low,1.0NRT,308.2,9.6,D
11.08226,-72.68096,336.3,0.43,0.38,2019-09-08,17:54,N,low,1.0NRT,306.3,5.6,D
11.08289,-72.67707,336.2,0.43,0.38,2019-09-08,17:54,N,low,1.0NRT,307,5.6,D
11.04825,-72.71508,335,0.43,0.38,2019-09-08,17:54,N,low,1.0NRT,305.2,8.1,D
10.56317,-74.74039,331.8,0.54,0.42,2019-09-08,17:54,N,nominal,1.0NRT,294.8,2.1,D
11.36606,-69.48708,337,0.39,0.36,2019-09-08,17:54,N,low,1.0NRT,310.1,5.1,D
11.40746,-69.18479,341.1,0.4,0.37,2019-09-08,17:54,N,nominal,1.0NRT,304.3,3.5,D
11.41618,-68.91428,340.7,0.4,0.37,2019-09-08,17:54,N,nominal,1.0NRT,305.7,6,D
11.41672,-68.91059,337.9,0.4,0.37,2019-09-08,17:54,N,nominal,1.0NRT,304.5,3,D
11.38502,-69.10388,334.6,0.4,0.37,2019-09-08,17:54,N,low,1.0NRT,309.2,2.7,D
11.41387,-68.90643,331.9,0.4,0.37,2019-09-08,17:54,N,low,1.0NRT,305,3,D
11.36149,-69.24068,341.1,0.39,0.37,2019-09-08,17:54,N,nominal,1.0NRT,305.8,5.9,D
11.32087,-69.03777,338.3,0.4,0.37,2019-09-08,17:54,N,low,1.0NRT,308.7,2.7,D
11.31429,-69.05909,343.7,0.4,0.37,2019-09-08,17:54,N,nominal,1.0NRT,308.9,3.9,D
11.34205,-68.84654,336.5,0.4,0.37,2019-09-08,17:54,N,nominal,1.0NRT,306.3,2.5,D
11.35053,-68.76485,340.2,0.4,0.37,2019-09-08,17:54,N,nominal,1.0NRT,308,6.1,D
11.23934,-69.42725,336.7,0.39,0.36,2019-09-08,17:54,N,low,1.0NRT,310.7,6.1,D
11.23987,-69.42368,338.6,0.39,0.36,2019-09-08,17:54,N,low,1.0NRT,311.1,5.6,D
11.33857,-68.75173,349.2,0.4,0.37,2019-09-08,17:54,N,nominal,1.0NRT,305.5,5.5,D
11.25346,-69.30878,345.5,0.39,0.36,2019-09-08,17:54,N,nominal,1.0NRT,306.2,4.3,D
11.23128,-69.38947,334.4,0.39,0.36,2019-09-08,17:54,N,low,1.0NRT,308.2,1.7,D
11.2089,-69.51765,338,0.39,0.36,2019-09-08,17:54,N,nominal,1.0NRT,304.5,4.3,D
11.18832,-69.50323,336.4,0.39,0.36,2019-09-08,17:54,N,nominal,1.0NRT,304.2,29.7,D
11.18885,-69.49967,338,0.39,0.36,2019-09-08,17:54,N,nominal,1.0NRT,304.9,29.7,D
11.18552,-69.49918,341.1,0.39,0.36,2019-09-08,17:54,N,nominal,1.0NRT,312.2,29.7,D
11.20315,-69.38132,336.5,0.39,0.36,2019-09-08,17:54,N,low,1.0NRT,307.1,15.5,D
11.19928,-69.38438,338.9,0.39,0.36,2019-09-08,17:54,N,low,1.0NRT,312.5,3.9,D
11.26915,-68.9144,341.3,0.4,0.37,2019-09-08,17:54,N,nominal,1.0NRT,310.7,4.8,D
11.26578,-68.91388,343.9,0.4,0.37,2019-09-08,17:54,N,nominal,1.0NRT,308.4,4.8,D
11.16348,-69.44128,346.7,0.39,0.36,2019-09-08,17:54,N,nominal,1.0NRT,312.2,8.7,D
11.11397,-69.65896,337.6,0.39,0.36,2019-09-08,17:54,N,nominal,1.0NRT,303.4,6.4,D
11.13428,-69.31582,343.4,0.39,0.36,2019-09-08,17:54,N,nominal,1.0NRT,311.7,5.7,D
11.13093,-69.31532,356.2,0.39,0.36,2019-09-08,17:54,N,nominal,1.0NRT,314,5.7,D
11.14946,-69.13008,334.3,0.4,0.37,2019-09-08,17:54,N,low,1.0NRT,306.6,2.8,D
11.20874,-68.6375,334.2,0.41,0.37,2019-09-08,17:54,N,low,1.0NRT,306.8,5.6,D
11.1699,-68.87675,344.9,0.4,0.37,2019-09-08,17:54,N,nominal,1.0NRT,306.6,19.6,D
11.18767,-68.6388,338.1,0.41,0.37,2019-09-08,17:54,N,nominal,1.0NRT,302.9,4.7,D
11.18427,-68.63828,345.7,0.41,0.37,2019-09-08,17:54,N,nominal,1.0NRT,303.8,4.7,D
11.10382,-69.1601,351.2,0.39,0.37,2019-09-08,17:54,N,nominal,1.0NRT,312.1,13.4,D
11.10435,-69.1565,337.7,0.39,0.37,2019-09-08,17:54,N,low,1.0NRT,308.7,13.4,D
11.10046,-69.15961,350.4,0.39,0.37,2019-09-08,17:54,N,nominal,1.0NRT,312.1,13.4,D
11.15597,-68.64164,330.5,0.41,0.37,2019-09-08,17:54,N,low,1.0NRT,305.2,1.6,D
11.10458,-68.94537,338.8,0.4,0.37,2019-09-08,17:54,N,nominal,1.0NRT,308.6,3,D
11.14077,-68.65054,337.5,0.41,0.37,2019-09-08,17:54,N,nominal,1.0NRT,302.9,2.5,D
11.02368,-69.26197,351.6,0.39,0.36,2019-09-08,17:54,N,nominal,1.0NRT,308.6,5.5,D
11.02199,-69.26103,350.3,0.39,0.36,2019-09-08,17:54,N,nominal,1.0NRT,309.4,6.3,D
11.10559,-68.62927,339.1,0.41,0.37,2019-09-08,17:54,N,nominal,1.0NRT,307.6,3,D
11.0731,-68.80204,338,0.4,0.37,2019-09-08,17:54,N,nominal,1.0NRT,306.5,2,D
10.67269,-71.40076,343.1,0.39,0.37,2019-09-08,17:54,N,low,1.0NRT,309.7,15,D
10.67324,-71.39716,340.7,0.39,0.36,2019-09-08,17:54,N,low,1.0NRT,310.1,15,D
11.03481,-68.80373,338.3,0.4,0.37,2019-09-08,17:54,N,nominal,1.0NRT,298.5,3.8,D
11.03535,-68.80005,331,0.4,0.37,2019-09-08,17:54,N,low,1.0NRT,301.9,2.4,D
11.02979,-68.81434,331.4,0.4,0.37,2019-09-08,17:54,N,nominal,1.0NRT,297.5,1.8,D
11.03034,-68.81063,335.1,0.4,0.37,2019-09-08,17:54,N,nominal,1.0NRT,292.6,1.8,D
11.03143,-68.80322,349.2,0.4,0.37,2019-09-08,17:54,N,nominal,1.0NRT,292,3.8,D
11.03197,-68.79953,342.7,0.4,0.37,2019-09-08,17:54,N,nominal,1.0NRT,300.4,2.4,D
11.02642,-68.8138,331.4,0.4,0.37,2019-09-08,17:54,N,nominal,1.0NRT,295.7,1.5,D
11.0275,-68.8064,350.5,0.4,0.37,2019-09-08,17:54,N,nominal,1.0NRT,292.9,156.8,D
11.02859,-68.79902,350.7,0.4,0.37,2019-09-08,17:54,N,nominal,1.0NRT,298.3,25.1,D
11.02805,-68.80271,367,0.4,0.37,2019-09-08,17:54,N,high,1.0NRT,344.9,156.8,D
11.02304,-68.81326,331.1,0.4,0.37,2019-09-08,17:54,N,nominal,1.0NRT,295.2,1.5,D
11.02412,-68.80589,340.4,0.4,0.37,2019-09-08,17:54,N,nominal,1.0NRT,288.3,156.8,D
11.02466,-68.80219,342.6,0.4,0.37,2019-09-08,17:54,N,nominal,1.0NRT,310.1,156.8,D
11.0252,-68.79852,341.3,0.4,0.37,2019-09-08,17:54,N,nominal,1.0NRT,302.3,25.1,D
10.75719,-70.56516,340,0.38,0.36,2019-09-08,17:54,N,nominal,1.0NRT,304,10.5,D
11.02074,-68.80538,330.3,0.4,0.37,2019-09-08,17:54,N,nominal,1.0NRT,297.5,2.2,D
10.9027,-69.33411,336.4,0.39,0.36,2019-09-08,17:54,N,nominal,1.0NRT,305.4,2,D
10.89936,-69.33363,335.8,0.39,0.36,2019-09-08,17:54,N,nominal,1.0NRT,306.5,2,D
10.84521,-69.5584,335.6,0.39,0.36,2019-09-08,17:54,N,low,1.0NRT,307.5,2,D
10.93173,-68.97859,344,0.4,0.37,2019-09-08,17:54,N,nominal,1.0NRT,307.8,25.3,D
10.89818,-69.15817,338,0.39,0.36,2019-09-08,17:54,N,nominal,1.0NRT,307.5,4.6,D
10.85265,-69.41779,337.3,0.39,0.36,2019-09-08,17:54,N,low,1.0NRT,308.9,8.9,D
10.86996,-69.04794,330.3,0.4,0.37,2019-09-08,17:54,N,nominal,1.0NRT,298.1,1.7,D
10.80847,-69.05883,347.4,0.4,0.37,2019-09-08,17:54,N,nominal,1.0NRT,305.2,9.1,D
10.80512,-69.05831,347.5,0.4,0.37,2019-09-08,17:54,N,nominal,1.0NRT,309.1,9.1,D
9.7505,-75.29505,334.5,0.4,0.44,2019-09-08,17:54,N,nominal,1.0NRT,299.6,2.1,D
10.67153,-69.34208,335.5,0.39,0.36,2019-09-08,17:54,N,nominal,1.0NRT,305.5,2.5,D
9.71081,-75.33483,331.1,0.4,0.45,2019-09-08,17:54,N,nominal,1.0NRT,296.5,3.1,D
10.65978,-69.32944,347.2,0.39,0.36,2019-09-08,17:54,N,nominal,1.0NRT,308.2,6.7,D
10.49306,-70.41119,367,0.38,0.36,2019-09-08,17:54,N,high,1.0NRT,313.2,21.4,D
10.66079,-69.23119,335.1,0.39,0.36,2019-09-08,17:54,N,nominal,1.0NRT,302.4,2.5,D
10.65745,-69.23064,336.9,0.39,0.36,2019-09-08,17:54,N,nominal,1.0NRT,306.6,2.5,D
10.65799,-69.22704,338.8,0.39,0.36,2019-09-08,17:54,N,nominal,1.0NRT,305.8,2.5,D
10.61814,-69.33424,345,0.39,0.36,2019-09-08,17:54,N,nominal,1.0NRT,305.6,15.3,D
9.65073,-75.24386,332.1,0.4,0.44,2019-09-08,17:54,N,nominal,1.0NRT,295,2.8,D
10.62764,-69.10869,330.5,0.39,0.36,2019-09-08,17:54,N,low,1.0NRT,303.4,2.7,D
10.63648,-69.02539,337.9,0.4,0.37,2019-09-08,17:54,N,low,1.0NRT,308.2,3.7,D
10.56477,-69.3795,335.5,0.39,0.36,2019-09-08,17:54,N,nominal,1.0NRT,305.2,3,D
10.64579,-68.83734,346.2,0.4,0.37,2019-09-08,17:54,N,nominal,1.0NRT,305.7,4,D
10.61677,-68.96294,341.3,0.4,0.37,2019-09-08,17:54,N,nominal,1.0NRT,302.1,3.8,D
9.60957,-75.34549,331.8,0.41,0.45,2019-09-08,17:54,N,nominal,1.0NRT,290.1,3.2,D
10.53853,-69.44092,335.7,0.39,0.36,2019-09-08,17:54,N,nominal,1.0NRT,305.8,2.8,D
10.53521,-69.44036,338.2,0.39,0.36,2019-09-08,17:54,N,nominal,1.0NRT,306.8,2.4,D
10.32394,-70.3233,336.8,0.38,0.36,2019-09-08,17:54,N,low,1.0NRT,308.9,2.2,D
10.6221,-68.31207,331.5,0.41,0.37,2019-09-08,17:54,N,nominal,1.0NRT,298,4.7,D
10.62264,-68.3083,334.4,0.41,0.37,2019-09-08,17:54,N,nominal,1.0NRT,298.7,4.7,D
10.62244,-68.31194,331.9,0.41,0.37,2019-09-08,17:54,N,nominal,1.0NRT,297.6,4.7,D
10.623,-68.30817,334.5,0.41,0.37,2019-09-08,17:54,N,nominal,1.0NRT,299,4.7,D
10.50319,-69.06725,341.3,0.39,0.36,2019-09-08,17:54,N,nominal,1.0NRT,298.7,5.3,D
10.56713,-68.63815,333.2,0.4,0.37,2019-09-08,17:54,N,nominal,1.0NRT,302.4,2.4,D
9.64618,-63.55505,354.3,0.48,0.48,2019-09-08,17:54,N,nominal,1.0NRT,300.9,16.2,D
9.64981,-63.52853,342.8,0.48,0.48,2019-09-08,17:54,N,nominal,1.0NRT,301.6,5.6,D
9.64175,-63.55436,354.8,0.48,0.48,2019-09-08,17:54,N,nominal,1.0NRT,302.3,16.2,D
8.48246,-71.42902,330.5,0.41,0.37,2019-09-08,17:54,N,low,1.0NRT,304,4.8,D
8.4313,-71.73344,347.8,0.42,0.37,2019-09-08,17:54,N,nominal,1.0NRT,299.9,9.9,D
9.56409,-63.62904,341.9,0.47,0.48,2019-09-08,17:54,N,nominal,1.0NRT,301.5,8.3,D
8.2359,-72.66655,330.4,0.45,0.39,2019-09-08,17:54,N,low,1.0NRT,290.1,6.4,D
8.22643,-72.66624,337,0.45,0.39,2019-09-08,17:54,N,nominal,1.0NRT,293.7,6.5,D
8.38279,-71.64143,342.4,0.41,0.37,2019-09-08,17:54,N,nominal,1.0NRT,302.4,11.5,D
8.37827,-71.64792,343.8,0.41,0.37,2019-09-08,17:54,N,nominal,1.0NRT,302.8,8.3,D
8.43066,-71.30939,333.7,0.4,0.37,2019-09-08,17:54,N,low,1.0NRT,297.2,8.6,D
9.56424,-63.631,350.1,0.47,0.48,2019-09-08,17:54,N,nominal,1.0NRT,303.1,7.6,D
8.193,-72.62284,342.3,0.45,0.39,2019-09-08,17:54,N,nominal,1.0NRT,294,7.8,D
8.18744,-72.6348,334.8,0.45,0.39,2019-09-08,17:54,N,nominal,1.0NRT,293.2,5.7,D
8.18812,-72.63049,328.5,0.45,0.39,2019-09-08,17:54,N,low,1.0NRT,292.5,7.8,D
8.18655,-72.61739,329.4,0.45,0.39,2019-09-08,17:54,N,low,1.0NRT,292.5,7.8,D
9.38873,-64.54725,350.6,0.41,0.45,2019-09-08,17:54,N,nominal,1.0NRT,300.3,22.5,D
8.11104,-73.04281,367,0.47,0.4,2019-09-08,17:54,N,high,1.0NRT,296.4,24.7,D
8.10744,-73.04199,335.8,0.47,0.4,2019-09-08,17:54,N,nominal,1.0NRT,293.4,7.4,D
9.37374,-64.53362,344.1,0.41,0.45,2019-09-08,17:54,N,nominal,1.0NRT,298,5.8,D
9.37478,-64.52612,339.9,0.41,0.45,2019-09-08,17:54,N,nominal,1.0NRT,299.1,9.5,D
9.37529,-64.52238,343.2,0.41,0.45,2019-09-08,17:54,N,nominal,1.0NRT,298.9,17.4,D
9.37166,-64.51805,335.6,0.41,0.45,2019-09-08,17:54,N,nominal,1.0NRT,297.9,3.3,D
9.18317,-64.86814,340.7,0.39,0.44,2019-09-08,17:54,N,nominal,1.0NRT,297.7,3.9,D
9.27395,-64.04408,343.8,0.44,0.46,2019-09-08,17:54,N,nominal,1.0NRT,294.7,6.3,D
9.23367,-64.30057,348.3,0.42,0.45,2019-09-08,17:54,N,nominal,1.0NRT,310.3,88.6,D
9.22947,-64.3,338.4,0.42,0.45,2019-09-08,17:54,N,nominal,1.0NRT,295.8,3.7,D
9.22847,-64.0584,341.3,0.44,0.46,2019-09-08,17:54,N,nominal,1.0NRT,297.9,4.9,D
7.89122,-67.71266,337.8,0.41,0.37,2019-09-08,17:54,N,nominal,1.0NRT,296.3,4.5,D
7.99201,-65.7543,330.3,0.5,0.41,2019-09-08,17:54,N,nominal,1.0NRT,295,2.2,D
7.06587,-67.18939,335.1,0.42,0.38,2019-09-08,17:54,N,nominal,1.0NRT,295.5,4,D
7.06643,-67.18556,338,0.42,0.38,2019-09-08,17:54,N,nominal,1.0NRT,295.4,4,D
7.37308,-62.06337,332.9,0.56,0.52,2019-09-08,17:54,N,nominal,1.0NRT,297.9,5.7,D
7.62211,-58.90524,331,0.46,0.64,2019-09-08,17:54,N,nominal,1.0NRT,289.8,2,D
7.61823,-58.90506,330.1,0.46,0.64,2019-09-08,17:54,N,nominal,1.0NRT,289.9,2.3,D
7.19035,-61.51076,331.2,0.61,0.53,2019-09-08,17:54,N,nominal,1.0NRT,293.6,6.5,D
7.18542,-61.51011,342.9,0.61,0.53,2019-09-08,17:54,N,nominal,1.0NRT,296.3,6.5,D
7.18396,-61.51242,345.9,0.61,0.53,2019-09-08,17:54,N,nominal,1.0NRT,295.8,11.5,D
7.08413,-61.72682,331,0.59,0.53,2019-09-08,17:54,N,nominal,1.0NRT,296.8,3.1,D
10.44065,-69.46181,337.6,0.39,0.36,2019-09-08,17:54,N,nominal,1.0NRT,308.6,11.1,D
10.08044,-71.79337,331.8,0.41,0.37,2019-09-08,17:54,N,low,1.0NRT,297.1,1.9,D
10.53359,-68.4174,335.7,0.41,0.37,2019-09-08,17:54,N,nominal,1.0NRT,298.1,3.9,D
10.41254,-69.10149,337.5,0.39,0.36,2019-09-08,17:54,N,low,1.0NRT,308.7,28.8,D
10.4097,-69.09763,335.1,0.39,0.36,2019-09-08,17:54,N,nominal,1.0NRT,304.2,2.5,D
10.3981,-69.1067,332.3,0.39,0.36,2019-09-08,17:54,N,low,1.0NRT,304.3,2.6,D
10.40018,-69.09271,352,0.39,0.36,2019-09-08,17:54,N,nominal,1.0NRT,300.7,6.4,D
10.39841,-69.09169,347.9,0.39,0.36,2019-09-08,17:54,N,nominal,1.0NRT,307.7,25.4,D
10.39949,-69.08449,335.2,0.39,0.36,2019-09-08,17:54,N,nominal,1.0NRT,302.5,3.7,D
10.38814,-69.13749,330.4,0.39,0.36,2019-09-08,17:54,N,nominal,1.0NRT,303.8,1.7,D
10.38357,-69.12232,335.8,0.39,0.36,2019-09-08,17:54,N,nominal,1.0NRT,302.5,2.5,D
10.38168,-69.08923,331.5,0.39,0.36,2019-09-08,17:54,N,nominal,1.0NRT,301.3,1.6,D
10.47241,-68.28938,335.1,0.41,0.37,2019-09-08,17:54,N,nominal,1.0NRT,303.1,2.7,D
10.48352,-68.11707,331.5,0.42,0.37,2019-09-08,17:54,N,nominal,1.0NRT,298.2,5.6,D
10.3539,-68.93044,332.6,0.4,0.37,2019-09-08,17:54,N,nominal,1.0NRT,300.2,3.6,D
10.35445,-68.92673,332.4,0.4,0.37,2019-09-08,17:54,N,nominal,1.0NRT,300.2,4.4,D
10.40958,-68.28859,337.5,0.41,0.37,2019-09-08,17:54,N,nominal,1.0NRT,301.2,6.3,D
10.30426,-68.99696,304.4,0.39,0.37,2019-09-08,17:54,N,low,1.0NRT,306.3,28.4,D
10.08324,-70.45988,337,0.38,0.36,2019-09-08,17:54,N,nominal,1.0NRT,305.4,5,D
10.30478,-68.99343,335.4,0.39,0.37,2019-09-08,17:54,N,nominal,1.0NRT,303.3,26.8,D
10.3466,-68.71371,346.4,0.4,0.37,2019-09-08,17:54,N,nominal,1.0NRT,303,7,D
10.40967,-68.2891,332.6,0.41,0.37,2019-09-08,17:54,N,nominal,1.0NRT,300.1,5.2,D
10.32864,-68.71844,334.6,0.4,0.37,2019-09-08,17:54,N,nominal,1.0NRT,300.5,1.2,D
10.2431,-68.94741,333.4,0.4,0.37,2019-09-08,17:54,N,nominal,1.0NRT,299.9,2.7,D
10.30147,-68.52743,332.5,0.4,0.37,2019-09-08,17:54,N,nominal,1.0NRT,300.2,1.9,D
10.2986,-68.52332,336.5,0.4,0.37,2019-09-08,17:54,N,nominal,1.0NRT,300.9,3.8,D
10.21673,-68.91695,334.1,0.4,0.37,2019-09-08,17:54,N,nominal,1.0NRT,301.3,3,D
10.21726,-68.91331,334.1,0.4,0.37,2019-09-08,17:54,N,nominal,1.0NRT,301.8,4.6,D
10.24347,-68.42445,346.3,0.41,0.37,2019-09-08,17:54,N,nominal,1.0NRT,301.4,10.5,D
10.49053,-66.64076,336.3,0.48,0.4,2019-09-08,17:54,N,nominal,1.0NRT,300.4,4,D
10.07904,-69.41614,340.1,0.39,0.36,2019-09-08,17:54,N,low,1.0NRT,311.3,5.5,D
10.07957,-69.4126,340.1,0.39,0.36,2019-09-08,17:54,N,low,1.0NRT,312.5,5.5,D
10.28281,-67.6666,330.4,0.43,0.38,2019-09-08,17:54,N,nominal,1.0NRT,298.5,3.1,D
10.46507,-66.11124,332.7,0.51,0.41,2019-09-08,17:54,N,nominal,1.0NRT,292.7,4.5,D
10.46127,-66.11069,337.6,0.51,0.41,2019-09-08,17:54,N,nominal,1.0NRT,293.6,4.5,D
10.22707,-67.50076,335.1,0.44,0.38,2019-09-08,17:54,N,nominal,1.0NRT,302.4,4.3,D
10.0452,-68.61338,335.8,0.4,0.37,2019-09-08,17:54,N,nominal,1.0NRT,298.6,5.3,D
9.9124,-69.3572,334.7,0.39,0.36,2019-09-08,17:54,N,nominal,1.0NRT,304,1.9,D
9.97771,-68.64392,330.3,0.4,0.37,2019-09-08,17:54,N,nominal,1.0NRT,296.4,2.1,D
9.65799,-70.71877,337.9,0.39,0.36,2019-09-08,17:54,N,low,1.0NRT,305.2,7.6,D
9.69135,-70.32494,346.6,0.38,0.36,2019-09-08,17:54,N,nominal,1.0NRT,301.4,23.7,D
9.68805,-70.32442,350.9,0.38,0.36,2019-09-08,17:54,N,nominal,1.0NRT,311.3,23.7,D
9.80324,-69.33994,338.4,0.39,0.36,2019-09-08,17:54,N,nominal,1.0NRT,299,4.3,D
9.61298,-70.41629,344.4,0.39,0.36,2019-09-08,17:54,N,nominal,1.0NRT,308.1,10.2,D
9.74655,-69.37809,335.4,0.39,0.36,2019-09-08,17:54,N,nominal,1.0NRT,297.4,2.6,D
9.8852,-68.41933,333.6,0.4,0.37,2019-09-08,17:54,N,nominal,1.0NRT,295.8,5.4,D
9.95181,-67.96254,331.7,0.42,0.38,2019-09-08,17:54,N,nominal,1.0NRT,290.3,3.9,D
9.96729,-67.85577,343.7,0.42,0.38,2019-09-08,17:54,N,nominal,1.0NRT,296.2,11.3,D
9.73342,-69.39772,334.8,0.39,0.36,2019-09-08,17:54,N,nominal,1.0NRT,299.1,5,D
9.72256,-69.42496,344.8,0.39,0.36,2019-09-08,17:54,N,nominal,1.0NRT,297.9,10.4,D
9.71769,-69.43479,355.2,0.39,0.36,2019-09-08,17:54,N,nominal,1.0NRT,301.2,12.6,D
9.93761,-67.88999,336.9,0.42,0.38,2019-09-08,17:54,N,nominal,1.0NRT,295.1,4.8,D
9.67902,-69.4932,336.4,0.39,0.36,2019-09-08,17:54,N,nominal,1.0NRT,300.3,3.5,D
9.89987,-67.98987,336.4,0.42,0.37,2019-09-08,17:54,N,nominal,1.0NRT,292.4,3.3,D
9.8985,-67.92744,347.1,0.42,0.38,2019-09-08,17:54,N,nominal,1.0NRT,295.7,6.9,D
9.66351,-69.3254,330.6,0.39,0.36,2019-09-08,17:54,N,nominal,1.0NRT,297.2,2.4,D
9.86796,-67.82207,333.8,0.42,0.38,2019-09-08,17:54,N,nominal,1.0NRT,296.9,5.7,D
9.59558,-69.64192,334.4,0.38,0.36,2019-09-08,17:54,N,nominal,1.0NRT,298.8,3.6,D
9.62531,-69.39895,332.2,0.39,0.36,2019-09-08,17:54,N,nominal,1.0NRT,295.3,1.6,D
9.63061,-69.36352,332.4,0.39,0.36,2019-09-08,17:54,N,nominal,1.0NRT,294.3,1.7,D
9.63114,-69.35997,333.3,0.39,0.36,2019-09-08,17:54,N,nominal,1.0NRT,295.5,3.5,D
9.63167,-69.35641,333.5,0.39,0.36,2019-09-08,17:54,N,nominal,1.0NRT,296.5,3.5,D
9.62623,-69.37009,332.5,0.39,0.36,2019-09-08,17:54,N,nominal,1.0NRT,294.3,3.4,D
9.62343,-69.36607,335.9,0.39,0.36,2019-09-08,17:54,N,nominal,1.0NRT,294.6,2.9,D
9.77049,-68.3716,334.8,0.41,0.37,2019-09-08,17:54,N,nominal,1.0NRT,298.8,3.1,D
10.35065,-63.37424,332.7,0.5,0.49,2019-09-08,17:54,N,nominal,1.0NRT,298.7,2.7,D
10.08032,-64.89618,330.9,0.4,0.44,2019-09-08,17:54,N,nominal,1.0NRT,296.7,3.2,D
10.08334,-64.87418,338.6,0.4,0.44,2019-09-08,17:54,N,nominal,1.0NRT,294.6,5.1,D
10.08385,-64.87048,336.6,0.4,0.44,2019-09-08,17:54,N,nominal,1.0NRT,294,4,D
10.07623,-64.89565,336.6,0.4,0.44,2019-09-08,17:54,N,nominal,1.0NRT,301.6,3.2,D
10.07717,-64.85839,351.1,0.4,0.44,2019-09-08,17:54,N,nominal,1.0NRT,297.5,8.4,D
9.5352,-68.59653,341.7,0.4,0.37,2019-09-08,17:54,N,nominal,1.0NRT,297.4,4.1,D
10.05876,-64.87115,350.1,0.4,0.44,2019-09-08,17:54,N,nominal,1.0NRT,301.4,11.4,D
10.05926,-64.86743,347.1,0.4,0.44,2019-09-08,17:54,N,nominal,1.0NRT,301.4,12.6,D
10.05667,-64.85583,345.3,0.4,0.44,2019-09-08,17:54,N,nominal,1.0NRT,300.1,8.7,D
10.19433,-63.79177,333.9,0.47,0.48,2019-09-08,17:54,N,nominal,1.0NRT,299.2,2.4,D
9.38325,-69.07461,330.9,0.39,0.36,2019-09-08,17:54,N,nominal,1.0NRT,294.2,3.3,D
9.35796,-69.10698,348.7,0.39,0.36,2019-09-08,17:54,N,nominal,1.0NRT,295.5,7.9,D
9.34918,-69.12012,332.3,0.39,0.36,2019-09-08,17:54,N,nominal,1.0NRT,293.4,2.8,D
10.05727,-64.11546,349.4,0.45,0.47,2019-09-08,17:54,N,nominal,1.0NRT,299.4,15.5,D
10.05784,-64.11119,332.3,0.45,0.47,2019-09-08,17:54,N,nominal,1.0NRT,296.1,4.7,D
9.31251,-69.25167,334.1,0.39,0.36,2019-09-08,17:54,N,nominal,1.0NRT,297.7,3.2,D
8.84364,-71.82047,330.1,0.41,0.37,2019-09-08,17:54,N,low,1.0NRT,293.7,2.7,D
8.57034,-73.50401,325.5,0.49,0.41,2019-09-08,17:54,N,nominal,1.0NRT,284.1,3.9,D
8.84624,-71.75937,333.4,0.41,0.37,2019-09-08,17:54,N,low,1.0NRT,292,3.5,D
8.59032,-73.26514,341.9,0.48,0.4,2019-09-08,17:54,N,nominal,1.0NRT,295.4,19.5,D
9.53775,-66.86088,330.4,0.46,0.39,2019-09-08,17:54,N,nominal,1.0NRT,295,6.3,D
10.18464,-61.69677,333.4,0.33,0.55,2019-09-08,17:54,N,nominal,1.0NRT,298.2,3.5,D
10.17954,-61.69614,335.5,0.33,0.55,2019-09-08,17:54,N,nominal,1.0NRT,300,3.5,D
10.17993,-61.69315,367,0.33,0.55,2019-09-08,17:54,N,high,1.0NRT,302.5,3.5,D
9.14605,-68.67662,333.9,0.4,0.37,2019-09-08,17:54,N,nominal,1.0NRT,295.6,2.2,D
9.85327,-63.33843,344.8,0.5,0.49,2019-09-08,17:54,N,nominal,1.0NRT,300.4,5.9,D
9.0074,-69.05599,341,0.39,0.36,2019-09-08,17:54,N,nominal,1.0NRT,295.3,2.7,D
8.60034,-71.61216,339.6,0.41,0.37,2019-09-08,17:54,N,nominal,1.0NRT,296.9,4,D
9.7784,-63.26831,338,0.5,0.49,2019-09-08,17:54,N,nominal,1.0NRT,296.9,4.2,D
9.74269,-63.43122,341.5,0.49,0.49,2019-09-08,17:54,N,nominal,1.0NRT,300.6,5.3,D
9.72954,-63.46122,344.4,0.49,0.48,2019-09-08,17:54,N,nominal,1.0NRT,300.1,5.9,D
8.54416,-71.59129,338.6,0.41,0.37,2019-09-08,17:54,N,nominal,1.0NRT,296.9,3,D
9.70206,-63.53105,341.2,0.48,0.48,2019-09-08,17:54,N,nominal,1.0NRT,298.8,4.8,D
9.67789,-63.47308,341.8,0.49,0.48,2019-09-08,17:54,N,nominal,1.0NRT,305.7,56.6,D
9.68003,-63.47388,348.8,0.49,0.48,2019-09-08,17:54,N,nominal,1.0NRT,305.4,46.4,D
9.65365,-63.63189,335.5,0.47,0.48,2019-09-08,17:54,N,nominal,1.0NRT,296.9,47.7,D
9.65425,-63.62758,346.1,0.47,0.48,2019-09-08,17:54,N,nominal,1.0NRT,298.9,89.5,D
8.45705,-71.7261,330.5,0.41,0.37,2019-09-08,17:54,N,low,1.0NRT,300.9,4.4,D
9.64984,-63.62693,346.6,0.47,0.48,2019-09-08,17:54,N,nominal,1.0NRT,308.3,89.5,D
9.6482,-63.57328,344.8,0.48,0.48,2019-09-08,17:54,N,nominal,1.0NRT,298.7,9.6,D
9.65303,-63.53807,342.3,0.48,0.48,2019-09-08,17:54,N,nominal,1.0NRT,301.9,7.7,D
9.65364,-63.53364,354.7,0.48,0.48,2019-09-08,17:54,N,nominal,1.0NRT,302.4,7.7,D
9.65425,-63.52922,341.3,0.48,0.48,2019-09-08,17:54,N,nominal,1.0NRT,300,6.4,D
9.64378,-63.57259,341.3,0.48,0.48,2019-09-08,17:54,N,nominal,1.0NRT,299.8,6.6,D
9.64438,-63.56821,345.2,0.48,0.48,2019-09-08,17:54,N,nominal,1.0NRT,297.7,6.6,D
9.64497,-63.56384,352,0.48,0.48,2019-09-08,17:54,N,nominal,1.0NRT,301.8,17.6,D
21.86477,-78.58383,336.2,0.41,0.45,2019-09-08,18:00,N,nominal,1.0NRT,287.1,5.8,D
22.81554,-74.33653,336.8,0.39,0.36,2019-09-08,18:00,N,nominal,1.0NRT,297.4,4.8,D
23.1241,-81.8718,334,0.61,0.53,2019-09-08,18:00,N,nominal,1.0NRT,293.2,5.1,D
27.39044,-80.56452,344,0.42,0.45,2019-09-08,18:00,N,nominal,1.0NRT,300.6,10,D
27.5246,-81.9226,330.8,0.5,0.49,2019-09-08,18:00,N,nominal,1.0NRT,301.2,1.9,D
28.31805,-81.7326,341.8,0.47,0.48,2019-09-08,18:00,N,nominal,1.0NRT,303.4,4.9,D
28.31804,-81.73441,333.9,0.47,0.48,2019-09-08,18:00,N,nominal,1.0NRT,302.4,6.1,D
29.37753,-82.31972,337.2,0.48,0.48,2019-09-08,18:00,N,nominal,1.0NRT,301.8,3,D
30.2031,-83.14211,332.8,0.52,0.5,2019-09-08,18:00,N,nominal,1.0NRT,300.2,1.5,D
30.20042,-85.22161,355.5,0.34,0.56,2019-09-08,18:00,N,nominal,1.0NRT,300.4,4,D
30.9791,-85.10465,336.8,0.32,0.55,2019-09-08,18:00,N,nominal,1.0NRT,296.6,5.2,D
17.79142,-71.38891,334,0.39,0.36,2019-09-08,18:00,N,nominal,1.0NRT,299.9,1.7,D
18.1867,-71.20775,331.7,0.39,0.36,2019-09-08,18:00,N,nominal,1.0NRT,295.9,2,D
18.33372,-70.25134,336,0.41,0.37,2019-09-08,18:00,N,nominal,1.0NRT,299.1,2.8,D
18.33413,-70.2514,340.2,0.41,0.37,2019-09-08,18:00,N,nominal,1.0NRT,299,4.3,D
18.28821,-70.57459,338.2,0.4,0.37,2019-09-08,18:00,N,nominal,1.0NRT,299.8,4.6,D
18.28767,-70.57834,337.3,0.4,0.37,2019-09-08,18:00,N,nominal,1.0NRT,298.4,4.6,D
18.41883,-71.23483,333.9,0.39,0.36,2019-09-08,18:00,N,nominal,1.0NRT,294.5,2,D
19.20273,-70.23832,338.5,0.41,0.37,2019-09-08,18:00,N,nominal,1.0NRT,300,4.5,D
19.18634,-70.45448,340.1,0.41,0.37,2019-09-08,18:00,N,nominal,1.0NRT,281.6,6.2,D
19.41861,-72.03436,330.8,0.38,0.36,2019-09-08,18:00,N,nominal,1.0NRT,296.4,2.7,D
19.60031,-71.13055,345.5,0.39,0.37,2019-09-08,18:00,N,nominal,1.0NRT,302,10.8,D
19.49238,-71.96867,331.6,0.38,0.36,2019-09-08,18:00,N,nominal,1.0NRT,293.9,2.6,D
19.4946,-71.97652,336.6,0.38,0.36,2019-09-08,18:00,N,nominal,1.0NRT,296.3,2.6,D
19.73703,-70.49668,338.1,0.41,0.37,2019-09-08,18:00,N,nominal,1.0NRT,297.6,4,D
19.81183,-70.92536,335.2,0.4,0.37,2019-09-08,18:00,N,nominal,1.0NRT,302.1,1.6,D
19.83648,-71.07302,335.4,0.4,0.37,2019-09-08,18:00,N,nominal,1.0NRT,300.7,1.8,D
20.0244,-75.96624,347.3,0.47,0.4,2019-09-08,18:00,N,low,1.0NRT,295.5,38.7,D
20.05347,-75.93021,335.3,0.47,0.4,2019-09-08,18:00,N,nominal,1.0NRT,297,6.5,D
32.3206,-84.0904,332.2,0.53,0.5,2019-09-08,18:06,N,nominal,1.0NRT,300.9,3.5,D
31.53131,-85.00898,340.5,0.62,0.54,2019-09-08,18:06,N,nominal,1.0NRT,296.8,13.2,D
31.53616,-85.0105,340.7,0.62,0.54,2019-09-08,18:06,N,nominal,1.0NRT,297.2,13.2,D
32.41432,-81.52529,356,0.38,0.43,2019-09-08,18:06,N,nominal,1.0NRT,300.8,10.6,D
32.41562,-81.52554,349.2,0.38,0.43,2019-09-08,18:06,N,nominal,1.0NRT,301,10.8,D
30.94102,-88.01688,331.9,0.47,0.64,2019-09-08,18:06,N,nominal,1.0NRT,298.9,3.8,D
33.0137,-79.88607,341.7,0.47,0.4,2019-09-08,18:06,N,nominal,1.0NRT,302.4,5.4,D
31.53519,-85.00872,342.8,0.62,0.54,2019-09-08,18:06,N,nominal,1.0NRT,298.2,16.2,D
32.32513,-84.09178,342.3,0.53,0.5,2019-09-08,18:06,N,nominal,1.0NRT,301.6,21.4,D
33.41463,-81.90086,331,0.38,0.43,2019-09-08,18:06,N,low,1.0NRT,305,4,D
30.97736,-85.10591,341.8,0.32,0.55,2019-09-08,18:06,N,nominal,1.0NRT,296.6,3.4,D
30.3623,-88.167,367,0.5,0.66,2019-09-08,18:06,N,high,1.0NRT,298,17.8,D
30.36364,-88.1619,329.8,0.5,0.66,2019-09-08,18:06,N,nominal,1.0NRT,295.7,16.2,D
30.36095,-88.17211,344,0.5,0.66,2019-09-08,18:06,N,nominal,1.0NRT,295.2,17.8,D
30.36819,-88.16896,367,0.5,0.66,2019-09-08,18:06,N,high,1.0NRT,295.6,10.7,D
30.65473,-87.29601,333.6,0.44,0.62,2019-09-08,18:06,N,nominal,1.0NRT,294.6,4.8,D
30.65561,-87.29549,329.8,0.44,0.62,2019-09-08,18:06,N,nominal,1.0NRT,294.8,4.8,D
31.53035,-85.00717,334,0.62,0.54,2019-09-08,18:06,N,nominal,1.0NRT,295.7,3.2,D
14.56194,-86.90215,344.3,0.38,0.59,2019-09-08,19:36,N,nominal,1.0NRT,299.2,4.1,D
12.9815,-87.51817,330.2,0.33,0.55,2019-09-08,19:36,N,nominal,1.0NRT,294.1,2.8,D
12.98354,-87.51757,334.6,0.33,0.55,2019-09-08,19:36,N,nominal,1.0NRT,294.4,1.8,D
13.75513,-87.32819,335.6,0.35,0.57,2019-09-08,19:36,N,nominal,1.0NRT,294.8,2,D
14.42053,-86.86505,337.1,0.38,0.59,2019-09-08,19:36,N,nominal,1.0NRT,296.4,5.7,D
14.4201,-86.8688,348.4,0.38,0.59,2019-09-08,19:36,N,nominal,1.0NRT,295.5,4.8,D
14.46691,-86.70655,356.1,0.39,0.6,2019-09-08,19:36,N,nominal,1.0NRT,293.8,11.4,D
14.46677,-86.70724,367,0.39,0.6,2019-09-08,19:36,N,high,1.0NRT,294.1,8.7,D
14.47468,-86.93475,334.9,0.38,0.59,2019-09-08,19:36,N,nominal,1.0NRT,297.4,4.1,D
14.48641,-86.92865,335.4,0.38,0.59,2019-09-08,19:36,N,nominal,1.0NRT,299.3,2.8,D
14.50938,-86.92083,334.8,0.38,0.59,2019-09-08,19:36,N,nominal,1.0NRT,301.4,3.7,D
14.50856,-86.92799,331.3,0.38,0.59,2019-09-08,19:36,N,low,1.0NRT,304,4.4,D
14.5144,-86.92519,353.8,0.38,0.59,2019-09-08,19:36,N,nominal,1.0NRT,304.3,5,D
14.51983,-86.92596,341.5,0.38,0.59,2019-09-08,19:36,N,nominal,1.0NRT,305.1,5,D
14.51942,-86.92947,336.2,0.38,0.59,2019-09-08,19:36,N,nominal,1.0NRT,305.1,5,D
14.52531,-86.92635,367,0.38,0.59,2019-09-08,19:36,N,high,1.0NRT,308.1,25.2,D
14.56153,-86.90576,344.4,0.38,0.59,2019-09-08,19:36,N,nominal,1.0NRT,300.8,4.1,D
14.5249,-86.92986,367,0.38,0.59,2019-09-08,19:36,N,high,1.0NRT,310.4,25.2,D
14.5245,-86.93333,367,0.38,0.59,2019-09-08,19:36,N,high,1.0NRT,307,15.5,D
14.52572,-86.92284,356.8,0.38,0.59,2019-09-08,19:36,N,nominal,1.0NRT,303.3,17.9,D
14.52409,-86.93681,354.9,0.38,0.59,2019-09-08,19:36,N,nominal,1.0NRT,303.3,15.5,D
14.53039,-86.93014,352.8,0.38,0.59,2019-09-08,19:36,N,nominal,1.0NRT,300.9,25.2,D
14.55567,-86.90321,334.8,0.38,0.59,2019-09-08,19:36,N,nominal,1.0NRT,301.6,4.6,D
14.55649,-86.90143,337.1,0.38,0.59,2019-09-08,19:36,N,nominal,1.0NRT,301.1,4.1,D
15.43479,-87.49272,333.1,0.36,0.57,2019-09-08,19:42,N,nominal,1.0NRT,293.9,5.4,D
15.38949,-88.04165,338.4,0.33,0.55,2019-09-08,19:42,N,nominal,1.0NRT,293.7,4.4,D
15.39938,-88.04592,332.5,0.33,0.55,2019-09-08,19:42,N,nominal,1.0NRT,294.3,4.6,D
15.94174,-93.8218,333.5,0.45,0.39,2019-09-08,19:42,N,nominal,1.0NRT,296,3.7,D
16.35904,-90.68399,331.4,0.46,0.47,2019-09-08,19:42,N,nominal,1.0NRT,292.7,3.8,D
16.47859,-90.50401,346.8,0.47,0.48,2019-09-08,19:42,N,nominal,1.0NRT,293.8,16.6,D
16.29155,-94.15188,336.1,0.44,0.38,2019-09-08,19:42,N,nominal,1.0NRT,299.1,4.5,D
16.29508,-94.1524,337.1,0.44,0.38,2019-09-08,19:42,N,nominal,1.0NRT,297.1,4.5,D
16.75758,-90.88818,344.9,0.45,0.47,2019-09-08,19:42,N,nominal,1.0NRT,291.7,7,D
16.20217,-95.16832,339.9,0.41,0.37,2019-09-08,19:42,N,nominal,1.0NRT,303.6,2.3,D
16.20163,-95.17211,340,0.41,0.37,2019-09-08,19:42,N,nominal,1.0NRT,305.2,2.3,D
16.20557,-95.16885,338.7,0.41,0.37,2019-09-08,19:42,N,nominal,1.0NRT,303.5,5.7,D
16.21522,-95.17421,330.5,0.41,0.37,2019-09-08,19:42,N,low,1.0NRT,305,5.5,D
17.16272,-91.42526,330.2,0.42,0.45,2019-09-08,19:42,N,nominal,1.0NRT,295.3,3.2,D
16.98371,-93.38915,332.6,0.48,0.4,2019-09-08,19:42,N,nominal,1.0NRT,291.9,3.8,D
16.81954,-94.8692,333.1,0.42,0.38,2019-09-08,19:42,N,nominal,1.0NRT,294.5,7,D
17.76705,-91.56429,341.7,0.42,0.45,2019-09-08,19:42,N,nominal,1.0NRT,293.8,3,D
17.81023,-91.97775,336.4,0.4,0.44,2019-09-08,19:42,N,nominal,1.0NRT,296.6,5.8,D
17.89127,-93.17831,335.9,0.51,0.41,2019-09-08,19:42,N,nominal,1.0NRT,292.2,9.2,D
17.88937,-93.19277,342.8,0.51,0.41,2019-09-08,19:42,N,nominal,1.0NRT,294.2,5,D
17.91225,-93.52066,339.8,0.49,0.4,2019-09-08,19:42,N,nominal,1.0NRT,294.4,5.5,D
18.06588,-93.31193,345,0.5,0.41,2019-09-08,19:42,N,nominal,1.0NRT,296.6,5.7,D
17.98112,-94.11772,333.1,0.46,0.39,2019-09-08,19:42,N,nominal,1.0NRT,294.2,2.6,D
18.27136,-92.24517,335.5,0.39,0.44,2019-09-08,19:42,N,nominal,1.0NRT,299,7.7,D
17.96955,-94.51864,350.3,0.44,0.38,2019-09-08,19:42,N,nominal,1.0NRT,296.3,8.1,D
18.29488,-92.15831,339.1,0.39,0.44,2019-09-08,19:42,N,nominal,1.0NRT,297.5,4.8,D
18.28342,-92.2468,339.8,0.39,0.44,2019-09-08,19:42,N,nominal,1.0NRT,298,6.6,D
17.97545,-94.52802,337.2,0.44,0.38,2019-09-08,19:42,N,nominal,1.0NRT,296.7,3.2,D
17.98252,-94.52909,335.3,0.44,0.38,2019-09-08,19:42,N,nominal,1.0NRT,295.6,2.4,D
18.2955,-92.15781,333.1,0.39,0.44,2019-09-08,19:42,N,nominal,1.0NRT,297.2,5.2,D
18.28464,-92.24648,339.3,0.39,0.44,2019-09-08,19:42,N,nominal,1.0NRT,297.5,7.6,D
17.99015,-94.52467,334.3,0.44,0.38,2019-09-08,19:42,N,nominal,1.0NRT,294.1,2.2,D
18.29955,-92.15836,337.1,0.39,0.44,2019-09-08,19:42,N,nominal,1.0NRT,289.7,3.4,D
18.29399,-92.27013,330.4,0.39,0.44,2019-09-08,19:42,N,nominal,1.0NRT,297.4,4.1,D
18.29936,-92.25968,349,0.39,0.44,2019-09-08,19:42,N,nominal,1.0NRT,297.4,5.9,D
18.29891,-92.26334,342.9,0.39,0.44,2019-09-08,19:42,N,nominal,1.0NRT,299.2,5.9,D
18.29846,-92.26701,334.9,0.39,0.44,2019-09-08,19:42,N,nominal,1.0NRT,299.2,4.1,D
18.298,-92.27067,336.3,0.39,0.44,2019-09-08,19:42,N,nominal,1.0NRT,300.1,4.1,D
18.30338,-92.26022,351.9,0.39,0.44,2019-09-08,19:42,N,nominal,1.0NRT,298.6,6.1,D
18.30293,-92.26389,335.2,0.39,0.44,2019-09-08,19:42,N,nominal,1.0NRT,296.4,6.1,D
18.30247,-92.26756,340.3,0.39,0.44,2019-09-08,19:42,N,nominal,1.0NRT,299.1,8,D
18.09117,-94.04772,332.5,0.46,0.39,2019-09-08,19:42,N,nominal,1.0NRT,292.5,1.5,D
17.85191,-95.8116,339.2,0.4,0.37,2019-09-08,19:42,N,nominal,1.0NRT,297,3.6,D
18.10913,-94.39684,335.4,0.45,0.39,2019-09-08,19:42,N,nominal,1.0NRT,295.4,5,D
18.1299,-94.2034,335.5,0.46,0.39,2019-09-08,19:42,N,nominal,1.0NRT,295.3,3.3,D
18.11131,-94.39664,335.5,0.45,0.39,2019-09-08,19:42,N,nominal,1.0NRT,294.9,4.6,D
18.21922,-93.89406,338.1,0.47,0.4,2019-09-08,19:42,N,nominal,1.0NRT,294.6,4,D
18.20432,-94.0051,332.1,0.47,0.39,2019-09-08,19:42,N,nominal,1.0NRT,294.1,6.1,D
18.20373,-94.0095,330.8,0.47,0.39,2019-09-08,19:42,N,nominal,1.0NRT,295,3.5,D
18.5986,-92.33942,341,0.39,0.44,2019-09-08,19:42,N,nominal,1.0NRT,293.1,1.8,D
18.69136,-91.7132,348.8,0.42,0.45,2019-09-08,19:42,N,nominal,1.0NRT,293.6,6.2,D
18.64429,-92.16833,341.3,0.39,0.44,2019-09-08,19:42,N,nominal,1.0NRT,295.1,5,D
18.64382,-92.17209,339.3,0.39,0.44,2019-09-08,19:42,N,nominal,1.0NRT,295.1,2.9,D
18.45527,-95.60981,332.4,0.41,0.37,2019-09-08,19:42,N,nominal,1.0NRT,298.6,1.9,D
18.44162,-95.75281,334.1,0.4,0.37,2019-09-08,19:42,N,nominal,1.0NRT,300.9,1.6,D
18.46826,-95.59209,337.1,0.41,0.37,2019-09-08,19:42,N,nominal,1.0NRT,298.4,2.7,D
18.46045,-95.77146,348.6,0.4,0.37,2019-09-08,19:42,N,nominal,1.0NRT,302.6,14.7,D
18.49469,-95.84695,333.1,0.4,0.37,2019-09-08,19:42,N,nominal,1.0NRT,300.7,1.4,D
18.50046,-95.87892,340.8,0.4,0.37,2019-09-08,19:42,N,nominal,1.0NRT,303,13.7,D
18.50439,-95.87566,352.6,0.4,0.37,2019-09-08,19:42,N,nominal,1.0NRT,305.1,13.7,D
18.57964,-95.73949,331.9,0.41,0.37,2019-09-08,19:42,N,nominal,1.0NRT,299.8,1.5,D
18.57949,-95.81379,352.1,0.4,0.37,2019-09-08,19:42,N,nominal,1.0NRT,299.3,10.5,D
18.61312,-95.89304,343.1,0.4,0.37,2019-09-08,19:42,N,nominal,1.0NRT,298.8,5.5,D
18.82051,-96.07288,331,0.4,0.37,2019-09-08,19:42,N,nominal,1.0NRT,300.2,0.8,D
19.3928,-92.04188,341,0.41,0.45,2019-09-08,19:42,N,nominal,1.0NRT,292.1,4.6,D
19.39693,-92.04243,341.3,0.41,0.45,2019-09-08,19:42,N,nominal,1.0NRT,291.4,4.6,D
19.43974,-92.03613,346.1,0.41,0.45,2019-09-08,19:42,N,nominal,1.0NRT,291.8,7.1,D
17.92825,-102.20823,333.6,0.56,0.43,2019-09-08,19:42,N,nominal,1.0NRT,296.8,9.3,D
17.93217,-102.20899,338.8,0.56,0.43,2019-09-08,19:42,N,nominal,1.0NRT,299.4,14.7,D
18.94923,-96.12831,331.2,0.4,0.37,2019-09-08,19:42,N,nominal,1.0NRT,299.4,9.1,D
18.94869,-96.13209,342.4,0.4,0.37,2019-09-08,19:42,N,nominal,1.0NRT,303.6,22.7,D
19.52356,-92.19018,330.4,0.4,0.44,2019-09-08,19:42,N,nominal,1.0NRT,292,2.3,D
19.56795,-92.2352,335.3,0.4,0.44,2019-09-08,19:42,N,nominal,1.0NRT,291.5,12.7,D
19.56747,-92.23904,334.4,0.4,0.44,2019-09-08,19:42,N,nominal,1.0NRT,292.6,12.7,D
19.56666,-92.23883,337.1,0.4,0.44,2019-09-08,19:42,N,nominal,1.0NRT,292.8,26.3,D
20.46193,-97.54606,334,0.39,0.36,2019-09-08,19:42,N,low,1.0NRT,304.2,4.1,D
20.29545,-98.93177,335.8,0.39,0.36,2019-09-08,19:42,N,low,1.0NRT,307.2,3,D
20.60448,-97.40382,335.6,0.39,0.36,2019-09-08,19:42,N,nominal,1.0NRT,301,1.8,D
20.59578,-98.0246,341.5,0.38,0.36,2019-09-08,19:42,N,nominal,1.0NRT,300.4,3.3,D
20.74234,-97.65815,344.6,0.38,0.36,2019-09-08,19:42,N,nominal,1.0NRT,308.1,6.4,D
20.6803,-98.31122,332.4,0.38,0.36,2019-09-08,19:42,N,nominal,1.0NRT,299.1,5.7,D
20.73613,-98.2568,330.6,0.38,0.36,2019-09-08,19:42,N,low,1.0NRT,301.6,2.9,D
20.7706,-98.31934,330.6,0.38,0.36,2019-09-08,19:42,N,low,1.0NRT,304.1,2.6,D
20.76946,-98.32668,341.8,0.38,0.36,2019-09-08,19:42,N,nominal,1.0NRT,301.5,6.7,D
20.82059,-98.25629,344.8,0.38,0.36,2019-09-08,19:42,N,nominal,1.0NRT,300.9,6.2,D
20.83581,-98.31171,333.4,0.38,0.36,2019-09-08,19:42,N,nominal,1.0NRT,300.6,2.4,D
20.89099,-98.2836,335.8,0.38,0.36,2019-09-08,19:42,N,nominal,1.0NRT,301.5,9.4,D
20.89425,-98.28448,340.3,0.38,0.36,2019-09-08,19:42,N,nominal,1.0NRT,298.1,5.2,D
20.52566,-100.92258,332.9,0.45,0.39,2019-09-08,19:42,N,nominal,1.0NRT,300.5,5.2,D
21.07509,-97.65057,349.5,0.39,0.36,2019-09-08,19:42,N,nominal,1.0NRT,314.8,45.1,D
21.09734,-98.19554,336.9,0.38,0.36,2019-09-08,19:42,N,nominal,1.0NRT,304.1,7.4,D
21.12116,-98.8101,330.1,0.39,0.36,2019-09-08,19:42,N,low,1.0NRT,303.6,1.7,D
21.37456,-98.46357,343,0.38,0.36,2019-09-08,19:42,N,nominal,1.0NRT,303.3,4.3,D
21.4402,-98.56284,337.8,0.39,0.36,2019-09-08,19:42,N,low,1.0NRT,310.1,32.3,D
21.4213,-98.68491,336.5,0.39,0.36,2019-09-08,19:42,N,nominal,1.0NRT,305,4.3,D
21.46422,-98.82251,332.1,0.39,0.36,2019-09-08,19:42,N,low,1.0NRT,305.3,4.2,D
21.63026,-97.80314,342.7,0.39,0.36,2019-09-08,19:42,N,nominal,1.0NRT,304.5,19.8,D
21.65292,-97.69656,333,0.39,0.36,2019-09-08,19:42,N,nominal,1.0NRT,301.7,2.5,D
21.63427,-98.27074,341.5,0.38,0.36,2019-09-08,19:42,N,nominal,1.0NRT,302,2.5,D
21.70287,-98.19588,341,0.38,0.36,2019-09-08,19:42,N,nominal,1.0NRT,302.7,3.4,D
21.5752,-99.45454,338.6,0.39,0.37,2019-09-08,19:42,N,low,1.0NRT,310.3,7.6,D
21.87055,-97.73359,338.3,0.39,0.36,2019-09-08,19:42,N,nominal,1.0NRT,301.6,3.2,D
21.82598,-98.43338,343,0.38,0.36,2019-09-08,19:42,N,nominal,1.0NRT,306.3,9.7,D
21.96301,-97.86048,338.7,0.39,0.36,2019-09-08,19:42,N,nominal,1.0NRT,306,4.5,D
21.96246,-97.8642,337.1,0.39,0.36,2019-09-08,19:42,N,nominal,1.0NRT,304.7,1.8,D
21.89943,-99.18075,334.4,0.39,0.36,2019-09-08,19:42,N,nominal,1.0NRT,300.3,4,D
21.89884,-99.18447,331.7,0.39,0.36,2019-09-08,19:42,N,nominal,1.0NRT,298.6,4,D
21.95157,-99.04416,338.9,0.39,0.36,2019-09-08,19:42,N,nominal,1.0NRT,308.1,2,D
21.99697,-99.18339,337.6,0.39,0.36,2019-09-08,19:42,N,nominal,1.0NRT,308.9,2.7,D
22.00029,-99.184,345.8,0.39,0.36,2019-09-08,19:42,N,nominal,1.0NRT,310.2,24.1,D
22.25848,-97.80845,341.7,0.39,0.36,2019-09-08,19:42,N,nominal,1.0NRT,304.8,7.5,D
22.26235,-97.80527,342,0.39,0.36,2019-09-08,19:42,N,nominal,1.0NRT,306.8,5.9,D
22.26539,-97.80532,339.4,0.39,0.36,2019-09-08,19:42,N,nominal,1.0NRT,304.4,6,D
22.7738,-97.98196,337.5,0.39,0.36,2019-09-08,19:42,N,nominal,1.0NRT,306.4,2.3,D
22.95994,-99.13515,340.2,0.39,0.36,2019-09-08,19:42,N,nominal,1.0NRT,302.9,3.4,D
24.00943,-104.6654,330.2,0.41,0.45,2019-09-08,19:42,N,low,1.0NRT,302.9,0.7,D
25.51416,-97.58285,334,0.4,0.37,2019-09-08,19:42,N,nominal,1.0NRT,298.4,17.6,D
25.5136,-97.58683,340.2,0.4,0.37,2019-09-08,19:42,N,nominal,1.0NRT,298,17.6,D
25.60295,-100.92065,334.9,0.4,0.37,2019-09-08,19:42,N,nominal,1.0NRT,302,3.7,D
25.71775,-100.29779,342,0.39,0.36,2019-09-08,19:42,N,nominal,1.0NRT,303.7,5.8,D
26.88537,-101.45019,339.9,0.41,0.37,2019-09-08,19:42,N,nominal,1.0NRT,307.1,3.6,D
26.88875,-101.4509,340.6,0.41,0.37,2019-09-08,19:42,N,nominal,1.0NRT,306.3,3.6,D
26.88741,-101.45901,339.8,0.41,0.37,2019-09-08,19:42,N,nominal,1.0NRT,309.2,6.4,D
25.2166,-111.78247,332.1,0.52,0.67,2019-09-08,19:42,N,nominal,1.0NRT,285.5,3,D
28.07802,-96.84541,343.4,0.44,0.38,2019-09-08,19:42,N,nominal,1.0NRT,302.2,18.5,D
28.08155,-96.84599,333.6,0.44,0.38,2019-09-08,19:42,N,nominal,1.0NRT,298.7,5.1,D
28.08685,-96.83311,350,0.44,0.38,2019-09-08,19:42,N,nominal,1.0NRT,305.6,33.2,D
28.08568,-96.84209,333.1,0.44,0.38,2019-09-08,19:42,N,nominal,1.0NRT,299.7,5.1,D
28.09098,-96.82919,353,0.44,0.38,2019-09-08,19:42,N,nominal,1.0NRT,306.9,24.5,D
28.09039,-96.83369,341.9,0.44,0.38,2019-09-08,19:42,N,nominal,1.0NRT,306.4,64,D
28.0898,-96.83817,348.7,0.44,0.38,2019-09-08,19:42,N,nominal,1.0NRT,303.6,64,D
28.08921,-96.84267,331.7,0.44,0.38,2019-09-08,19:42,N,nominal,1.0NRT,299.2,10.6,D
28.09511,-96.82527,344,0.44,0.38,2019-09-08,19:42,N,nominal,1.0NRT,303.5,24.5,D
28.09452,-96.82977,337.5,0.44,0.38,2019-09-08,19:42,N,nominal,1.0NRT,303.8,24.5,D
28.09393,-96.83426,340.1,0.44,0.38,2019-09-08,19:42,N,nominal,1.0NRT,310.1,64,D
28.09865,-96.82585,353.4,0.44,0.38,2019-09-08,19:42,N,nominal,1.0NRT,306.1,19.3,D
28.09746,-96.83484,350.5,0.44,0.38,2019-09-08,19:42,N,nominal,1.0NRT,302.5,11.3,D
28.09687,-96.83933,332.2,0.44,0.38,2019-09-08,19:42,N,nominal,1.0NRT,298.1,11.3,D
28.10278,-96.82194,367,0.44,0.39,2019-09-08,19:42,N,high,1.0NRT,305,29.9,D
28.10218,-96.82643,338.5,0.44,0.38,2019-09-08,19:42,N,nominal,1.0NRT,304.9,19.3,D
28.101,-96.83542,346.7,0.44,0.38,2019-09-08,19:42,N,nominal,1.0NRT,299.8,11.3,D
28.1075,-96.81351,348.9,0.44,0.39,2019-09-08,19:42,N,nominal,1.0NRT,302.8,21.5,D
28.10691,-96.81801,355.8,0.44,0.39,2019-09-08,19:42,N,nominal,1.0NRT,307.1,14.5,D
28.10631,-96.82251,339.9,0.44,0.39,2019-09-08,19:42,N,nominal,1.0NRT,305.3,14.5,D
28.10513,-96.8315,339.1,0.44,0.38,2019-09-08,19:42,N,nominal,1.0NRT,301,8.2,D
28.11223,-96.80508,367,0.44,0.39,2019-09-08,19:42,N,high,1.0NRT,304.8,21.8,D
28.11164,-96.80958,367,0.44,0.39,2019-09-08,19:42,N,high,1.0NRT,305.4,21.5,D
28.11104,-96.81409,351.3,0.44,0.39,2019-09-08,19:42,N,nominal,1.0NRT,304.6,21.5,D
28.11045,-96.81858,346.1,0.44,0.39,2019-09-08,19:42,N,nominal,1.0NRT,304.2,14.5,D
28.10986,-96.82308,335.9,0.44,0.39,2019-09-08,19:42,N,nominal,1.0NRT,301.6,14.5,D
28.10926,-96.82758,349.7,0.44,0.38,2019-09-08,19:42,N,nominal,1.0NRT,301.4,8.2,D
28.11636,-96.80114,356.3,0.44,0.39,2019-09-08,19:42,N,nominal,1.0NRT,304.2,53.9,D
28.11577,-96.80565,342.4,0.44,0.39,2019-09-08,19:42,N,nominal,1.0NRT,305,53.9,D
28.11518,-96.81016,342.8,0.44,0.39,2019-09-08,19:42,N,nominal,1.0NRT,305.6,26.6,D
28.11458,-96.81466,349.9,0.44,0.39,2019-09-08,19:42,N,nominal,1.0NRT,305.9,26.6,D
28.11399,-96.81916,350.9,0.44,0.39,2019-09-08,19:42,N,nominal,1.0NRT,308.4,38.7,D
28.1205,-96.79722,335.1,0.44,0.39,2019-09-08,19:42,N,nominal,1.0NRT,300,54.1,D
28.11991,-96.80172,350.1,0.44,0.39,2019-09-08,19:42,N,nominal,1.0NRT,305.8,53.9,D
28.11872,-96.81073,344.4,0.44,0.39,2019-09-08,19:42,N,nominal,1.0NRT,309.9,26.6,D
28.11812,-96.81523,355.9,0.44,0.39,2019-09-08,19:42,N,nominal,1.0NRT,302.7,26.6,D
28.11753,-96.81973,330.3,0.44,0.39,2019-09-08,19:42,N,nominal,1.0NRT,298.1,38.7,D
28.12285,-96.80681,337,0.44,0.39,2019-09-08,19:42,N,nominal,1.0NRT,300.5,14.3,D
28.12226,-96.81131,331,0.44,0.39,2019-09-08,19:42,N,nominal,1.0NRT,298.5,9.8,D
28.122,-96.80487,345.1,0.44,0.39,2019-09-08,19:42,N,nominal,1.0NRT,300.8,18.2,D
28.12143,-96.80937,343.3,0.44,0.39,2019-09-08,19:42,N,nominal,1.0NRT,305.8,50.7,D
28.60267,-98.26396,338.7,0.4,0.37,2019-09-08,19:42,N,nominal,1.0NRT,302.8,4,D
28.59762,-99.36592,337.1,0.39,0.36,2019-09-08,19:42,N,nominal,1.0NRT,306.4,1.7,D
29.57481,-98.03113,334,0.41,0.37,2019-09-08,19:42,N,low,1.0NRT,304.8,5.3,D
29.57706,-98.03503,333.1,0.41,0.37,2019-09-08,19:42,N,low,1.0NRT,303.3,3.5,D
30.65833,-87.287,332.5,0.54,0.68,2019-09-08,19:42,N,nominal,1.0NRT,293.3,4.1,D
28.08744,-96.82861,341.8,0.44,0.38,2019-09-08,19:42,N,nominal,1.0NRT,304.3,32.3,D
30.15996,-95.03448,336.3,0.56,0.43,2019-09-08,19:42,N,nominal,1.0NRT,306.1,7.9,D
30.1582,-95.03614,339,0.56,0.43,2019-09-08,19:42,N,nominal,1.0NRT,306.3,8.1,D
30.16217,-95.03671,332.7,0.56,0.43,2019-09-08,19:42,N,low,1.0NRT,305.3,3.3,D
30.46156,-92.67049,348.6,0.51,0.5,2019-09-08,19:42,N,nominal,1.0NRT,300.5,6.3,D
28.86639,-105.83261,337.4,0.39,0.44,2019-09-08,19:42,N,low,1.0NRT,308.4,4.6,D
28.87037,-105.83361,340.3,0.39,0.44,2019-09-08,19:42,N,nominal,1.0NRT,308.1,4.6,D
30.55149,-94.88906,340,0.39,0.44,2019-09-08,19:42,N,nominal,1.0NRT,304.5,5.1,D
31.5331,-85.00163,331.9,0.74,0.76,2019-09-08,19:42,N,nominal,1.0NRT,291.3,7.9,D
31.53601,-85.00189,334.7,0.74,0.76,2019-09-08,19:42,N,nominal,1.0NRT,291.7,8.5,D
31.04401,-94.31622,332.4,0.42,0.45,2019-09-08,19:42,N,nominal,1.0NRT,302.4,2.4,D
31.63734,-89.90226,346.3,0.38,0.59,2019-09-08,19:42,N,nominal,1.0NRT,298.4,6.2,D
31.69906,-90.44402,330.2,0.36,0.57,2019-09-08,19:42,N,nominal,1.0NRT,298.4,2.6,D
31.08534,-97.94606,332.3,0.43,0.38,2019-09-08,19:42,N,nominal,1.0NRT,305.7,0.7,D
31.18739,-97.82827,340.2,0.43,0.38,2019-09-08,19:42,N,low,1.0NRT,313.2,7.8,D
31.19148,-97.82433,344.5,0.43,0.38,2019-09-08,19:42,N,nominal,1.0NRT,314.2,6.3,D
31.19088,-97.8289,347.4,0.43,0.38,2019-09-08,19:42,N,nominal,1.0NRT,314.9,6.3,D
31.19259,-97.84317,344.9,0.43,0.38,2019-09-08,19:42,N,nominal,1.0NRT,311.3,7.2,D
28.67802,-111.454,348.4,0.41,0.61,2019-09-08,19:42,N,nominal,1.0NRT,288.1,6.9,D
28.67565,-111.45325,335.6,0.41,0.61,2019-09-08,19:42,N,nominal,1.0NRT,289.3,3.7,D
32.12967,-93.39803,354,0.49,0.48,2019-09-08,19:42,N,nominal,1.0NRT,311.8,23.2,D
31.20233,-101.25323,338.1,0.39,0.36,2019-09-08,19:42,N,low,1.0NRT,311.5,0.9,D
31.29773,-101.18584,336.7,0.39,0.36,2019-09-08,19:42,N,low,1.0NRT,311.2,1.4,D
31.36401,-101.77512,352.7,0.39,0.36,2019-09-08,19:42,N,nominal,1.0NRT,318.3,15.8,D
31.36336,-101.77919,340.2,0.39,0.36,2019-09-08,19:42,N,nominal,1.0NRT,308.9,15.8,D
31.52503,-101.76293,346.2,0.39,0.36,2019-09-08,19:42,N,nominal,1.0NRT,312.9,5.9,D
32.84031,-91.63227,341.9,0.63,0.54,2019-09-08,19:42,N,nominal,1.0NRT,303.3,7.1,D
31.50387,-102.63852,343.8,0.4,0.37,2019-09-08,19:42,N,nominal,1.0NRT,305.2,5.1,D
32.84531,-91.62723,340.7,0.63,0.54,2019-09-08,19:42,N,nominal,1.0NRT,301.8,32,D
32.85033,-91.62775,332.5,0.63,0.54,2019-09-08,19:42,N,nominal,1.0NRT,301,7,D
32.84982,-91.63456,341.4,0.63,0.54,2019-09-08,19:42,N,nominal,1.0NRT,306.2,13.4,D
32.911,-91.29819,355.1,0.33,0.55,2019-09-08,19:42,N,nominal,1.0NRT,305.8,10.7,D
32.91073,-91.30178,356.2,0.33,0.55,2019-09-08,19:42,N,nominal,1.0NRT,306.2,10.5,D
32.91586,-91.3023,367,0.33,0.55,2019-09-08,19:42,N,high,1.0NRT,306.6,10.8,D
32.91613,-91.29871,345.6,0.33,0.55,2019-09-08,19:42,N,nominal,1.0NRT,306.6,10.2,D
31.70182,-101.87264,340.2,0.39,0.36,2019-09-08,19:42,N,low,1.0NRT,310.3,2.1,D
31.67621,-102.03212,338.4,0.39,0.36,2019-09-08,19:42,N,low,1.0NRT,309.5,3.8,D
32.94186,-91.62336,351.2,0.63,0.54,2019-09-08,19:42,N,nominal,1.0NRT,303.5,13.3,D
31.73646,-101.79905,338.9,0.39,0.36,2019-09-08,19:42,N,nominal,1.0NRT,308.7,4.6,D
31.73976,-101.79978,340.2,0.39,0.36,2019-09-08,19:42,N,nominal,1.0NRT,309.3,4.6,D
32.94078,-91.62336,348.8,0.63,0.54,2019-09-08,19:42,N,nominal,1.0NRT,300.9,7.9,D
33.26159,-90.25568,367,0.38,0.59,2019-09-08,19:42,N,high,1.0NRT,302.3,10.4,D
33.26133,-90.25989,351.1,0.38,0.59,2019-09-08,19:42,N,nominal,1.0NRT,298.3,10.4,D
33.32796,-90.56568,367,0.36,0.58,2019-09-08,19:42,N,high,1.0NRT,297,41.3,D
33.32767,-90.56968,350.4,0.36,0.58,2019-09-08,19:42,N,nominal,1.0NRT,299.9,41.3,D
33.32738,-90.57368,339.6,0.36,0.58,2019-09-08,19:42,N,nominal,1.0NRT,295.2,14.6,D
33.33072,-90.56599,367,0.37,0.58,2019-09-08,19:42,N,high,1.0NRT,295.2,41.9,D
33.33046,-90.57,354.1,0.37,0.58,2019-09-08,19:42,N,nominal,1.0NRT,299.8,41.9,D
33.3302,-90.57401,350,0.36,0.58,2019-09-08,19:42,N,nominal,1.0NRT,296,16.3,D
32.15329,-101.93095,342.3,0.39,0.36,2019-09-08,19:42,N,nominal,1.0NRT,311.2,6.5,D
32.21078,-101.93513,338.2,0.39,0.36,2019-09-08,19:42,N,nominal,1.0NRT,307.4,1.6,D
32.1785,-102.13614,339.4,0.39,0.36,2019-09-08,19:42,N,low,1.0NRT,309.4,2.3,D
32.40818,-101.54683,336.9,0.39,0.36,2019-09-08,19:42,N,low,1.0NRT,310.4,1.9,D
31.56344,-106.38387,337.8,0.56,0.43,2019-09-08,19:42,N,nominal,1.0NRT,306.7,8.1,D
31.56173,-106.38555,338.9,0.56,0.43,2019-09-08,19:42,N,nominal,1.0NRT,306.2,6.6,D
33.47477,-94.65615,356.8,0.43,0.46,2019-09-08,19:42,N,nominal,1.0NRT,309,11,D
33.42729,-95.47308,342.4,0.39,0.44,2019-09-08,19:42,N,nominal,1.0NRT,314.8,9.7,D
33.42746,-95.47298,345.1,0.39,0.44,2019-09-08,19:42,N,nominal,1.0NRT,314.9,9.6,D
30.98756,-111.81174,336.9,0.38,0.59,2019-09-08,19:42,N,nominal,1.0NRT,301.7,5.2,D
30.98657,-111.81578,343,0.39,0.59,2019-09-08,19:42,N,nominal,1.0NRT,301.5,4.2,D
14.71959,-86.88847,339,0.39,0.59,2019-09-08,19:42,N,nominal,1.0NRT,297.2,8.5,D
14.7251,-86.88879,367,0.39,0.59,2019-09-08,19:42,N,high,1.0NRT,297.2,8.5,D
14.72551,-86.88519,332.1,0.39,0.59,2019-09-08,19:42,N,nominal,1.0NRT,296.2,8.5,D
14.6875,-87.7168,367,0.34,0.56,2019-09-08,19:42,N,high,1.0NRT,294.3,6.9,D
15.12858,-85.79187,351.1,0.46,0.64,2019-09-08,19:42,N,nominal,1.0NRT,280.3,3.8,D
15.17465,-86.18732,367,0.44,0.62,2019-09-08,19:42,N,high,1.0NRT,296.6,8.4,D
15.17515,-86.18263,337,0.44,0.62,2019-09-08,19:42,N,nominal,1.0NRT,295.6,8.4,D
15.17417,-86.1919,337.1,0.44,0.62,2019-09-08,19:42,N,nominal,1.0NRT,290.5,4.1,D
15.11681,-87.12325,344,0.38,0.58,2019-09-08,19:42,N,nominal,1.0NRT,299.1,4.5,D
15.07283,-89.2988,332.8,0.54,0.51,2019-09-08,19:42,N,nominal,1.0NRT,286.2,7.4,D
15.07229,-89.30319,338.8,0.54,0.51,2019-09-08,19:42,N,nominal,1.0NRT,286.3,6.2,D
32.47256,-117.08043,353.3,0.69,0.74,2019-09-08,19:48,N,nominal,1.0NRT,300.7,7.8,D
32.20684,-115.15173,345.5,0.55,0.68,2019-09-08,19:48,N,nominal,1.0NRT,315.9,5.9,D
32.21292,-115.15404,346.1,0.55,0.68,2019-09-08,19:48,N,nominal,1.0NRT,318,5.9,D
33.41571,-110.8616,350.9,0.6,0.53,2019-09-08,19:48,N,nominal,1.0NRT,302.8,15.2,D
32.55328,-114.95816,341.8,0.53,0.67,2019-09-08,19:48,N,nominal,1.0NRT,309.4,3.3,D
32.67086,-114.90885,349.2,0.52,0.67,2019-09-08,19:48,N,nominal,1.0NRT,312.3,4,D
32.57473,-115.27989,354.9,0.55,0.68,2019-09-08,19:48,N,nominal,1.0NRT,313.7,8,D
32.47311,-117.07858,350.2,0.69,0.74,2019-09-08,19:48,N,nominal,1.0NRT,300.4,7.1,D
32.11765,-114.99868,345,0.4,0.6,2019-09-08,21:24,N,nominal,1.0NRT,318.7,5.6,D
25.21349,-111.78546,333.8,0.54,0.68,2019-09-08,21:24,N,nominal,1.0NRT,287.6,5.5,D
32.0955,-114.99244,354.9,0.4,0.6,2019-09-08,21:24,N,nominal,1.0NRT,320.2,8.8,D
32.11204,-114.99823,355.5,0.4,0.6,2019-09-08,21:24,N,nominal,1.0NRT,318.7,8.6,D
32.41185,-114.77721,343.3,0.42,0.61,2019-09-08,21:24,N,low,1.0NRT,316.7,7.2,D
