latitude,longitude,bright_ti4,scan,track,acq_date,acq_time,satellite,confidence,version,bright_ti5,frp,daynight
9.97546,-63.18303,303.6,0.49,0.65,2019-10-16,05:00,N,nominal,1.0NRT,269.3,1.5,N
8.72493,-62.91146,337.1,0.45,0.63,2019-10-16,05:00,N,nominal,1.0NRT,285.3,2.4,N
8.74248,-63.05209,307.6,0.46,0.64,2019-10-16,05:00,N,nominal,1.0NRT,281.2,1.2,N
8.72571,-62.90943,334,0.45,0.63,2019-10-16,05:00,N,nominal,1.0NRT,283.1,2.1,N
8.74484,-63.05407,297.9,0.46,0.64,2019-10-16,05:00,N,nominal,1.0NRT,279.4,0.7,N
8.74427,-63.04976,301.2,0.46,0.64,2019-10-16,05:00,N,nominal,1.0NRT,281.3,0.7,N
8.68542,-63.15485,295.7,0.47,0.64,2019-10-16,05:00,N,nominal,1.0NRT,266.4,0.8,N
10.41564,-61.48283,317.9,0.38,0.59,2019-10-16,05:00,N,nominal,1.0NRT,286.1,1.6,N
10.41518,-61.47926,305.5,0.38,0.59,2019-10-16,05:00,N,nominal,1.0NRT,286,1.6,N
10.40973,-61.48001,325.9,0.38,0.59,2019-10-16,05:00,N,nominal,1.0NRT,286.5,1.6,N
10.18527,-61.69944,310.4,0.39,0.6,2019-10-16,05:00,N,nominal,1.0NRT,289,2.6,N
10.18436,-61.69209,304.5,0.39,0.6,2019-10-16,05:00,N,nominal,1.0NRT,288.9,1.3,N
10.17929,-61.69653,307.8,0.39,0.6,2019-10-16,05:00,N,nominal,1.0NRT,288.8,1.3,N
10.17884,-61.69284,317.4,0.39,0.6,2019-10-16,05:00,N,nominal,1.0NRT,289.4,1.3,N
10.17984,-61.69491,311.6,0.39,0.6,2019-10-16,05:00,N,nominal,1.0NRT,289,1.5,N
10.17935,-61.69122,310.1,0.39,0.59,2019-10-16,05:00,N,nominal,1.0NRT,288.8,1.5,N
10.00441,-62.23873,296.2,0.42,0.61,2019-10-16,05:00,N,nominal,1.0NRT,268.1,2.4,N
11.62994,-70.2309,307.8,0.51,0.49,2019-10-16,06:36,N,nominal,1.0NRT,282.8,2.1,N
11.62375,-70.22245,317.2,0.51,0.49,2019-10-16,06:36,N,nominal,1.0NRT,283,1.3,N
11.61923,-70.22324,308.6,0.51,0.49,2019-10-16,06:36,N,nominal,1.0NRT,282.2,1.3,N
9.97522,-63.17952,309.6,0.79,0.78,2019-10-16,06:36,N,nominal,1.0NRT,276.1,1.7,N
9.97413,-63.17793,308,0.79,0.78,2019-10-16,06:36,N,nominal,1.0NRT,276.5,1.7,N
9.8549,-63.33693,309.1,0.78,0.78,2019-10-16,06:36,N,nominal,1.0NRT,274.7,1.8,N
9.7448,-63.42536,301.7,0.77,0.77,2019-10-16,06:36,N,nominal,1.0NRT,274.9,0.5,N
9.73762,-63.42652,296.1,0.77,0.77,2019-10-16,06:36,N,nominal,1.0NRT,273.2,0.5,N
9.73926,-63.47077,356,0.76,0.77,2019-10-16,06:36,N,nominal,1.0NRT,276.9,9.1,N
9.74068,-63.47771,299.7,0.76,0.77,2019-10-16,06:36,N,nominal,1.0NRT,276.4,11.5,N
9.7378,-63.46365,302.6,0.77,0.77,2019-10-16,06:36,N,nominal,1.0NRT,276.7,9.1,N
9.73206,-63.47174,367,0.76,0.77,2019-10-16,06:36,N,high,1.0NRT,276.8,9.1,N
9.72917,-63.45767,320.2,0.77,0.77,2019-10-16,06:36,N,nominal,1.0NRT,276.8,4.3,N
9.7335,-63.47877,309.7,0.76,0.77,2019-10-16,06:36,N,nominal,1.0NRT,275.8,11.5,N
9.73063,-63.46476,302.7,0.77,0.77,2019-10-16,06:36,N,nominal,1.0NRT,276.3,9.1,N
9.70025,-63.53242,299.6,0.76,0.77,2019-10-16,06:36,N,nominal,1.0NRT,272.8,2.4,N
9.69875,-63.52523,296.7,0.76,0.77,2019-10-16,06:36,N,nominal,1.0NRT,272.4,1.6,N
9.74304,-63.4319,299.7,0.77,0.77,2019-10-16,06:36,N,nominal,1.0NRT,274.9,1.1,N
9.7416,-63.42464,301.9,0.77,0.77,2019-10-16,06:36,N,nominal,1.0NRT,273.3,1.1,N
9.73719,-63.47714,320.7,0.76,0.77,2019-10-16,06:36,N,nominal,1.0NRT,276.5,16.7,N
9.7358,-63.47014,367,0.77,0.77,2019-10-16,06:36,N,high,1.0NRT,277.8,16.7,N
9.73439,-63.46302,302,0.77,0.77,2019-10-16,06:36,N,nominal,1.0NRT,277,5.9,N
9.72583,-63.45714,312.6,0.77,0.77,2019-10-16,06:36,N,nominal,1.0NRT,276.7,5.9,N
9.70362,-63.5309,309.3,0.76,0.77,2019-10-16,06:36,N,nominal,1.0NRT,272.7,1.7,N
9.70218,-63.5237,296.9,0.76,0.77,2019-10-16,06:36,N,nominal,1.0NRT,272.4,1.7,N
9.67785,-63.4762,327.9,0.77,0.77,2019-10-16,06:36,N,nominal,1.0NRT,268.2,7.2,N
9.67641,-63.46906,336.3,0.77,0.77,2019-10-16,06:36,N,nominal,1.0NRT,268.1,7.2,N
9.65246,-63.5332,349.8,0.76,0.77,2019-10-16,06:36,N,nominal,1.0NRT,270.6,8.2,N
9.65392,-63.5404,302.2,0.76,0.77,2019-10-16,06:36,N,nominal,1.0NRT,269.9,8.2,N
9.65098,-63.52598,318.9,0.76,0.77,2019-10-16,06:36,N,nominal,1.0NRT,269.4,7.4,N
9.65117,-63.56309,367,0.76,0.77,2019-10-16,06:36,N,high,1.0NRT,269.9,17.7,N
9.65407,-63.57728,297,0.76,0.77,2019-10-16,06:36,N,nominal,1.0NRT,266.7,3.2,N
9.65262,-63.57018,309.5,0.76,0.77,2019-10-16,06:36,N,nominal,1.0NRT,269.3,17.7,N
9.64971,-63.55593,310.1,0.76,0.77,2019-10-16,06:36,N,nominal,1.0NRT,270.3,10.2,N
9.64824,-63.54872,304.1,0.76,0.77,2019-10-16,06:36,N,nominal,1.0NRT,271,10.2,N
9.64678,-63.54154,301,0.76,0.77,2019-10-16,06:36,N,nominal,1.0NRT,269.7,2,N
9.64531,-63.53434,295.9,0.76,0.77,2019-10-16,06:36,N,nominal,1.0NRT,270.1,2,N
9.64547,-63.57125,324,0.76,0.77,2019-10-16,06:36,N,nominal,1.0NRT,267.6,17.7,N
9.64403,-63.56417,367,0.76,0.77,2019-10-16,06:36,N,high,1.0NRT,268.8,17.7,N
9.64256,-63.55702,343.2,0.76,0.77,2019-10-16,06:36,N,nominal,1.0NRT,269.4,10.2,N
9.64109,-63.54982,336.2,0.76,0.77,2019-10-16,06:36,N,nominal,1.0NRT,270.4,10.2,N
9.64693,-63.57838,300,0.76,0.77,2019-10-16,06:36,N,nominal,1.0NRT,266.9,3.2,N
9.63963,-63.54266,305.6,0.76,0.77,2019-10-16,06:36,N,nominal,1.0NRT,269.2,2,N
9.63833,-63.57233,296.9,0.76,0.77,2019-10-16,06:36,N,nominal,1.0NRT,267.2,1.5,N
9.63688,-63.56525,302.6,0.76,0.77,2019-10-16,06:36,N,nominal,1.0NRT,267.4,1.5,N
9.63543,-63.55819,301.8,0.76,0.77,2019-10-16,06:36,N,nominal,1.0NRT,266.7,1.8,N
9.62643,-63.69299,336.4,0.74,0.76,2019-10-16,06:36,N,nominal,1.0NRT,261.4,3.7,N
9.625,-63.68604,304,0.74,0.76,2019-10-16,06:36,N,nominal,1.0NRT,258.3,3.7,N
9.6567,-63.53072,322.1,0.76,0.77,2019-10-16,06:36,N,nominal,1.0NRT,270.4,5.7,N
9.64957,-63.53196,338,0.76,0.77,2019-10-16,06:36,N,nominal,1.0NRT,270.8,5.7,N
9.65666,-63.56795,298.9,0.76,0.77,2019-10-16,06:36,N,nominal,1.0NRT,269.7,4.8,N
9.65525,-63.56079,308.1,0.76,0.77,2019-10-16,06:36,N,nominal,1.0NRT,269.5,3.3,N
9.65383,-63.55358,299.5,0.76,0.77,2019-10-16,06:36,N,nominal,1.0NRT,270.2,3.3,N
9.65241,-63.54634,297.4,0.76,0.77,2019-10-16,06:36,N,nominal,1.0NRT,270.4,6.2,N
9.651,-63.53918,307.5,0.76,0.77,2019-10-16,06:36,N,nominal,1.0NRT,269.5,6.2,N
9.64814,-63.52471,307,0.76,0.77,2019-10-16,06:36,N,nominal,1.0NRT,267.6,5.7,N
9.64812,-63.56191,367,0.76,0.77,2019-10-16,06:36,N,high,1.0NRT,268.9,16,N
9.6467,-63.55476,322.3,0.76,0.77,2019-10-16,06:36,N,nominal,1.0NRT,270,16,N
9.65092,-63.57612,299.8,0.76,0.77,2019-10-16,06:36,N,nominal,1.0NRT,267,9.2,N
9.64952,-63.56901,318.1,0.76,0.77,2019-10-16,06:36,N,nominal,1.0NRT,267.3,9.2,N
9.64527,-63.54753,318.8,0.76,0.77,2019-10-16,06:36,N,nominal,1.0NRT,270.6,3.7,N
9.64385,-63.54033,304.2,0.76,0.77,2019-10-16,06:36,N,nominal,1.0NRT,269.6,3.7,N
9.64237,-63.57011,324.8,0.76,0.77,2019-10-16,06:36,N,nominal,1.0NRT,267.8,9.2,N
9.64097,-63.56302,367,0.76,0.77,2019-10-16,06:36,N,high,1.0NRT,268.7,16,N
9.63955,-63.55585,334,0.76,0.77,2019-10-16,06:36,N,nominal,1.0NRT,268,16,N
9.64379,-63.57724,299.3,0.76,0.77,2019-10-16,06:36,N,nominal,1.0NRT,267.4,9.2,N
9.63813,-63.54865,316.3,0.76,0.77,2019-10-16,06:36,N,nominal,1.0NRT,268.9,3.7,N
9.63672,-63.54155,297.5,0.76,0.77,2019-10-16,06:36,N,nominal,1.0NRT,267.8,3.7,N
9.62973,-63.69106,323.3,0.74,0.76,2019-10-16,06:36,N,nominal,1.0NRT,261.7,6.1,N
9.62268,-63.69238,329.2,0.74,0.76,2019-10-16,06:36,N,nominal,1.0NRT,258.2,6.1,N
9.62128,-63.68539,296.4,0.74,0.76,2019-10-16,06:36,N,nominal,1.0NRT,256.8,3.2,N
9.6212,-63.72145,354.7,0.74,0.76,2019-10-16,06:36,N,nominal,1.0NRT,262.6,17.1,N
11.13483,-72.57255,312.9,0.55,0.43,2019-10-16,06:36,N,nominal,1.0NRT,291.5,4.2,N
10.18286,-69.90919,304.7,0.56,0.52,2019-10-16,06:36,N,nominal,1.0NRT,286.5,1.4,N
10.36463,-71.4622,308.6,0.44,0.46,2019-10-16,06:36,N,nominal,1.0NRT,291,3.1,N
10.16957,-74.32556,306.4,0.46,0.39,2019-10-16,06:36,N,nominal,1.0NRT,287.7,0.5,N
10.31813,-75.48872,307.6,0.41,0.37,2019-10-16,06:36,N,nominal,1.0NRT,293.6,1.3,N
9.76429,-73.47428,307.2,0.51,0.41,2019-10-16,06:36,N,nominal,1.0NRT,292.9,1.2,N
7.89321,-72.59656,302,0.41,0.45,2019-10-16,06:36,N,nominal,1.0NRT,281.8,1.1,N
9.747,-73.4868,306.5,0.51,0.41,2019-10-16,06:36,N,nominal,1.0NRT,292.9,1.5,N
27.86032,-82.60177,304.2,0.33,0.55,2019-10-16,06:36,N,nominal,1.0NRT,279.8,1.8,N
26.65674,-78.15296,306.2,0.53,0.42,2019-10-16,06:36,N,nominal,1.0NRT,291.1,1.2,N
18.87537,-68.6817,305.9,0.48,0.48,2019-10-16,06:36,N,nominal,1.0NRT,291.7,1,N
21.45913,-87.76514,315.5,0.6,0.7,2019-10-16,06:36,N,nominal,1.0NRT,289.4,3.1,N
21.45454,-87.76413,310.4,0.59,0.7,2019-10-16,06:36,N,nominal,1.0NRT,289.4,2,N
21.43248,-87.82022,314.3,0.6,0.71,2019-10-16,06:36,N,nominal,1.0NRT,289.2,1.6,N
18.9261,-70.35386,316.1,0.57,0.43,2019-10-16,06:36,N,nominal,1.0NRT,287.9,1.7,N
12.48846,-70.00613,307.5,0.51,0.49,2019-10-16,06:36,N,nominal,1.0NRT,288.3,1.8,N
11.75122,-70.17122,303.1,0.51,0.49,2019-10-16,06:36,N,nominal,1.0NRT,282.1,0.9,N
11.74183,-70.19698,312.5,0.51,0.49,2019-10-16,06:36,N,nominal,1.0NRT,282,1.3,N
11.74101,-70.19241,302,0.51,0.49,2019-10-16,06:36,N,nominal,1.0NRT,280.8,1.3,N
11.73732,-70.1978,350.9,0.51,0.49,2019-10-16,06:36,N,nominal,1.0NRT,284.5,13.6,N
11.73812,-70.20227,309.6,0.51,0.49,2019-10-16,06:36,N,nominal,1.0NRT,282.3,4.3,N
11.7365,-70.19324,309.8,0.51,0.49,2019-10-16,06:36,N,nominal,1.0NRT,281.4,13.6,N
11.73861,-70.23087,305.2,0.5,0.49,2019-10-16,06:36,N,nominal,1.0NRT,283.5,0.8,N
11.63075,-70.23544,324.2,0.51,0.49,2019-10-16,06:36,N,nominal,1.0NRT,283.2,2.1,N
32.07151,-96.54414,303.6,0.39,0.36,2019-10-16,08:12,N,nominal,1.0NRT,287.8,0.7,N
27.81428,-97.46238,322.7,0.39,0.36,2019-10-16,08:12,N,nominal,1.0NRT,292.9,1.7,N
27.81446,-97.42155,328.1,0.39,0.36,2019-10-16,08:12,N,nominal,1.0NRT,293.6,2.6,N
27.82218,-97.20761,307,0.39,0.37,2019-10-16,08:12,N,nominal,1.0NRT,293.2,0.6,N
27.88398,-97.26857,322.2,0.39,0.36,2019-10-16,08:12,N,nominal,1.0NRT,293.4,3.5,N
27.88464,-97.27253,331,0.39,0.36,2019-10-16,08:12,N,nominal,1.0NRT,294.4,3.5,N
27.89129,-97.27113,306.3,0.39,0.36,2019-10-16,08:12,N,nominal,1.0NRT,293.3,1.3,N
28.51462,-96.79494,307.4,0.4,0.37,2019-10-16,08:12,N,nominal,1.0NRT,292.3,0.6,N
28.64088,-96.55013,307.1,0.4,0.37,2019-10-16,08:12,N,nominal,1.0NRT,292,1.1,N
30.4889,-109.63618,299.4,0.44,0.63,2019-10-16,08:12,N,nominal,1.0NRT,286.9,0.4,N
30.49441,-109.63094,300,0.44,0.63,2019-10-16,08:12,N,nominal,1.0NRT,284.4,3.5,N
30.49473,-109.63573,338.7,0.44,0.63,2019-10-16,08:12,N,nominal,1.0NRT,286.5,3.5,N
30.49369,-109.63533,320.3,0.44,0.63,2019-10-16,08:12,N,nominal,1.0NRT,286.2,3.3,N
30.49953,-109.6349,335.2,0.44,0.63,2019-10-16,08:12,N,nominal,1.0NRT,286.8,3.3,N
29.00192,-95.40234,306.4,0.43,0.38,2019-10-16,08:12,N,nominal,1.0NRT,293.1,1.6,N
29.0021,-95.40008,306.8,0.43,0.38,2019-10-16,08:12,N,nominal,1.0NRT,293,1.4,N
29.06793,-95.7493,310.4,0.42,0.38,2019-10-16,08:12,N,nominal,1.0NRT,294.3,2,N
29.36766,-94.9101,308.8,0.44,0.39,2019-10-16,08:12,N,nominal,1.0NRT,293.3,2,N
29.37283,-94.91833,306.1,0.44,0.39,2019-10-16,08:12,N,nominal,1.0NRT,292.9,1.5,N
29.37365,-94.92285,306.7,0.44,0.39,2019-10-16,08:12,N,nominal,1.0NRT,293.3,1.5,N
29.37612,-94.93642,309.8,0.44,0.39,2019-10-16,08:12,N,nominal,1.0NRT,293.8,2,N
29.82345,-95.24155,305,0.43,0.38,2019-10-16,08:12,N,nominal,1.0NRT,290.9,0.7,N
30.17347,-96.63181,303.1,0.39,0.36,2019-10-16,08:12,N,nominal,1.0NRT,290.2,0.3,N
31.18557,-103.63841,295.9,0.4,0.44,2019-10-16,08:12,N,nominal,1.0NRT,283.9,0.5,N
31.21471,-103.63839,296.6,0.4,0.44,2019-10-16,08:12,N,nominal,1.0NRT,283.1,0.3,N
31.20739,-103.13419,297.9,0.57,0.43,2019-10-16,08:12,N,nominal,1.0NRT,279,0.7,N
29.83569,-93.9627,298.2,0.48,0.4,2019-10-16,08:12,N,nominal,1.0NRT,285.1,0.6,N
31.20877,-103.13392,299.5,0.57,0.43,2019-10-16,08:12,N,nominal,1.0NRT,279,1.4,N
31.20955,-102.95913,296.8,0.56,0.43,2019-10-16,08:12,N,nominal,1.0NRT,285.1,0.5,N
31.10482,-101.06763,295.7,0.45,0.39,2019-10-16,08:12,N,nominal,1.0NRT,284.7,0.4,N
31.1473,-101.22694,300.8,0.46,0.39,2019-10-16,08:12,N,nominal,1.0NRT,285.3,0.8,N
31.20207,-101.33668,314,0.47,0.39,2019-10-16,08:12,N,nominal,1.0NRT,285.1,1.3,N
30.06761,-94.0713,303,0.47,0.4,2019-10-16,08:12,N,nominal,1.0NRT,290.5,1.8,N
31.20167,-101.33441,295.2,0.47,0.39,2019-10-16,08:12,N,nominal,1.0NRT,283.9,0.5,N
31.20228,-101.33932,301.8,0.47,0.39,2019-10-16,08:12,N,nominal,1.0NRT,284.4,0.5,N
31.46382,-103.32539,296.4,0.39,0.44,2019-10-16,08:12,N,nominal,1.0NRT,285.3,0.3,N
31.50351,-103.46346,307.6,0.4,0.44,2019-10-16,08:12,N,nominal,1.0NRT,284.6,0.5,N
31.58891,-104.06664,309,0.43,0.46,2019-10-16,08:12,N,nominal,1.0NRT,283.8,1.7,N
31.30751,-101.58556,302,0.48,0.4,2019-10-16,08:12,N,nominal,1.0NRT,284.4,0.5,N
31.60521,-104.01834,317.1,0.43,0.46,2019-10-16,08:12,N,nominal,1.0NRT,283.4,1.4,N
31.62393,-104.15443,315.3,0.43,0.46,2019-10-16,08:12,N,nominal,1.0NRT,283.3,1.7,N
31.62255,-104.02059,297.9,0.43,0.46,2019-10-16,08:12,N,nominal,1.0NRT,281.8,1.6,N
31.36498,-101.77351,306.6,0.49,0.4,2019-10-16,08:12,N,nominal,1.0NRT,284.5,0.7,N
31.62677,-104.02003,309.6,0.43,0.46,2019-10-16,08:12,N,nominal,1.0NRT,282.3,1.6,N
31.62628,-104.01546,325.4,0.43,0.46,2019-10-16,08:12,N,nominal,1.0NRT,284.8,1.6,N
31.6321,-104.06969,326.9,0.43,0.46,2019-10-16,08:12,N,nominal,1.0NRT,284.5,2.6,N
31.36323,-101.77748,311.4,0.49,0.4,2019-10-16,08:12,N,nominal,1.0NRT,284.6,1.2,N
31.62233,-104.01852,300.6,0.43,0.46,2019-10-16,08:12,N,nominal,1.0NRT,282.7,0.9,N
31.63157,-104.0677,310.4,0.43,0.46,2019-10-16,08:12,N,nominal,1.0NRT,283.2,1.5,N
31.63203,-104.07224,310.8,0.43,0.46,2019-10-16,08:12,N,nominal,1.0NRT,282.8,1.7,N
31.62654,-104.01794,334.2,0.43,0.46,2019-10-16,08:12,N,nominal,1.0NRT,285.4,3.3,N
29.68321,-91.47475,303.2,0.43,0.46,2019-10-16,08:12,N,nominal,1.0NRT,289.7,0.9,N
31.42269,-101.4668,295.5,0.47,0.4,2019-10-16,08:12,N,nominal,1.0NRT,280.8,0.4,N
30.7448,-96.66068,306.4,0.39,0.36,2019-10-16,08:12,N,nominal,1.0NRT,289.6,0.5,N
31.73837,-103.94519,296.8,0.42,0.46,2019-10-16,08:12,N,nominal,1.0NRT,283.3,0.3,N
31.76873,-103.99138,295.7,0.43,0.46,2019-10-16,08:12,N,nominal,1.0NRT,282.7,0.5,N
30.81174,-96.65001,306,0.39,0.36,2019-10-16,08:12,N,nominal,1.0NRT,289.6,0.3,N
31.82701,-104.05692,297.5,0.43,0.46,2019-10-16,08:12,N,nominal,1.0NRT,283.7,0.5,N
31.67197,-102.24937,300.7,0.52,0.41,2019-10-16,08:12,N,nominal,1.0NRT,282.8,1.1,N
31.67579,-102.24874,311.5,0.52,0.41,2019-10-16,08:12,N,nominal,1.0NRT,281.5,1.1,N
31.68443,-101.93398,297.9,0.5,0.41,2019-10-16,08:12,N,nominal,1.0NRT,284.5,1.8,N
31.68508,-101.93928,327.4,0.5,0.41,2019-10-16,08:12,N,nominal,1.0NRT,286.2,3.8,N
31.91526,-103.88094,299.9,0.42,0.45,2019-10-16,08:12,N,nominal,1.0NRT,272,0.8,N
29.68426,-89.97577,308.9,0.52,0.5,2019-10-16,08:12,N,nominal,1.0NRT,292,2.8,N
29.68351,-89.97473,309.3,0.52,0.5,2019-10-16,08:12,N,nominal,1.0NRT,291.8,2.5,N
31.73098,-101.87643,296.8,0.5,0.41,2019-10-16,08:12,N,nominal,1.0NRT,284.5,0.5,N
31.92742,-103.62909,298.7,0.41,0.45,2019-10-16,08:12,N,nominal,1.0NRT,283.7,0.7,N
31.93155,-103.62843,313.6,0.41,0.45,2019-10-16,08:12,N,nominal,1.0NRT,284.2,1.7,N
31.95402,-103.60288,298.6,0.41,0.45,2019-10-16,08:12,N,nominal,1.0NRT,283.5,0.7,N
31.95448,-103.60724,306.1,0.41,0.45,2019-10-16,08:12,N,nominal,1.0NRT,282,1,N
31.60377,-100.62689,307.2,0.44,0.38,2019-10-16,08:12,N,nominal,1.0NRT,284.6,0.6,N
31.96179,-103.25589,296.2,0.39,0.44,2019-10-16,08:12,N,nominal,1.0NRT,283.7,0.2,N
31.79158,-101.74852,306.7,0.49,0.4,2019-10-16,08:12,N,nominal,1.0NRT,284.1,1.2,N
32.04485,-103.93803,304,0.43,0.46,2019-10-16,08:12,N,nominal,1.0NRT,284.1,0.7,N
31.7953,-101.74791,309,0.49,0.4,2019-10-16,08:12,N,nominal,1.0NRT,284.5,1.4,N
31.7924,-101.74588,324.8,0.49,0.4,2019-10-16,08:12,N,nominal,1.0NRT,285.5,2.6,N
32.04485,-103.93928,300.7,0.43,0.46,2019-10-16,08:12,N,nominal,1.0NRT,284.1,0.7,N
31.85097,-101.82169,306.2,0.5,0.41,2019-10-16,08:12,N,nominal,1.0NRT,284.9,0.9,N
31.86236,-101.88461,300.3,0.5,0.41,2019-10-16,08:12,N,nominal,1.0NRT,285.6,0.9,N
32.02175,-103.27683,314.9,0.39,0.44,2019-10-16,08:12,N,nominal,1.0NRT,285.3,1.5,N
32.06724,-103.70238,301.5,0.42,0.45,2019-10-16,08:12,N,nominal,1.0NRT,282.5,0.6,N
32.02307,-103.25111,295.9,0.39,0.44,2019-10-16,08:12,N,nominal,1.0NRT,283.8,0.5,N
32.07689,-103.6739,296,0.41,0.45,2019-10-16,08:12,N,nominal,1.0NRT,280.5,0.8,N
31.98184,-102.63259,336.1,0.55,0.42,2019-10-16,08:12,N,nominal,1.0NRT,293.8,43.5,N
31.98574,-102.63195,297.1,0.55,0.42,2019-10-16,08:12,N,nominal,1.0NRT,283.9,0.8,N
32.08223,-103.30151,296.7,0.39,0.44,2019-10-16,08:12,N,nominal,1.0NRT,283.6,0.4,N
32.08163,-103.30388,298.7,0.4,0.44,2019-10-16,08:12,N,nominal,1.0NRT,283.4,0.5,N
32.13759,-103.68072,295.9,0.41,0.45,2019-10-16,08:12,N,nominal,1.0NRT,283,0.5,N
32.19298,-104.01436,300.3,0.43,0.46,2019-10-16,08:12,N,nominal,1.0NRT,284.5,1.3,N
32.19187,-103.5962,332.8,0.41,0.45,2019-10-16,08:12,N,nominal,1.0NRT,283.7,2.8,N
32.25296,-104.0527,301.4,0.44,0.46,2019-10-16,08:12,N,nominal,1.0NRT,283.8,0.6,N
32.20936,-103.60249,315.6,0.41,0.45,2019-10-16,08:12,N,nominal,1.0NRT,284,1.3,N
32.28559,-104.00381,298.2,0.43,0.46,2019-10-16,08:12,N,nominal,1.0NRT,284.5,0.6,N
32.30347,-103.92592,299.3,0.43,0.46,2019-10-16,08:12,N,nominal,1.0NRT,283.7,0.6,N
32.33577,-104.20152,301,0.45,0.47,2019-10-16,08:12,N,nominal,1.0NRT,283.3,0.4,N
32.34007,-104.2009,295.6,0.45,0.47,2019-10-16,08:12,N,nominal,1.0NRT,284,0.4,N
32.29926,-103.68118,296.4,0.42,0.45,2019-10-16,08:12,N,nominal,1.0NRT,282.1,0.3,N
32.16393,-102.2259,327.9,0.52,0.42,2019-10-16,08:12,N,nominal,1.0NRT,286,4.9,N
32.16524,-102.22508,336.1,0.52,0.42,2019-10-16,08:12,N,nominal,1.0NRT,286.4,4.3,N
32.15457,-101.93082,335.4,0.51,0.41,2019-10-16,08:12,N,nominal,1.0NRT,289.3,6.9,N
32.14441,-101.7798,310.5,0.5,0.41,2019-10-16,08:12,N,nominal,1.0NRT,284.3,1.4,N
32.1868,-102.00828,344.2,0.51,0.41,2019-10-16,08:12,N,nominal,1.0NRT,287,54.3,N
32.18995,-102.0022,299.2,0.51,0.41,2019-10-16,08:12,N,nominal,1.0NRT,283.7,4.5,N
32.19059,-102.00764,337.8,0.51,0.41,2019-10-16,08:12,N,nominal,1.0NRT,305,54.3,N
32.14301,-101.45541,295.3,0.48,0.4,2019-10-16,08:12,N,nominal,1.0NRT,284.4,0.4,N
32.20628,-101.78571,295.8,0.5,0.41,2019-10-16,08:12,N,nominal,1.0NRT,284.6,0.6,N
32.18242,-101.46954,298.8,0.48,0.4,2019-10-16,08:12,N,nominal,1.0NRT,284.7,0.6,N
32.23007,-101.59678,298.4,0.49,0.4,2019-10-16,08:12,N,nominal,1.0NRT,284.8,0.4,N
32.26086,-101.82292,297.1,0.5,0.41,2019-10-16,08:12,N,nominal,1.0NRT,284.3,0.7,N
32.54907,-104.11805,308.2,0.44,0.46,2019-10-16,08:12,N,nominal,1.0NRT,282,0.6,N
32.34397,-102.03558,295.7,0.52,0.41,2019-10-16,08:12,N,nominal,1.0NRT,283.5,0.2,N
32.27877,-101.4089,298.8,0.48,0.4,2019-10-16,08:12,N,nominal,1.0NRT,285.9,0.9,N
31.70897,-97.16071,299.7,0.38,0.36,2019-10-16,08:12,N,nominal,1.0NRT,287.8,0.8,N
32.34445,-101.75372,317.8,0.5,0.41,2019-10-16,08:12,N,nominal,1.0NRT,284.7,1.5,N
32.63805,-104.47987,297,0.47,0.47,2019-10-16,08:12,N,nominal,1.0NRT,281.3,0.5,N
32.38924,-101.97131,307.7,0.51,0.41,2019-10-16,08:12,N,nominal,1.0NRT,283.9,1.3,N
32.39435,-102.01512,330.5,0.51,0.41,2019-10-16,08:12,N,nominal,1.0NRT,284.4,3.5,N
32.42566,-102.11691,307,0.52,0.42,2019-10-16,08:12,N,nominal,1.0NRT,284.8,1.3,N
31.76797,-97.0602,300,0.38,0.36,2019-10-16,08:12,N,nominal,1.0NRT,287.3,0.4,N
32.40726,-101.549,305.2,0.49,0.4,2019-10-16,08:12,N,nominal,1.0NRT,283.9,1.1,N
32.41698,-101.62772,325.5,0.49,0.41,2019-10-16,08:12,N,nominal,1.0NRT,285,2.2,N
32.41338,-101.53725,298.8,0.49,0.4,2019-10-16,08:12,N,nominal,1.0NRT,283.8,0.9,N
32.41787,-101.626,325.2,0.49,0.41,2019-10-16,08:12,N,nominal,1.0NRT,284.7,1.5,N
32.41786,-101.59371,295.3,0.49,0.4,2019-10-16,08:12,N,nominal,1.0NRT,284.3,0.3,N
32.41473,-101.53537,301.6,0.49,0.4,2019-10-16,08:12,N,nominal,1.0NRT,283.9,0.7,N
32.42962,-101.56485,295.2,0.49,0.4,2019-10-16,08:12,N,nominal,1.0NRT,283.8,0.5,N
32.43333,-101.5642,300,0.49,0.4,2019-10-16,08:12,N,nominal,1.0NRT,283.5,0.4,N
32.46215,-101.71025,298.2,0.5,0.41,2019-10-16,08:12,N,nominal,1.0NRT,283.3,0.7,N
32.4659,-101.7096,317.4,0.5,0.41,2019-10-16,08:12,N,nominal,1.0NRT,284.3,1.7,N
32.48241,-101.59326,295.1,0.49,0.41,2019-10-16,08:12,N,nominal,1.0NRT,283.2,0.6,N
32.49431,-101.35273,325.2,0.48,0.4,2019-10-16,08:12,N,nominal,1.0NRT,285.5,1.8,N
32.49245,-101.35177,328.5,0.48,0.4,2019-10-16,08:12,N,nominal,1.0NRT,285.5,2.4,N
33.41359,-110.86323,318,0.55,0.68,2019-10-16,08:12,N,nominal,1.0NRT,285.8,2.5,N
33.41386,-110.86889,313.4,0.55,0.68,2019-10-16,08:12,N,nominal,1.0NRT,285.3,2.5,N
33.41522,-110.86287,314.3,0.55,0.68,2019-10-16,08:12,N,nominal,1.0NRT,286.1,3.4,N
33.41546,-110.86855,321.7,0.55,0.68,2019-10-16,08:12,N,nominal,1.0NRT,286.3,4.7,N
32.53646,-99.75344,295.3,0.42,0.38,2019-10-16,08:12,N,nominal,1.0NRT,284.6,0.2,N
32.97414,-102.74617,302.5,0.57,0.43,2019-10-16,08:12,N,nominal,1.0NRT,280.2,1.7,N
32.97588,-102.74529,298.5,0.57,0.43,2019-10-16,08:12,N,nominal,1.0NRT,279.5,1.1,N
32.1241,-96.03546,328.2,0.39,0.36,2019-10-16,08:12,N,nominal,1.0NRT,288.3,4.4,N
32.14724,-96.00862,307.8,0.39,0.36,2019-10-16,08:12,N,nominal,1.0NRT,287.9,1,N
32.25259,-96.44725,299.8,0.39,0.36,2019-10-16,08:12,N,nominal,1.0NRT,287.2,0.4,N
32.25589,-96.4465,297.1,0.39,0.36,2019-10-16,08:12,N,nominal,1.0NRT,286.9,0.4,N
32.22485,-95.88485,298.1,0.4,0.37,2019-10-16,08:12,N,nominal,1.0NRT,288,0.5,N
32.46084,-97.02206,296.6,0.38,0.36,2019-10-16,08:12,N,nominal,1.0NRT,283.7,0.2,N
33.03092,-99.31846,311.2,0.41,0.37,2019-10-16,08:12,N,nominal,1.0NRT,285.6,1.8,N
33.03031,-99.31404,325.6,0.41,0.37,2019-10-16,08:12,N,nominal,1.0NRT,286.3,1.8,N
33.03495,-99.32219,297.1,0.41,0.37,2019-10-16,08:12,N,nominal,1.0NRT,284.8,1.5,N
33.03434,-99.31778,324.8,0.41,0.37,2019-10-16,08:12,N,nominal,1.0NRT,286,2.7,N
33.03836,-99.32153,301.9,0.41,0.37,2019-10-16,08:12,N,nominal,1.0NRT,284.4,1.5,N
33.03897,-99.32593,331.5,0.41,0.37,2019-10-16,08:12,N,nominal,1.0NRT,285.9,1.5,N
33.04117,-99.31641,321.1,0.41,0.37,2019-10-16,08:12,N,nominal,1.0NRT,285.4,1.8,N
33.04239,-99.32526,326.1,0.41,0.37,2019-10-16,08:12,N,nominal,1.0NRT,285.2,2.3,N
33.0458,-99.32458,321.1,0.41,0.37,2019-10-16,08:12,N,nominal,1.0NRT,285.4,2.3,N
31.14863,-87.98484,316.9,0.63,0.54,2019-10-16,08:12,N,nominal,1.0NRT,287.4,2.5,N
31.15349,-87.98328,300.7,0.63,0.54,2019-10-16,08:12,N,nominal,1.0NRT,287,2.5,N
33.1951,-97.80326,304.7,0.39,0.36,2019-10-16,08:12,N,nominal,1.0NRT,288.8,0.7,N
32.88826,-95.34068,301.6,0.4,0.37,2019-10-16,08:12,N,nominal,1.0NRT,287.7,0.5,N
33.4018,-95.36295,318.9,0.4,0.37,2019-10-16,08:12,N,nominal,1.0NRT,287.7,1.1,N
33.40252,-95.36719,296.6,0.4,0.37,2019-10-16,08:12,N,nominal,1.0NRT,286.1,1.1,N
33.40514,-95.36214,304.4,0.4,0.37,2019-10-16,08:12,N,nominal,1.0NRT,286.4,1.1,N
27.43456,-98.13699,311.9,0.39,0.36,2019-10-16,08:12,N,nominal,1.0NRT,292.3,0.9,N
27.43786,-98.13632,321.9,0.39,0.36,2019-10-16,08:12,N,nominal,1.0NRT,292.8,1.5,N
27.44116,-98.13565,308.6,0.39,0.36,2019-10-16,08:12,N,nominal,1.0NRT,292.5,1.5,N
28.68344,-106.08783,301.1,0.52,0.5,2019-10-16,08:12,N,nominal,1.0NRT,286,1.1,N
28.68805,-106.08723,297.3,0.52,0.5,2019-10-16,08:12,N,nominal,1.0NRT,286,1.1,N
27.81751,-97.48208,307.8,0.39,0.36,2019-10-16,08:12,N,nominal,1.0NRT,295.4,1.7,N
25.5834,-99.93439,324.4,0.39,0.36,2019-10-16,08:18,N,nominal,1.0NRT,294,2.2,N
26.88529,-101.41386,330.5,0.43,0.38,2019-10-16,08:18,N,nominal,1.0NRT,292,6.7,N
26.89187,-101.46143,306.3,0.43,0.38,2019-10-16,08:18,N,nominal,1.0NRT,291.5,0.9,N
26.88778,-101.45768,337.2,0.43,0.38,2019-10-16,08:18,N,nominal,1.0NRT,293.2,4.3,N
26.88719,-101.45335,320.7,0.43,0.38,2019-10-16,08:18,N,nominal,1.0NRT,292.2,4.3,N
26.88659,-101.44904,344.3,0.43,0.38,2019-10-16,08:18,N,nominal,1.0NRT,294,9,N
26.88181,-101.41444,321.2,0.43,0.38,2019-10-16,08:18,N,nominal,1.0NRT,293.1,1.6,N
18.14269,-92.82309,295.6,0.59,0.53,2019-10-16,08:18,N,nominal,1.0NRT,273.1,1.1,N
18.64212,-92.16943,310.1,0.63,0.54,2019-10-16,08:18,N,nominal,1.0NRT,254.3,1.6,N
20.52369,-100.92382,314.5,0.39,0.36,2019-10-16,08:18,N,nominal,1.0NRT,275,1,N
20.52699,-100.92324,301,0.39,0.36,2019-10-16,08:18,N,nominal,1.0NRT,275.8,1,N
20.38374,-99.69131,312.8,0.39,0.36,2019-10-16,08:18,N,nominal,1.0NRT,285.2,1.9,N
19.2432,-92.25333,301,0.61,0.53,2019-10-16,08:18,N,nominal,1.0NRT,279.1,2.1,N
19.29216,-92.16252,305.5,0.62,0.54,2019-10-16,08:18,N,nominal,1.0NRT,272.2,1.1,N
19.29335,-92.16837,332.5,0.62,0.54,2019-10-16,08:18,N,nominal,1.0NRT,274.7,6.1,N
19.29705,-92.16139,305.7,0.62,0.54,2019-10-16,08:18,N,nominal,1.0NRT,274,1.1,N
19.39144,-92.04012,325.4,0.63,0.54,2019-10-16,08:18,N,nominal,1.0NRT,281.6,6.3,N
19.39635,-92.03898,302.8,0.63,0.54,2019-10-16,08:18,N,nominal,1.0NRT,281,2.8,N
19.39635,-92.03854,305.6,0.62,0.54,2019-10-16,08:18,N,nominal,1.0NRT,281.6,4.3,N
20.46036,-97.54721,302.3,0.44,0.38,2019-10-16,08:18,N,nominal,1.0NRT,283.4,0.7,N
19.43691,-92.03539,336.2,0.62,0.54,2019-10-16,08:18,N,nominal,1.0NRT,285,7.4,N
19.44183,-92.03425,324.2,0.62,0.54,2019-10-16,08:18,N,nominal,1.0NRT,285.6,6,N
20.51333,-97.47585,329.2,0.44,0.39,2019-10-16,08:18,N,nominal,1.0NRT,279.6,5.4,N
20.51406,-97.48006,331.9,0.44,0.39,2019-10-16,08:18,N,nominal,1.0NRT,284.5,5.4,N
19.52422,-92.18645,312.1,0.61,0.53,2019-10-16,08:18,N,nominal,1.0NRT,282.8,4.4,N
20.51685,-97.47516,318.8,0.44,0.39,2019-10-16,08:18,N,nominal,1.0NRT,282.9,2.6,N
20.51757,-97.47936,329,0.44,0.39,2019-10-16,08:18,N,nominal,1.0NRT,284.8,2.6,N
19.56605,-92.24288,300.3,0.6,0.53,2019-10-16,08:18,N,nominal,1.0NRT,274.7,4.2,N
19.5649,-92.23715,344.2,0.6,0.53,2019-10-16,08:18,N,nominal,1.0NRT,277,4.2,N
19.56974,-92.23604,299.8,0.6,0.53,2019-10-16,08:18,N,nominal,1.0NRT,275.5,4.2,N
19.56214,-92.23543,304.3,0.6,0.53,2019-10-16,08:18,N,nominal,1.0NRT,277.5,5.5,N
19.56817,-92.24002,312.9,0.6,0.53,2019-10-16,08:18,N,nominal,1.0NRT,274.8,8.3,N
19.56698,-92.23431,339.9,0.6,0.53,2019-10-16,08:18,N,nominal,1.0NRT,277.2,5.5,N
19.56716,-92.18626,303,0.61,0.53,2019-10-16,08:18,N,nominal,1.0NRT,279.8,3.7,N
19.59924,-92.29237,298,0.6,0.53,2019-10-16,08:18,N,nominal,1.0NRT,265.2,1,N
19.59013,-92.19901,304.5,0.6,0.53,2019-10-16,08:18,N,nominal,1.0NRT,278.5,2.7,N
22.10467,-100.91267,300.8,0.39,0.36,2019-10-16,08:18,N,nominal,1.0NRT,276.5,0.5,N
22.47355,-100.3788,303.6,0.39,0.36,2019-10-16,08:18,N,nominal,1.0NRT,285.2,1,N
22.26325,-97.80535,306.5,0.41,0.37,2019-10-16,08:18,N,nominal,1.0NRT,268.7,1.1,N
21.43362,-87.81756,316.9,0.52,0.67,2019-10-16,08:18,N,nominal,1.0NRT,289.7,2.4,N
21.43256,-87.81661,315.4,0.52,0.67,2019-10-16,08:18,N,nominal,1.0NRT,289.9,1.5,N
21.45213,-87.76273,302.8,0.53,0.67,2019-10-16,08:18,N,nominal,1.0NRT,289.4,1.4,N
21.45821,-87.76108,308.8,0.53,0.67,2019-10-16,08:18,N,nominal,1.0NRT,289.6,1.1,N
21.45941,-87.76618,304.4,0.53,0.67,2019-10-16,08:18,N,nominal,1.0NRT,289.3,1.1,N
25.48848,-103.39465,301.7,0.5,0.41,2019-10-16,08:18,N,nominal,1.0NRT,288.7,0.6,N
25.911,-106.7858,295,0.53,0.5,2019-10-16,08:18,N,nominal,1.0NRT,281,0.3,N
25.63977,-103.43634,314.4,0.51,0.41,2019-10-16,08:18,N,nominal,1.0NRT,290.9,1.3,N
25.44283,-101.21049,300.7,0.41,0.37,2019-10-16,08:18,N,nominal,1.0NRT,288.5,0.3,N
25.60033,-100.92414,308.7,0.41,0.37,2019-10-16,08:18,N,nominal,1.0NRT,290.9,0.7,N
25.60314,-100.91953,323,0.41,0.37,2019-10-16,08:18,N,nominal,1.0NRT,290.4,2.5,N
25.61254,-100.86443,301.7,0.4,0.37,2019-10-16,08:18,N,nominal,1.0NRT,290.5,0.6,N
25.61312,-100.86842,300.1,0.4,0.37,2019-10-16,08:18,N,nominal,1.0NRT,289.7,0.6,N
26.87483,-101.41556,313,0.43,0.38,2019-10-16,08:18,N,nominal,1.0NRT,291,1.2,N
26.87772,-101.41069,307.5,0.43,0.38,2019-10-16,08:18,N,nominal,1.0NRT,291.5,1.6,N
26.87832,-101.415,308.2,0.43,0.38,2019-10-16,08:18,N,nominal,1.0NRT,291.8,1.6,N
26.88489,-101.46259,304.2,0.43,0.38,2019-10-16,08:18,N,nominal,1.0NRT,291,2.3,N
26.87951,-101.42365,327.7,0.43,0.38,2019-10-16,08:18,N,nominal,1.0NRT,292.4,3.3,N
25.59179,-99.94472,307.9,0.39,0.36,2019-10-16,08:18,N,nominal,1.0NRT,294.7,1.3,N
25.71828,-100.29733,306.7,0.39,0.36,2019-10-16,08:18,N,nominal,1.0NRT,291.7,1.1,N
25.7222,-100.30062,305.5,0.39,0.36,2019-10-16,08:18,N,nominal,1.0NRT,291.9,1.1,N
25.73602,-99.18784,316,0.38,0.36,2019-10-16,08:18,N,nominal,1.0NRT,294.3,1.3,N
26.01826,-98.48285,305.8,0.39,0.36,2019-10-16,08:18,N,nominal,1.0NRT,294.7,0.6,N
26.06101,-98.24504,306.9,0.39,0.36,2019-10-16,08:18,N,nominal,1.0NRT,295.2,0.9,N
26.85384,-101.39254,309.7,0.43,0.38,2019-10-16,08:18,N,nominal,1.0NRT,290.1,0.6,N
32.59848,-117.01333,297.5,0.56,0.43,2019-10-16,09:54,N,nominal,1.0NRT,286,0.7,N
31.84465,-116.58397,303.8,0.4,0.44,2019-10-16,09:54,N,nominal,1.0NRT,287.6,0.3,N
33.41616,-110.86359,303.8,0.38,0.59,2019-10-16,09:54,N,nominal,1.0NRT,286.3,1.1,N
33.41878,-110.86472,306.5,0.38,0.59,2019-10-16,09:54,N,nominal,1.0NRT,286.9,0.9,N
30.49616,-109.63143,302.3,0.53,0.67,2019-10-16,09:54,N,nominal,1.0NRT,285.7,1.2,N
11.73613,-70.19907,341.3,0.45,0.39,2019-10-16,17:42,N,nominal,1.0NRT,303.9,6.5,D
7.36689,-62.19294,332.2,0.52,0.41,2019-10-16,17:42,N,nominal,1.0NRT,296.3,6.2,D
7.36621,-62.19765,334.5,0.52,0.41,2019-10-16,17:42,N,nominal,1.0NRT,296.4,9.6,D
7.37003,-62.19819,338.6,0.52,0.41,2019-10-16,17:42,N,nominal,1.0NRT,296.9,6.1,D
7.21719,-63.47019,341.5,0.45,0.39,2019-10-16,17:42,N,nominal,1.0NRT,301.2,4.8,D
7.21599,-63.46996,347.3,0.45,0.39,2019-10-16,17:42,N,nominal,1.0NRT,301.3,4.9,D
7.59728,-63.44869,333.7,0.45,0.39,2019-10-16,17:42,N,nominal,1.0NRT,303.4,2.1,D
8.14476,-61.76855,336.1,0.56,0.43,2019-10-16,17:42,N,nominal,1.0NRT,296.1,7.6,D
7.65127,-65.51306,330.1,0.39,0.36,2019-10-16,17:42,N,nominal,1.0NRT,294.9,2.1,D
7.77806,-65.27512,347.7,0.39,0.36,2019-10-16,17:42,N,nominal,1.0NRT,298.8,8.3,D
7.77855,-65.53706,367,0.39,0.36,2019-10-16,17:42,N,high,1.0NRT,300.9,12.4,D
7.95011,-65.0297,336.5,0.4,0.37,2019-10-16,17:42,N,nominal,1.0NRT,296,2.8,D
8.06749,-65.1142,330.2,0.4,0.37,2019-10-16,17:42,N,nominal,1.0NRT,299.7,4.3,D
8.42843,-63.28218,336.7,0.47,0.4,2019-10-16,17:42,N,nominal,1.0NRT,300.3,3.8,D
8.4278,-63.28643,345.2,0.47,0.4,2019-10-16,17:42,N,nominal,1.0NRT,301.2,3.8,D
8.42283,-63.32034,340.5,0.47,0.39,2019-10-16,17:42,N,nominal,1.0NRT,300.7,10.1,D
8.43207,-63.2827,335.5,0.47,0.4,2019-10-16,17:42,N,nominal,1.0NRT,302.3,3.8,D
8.42822,-63.28573,347.6,0.47,0.4,2019-10-16,17:42,N,nominal,1.0NRT,301.3,9.3,D
8.42343,-63.3197,351,0.47,0.39,2019-10-16,17:42,N,nominal,1.0NRT,300.8,4.9,D
8.42224,-63.32817,345.3,0.47,0.39,2019-10-16,17:42,N,nominal,1.0NRT,297.6,6.2,D
8.43254,-63.33396,350.6,0.47,0.39,2019-10-16,17:42,N,nominal,1.0NRT,302.5,21.8,D
8.52816,-64.07126,343,0.43,0.38,2019-10-16,17:42,N,nominal,1.0NRT,298.3,4.6,D
8.68463,-63.1542,339.7,0.48,0.4,2019-10-16,17:42,N,nominal,1.0NRT,299.5,7.9,D
8.68831,-63.15472,340.3,0.48,0.4,2019-10-16,17:42,N,nominal,1.0NRT,299.1,9.8,D
8.72692,-62.90798,338.4,0.49,0.4,2019-10-16,17:42,N,nominal,1.0NRT,296.7,4.9,D
8.55538,-64.13523,345.3,0.43,0.38,2019-10-16,17:42,N,nominal,1.0NRT,300.1,6.3,D
8.55888,-64.13574,337.5,0.43,0.38,2019-10-16,17:42,N,nominal,1.0NRT,298.9,6.3,D
9.27134,-63.21465,335.4,0.48,0.4,2019-10-16,17:42,N,nominal,1.0NRT,302.1,5.4,D
9.27502,-63.21519,340.7,0.48,0.4,2019-10-16,17:42,N,nominal,1.0NRT,302.7,5.4,D
9.27439,-63.21957,348.2,0.48,0.4,2019-10-16,17:42,N,nominal,1.0NRT,300.1,10.6,D
9.3476,-62.81684,339.3,0.51,0.41,2019-10-16,17:42,N,nominal,1.0NRT,299.2,12,D
9.35138,-62.81738,341.2,0.51,0.41,2019-10-16,17:42,N,nominal,1.0NRT,299.7,23.6,D
9.35108,-62.81982,345.9,0.51,0.41,2019-10-16,17:42,N,nominal,1.0NRT,300.1,24.7,D
9.22862,-64.0574,337.3,0.44,0.38,2019-10-16,17:42,N,nominal,1.0NRT,303.8,9.6,D
9.27396,-64.04352,338.8,0.44,0.38,2019-10-16,17:42,N,nominal,1.0NRT,300.7,10.4,D
8.03487,-72.41917,325.8,0.45,0.47,2019-10-16,17:42,N,nominal,1.0NRT,295.1,2.2,D
9.50651,-62.94373,340,0.5,0.41,2019-10-16,17:42,N,nominal,1.0NRT,297.4,8.3,D
9.54153,-62.85965,333.8,0.51,0.41,2019-10-16,17:42,N,nominal,1.0NRT,296.4,2.6,D
9.53543,-62.92916,332.5,0.5,0.41,2019-10-16,17:42,N,nominal,1.0NRT,298.4,2.2,D
9.62866,-63.08457,337.5,0.49,0.41,2019-10-16,17:42,N,nominal,1.0NRT,299.5,4.3,D
9.56085,-63.63092,342.5,0.46,0.39,2019-10-16,17:42,N,nominal,1.0NRT,299.1,5.2,D
9.56447,-63.63144,340.9,0.46,0.39,2019-10-16,17:42,N,nominal,1.0NRT,300.6,6.6,D
9.56133,-63.63057,342.8,0.46,0.39,2019-10-16,17:42,N,nominal,1.0NRT,299.3,6,D
9.56495,-63.6311,338.3,0.46,0.39,2019-10-16,17:42,N,nominal,1.0NRT,299.4,6,D
9.64662,-63.52549,335.2,0.47,0.4,2019-10-16,17:42,N,nominal,1.0NRT,298.6,7.1,D
9.68017,-63.47345,340.2,0.47,0.4,2019-10-16,17:42,N,nominal,1.0NRT,302.5,29.9,D
8.26973,-72.74024,342.8,0.46,0.47,2019-10-16,17:42,N,nominal,1.0NRT,290.5,12.2,D
9.72654,-63.46058,334.5,0.47,0.4,2019-10-16,17:42,N,nominal,1.0NRT,297.8,3.6,D
9.7302,-63.46112,341.2,0.47,0.4,2019-10-16,17:42,N,nominal,1.0NRT,298.5,4.6,D
9.7424,-63.42764,334.5,0.48,0.4,2019-10-16,17:42,N,nominal,1.0NRT,299,5.1,D
9.73629,-63.47084,349.2,0.47,0.4,2019-10-16,17:42,N,nominal,1.0NRT,304,29.1,D
9.73568,-63.47512,346.2,0.47,0.4,2019-10-16,17:42,N,nominal,1.0NRT,303.6,13.8,D
9.82314,-63.17796,335.3,0.49,0.4,2019-10-16,17:42,N,nominal,1.0NRT,297.3,2.8,D
8.49381,-71.87002,335.8,0.41,0.45,2019-10-16,17:42,N,nominal,1.0NRT,284.5,2.1,D
9.91796,-63.24072,334.2,0.49,0.4,2019-10-16,17:42,N,nominal,1.0NRT,298.6,12.5,D
9.05485,-68.99859,346.7,0.43,0.38,2019-10-16,17:42,N,nominal,1.0NRT,281.7,7.7,D
10.00871,-63.17486,333.5,0.49,0.4,2019-10-16,17:42,N,nominal,1.0NRT,296.9,5.3,D
9.25835,-69.05865,326.5,0.43,0.38,2019-10-16,17:42,N,nominal,1.0NRT,286.1,5.4,D
9.36031,-70.52945,333.3,0.49,0.41,2019-10-16,17:42,N,nominal,1.0NRT,287.1,4.8,D
10.667,-68.78403,327.8,0.41,0.37,2019-10-16,17:42,N,nominal,1.0NRT,280.8,14.8,D
11.12652,-72.5825,329.1,0.41,0.45,2019-10-16,17:42,N,nominal,1.0NRT,296.3,3.7,D
11.74037,-70.1955,335.6,0.45,0.39,2019-10-16,17:42,N,nominal,1.0NRT,301,44.7,D
11.73969,-70.19966,336.9,0.45,0.39,2019-10-16,17:42,N,nominal,1.0NRT,306.3,44.7,D
11.73788,-70.23312,335,0.45,0.39,2019-10-16,17:42,N,nominal,1.0NRT,298.5,2.7,D
18.89739,-70.36914,337.3,0.4,0.37,2019-10-16,17:48,N,nominal,1.0NRT,301.5,4,D
27.7574,-81.19315,331.9,0.35,0.56,2019-10-16,17:48,N,nominal,1.0NRT,296,11.2,D
27.75151,-81.19516,367,0.35,0.56,2019-10-16,17:48,N,high,1.0NRT,295.4,6.9,D
27.75231,-81.19166,367,0.35,0.56,2019-10-16,17:48,N,high,1.0NRT,297.8,11.2,D
27.7531,-81.18818,367,0.34,0.56,2019-10-16,17:48,N,high,1.0NRT,296.3,11.2,D
27.748,-81.18671,332.9,0.34,0.56,2019-10-16,17:48,N,nominal,1.0NRT,294,3.1,D
27.7378,-81.18379,329.9,0.34,0.56,2019-10-16,17:48,N,nominal,1.0NRT,295.9,3.6,D
27.73191,-81.1858,343.3,0.35,0.56,2019-10-16,17:48,N,nominal,1.0NRT,295.3,3.6,D
27.7327,-81.18233,340.6,0.34,0.56,2019-10-16,17:48,N,nominal,1.0NRT,294.7,3.6,D
27.08197,-81.85474,334.2,0.39,0.59,2019-10-16,17:48,N,nominal,1.0NRT,296.4,3.6,D
26.86164,-81.39468,334.1,0.37,0.58,2019-10-16,17:48,N,nominal,1.0NRT,297.6,3.8,D
26.70837,-81.40338,330.9,0.37,0.58,2019-10-16,17:48,N,nominal,1.0NRT,295.4,2.8,D
26.63185,-81.41759,339,0.38,0.58,2019-10-16,17:48,N,nominal,1.0NRT,296.7,5.2,D
26.63097,-81.42133,367,0.38,0.58,2019-10-16,17:48,N,high,1.0NRT,297.8,5.2,D
26.62655,-81.41608,337.6,0.38,0.58,2019-10-16,17:48,N,nominal,1.0NRT,297.8,5.2,D
26.62038,-81.41834,336.2,0.38,0.58,2019-10-16,17:48,N,nominal,1.0NRT,297.9,3.8,D
26.61877,-81.41715,338,0.38,0.58,2019-10-16,17:48,N,nominal,1.0NRT,298.5,6.7,D
26.56532,-81.55154,328.8,0.38,0.59,2019-10-16,17:48,N,nominal,1.0NRT,298.7,2.5,D
26.33305,-81.21631,331,0.37,0.58,2019-10-16,17:48,N,nominal,1.0NRT,294,3.4,D
26.32975,-81.21465,329.1,0.37,0.58,2019-10-16,17:48,N,nominal,1.0NRT,295.9,3.4,D
26.03825,-81.61005,334.4,0.4,0.6,2019-10-16,17:48,N,nominal,1.0NRT,295,2.3,D
25.49612,-76.67136,339.8,0.41,0.45,2019-10-16,17:48,N,nominal,1.0NRT,294.7,4.4,D
24.572,-75.63672,332.6,0.57,0.43,2019-10-16,17:48,N,nominal,1.0NRT,295.2,5.7,D
21.38717,-78.13566,340,0.61,0.53,2019-10-16,17:48,N,nominal,1.0NRT,289.7,7.9,D
21.3823,-78.13457,339.6,0.61,0.53,2019-10-16,17:48,N,nominal,1.0NRT,294.2,7.6,D
19.72593,-71.5205,330.2,0.42,0.38,2019-10-16,17:48,N,low,1.0NRT,302.9,1.5,D
19.69335,-71.5891,345.1,0.42,0.38,2019-10-16,17:48,N,nominal,1.0NRT,303,9.1,D
19.6827,-71.54562,332.1,0.42,0.38,2019-10-16,17:48,N,low,1.0NRT,305.3,3.8,D
19.68336,-71.5416,346.9,0.42,0.38,2019-10-16,17:48,N,nominal,1.0NRT,305.3,3.8,D
19.70896,-71.3858,344.9,0.42,0.38,2019-10-16,17:48,N,nominal,1.0NRT,307.9,5.8,D
19.71026,-71.37786,342.7,0.42,0.37,2019-10-16,17:48,N,nominal,1.0NRT,307,6.2,D
19.70618,-71.3812,367,0.42,0.38,2019-10-16,17:48,N,low,1.0NRT,309,5.8,D
19.67991,-71.54097,335.4,0.42,0.38,2019-10-16,17:48,N,low,1.0NRT,305.7,3.8,D
19.70553,-71.38517,353.7,0.42,0.38,2019-10-16,17:48,N,nominal,1.0NRT,306.9,5.8,D
19.70748,-71.37325,335.9,0.42,0.37,2019-10-16,17:48,N,low,1.0NRT,306.7,6.2,D
19.7034,-71.37659,350.9,0.42,0.37,2019-10-16,17:48,N,nominal,1.0NRT,308.1,4.9,D
19.70405,-71.37262,337.2,0.42,0.37,2019-10-16,17:48,N,nominal,1.0NRT,309.6,4.9,D
19.66635,-71.57994,332.7,0.42,0.38,2019-10-16,17:48,N,low,1.0NRT,304.5,2.3,D
19.6495,-71.53121,339,0.42,0.38,2019-10-16,17:48,N,nominal,1.0NRT,309.4,5.2,D
19.60638,-71.13633,334.6,0.41,0.37,2019-10-16,17:48,N,nominal,1.0NRT,304.6,2.4,D
19.60775,-70.95679,334.3,0.41,0.37,2019-10-16,17:48,N,low,1.0NRT,308.4,3.7,D
19.5973,-70.97552,330.6,0.41,0.37,2019-10-16,17:48,N,low,1.0NRT,304.8,2.7,D
19.66703,-70.49419,330.2,0.4,0.37,2019-10-16,17:48,N,nominal,1.0NRT,301.6,1.9,D
19.54113,-70.82687,330.6,0.4,0.37,2019-10-16,17:48,N,low,1.0NRT,305,1.9,D
19.66529,-70.02659,346.3,0.39,0.36,2019-10-16,17:48,N,nominal,1.0NRT,307.7,49.7,D
19.66587,-70.0229,334,0.39,0.36,2019-10-16,17:48,N,nominal,1.0NRT,302.1,5.4,D
18.89799,-70.36539,333.3,0.4,0.37,2019-10-16,17:48,N,nominal,1.0NRT,300.8,4,D
18.88493,-70.38239,334.1,0.4,0.37,2019-10-16,17:48,N,nominal,1.0NRT,301.2,2.3,D
18.76603,-70.23033,342.5,0.4,0.37,2019-10-16,17:48,N,nominal,1.0NRT,302,3.1,D
18.62662,-70.33932,331.7,0.4,0.37,2019-10-16,17:48,N,nominal,1.0NRT,297.7,2.6,D
18.82402,-68.85313,346.6,0.38,0.36,2019-10-16,17:48,N,nominal,1.0NRT,299.8,5.3,D
18.43971,-71.20978,335.2,0.42,0.38,2019-10-16,17:48,N,nominal,1.0NRT,302.7,4.7,D
18.47763,-70.91225,334.6,0.41,0.37,2019-10-16,17:48,N,nominal,1.0NRT,305.1,2.9,D
18.47826,-70.90839,337.4,0.41,0.37,2019-10-16,17:48,N,nominal,1.0NRT,305,3.8,D
18.25858,-71.47784,332.8,0.43,0.38,2019-10-16,17:48,N,nominal,1.0NRT,298.8,7.1,D
18.29799,-70.94303,341.1,0.42,0.37,2019-10-16,17:48,N,nominal,1.0NRT,302.7,19.9,D
18.35569,-70.23565,331.2,0.4,0.37,2019-10-16,17:48,N,nominal,1.0NRT,300.2,2.6,D
18.60692,-68.4734,334.5,0.39,0.36,2019-10-16,17:48,N,nominal,1.0NRT,300,2.5,D
18.51049,-68.50983,330.7,0.39,0.36,2019-10-16,17:48,N,nominal,1.0NRT,300.2,1.4,D
18.45996,-68.50862,332.6,0.39,0.36,2019-10-16,17:48,N,nominal,1.0NRT,300.6,2.1,D
19.5019,-70.98223,338.6,0.41,0.37,2019-10-16,17:48,N,nominal,1.0NRT,303.1,2.9,D
19.47036,-69.93163,335.4,0.39,0.36,2019-10-16,17:48,N,nominal,1.0NRT,302.3,3.5,D
19.47094,-69.92795,333,0.39,0.36,2019-10-16,17:48,N,nominal,1.0NRT,300.5,3.9,D
19.45621,-69.97843,335.7,0.39,0.36,2019-10-16,17:48,N,nominal,1.0NRT,303.6,2.7,D
19.45404,-69.97047,331.9,0.39,0.36,2019-10-16,17:48,N,low,1.0NRT,304.7,4,D
19.45071,-69.9699,347.3,0.39,0.36,2019-10-16,17:48,N,nominal,1.0NRT,303.8,4,D
19.33072,-70.02428,347.3,0.39,0.36,2019-10-16,17:48,N,nominal,1.0NRT,297,5.3,D
19.19235,-70.25588,335.1,0.39,0.36,2019-10-16,17:48,N,low,1.0NRT,306,2.7,D
19.24005,-69.7855,331.6,0.39,0.36,2019-10-16,17:48,N,nominal,1.0NRT,298.7,2.8,D
19.01426,-70.40167,331.8,0.4,0.37,2019-10-16,17:48,N,nominal,1.0NRT,300,2.3,D
19.05804,-69.62212,344.1,0.39,0.36,2019-10-16,17:48,N,nominal,1.0NRT,297.5,5.8,D
18.92781,-70.35131,333.7,0.4,0.37,2019-10-16,17:48,N,nominal,1.0NRT,300.4,23.6,D
27.75661,-81.19663,331,0.35,0.56,2019-10-16,17:48,N,nominal,1.0NRT,294.7,6.9,D
27.75295,-81.19155,367,0.34,0.56,2019-10-16,17:48,N,high,1.0NRT,297.1,14.7,D
27.75376,-81.18807,338.7,0.34,0.56,2019-10-16,17:48,N,nominal,1.0NRT,295.2,14.7,D
27.75213,-81.19504,356.4,0.34,0.56,2019-10-16,17:48,N,nominal,1.0NRT,297.3,18.6,D
28.05843,-82.11048,330.4,0.38,0.59,2019-10-16,17:48,N,nominal,1.0NRT,289.9,2.6,D
28.59088,-81.03093,337.9,0.32,0.55,2019-10-16,17:48,N,nominal,1.0NRT,291.8,5.9,D
28.59013,-81.03418,334.6,0.32,0.55,2019-10-16,17:48,N,nominal,1.0NRT,291,3.3,D
28.58937,-81.03745,336.1,0.32,0.55,2019-10-16,17:48,N,nominal,1.0NRT,291.2,3.3,D
28.80861,-80.90121,331.5,0.63,0.54,2019-10-16,17:48,N,nominal,1.0NRT,292.4,6.4,D
28.81351,-80.90263,351.1,0.63,0.54,2019-10-16,17:48,N,nominal,1.0NRT,292.7,13.6,D
28.80911,-80.90141,336.3,0.63,0.54,2019-10-16,17:48,N,nominal,1.0NRT,292.4,8.5,D
28.81401,-80.9028,350.4,0.63,0.54,2019-10-16,17:48,N,nominal,1.0NRT,292.7,8.5,D
30.43946,-81.79705,331.5,0.33,0.55,2019-10-16,17:48,N,nominal,1.0NRT,289.9,2,D
32.27293,-82.56503,330,0.33,0.55,2019-10-16,17:48,N,nominal,1.0NRT,286.3,2.4,D
33.42572,-81.65217,339.3,0.55,0.51,2019-10-16,17:48,N,nominal,1.0NRT,293.6,10.7,D
15.09517,-88.63256,331.3,0.56,0.43,2019-10-16,19:24,N,nominal,1.0NRT,295.2,4.9,D
15.46694,-85.83208,347.2,0.57,0.52,2019-10-16,19:24,N,nominal,1.0NRT,297.5,9.9,D
15.36629,-87.49848,338.5,0.44,0.46,2019-10-16,19:24,N,nominal,1.0NRT,296.1,2.7,D
15.48346,-88.15576,337.3,0.4,0.44,2019-10-16,19:24,N,nominal,1.0NRT,299,5.8,D
15.89377,-89.95435,337.2,0.49,0.4,2019-10-16,19:24,N,nominal,1.0NRT,296.6,7.7,D
10.36549,-83.95543,355.4,0.32,0.55,2019-10-16,19:24,N,nominal,1.0NRT,290.8,6.4,D
13.88819,-85.38223,331.2,0.58,0.52,2019-10-16,19:24,N,nominal,1.0NRT,294.4,5.2,D
14.21887,-85.73074,334.2,0.56,0.51,2019-10-16,19:24,N,nominal,1.0NRT,295.3,6.3,D
14.64786,-86.07114,330,0.54,0.5,2019-10-16,19:24,N,nominal,1.0NRT,297.9,5.3,D
14.71691,-87.95248,339.9,0.41,0.45,2019-10-16,19:24,N,nominal,1.0NRT,293.3,2.1,D
16.10317,-89.97236,332.1,0.49,0.4,2019-10-16,19:24,N,nominal,1.0NRT,296.4,4.9,D
16.10379,-89.96778,334,0.49,0.4,2019-10-16,19:24,N,nominal,1.0NRT,297.4,4.9,D
16.05578,-90.04422,347,0.48,0.4,2019-10-16,19:24,N,nominal,1.0NRT,297.2,12.3,D
15.02339,-86.92973,334,0.48,0.48,2019-10-16,19:24,N,nominal,1.0NRT,295.4,2.3,D
15.14975,-86.74352,341,0.49,0.49,2019-10-16,19:24,N,nominal,1.0NRT,297.1,12.7,D
15.19298,-86.70404,351.1,0.5,0.49,2019-10-16,19:24,N,nominal,1.0NRT,296.6,12.4,D
15.27046,-86.72313,330.4,0.49,0.49,2019-10-16,19:24,N,nominal,1.0NRT,294.6,2.3,D
32.41829,-101.62683,336.1,0.46,0.39,2019-10-16,19:30,N,nominal,1.0NRT,305.4,1.2,D
32.14239,-101.77776,336.3,0.47,0.4,2019-10-16,19:30,N,nominal,1.0NRT,305.8,3.3,D
31.31179,-106.01388,344.1,0.54,0.51,2019-10-16,19:30,N,nominal,1.0NRT,300,5.7,D
32.15554,-101.93269,343.8,0.48,0.4,2019-10-16,19:30,N,nominal,1.0NRT,307.4,4.8,D
32.18982,-102.00686,341.4,0.48,0.4,2019-10-16,19:30,N,nominal,1.0NRT,308.2,10.8,D
17.34353,-88.99154,340.8,0.57,0.43,2019-10-16,19:30,N,nominal,1.0NRT,296.8,7.2,D
16.84297,-90.75311,339.5,0.46,0.39,2019-10-16,19:30,N,nominal,1.0NRT,295.8,6.6,D
32.90328,-105.251,340,0.45,0.47,2019-10-16,19:30,N,nominal,1.0NRT,300.3,3.3,D
33.44485,-101.94337,332.4,0.46,0.39,2019-10-16,19:30,N,nominal,1.0NRT,300.6,7.5,D
32.65503,-103.89442,342.3,0.39,0.44,2019-10-16,19:30,N,nominal,1.0NRT,304.8,2.8,D
33.04058,-99.32935,336.5,0.39,0.36,2019-10-16,19:30,N,nominal,1.0NRT,290.7,4.4,D
33.03597,-99.31531,356.1,0.39,0.36,2019-10-16,19:30,N,nominal,1.0NRT,310.9,11.6,D
33.03664,-99.31112,333,0.39,0.36,2019-10-16,19:30,N,low,1.0NRT,304.8,8.7,D
33.03265,-99.31456,347.8,0.39,0.36,2019-10-16,19:30,N,nominal,1.0NRT,310.6,11.6,D
33.02932,-99.3138,354.5,0.39,0.36,2019-10-16,19:30,N,nominal,1.0NRT,307.3,6.9,D
32.48694,-101.88922,339.3,0.47,0.4,2019-10-16,19:30,N,nominal,1.0NRT,314,39.3,D
32.48603,-101.89421,367,0.47,0.4,2019-10-16,19:30,N,high,1.0NRT,350.8,216.1,D
32.48242,-101.89329,352.7,0.47,0.4,2019-10-16,19:30,N,nominal,1.0NRT,317.7,26.6,D
30.49948,-109.63739,331.5,0.45,0.63,2019-10-16,19:30,N,nominal,1.0NRT,298.8,5.9,D
32.73582,-98.91849,325.7,0.39,0.36,2019-10-16,19:30,N,nominal,1.0NRT,293.9,1.6,D
32.26777,-101.68823,339.5,0.47,0.39,2019-10-16,19:30,N,nominal,1.0NRT,308.9,25.3,D
31.93995,-103.68286,341.8,0.39,0.44,2019-10-16,19:30,N,nominal,1.0NRT,303,8.5,D
31.63272,-104.06783,336,0.41,0.45,2019-10-16,19:30,N,nominal,1.0NRT,303,3.8,D
27.43455,-98.13824,330.5,0.4,0.37,2019-10-16,19:30,N,nominal,1.0NRT,290.1,2.3,D
27.43857,-98.1349,340.4,0.4,0.37,2019-10-16,19:30,N,nominal,1.0NRT,292,4.8,D
27.43791,-98.13892,332.2,0.4,0.37,2019-10-16,19:30,N,nominal,1.0NRT,288.7,2.7,D
25.45725,-108.13845,332.5,0.48,0.65,2019-10-16,19:30,N,nominal,1.0NRT,297.7,2.3,D
31.77486,-97.30443,343.9,0.38,0.36,2019-10-16,19:30,N,nominal,1.0NRT,292.2,8.2,D
31.77816,-97.30509,325.6,0.38,0.36,2019-10-16,19:30,N,nominal,1.0NRT,288.4,1.9,D
32.09337,-96.40796,333.1,0.39,0.37,2019-10-16,19:30,N,nominal,1.0NRT,293.8,2.6,D
31.63448,-104.06927,343.6,0.41,0.45,2019-10-16,19:30,N,nominal,1.0NRT,304.1,5,D
31.6277,-104.01778,340.1,0.41,0.45,2019-10-16,19:30,N,nominal,1.0NRT,304.6,3.9,D
31.79365,-101.74836,336.6,0.48,0.4,2019-10-16,19:30,N,nominal,1.0NRT,307.5,1.9,D
31.46838,-103.38809,335.6,0.38,0.43,2019-10-16,19:30,N,nominal,1.0NRT,304.2,1.4,D
31.7396,-101.80061,337.9,0.48,0.4,2019-10-16,19:30,N,nominal,1.0NRT,304.4,8.7,D
31.73597,-101.79967,336.3,0.48,0.4,2019-10-16,19:30,N,nominal,1.0NRT,304.5,7,D
32.74257,-95.04295,348.7,0.43,0.38,2019-10-16,19:30,N,nominal,1.0NRT,300.4,33.5,D
32.74316,-95.03831,331.1,0.43,0.38,2019-10-16,19:30,N,nominal,1.0NRT,294.9,9.4,D
31.58301,-102.06411,336.9,0.5,0.41,2019-10-16,19:30,N,nominal,1.0NRT,306.6,4.4,D
31.5857,-102.06216,335.2,0.5,0.41,2019-10-16,19:30,N,nominal,1.0NRT,306.1,2.8,D
32.63124,-94.75778,325.9,0.44,0.38,2019-10-16,19:30,N,nominal,1.0NRT,291.2,2.9,D
31.22206,-103.07961,332.1,0.56,0.43,2019-10-16,19:30,N,nominal,1.0NRT,298.5,5.6,D
32.60636,-93.52178,331.1,0.5,0.41,2019-10-16,19:30,N,nominal,1.0NRT,271.7,6.1,D
27.45086,-98.01718,349.3,0.4,0.37,2019-10-16,19:30,N,nominal,1.0NRT,294.2,11,D
27.4475,-98.0165,337.3,0.4,0.37,2019-10-16,19:30,N,nominal,1.0NRT,295.3,4.1,D
27.424,-97.76938,345.4,0.39,0.36,2019-10-16,19:30,N,nominal,1.0NRT,299.4,23.2,D
26.35237,-98.91279,341.9,0.43,0.38,2019-10-16,19:30,N,nominal,1.0NRT,297.8,6.4,D
23.97997,-106.8417,337.1,0.43,0.62,2019-10-16,19:30,N,nominal,1.0NRT,292.3,2,D
27.16717,-82.31757,329.1,0.64,0.72,2019-10-16,19:30,N,nominal,1.0NRT,290.8,6.6,D
27.16751,-82.31085,344.5,0.64,0.72,2019-10-16,19:30,N,nominal,1.0NRT,290.9,6.6,D
27.16594,-82.31429,347,0.64,0.72,2019-10-16,19:30,N,nominal,1.0NRT,291,9.7,D
27.16632,-82.30758,327.9,0.64,0.72,2019-10-16,19:30,N,nominal,1.0NRT,290.5,10.1,D
26.98072,-81.52583,330.8,0.71,0.75,2019-10-16,19:30,N,nominal,1.0NRT,291.7,4.7,D
23.0826,-98.91988,328.5,0.47,0.4,2019-10-16,19:30,N,nominal,1.0NRT,284.3,4.8,D
21.42101,-98.62495,325.7,0.48,0.4,2019-10-16,19:30,N,nominal,1.0NRT,279.7,3.9,D
21.41737,-98.62421,334.8,0.48,0.4,2019-10-16,19:30,N,nominal,1.0NRT,281,3.9,D
19.56634,-92.23989,328.5,0.42,0.38,2019-10-16,19:30,N,nominal,1.0NRT,283.7,14,D
19.5669,-92.23588,336.4,0.42,0.38,2019-10-16,19:30,N,nominal,1.0NRT,284.5,14,D
18.13887,-94.35766,347.5,0.38,0.36,2019-10-16,19:30,N,nominal,1.0NRT,280.3,5.2,D
18.13556,-94.3571,337.1,0.38,0.36,2019-10-16,19:30,N,nominal,1.0NRT,282,5.2,D
32.3926,-101.9695,335.3,0.48,0.4,2019-10-16,19:30,N,nominal,1.0NRT,304.1,2.6,D
18.1031,-94.34818,326.6,0.38,0.36,2019-10-16,19:30,N,nominal,1.0NRT,288.4,2.2,D
17.90988,-88.63014,341,0.41,0.45,2019-10-16,19:30,N,nominal,1.0NRT,296.1,4.6,D
17.34524,-88.99331,335.2,0.57,0.43,2019-10-16,19:30,N,nominal,1.0NRT,297.2,6.4,D
32.52592,-115.34542,344.5,0.51,0.49,2019-10-16,21:12,N,nominal,1.0NRT,314.8,11.8,D
32.52542,-115.35086,343.9,0.51,0.49,2019-10-16,21:12,N,nominal,1.0NRT,316.2,10.9,D
32.52595,-115.34769,355,0.51,0.49,2019-10-16,21:12,N,nominal,1.0NRT,316.4,19.3,D
32.44206,-115.15532,355.5,0.52,0.5,2019-10-16,21:12,N,nominal,1.0NRT,314,22.4,D
24.8346,-107.47999,331.9,0.63,0.72,2019-10-16,21:12,N,nominal,1.0NRT,291.8,5.6,D
32.58602,-115.02764,339.7,0.53,0.5,2019-10-16,21:12,N,low,1.0NRT,311.9,4.3,D
25.24024,-108.16195,331.8,0.58,0.7,2019-10-16,21:12,N,nominal,1.0NRT,295.4,4.8,D
26.26772,-111.55,367,0.36,0.58,2019-10-16,21:12,N,high,1.0NRT,302.8,9.1,D
26.2674,-111.55373,340,0.36,0.58,2019-10-16,21:12,N,nominal,1.0NRT,300.5,4.3,D
26.27309,-111.5505,367,0.36,0.58,2019-10-16,21:12,N,high,1.0NRT,303.1,12.1,D
32.44532,-115.15722,342,0.52,0.5,2019-10-16,21:12,N,nominal,1.0NRT,313.4,7.1,D
32.4407,-115.15668,348.1,0.52,0.5,2019-10-16,21:12,N,nominal,1.0NRT,312.8,17,D
32.45599,-114.97575,337.7,0.53,0.5,2019-10-16,21:12,N,low,1.0NRT,312.1,7.3,D
26.27277,-111.55427,367,0.36,0.58,2019-10-16,21:12,N,high,1.0NRT,304.3,11.4,D
28.3266,-111.32186,339.2,0.4,0.6,2019-10-16,21:12,N,nominal,1.0NRT,304.8,2.2,D
28.32521,-111.32252,337.3,0.4,0.6,2019-10-16,21:12,N,nominal,1.0NRT,304.5,1.4,D
28.79466,-111.57747,341,0.39,0.59,2019-10-16,21:12,N,nominal,1.0NRT,308.1,2.4,D
32.20344,-115.13333,356.6,0.52,0.5,2019-10-16,21:12,N,nominal,1.0NRT,312.1,14.9,D
