latitude,longitude,bright_ti4,scan,track,acq_date,acq_time,satellite,confidence,version,bright_ti5,frp,daynight
10.00691,-62.24123,309.9,0.54,0.68,2019-10-11,04:48,N,nominal,1.0NRT,283.9,1.9,N
33.01458,-79.8838,346.3,0.32,0.55,2019-10-11,06:24,N,nominal,1.0NRT,288.3,2,N
33.01487,-79.88731,297.9,0.32,0.55,2019-10-11,06:24,N,nominal,1.0NRT,286.7,2,N
33.00388,-79.87795,306.3,0.32,0.55,2019-10-11,06:24,N,nominal,1.0NRT,287.8,1.1,N
31.36074,-84.1915,303.7,0.55,0.68,2019-10-11,06:24,N,nominal,1.0NRT,287.2,1.3,N
31.2354,-83.77806,299.5,0.52,0.67,2019-10-11,06:24,N,nominal,1.0NRT,287.7,0.5,N
30.28012,-81.9798,301,0.4,0.6,2019-10-11,06:24,N,nominal,1.0NRT,290.6,0.8,N
33.41212,-80.62165,300.1,0.36,0.57,2019-10-11,06:24,N,nominal,1.0NRT,285,1.1,N
33.11594,-80.60236,296.6,0.35,0.57,2019-10-11,06:24,N,nominal,1.0NRT,285.9,0.7,N
33.4068,-80.62222,322.9,0.36,0.57,2019-10-11,06:24,N,nominal,1.0NRT,285.3,1.1,N
9.85135,-63.33645,333.3,0.61,0.71,2019-10-11,06:30,N,nominal,1.0NRT,275.7,5.6,N
9.8525,-63.34218,298,0.61,0.71,2019-10-11,06:30,N,nominal,1.0NRT,276.1,5.4,N
9.85254,-63.3369,332.5,0.61,0.71,2019-10-11,06:30,N,nominal,1.0NRT,276,5.1,N
11.02692,-72.27365,303.6,0.47,0.4,2019-10-11,06:30,N,nominal,1.0NRT,276.1,1.8,N
11.08313,-72.67845,301.1,0.45,0.39,2019-10-11,06:30,N,nominal,1.0NRT,262.9,0.7,N
11.08025,-72.6832,297.3,0.45,0.39,2019-10-11,06:30,N,nominal,1.0NRT,265.1,0.7,N
11.02612,-72.70969,296.8,0.45,0.39,2019-10-11,06:30,N,nominal,1.0NRT,268.7,0.4,N
11.00181,-72.70816,296.1,0.45,0.39,2019-10-11,06:30,N,nominal,1.0NRT,268.2,0.7,N
27.86129,-82.6032,303.5,0.41,0.61,2019-10-11,06:30,N,nominal,1.0NRT,291.6,0.9,N
19.59282,-70.86214,303.5,0.44,0.38,2019-10-11,06:30,N,nominal,1.0NRT,293.1,0.6,N
23.00845,-82.74496,302.8,0.37,0.58,2019-10-11,06:30,N,nominal,1.0NRT,287.5,0.6,N
19.60055,-71.01321,317.6,0.43,0.38,2019-10-11,06:30,N,nominal,1.0NRT,292.5,1.8,N
21.43572,-87.81982,301.9,0.75,0.77,2019-10-11,06:30,N,nominal,1.0NRT,288.1,1.5,N
21.4338,-87.81661,303.2,0.75,0.77,2019-10-11,06:30,N,nominal,1.0NRT,287.7,0.9,N
18.59799,-68.45469,304.2,0.4,0.44,2019-10-11,06:30,N,nominal,1.0NRT,290.2,0.6,N
18.92815,-70.35454,341,0.47,0.4,2019-10-11,06:30,N,nominal,1.0NRT,296.8,5.3,N
18.92739,-70.3502,308.2,0.47,0.4,2019-10-11,06:30,N,nominal,1.0NRT,292.2,5.3,N
18.92457,-70.35542,308.3,0.47,0.4,2019-10-11,06:30,N,nominal,1.0NRT,291.2,5.3,N
18.9238,-70.35104,302.9,0.47,0.4,2019-10-11,06:30,N,nominal,1.0NRT,291.4,5.3,N
10.37488,-61.47482,303.6,0.79,0.78,2019-10-11,06:30,N,nominal,1.0NRT,282.7,5.1,N
31.4964,-103.14363,300.1,0.47,0.47,2019-10-11,08:06,N,nominal,1.0NRT,282,0.7,N
30.15039,-93.72179,308.6,0.42,0.38,2019-10-11,08:06,N,nominal,1.0NRT,293.6,0.8,N
31.40885,-103.02307,295.7,0.46,0.47,2019-10-11,08:06,N,nominal,1.0NRT,282.5,0.4,N
30.0637,-94.06458,312.4,0.41,0.37,2019-10-11,08:06,N,nominal,1.0NRT,294.4,1.1,N
31.35815,-103.62582,314.9,0.5,0.49,2019-10-11,08:06,N,nominal,1.0NRT,281.7,1.8,N
31.32005,-103.60969,310,0.49,0.49,2019-10-11,08:06,N,nominal,1.0NRT,281.7,1.8,N
30.00952,-93.99728,303.9,0.42,0.37,2019-10-11,08:06,N,nominal,1.0NRT,293.6,1,N
30.00802,-93.98873,307.7,0.42,0.37,2019-10-11,08:06,N,nominal,1.0NRT,294.2,0.8,N
30.00727,-93.98445,306.6,0.42,0.37,2019-10-11,08:06,N,nominal,1.0NRT,294.2,0.8,N
31.20779,-102.96004,295.1,0.45,0.47,2019-10-11,08:06,N,nominal,1.0NRT,278.7,0.3,N
31.20716,-103.13305,305,0.46,0.47,2019-10-11,08:06,N,nominal,1.0NRT,282.8,1.1,N
29.83511,-93.96238,328.1,0.42,0.38,2019-10-11,08:06,N,nominal,1.0NRT,295.8,3.5,N
29.76229,-93.60825,323,0.43,0.38,2019-10-11,08:06,N,nominal,1.0NRT,295.4,2.1,N
29.75957,-93.87685,307.3,0.42,0.38,2019-10-11,08:06,N,nominal,1.0NRT,295.4,1.3,N
29.75881,-93.87254,312.4,0.42,0.38,2019-10-11,08:06,N,nominal,1.0NRT,295.1,1.4,N
29.75691,-93.88196,309.5,0.42,0.38,2019-10-11,08:06,N,nominal,1.0NRT,295.4,1.7,N
29.75615,-93.87765,319.7,0.42,0.38,2019-10-11,08:06,N,nominal,1.0NRT,296,1.7,N
29.87803,-94.91342,311.6,0.4,0.37,2019-10-11,08:06,N,nominal,1.0NRT,294.4,1.3,N
29.74549,-95.00034,310.6,0.4,0.37,2019-10-11,08:06,N,nominal,1.0NRT,296,1.6,N
29.74481,-94.99628,306.9,0.4,0.37,2019-10-11,08:06,N,nominal,1.0NRT,295.9,1.6,N
29.74215,-95.00108,323.6,0.4,0.37,2019-10-11,08:06,N,nominal,1.0NRT,295.9,1.6,N
29.74487,-95.0173,317,0.4,0.37,2019-10-11,08:06,N,nominal,1.0NRT,296.1,2.7,N
29.74181,-95.12289,319.4,0.39,0.36,2019-10-11,08:06,N,nominal,1.0NRT,294.3,1.9,N
29.73848,-95.12362,308.4,0.39,0.36,2019-10-11,08:06,N,nominal,1.0NRT,294.8,2,N
29.7379,-95.1614,320.2,0.39,0.36,2019-10-11,08:06,N,nominal,1.0NRT,294.5,2.7,N
29.73115,-95.12104,306.4,0.39,0.36,2019-10-11,08:06,N,nominal,1.0NRT,294.7,1.4,N
29.71733,-95.13083,312.8,0.39,0.36,2019-10-11,08:06,N,nominal,1.0NRT,294.9,2.2,N
29.72866,-95.2203,304.2,0.39,0.36,2019-10-11,08:06,N,nominal,1.0NRT,292.3,1.7,N
29.72401,-95.23383,307.9,0.39,0.36,2019-10-11,08:06,N,nominal,1.0NRT,294.4,2.2,N
29.71736,-95.23528,304.5,0.39,0.36,2019-10-11,08:06,N,nominal,1.0NRT,293.3,1.9,N
29.61381,-95.02769,320.7,0.4,0.37,2019-10-11,08:06,N,nominal,1.0NRT,294,2.7,N
29.37484,-94.92178,308.6,0.4,0.37,2019-10-11,08:06,N,nominal,1.0NRT,296.2,3.3,N
29.3708,-94.91845,308.5,0.4,0.37,2019-10-11,08:06,N,nominal,1.0NRT,295.3,3.3,N
29.67958,-98.18285,313.9,0.4,0.37,2019-10-11,08:06,N,nominal,1.0NRT,293.1,2.4,N
33.35127,-86.89462,299.2,0.53,0.5,2019-10-11,08:06,N,nominal,1.0NRT,277.7,0.5,N
33.22263,-86.81653,297.8,0.53,0.5,2019-10-11,08:06,N,nominal,1.0NRT,283.6,0.7,N
33.21609,-86.78851,304.7,0.54,0.51,2019-10-11,08:06,N,nominal,1.0NRT,286.2,0.7,N
33.21758,-86.78883,305.2,0.54,0.51,2019-10-11,08:06,N,nominal,1.0NRT,286.4,1.1,N
33.21812,-86.81277,300.5,0.54,0.5,2019-10-11,08:06,N,nominal,1.0NRT,285.8,2,N
33.447,-88.58063,299.4,0.42,0.46,2019-10-11,08:06,N,nominal,1.0NRT,275.6,1,N
33.43999,-88.56834,314.5,0.43,0.46,2019-10-11,08:06,N,nominal,1.0NRT,274.9,2.2,N
31.3615,-84.18813,313.7,0.41,0.61,2019-10-11,08:06,N,nominal,1.0NRT,286.3,0.9,N
31.2329,-83.77767,300.8,0.44,0.62,2019-10-11,08:06,N,nominal,1.0NRT,287.4,0.6,N
31.58102,-87.49033,305.6,0.53,0.5,2019-10-11,08:06,N,nominal,1.0NRT,292,2,N
30.94149,-88.01301,310.1,0.51,0.5,2019-10-11,08:06,N,nominal,1.0NRT,283.8,2.2,N
32.97398,-102.74345,300.6,0.46,0.47,2019-10-11,08:06,N,nominal,1.0NRT,277.5,1.1,N
32.75567,-104.21274,336.6,0.56,0.51,2019-10-11,08:06,N,nominal,1.0NRT,279.1,5.4,N
30.34312,-88.48714,309.3,0.5,0.49,2019-10-11,08:06,N,nominal,1.0NRT,295,3.2,N
32.61034,-103.30779,340.6,0.49,0.49,2019-10-11,08:06,N,nominal,1.0NRT,287.7,14.4,N
32.60987,-103.3025,299.2,0.49,0.49,2019-10-11,08:06,N,nominal,1.0NRT,277.6,14.4,N
32.60859,-103.30927,337.8,0.49,0.49,2019-10-11,08:06,N,nominal,1.0NRT,280,17.7,N
32.60807,-103.30399,321.6,0.49,0.49,2019-10-11,08:06,N,nominal,1.0NRT,281.7,14.1,N
32.42818,-102.11742,299.9,0.42,0.45,2019-10-11,08:06,N,nominal,1.0NRT,279,1.8,N
32.42401,-102.11806,330.9,0.42,0.45,2019-10-11,08:06,N,nominal,1.0NRT,281.5,1.8,N
33.00087,-110.77216,311,0.67,0.73,2019-10-11,08:06,N,nominal,1.0NRT,288.6,1.9,N
33.00108,-110.76924,305,0.67,0.73,2019-10-11,08:06,N,nominal,1.0NRT,288.5,2,N
32.35099,-101.95494,312.7,0.41,0.45,2019-10-11,08:06,N,nominal,1.0NRT,281,1.4,N
32.27879,-101.4073,299.4,0.38,0.43,2019-10-11,08:06,N,nominal,1.0NRT,281.6,0.5,N
30.58219,-91.2402,306.4,0.53,0.42,2019-10-11,08:06,N,nominal,1.0NRT,285.9,1.3,N
32.0501,-100.68743,301.3,0.53,0.42,2019-10-11,08:06,N,nominal,1.0NRT,282.2,1.3,N
30.75003,-92.25069,312,0.47,0.4,2019-10-11,08:06,N,nominal,1.0NRT,290.2,1,N
32.15575,-101.93228,337.5,0.41,0.45,2019-10-11,08:06,N,nominal,1.0NRT,279.8,2.2,N
32.15163,-101.93291,315,0.41,0.45,2019-10-11,08:06,N,nominal,1.0NRT,276.8,2.2,N
30.48431,-91.17543,302.7,0.53,0.42,2019-10-11,08:06,N,nominal,1.0NRT,289.3,3.2,N
32.25508,-103.57192,295.4,0.5,0.49,2019-10-11,08:06,N,nominal,1.0NRT,277.9,0.8,N
32.08285,-103.3035,296.5,0.48,0.48,2019-10-11,08:06,N,nominal,1.0NRT,279.3,0.6,N
30.3226,-91.23629,305.6,0.53,0.42,2019-10-11,08:06,N,nominal,1.0NRT,292.4,2,N
30.3216,-91.23767,305.3,0.53,0.42,2019-10-11,08:06,N,nominal,1.0NRT,292.2,2.4,N
31.89166,-101.70016,309.5,0.39,0.44,2019-10-11,08:06,N,nominal,1.0NRT,282,1,N
31.8912,-101.69599,299.6,0.39,0.44,2019-10-11,08:06,N,nominal,1.0NRT,281.4,1.2,N
31.8876,-101.70074,298.6,0.39,0.44,2019-10-11,08:06,N,nominal,1.0NRT,282,1,N
32.02396,-103.27605,297.4,0.48,0.48,2019-10-11,08:06,N,nominal,1.0NRT,280,0.7,N
32.01951,-103.27668,297,0.48,0.48,2019-10-11,08:06,N,nominal,1.0NRT,279.8,0.8,N
31.84572,-101.771,302.4,0.4,0.44,2019-10-11,08:06,N,nominal,1.0NRT,282,0.7,N
31.94824,-103.04498,338.8,0.47,0.47,2019-10-11,08:06,N,nominal,1.0NRT,282.8,5.1,N
31.94867,-103.04779,336.7,0.47,0.47,2019-10-11,08:06,N,nominal,1.0NRT,281.5,4.9,N
31.94816,-103.0428,302.7,0.47,0.47,2019-10-11,08:06,N,nominal,1.0NRT,280.2,2.5,N
30.49754,-92.84329,312,0.45,0.39,2019-10-11,08:06,N,nominal,1.0NRT,287.3,1.3,N
31.794,-101.74812,307.8,0.39,0.44,2019-10-11,08:06,N,nominal,1.0NRT,283,0.8,N
30.06174,-90.59753,302.8,0.39,0.44,2019-10-11,08:06,N,nominal,1.0NRT,290.6,2.7,N
31.96706,-103.65484,297.9,0.51,0.49,2019-10-11,08:06,N,nominal,1.0NRT,280,0.6,N
30.00165,-90.40285,306.5,0.4,0.44,2019-10-11,08:06,N,nominal,1.0NRT,292.6,2.7,N
30.00083,-90.39879,303.7,0.4,0.44,2019-10-11,08:06,N,nominal,1.0NRT,291.5,1.7,N
29.99601,-90.39583,303.6,0.4,0.44,2019-10-11,08:06,N,nominal,1.0NRT,291,1.7,N
31.95542,-103.67844,297.8,0.51,0.49,2019-10-11,08:06,N,nominal,1.0NRT,279.8,0.7,N
31.79684,-102.08188,301.6,0.41,0.45,2019-10-11,08:06,N,nominal,1.0NRT,280.8,0.5,N
31.95087,-103.67908,297.5,0.51,0.49,2019-10-11,08:06,N,nominal,1.0NRT,279.8,0.9,N
31.98165,-104.06997,337,0.53,0.5,2019-10-11,08:06,N,nominal,1.0NRT,279.1,12,N
31.98115,-104.06435,333.2,0.53,0.5,2019-10-11,08:06,N,nominal,1.0NRT,281.8,11.1,N
29.98827,-90.44057,315.8,0.39,0.44,2019-10-11,08:06,N,nominal,1.0NRT,291.2,1.6,N
31.89818,-103.35852,313.9,0.49,0.48,2019-10-11,08:06,N,nominal,1.0NRT,280.3,1.6,N
31.73764,-101.79934,338.2,0.4,0.44,2019-10-11,08:06,N,nominal,1.0NRT,284.9,4.4,N
31.91024,-103.53735,302.1,0.5,0.49,2019-10-11,08:06,N,nominal,1.0NRT,280.2,0.5,N
31.78479,-102.24944,309.2,0.42,0.45,2019-10-11,08:06,N,nominal,1.0NRT,279.5,1.5,N
31.73719,-101.79512,297.4,0.4,0.44,2019-10-11,08:06,N,nominal,1.0NRT,281.9,1.6,N
31.90572,-103.53798,298.5,0.5,0.49,2019-10-11,08:06,N,nominal,1.0NRT,279.2,0.5,N
31.71325,-101.90812,298.1,0.4,0.44,2019-10-11,08:06,N,nominal,1.0NRT,281.3,0.5,N
29.99986,-90.83537,302.1,0.56,0.43,2019-10-11,08:06,N,nominal,1.0NRT,289.8,2.3,N
31.88032,-103.81148,355.2,0.51,0.5,2019-10-11,08:06,N,nominal,1.0NRT,283.3,10,N
31.6833,-101.93864,329.2,0.4,0.44,2019-10-11,08:06,N,nominal,1.0NRT,283,1.8,N
31.68284,-101.93436,297.9,0.4,0.44,2019-10-11,08:06,N,nominal,1.0NRT,281.6,1.8,N
31.86698,-103.91982,299.6,0.52,0.5,2019-10-11,08:06,N,nominal,1.0NRT,279.8,0.5,N
31.80311,-103.23769,303.3,0.48,0.48,2019-10-11,08:06,N,nominal,1.0NRT,281.3,1.2,N
31.84051,-103.83359,301.5,0.52,0.5,2019-10-11,08:06,N,nominal,1.0NRT,280.5,0.9,N
31.67409,-102.2494,313.5,0.42,0.45,2019-10-11,08:06,N,nominal,1.0NRT,282.2,1.2,N
31.82689,-104.04965,299.6,0.53,0.5,2019-10-11,08:06,N,nominal,1.0NRT,280,0.6,N
31.82423,-104.05085,297.6,0.53,0.5,2019-10-11,08:06,N,nominal,1.0NRT,279.8,1,N
29.68196,-89.97428,307.6,0.42,0.45,2019-10-11,08:06,N,nominal,1.0NRT,293.8,2.3,N
29.20259,-95.41109,315,0.39,0.36,2019-10-11,08:06,N,nominal,1.0NRT,294.1,1.1,N
29.33984,-97.11116,308.9,0.39,0.36,2019-10-11,08:06,N,nominal,1.0NRT,293.1,0.8,N
29.06769,-95.75154,310.3,0.39,0.36,2019-10-11,08:06,N,nominal,1.0NRT,297,1.1,N
29.06704,-95.74758,307.2,0.39,0.36,2019-10-11,08:06,N,nominal,1.0NRT,296.1,1.1,N
29.00436,-95.402,309.4,0.39,0.36,2019-10-11,08:06,N,nominal,1.0NRT,295.3,1.1,N
29.00103,-95.40272,306.6,0.39,0.36,2019-10-11,08:06,N,nominal,1.0NRT,295.1,1.1,N
29.42724,-98.3455,302.4,0.4,0.37,2019-10-11,08:06,N,nominal,1.0NRT,292.2,0.9,N
30.49862,-109.63398,323.5,0.55,0.68,2019-10-11,08:06,N,nominal,1.0NRT,284.9,3.5,N
28.93585,-95.32127,308.8,0.39,0.36,2019-10-11,08:06,N,nominal,1.0NRT,295.6,1.5,N
29.24636,-97.50578,306.1,0.39,0.36,2019-10-11,08:06,N,nominal,1.0NRT,293.5,0.8,N
29.01658,-96.66258,311.4,0.38,0.36,2019-10-11,08:06,N,nominal,1.0NRT,294,0.5,N
29.1338,-97.5673,304.7,0.39,0.36,2019-10-11,08:06,N,nominal,1.0NRT,293.6,0.6,N
29.13673,-97.7179,309.5,0.39,0.36,2019-10-11,08:06,N,nominal,1.0NRT,293.9,0.6,N
29.1334,-97.71854,311.4,0.39,0.36,2019-10-11,08:06,N,nominal,1.0NRT,293.4,0.6,N
29.00897,-97.76984,304.1,0.39,0.36,2019-10-11,08:06,N,nominal,1.0NRT,293.3,0.4,N
29.01298,-97.84351,305.6,0.39,0.36,2019-10-11,08:06,N,nominal,1.0NRT,293.6,0.4,N
28.99568,-97.84266,306.7,0.39,0.36,2019-10-11,08:06,N,nominal,1.0NRT,293.4,0.4,N
28.95864,-97.90706,309.7,0.39,0.36,2019-10-11,08:06,N,nominal,1.0NRT,293.9,1.1,N
28.95455,-97.94933,316.2,0.39,0.37,2019-10-11,08:06,N,nominal,1.0NRT,294.3,1.3,N
28.93777,-97.88207,308.2,0.39,0.36,2019-10-11,08:06,N,nominal,1.0NRT,294,0.8,N
28.69932,-96.54227,332.6,0.38,0.36,2019-10-11,08:06,N,nominal,1.0NRT,296,4,N
28.81144,-98.13287,305.8,0.4,0.37,2019-10-11,08:06,N,nominal,1.0NRT,293.8,0.4,N
28.75897,-97.98483,306.4,0.39,0.37,2019-10-11,08:06,N,nominal,1.0NRT,294.2,0.8,N
28.6653,-98.28289,305.4,0.4,0.37,2019-10-11,08:06,N,nominal,1.0NRT,294.5,0.9,N
28.59567,-98.38251,318.6,0.4,0.37,2019-10-11,08:06,N,nominal,1.0NRT,294.2,1.7,N
28.59895,-99.36643,321.1,0.43,0.38,2019-10-11,08:06,N,nominal,1.0NRT,294.4,2.4,N
28.47668,-99.08593,330.1,0.42,0.37,2019-10-11,08:06,N,nominal,1.0NRT,295,3.1,N
27.88881,-97.27393,306.7,0.38,0.36,2019-10-11,08:06,N,nominal,1.0NRT,295.9,2.4,N
27.8882,-97.27003,313.1,0.38,0.36,2019-10-11,08:06,N,nominal,1.0NRT,296.2,2.5,N
27.8849,-97.27068,317,0.38,0.36,2019-10-11,08:06,N,nominal,1.0NRT,296.2,2.2,N
27.81327,-97.42506,308.1,0.39,0.36,2019-10-11,08:06,N,nominal,1.0NRT,295.9,2.3,N
27.81588,-97.48379,309.6,0.39,0.36,2019-10-11,08:06,N,nominal,1.0NRT,297.7,1.8,N
28.68345,-106.08839,314.3,0.32,0.55,2019-10-11,08:06,N,nominal,1.0NRT,289.2,1.1,N
27.43055,-98.118,314.3,0.39,0.36,2019-10-11,08:06,N,nominal,1.0NRT,295.4,1.3,N
27.42722,-98.11862,327.1,0.39,0.36,2019-10-11,08:06,N,nominal,1.0NRT,295.5,1.3,N
27.42664,-98.11468,305.5,0.39,0.36,2019-10-11,08:06,N,nominal,1.0NRT,294.9,1.3,N
27.4233,-98.1153,306.9,0.39,0.36,2019-10-11,08:06,N,nominal,1.0NRT,294.9,1.5,N
26.88657,-101.4472,323.4,0.5,0.41,2019-10-11,08:06,N,nominal,1.0NRT,295,2.8,N
26.8872,-101.45227,320,0.5,0.41,2019-10-11,08:06,N,nominal,1.0NRT,295.6,4.6,N
26.88216,-101.41171,315.4,0.5,0.41,2019-10-11,08:06,N,nominal,1.0NRT,295.6,3.8,N
26.87841,-101.41225,335.3,0.5,0.41,2019-10-11,08:06,N,nominal,1.0NRT,296.3,3.8,N
26.87527,-101.41782,310.9,0.5,0.41,2019-10-11,08:06,N,nominal,1.0NRT,294.5,1.6,N
26.8534,-101.39537,303.9,0.5,0.41,2019-10-11,08:06,N,nominal,1.0NRT,292.4,1,N
26.85604,-101.39147,305.9,0.5,0.41,2019-10-11,08:06,N,nominal,1.0NRT,292.2,1,N
26.10386,-98.29574,314,0.39,0.36,2019-10-11,08:06,N,nominal,1.0NRT,297.3,1.1,N
26.01845,-98.48573,313.4,0.39,0.36,2019-10-11,08:06,N,nominal,1.0NRT,296.5,1.3,N
25.88061,-97.56236,306.5,0.38,0.36,2019-10-11,08:06,N,nominal,1.0NRT,296.5,0.4,N
30.37338,-93.60933,331,0.42,0.38,2019-10-11,08:06,N,nominal,1.0NRT,293.3,2.6,N
31.56683,-102.00636,303.6,0.4,0.45,2019-10-11,08:06,N,nominal,1.0NRT,282,0.7,N
30.3623,-93.60738,304.2,0.42,0.38,2019-10-11,08:06,N,nominal,1.0NRT,292.7,0.7,N
31.71342,-103.86222,305.7,0.52,0.5,2019-10-11,08:06,N,nominal,1.0NRT,280.3,1.1,N
31.70881,-103.86278,320.8,0.52,0.5,2019-10-11,08:06,N,nominal,1.0NRT,280.4,2.7,N
31.74023,-104.13599,299.1,0.54,0.5,2019-10-11,08:06,N,nominal,1.0NRT,279,0.5,N
30.26151,-93.28752,304.8,0.44,0.38,2019-10-11,08:06,N,nominal,1.0NRT,293.9,1.1,N
31.7097,-103.86298,335.6,0.52,0.5,2019-10-11,08:06,N,nominal,1.0NRT,281.5,3.5,N
31.53463,-102.1535,304.2,0.41,0.45,2019-10-11,08:06,N,nominal,1.0NRT,282.4,0.9,N
31.7284,-104.26476,296,0.54,0.51,2019-10-11,08:06,N,nominal,1.0NRT,278.7,0.6,N
31.71846,-104.15631,297.5,0.54,0.51,2019-10-11,08:06,N,nominal,1.0NRT,279.7,0.6,N
31.51102,-102.09091,299.3,0.41,0.45,2019-10-11,08:06,N,nominal,1.0NRT,282.4,0.4,N
31.65207,-104.1013,300.1,0.53,0.5,2019-10-11,08:06,N,nominal,1.0NRT,280.4,0.8,N
31.63922,-104.06267,298.3,0.53,0.5,2019-10-11,08:06,N,nominal,1.0NRT,280.5,1,N
31.63507,-104.06879,303.5,0.53,0.5,2019-10-11,08:06,N,nominal,1.0NRT,280.7,1,N
31.50023,-102.63876,299.4,0.44,0.46,2019-10-11,08:06,N,nominal,1.0NRT,282.4,0.9,N
31.62597,-104.01907,326.7,0.53,0.5,2019-10-11,08:06,N,nominal,1.0NRT,281.4,2.9,N
31.63041,-104.06935,298.6,0.53,0.5,2019-10-11,08:06,N,nominal,1.0NRT,279.6,0.8,N
31.62745,-104.03587,298.9,0.53,0.5,2019-10-11,08:06,N,nominal,1.0NRT,280.1,1.3,N
31.4417,-102.18952,310.2,0.41,0.45,2019-10-11,08:06,N,nominal,1.0NRT,282.9,0.7,N
30.18045,-93.32092,306.4,0.44,0.38,2019-10-11,08:06,N,nominal,1.0NRT,295.6,1.3,N
31.62383,-104.15616,295.3,0.54,0.51,2019-10-11,08:06,N,nominal,1.0NRT,280.5,0.5,N
30.17779,-93.32622,308,0.43,0.38,2019-10-11,08:06,N,nominal,1.0NRT,295.6,1.3,N
31.63641,-104.06528,298.9,0.53,0.5,2019-10-11,08:06,N,nominal,1.0NRT,280.5,1.7,N
31.44388,-102.18814,296.3,0.41,0.45,2019-10-11,08:06,N,nominal,1.0NRT,282.3,0.6,N
31.62698,-104.01559,321.4,0.53,0.5,2019-10-11,08:06,N,nominal,1.0NRT,280.9,2.5,N
31.63229,-104.0714,314,0.53,0.5,2019-10-11,08:06,N,nominal,1.0NRT,280.4,1.6,N
31.62234,-104.01612,306.5,0.53,0.5,2019-10-11,08:06,N,nominal,1.0NRT,280.4,1.4,N
31.58475,-104.06602,304.3,0.53,0.5,2019-10-11,08:06,N,nominal,1.0NRT,280.4,2.4,N
25.71956,-100.30508,309.2,0.44,0.38,2019-10-11,08:12,N,nominal,1.0NRT,294.7,3.6,N
17.92849,-102.19975,305,0.44,0.38,2019-10-11,08:12,N,nominal,1.0NRT,283,1.2,N
17.92907,-102.20391,305.5,0.44,0.38,2019-10-11,08:12,N,nominal,1.0NRT,282.4,1.2,N
17.92966,-102.20808,326.9,0.44,0.38,2019-10-11,08:12,N,nominal,1.0NRT,283,1.4,N
17.93319,-102.20753,308.7,0.44,0.38,2019-10-11,08:12,N,nominal,1.0NRT,283.5,1.4,N
17.93377,-102.21169,305.4,0.44,0.38,2019-10-11,08:12,N,nominal,1.0NRT,283.1,1.4,N
17.97959,-94.116,301.8,0.39,0.44,2019-10-11,08:12,N,nominal,1.0NRT,276.3,1,N
17.92279,-93.76009,310.7,0.41,0.45,2019-10-11,08:12,N,nominal,1.0NRT,274.1,0.7,N
17.90918,-93.51971,309.7,0.43,0.46,2019-10-11,08:12,N,nominal,1.0NRT,264.3,1,N
17.90994,-93.52372,304.8,0.43,0.46,2019-10-11,08:12,N,nominal,1.0NRT,261,1,N
17.8371,-93.12016,304.4,0.45,0.47,2019-10-11,08:12,N,nominal,1.0NRT,264.3,1.1,N
17.91334,-93.51884,295.6,0.43,0.46,2019-10-11,08:12,N,nominal,1.0NRT,265.2,1,N
17.84056,-93.11497,310.1,0.45,0.47,2019-10-11,08:12,N,nominal,1.0NRT,263.1,4.6,N
17.84137,-93.11923,355.4,0.45,0.47,2019-10-11,08:12,N,nominal,1.0NRT,266.4,4.6,N
17.84218,-93.12346,322.1,0.45,0.47,2019-10-11,08:12,N,nominal,1.0NRT,264.8,2.8,N
17.84482,-93.11406,299.1,0.45,0.47,2019-10-11,08:12,N,nominal,1.0NRT,263.1,4.6,N
17.84564,-93.1183,304,0.45,0.47,2019-10-11,08:12,N,nominal,1.0NRT,263.7,4.6,N
17.84645,-93.12255,296,0.45,0.47,2019-10-11,08:12,N,nominal,1.0NRT,263.5,2.8,N
18.1104,-94.39539,319.7,0.56,0.43,2019-10-11,08:12,N,nominal,1.0NRT,287.6,3.1,N
17.8899,-93.18787,297.9,0.45,0.47,2019-10-11,08:12,N,nominal,1.0NRT,270,3.9,N
17.8907,-93.1921,317,0.45,0.47,2019-10-11,08:12,N,nominal,1.0NRT,270.4,2.9,N
17.89177,-93.17438,309.7,0.45,0.47,2019-10-11,08:12,N,nominal,1.0NRT,267.3,2.8,N
18.03211,-93.92494,305,0.4,0.44,2019-10-11,08:12,N,nominal,1.0NRT,271.2,0.7,N
17.89256,-93.17857,328.5,0.45,0.47,2019-10-11,08:12,N,nominal,1.0NRT,268.5,2.8,N
17.89335,-93.18276,338.6,0.45,0.47,2019-10-11,08:12,N,nominal,1.0NRT,269.5,3.9,N
17.89415,-93.18697,326.2,0.45,0.47,2019-10-11,08:12,N,nominal,1.0NRT,269.4,3.9,N
17.8976,-93.18187,310.1,0.45,0.47,2019-10-11,08:12,N,nominal,1.0NRT,266.9,2.9,N
17.8984,-93.18607,311.9,0.45,0.47,2019-10-11,08:12,N,nominal,1.0NRT,268.1,2.9,N
17.90186,-93.18098,334,0.45,0.47,2019-10-11,08:12,N,nominal,1.0NRT,267.3,2.9,N
17.90265,-93.18519,333.3,0.45,0.47,2019-10-11,08:12,N,nominal,1.0NRT,267.6,2.9,N
18.09236,-94.04815,308.7,0.39,0.44,2019-10-11,08:12,N,nominal,1.0NRT,273.6,0.9,N
18.20232,-94.00718,330.1,0.39,0.44,2019-10-11,08:12,N,nominal,1.0NRT,282,2.5,N
18.20243,-94.0071,321.3,0.39,0.44,2019-10-11,08:12,N,nominal,1.0NRT,282,1.7,N
18.21911,-93.89536,338.9,0.4,0.44,2019-10-11,08:12,N,nominal,1.0NRT,274.5,4.3,N
18.83587,-97.27628,301.6,0.41,0.37,2019-10-11,08:12,N,nominal,1.0NRT,285.2,0.9,N
18.39235,-92.82936,300.2,0.46,0.47,2019-10-11,08:12,N,nominal,1.0NRT,273.2,0.5,N
19.3448,-96.70529,308.8,0.42,0.38,2019-10-11,08:12,N,nominal,1.0NRT,291.9,1.5,N
20.01323,-99.17803,296.2,0.38,0.36,2019-10-11,08:12,N,nominal,1.0NRT,281,0.8,N
20.38311,-99.69267,298.5,0.39,0.36,2019-10-11,08:12,N,nominal,1.0NRT,286.3,1.6,N
20.38643,-99.6921,303.5,0.39,0.36,2019-10-11,08:12,N,nominal,1.0NRT,286,1.5,N
19.24108,-92.25344,316.9,0.48,0.48,2019-10-11,08:12,N,nominal,1.0NRT,290.2,4.8,N
19.29167,-92.16689,320.4,0.49,0.48,2019-10-11,08:12,N,nominal,1.0NRT,290,6.1,N
19.29518,-92.16131,307.7,0.49,0.48,2019-10-11,08:12,N,nominal,1.0NRT,289.9,7,N
19.29609,-92.16592,341.3,0.49,0.48,2019-10-11,08:12,N,nominal,1.0NRT,290.7,7,N
19.36845,-92.00711,327.9,0.5,0.49,2019-10-11,08:12,N,nominal,1.0NRT,290.6,7.1,N
19.3937,-92.04078,340.7,0.5,0.49,2019-10-11,08:12,N,nominal,1.0NRT,290.5,7.5,N
19.39814,-92.0398,335.1,0.5,0.49,2019-10-11,08:12,N,nominal,1.0NRT,290.3,6,N
19.42948,-92.08161,312.3,0.49,0.49,2019-10-11,08:12,N,nominal,1.0NRT,285.8,9.2,N
19.42858,-92.07696,339.8,0.49,0.49,2019-10-11,08:12,N,nominal,1.0NRT,290.5,9.2,N
19.43461,-92.03665,327.6,0.49,0.49,2019-10-11,08:12,N,nominal,1.0NRT,289.5,7.1,N
19.43905,-92.03567,345.5,0.49,0.49,2019-10-11,08:12,N,nominal,1.0NRT,290.5,7.1,N
19.51651,-92.1568,317.6,0.48,0.48,2019-10-11,08:12,N,nominal,1.0NRT,291.1,4.6,N
19.52282,-92.18882,328,0.48,0.48,2019-10-11,08:12,N,nominal,1.0NRT,291.6,6.5,N
19.56419,-92.23663,344.7,0.48,0.48,2019-10-11,08:12,N,nominal,1.0NRT,291.2,5.8,N
19.56857,-92.23566,326,0.48,0.48,2019-10-11,08:12,N,nominal,1.0NRT,291.2,5.8,N
19.56324,-92.18468,317.7,0.48,0.48,2019-10-11,08:12,N,nominal,1.0NRT,291.1,5.1,N
20.51485,-97.47875,334.7,0.4,0.37,2019-10-11,08:12,N,nominal,1.0NRT,293.6,3.5,N
19.60175,-92.28952,316.1,0.47,0.48,2019-10-11,08:12,N,nominal,1.0NRT,290.7,1.2,N
19.60261,-92.29401,308.8,0.47,0.48,2019-10-11,08:12,N,nominal,1.0NRT,290.7,1.2,N
19.58958,-92.20264,325.7,0.48,0.48,2019-10-11,08:12,N,nominal,1.0NRT,291.2,2.5,N
19.59264,-92.2002,316.8,0.48,0.48,2019-10-11,08:12,N,nominal,1.0NRT,291.2,1.6,N
21.83539,-98.46429,308.8,0.38,0.36,2019-10-11,08:12,N,nominal,1.0NRT,293.8,1.4,N
21.83869,-98.4637,314.2,0.38,0.36,2019-10-11,08:12,N,nominal,1.0NRT,294,1.4,N
22.26285,-97.80431,327.2,0.39,0.36,2019-10-11,08:12,N,nominal,1.0NRT,297,8.2,N
22.26345,-97.80804,334,0.39,0.36,2019-10-11,08:12,N,nominal,1.0NRT,296.7,8.2,N
22.26616,-97.80369,309.4,0.39,0.36,2019-10-11,08:12,N,nominal,1.0NRT,296.1,2,N
22.26676,-97.80742,311.2,0.39,0.36,2019-10-11,08:12,N,nominal,1.0NRT,296.5,2,N
22.35145,-97.87305,308.5,0.39,0.36,2019-10-11,08:12,N,nominal,1.0NRT,295.7,1.9,N
21.43636,-87.81631,316.7,0.42,0.61,2019-10-11,08:12,N,nominal,1.0NRT,290,1.4,N
24.89282,-107.49496,308.6,0.36,0.57,2019-10-11,08:12,N,nominal,1.0NRT,292.6,0.7,N
25.38711,-103.66808,313.1,0.42,0.45,2019-10-11,08:12,N,nominal,1.0NRT,290.2,1.2,N
25.60227,-100.91871,301.8,0.46,0.39,2019-10-11,08:12,N,nominal,1.0NRT,289,0.7,N
25.60328,-100.9205,303.6,0.46,0.39,2019-10-11,08:12,N,nominal,1.0NRT,289.8,1.1,N
25.25699,-98.35358,313,0.39,0.36,2019-10-11,08:12,N,nominal,1.0NRT,296,1.3,N
25.61473,-100.86742,299.3,0.46,0.39,2019-10-11,08:12,N,nominal,1.0NRT,289.3,0.8,N
25.58306,-99.93571,306.1,0.42,0.38,2019-10-11,08:12,N,nominal,1.0NRT,295.1,1.3,N
25.59114,-99.94292,308.4,0.42,0.38,2019-10-11,08:12,N,nominal,1.0NRT,297.5,2,N
25.69729,-100.29992,305.6,0.44,0.38,2019-10-11,08:12,N,nominal,1.0NRT,294.2,2.1,N
25.69665,-100.26908,317.3,0.43,0.38,2019-10-11,08:12,N,nominal,1.0NRT,295.7,3.4,N
25.75258,-100.5457,311.6,0.45,0.39,2019-10-11,08:12,N,nominal,1.0NRT,293.2,1.1,N
25.71837,-100.29642,333.7,0.44,0.38,2019-10-11,08:12,N,nominal,1.0NRT,295,4.2,N
25.72248,-100.30016,307.8,0.44,0.38,2019-10-11,08:12,N,nominal,1.0NRT,294.7,2,N
25.58868,-97.68985,330.8,0.38,0.36,2019-10-11,08:12,N,nominal,1.0NRT,297.1,2.5,N
33.00296,-110.77018,304.3,0.32,0.55,2019-10-11,09:48,N,nominal,1.0NRT,288.3,0.6,N
32.22793,-115.10699,303.6,0.39,0.44,2019-10-11,09:48,N,nominal,1.0NRT,283.1,0.7,N
32.59703,-117.01196,296.7,0.47,0.4,2019-10-11,09:48,N,nominal,1.0NRT,283.3,0.6,N
32.5222,-116.70074,333.1,0.49,0.4,2019-10-11,09:48,N,nominal,1.0NRT,289.2,8.4,N
31.84279,-116.58473,301.1,0.5,0.41,2019-10-11,09:48,N,nominal,1.0NRT,285.2,0.9,N
31.66998,-116.30434,306.5,0.52,0.42,2019-10-11,09:48,N,nominal,1.0NRT,287.3,0.9,N
28.92655,-110.82745,302,0.4,0.6,2019-10-11,09:48,N,nominal,1.0NRT,291.8,0.7,N
28.68299,-106.0908,295.2,0.76,0.77,2019-10-11,09:48,N,nominal,1.0NRT,284.5,0.8,N
30.52483,-115.8996,298.1,0.57,0.43,2019-10-11,09:48,N,nominal,1.0NRT,285.8,1.3,N
32.7536,-104.21474,308.5,0.75,0.77,2019-10-11,09:48,N,nominal,1.0NRT,271.7,3.5,N
32.06175,-104.17246,308.8,0.78,0.78,2019-10-11,09:48,N,nominal,1.0NRT,277.1,2.6,N
32.05492,-104.17554,297.8,0.78,0.78,2019-10-11,09:48,N,nominal,1.0NRT,276.2,1.7,N
32.05856,-104.17148,303.6,0.79,0.78,2019-10-11,09:48,N,nominal,1.0NRT,276.4,1.9,N
31.80159,-104.20732,296.5,0.79,0.78,2019-10-11,09:48,N,nominal,1.0NRT,276.3,0.8,N
33.42006,-110.86063,303.4,0.63,0.54,2019-10-11,09:48,N,nominal,1.0NRT,282.2,1.9,N
33.4152,-110.86219,318.9,0.63,0.54,2019-10-11,09:48,N,nominal,1.0NRT,282.3,4.1,N
10.43499,-63.35652,337.7,0.42,0.37,2019-10-11,17:36,N,nominal,1.0NRT,301.5,32.3,D
10.43443,-63.36042,342.4,0.42,0.37,2019-10-11,17:36,N,nominal,1.0NRT,296.4,22,D
10.44225,-63.33072,343.6,0.42,0.37,2019-10-11,17:36,N,nominal,1.0NRT,299.3,15.2,D
10.44569,-63.33126,341,0.42,0.37,2019-10-11,17:36,N,nominal,1.0NRT,296.2,6.4,D
10.441,-63.41205,335.9,0.42,0.37,2019-10-11,17:36,N,nominal,1.0NRT,298.7,3.4,D
10.45604,-63.33273,337.9,0.42,0.37,2019-10-11,17:36,N,nominal,1.0NRT,295.8,2.8,D
10.45728,-63.34846,345.3,0.42,0.37,2019-10-11,17:36,N,nominal,1.0NRT,299.9,12.6,D
10.46072,-63.34899,346.2,0.42,0.37,2019-10-11,17:36,N,nominal,1.0NRT,296.8,12.6,D
10.46361,-63.3533,332.2,0.42,0.37,2019-10-11,17:36,N,nominal,1.0NRT,299.1,11.5,D
10.46539,-63.36518,331.9,0.42,0.37,2019-10-11,17:36,N,nominal,1.0NRT,296.2,3.4,D
10.46483,-63.36906,332.1,0.42,0.37,2019-10-11,17:36,N,nominal,1.0NRT,296,3.4,D
10.48074,-63.3324,331.2,0.42,0.38,2019-10-11,17:36,N,nominal,1.0NRT,295.9,2.6,D
10.50267,-63.35102,334.9,0.42,0.37,2019-10-11,17:36,N,nominal,1.0NRT,298.9,3,D
10.50161,-63.35099,334.9,0.42,0.37,2019-10-11,17:36,N,nominal,1.0NRT,298.9,2.4,D
10.17868,-61.69144,334.4,0.49,0.4,2019-10-11,17:36,N,nominal,1.0NRT,298.5,8.2,D
9.1673,-71.99275,329.7,0.51,0.49,2019-10-11,17:36,N,nominal,1.0NRT,279.2,3.7,D
10.18548,-61.69693,334.4,0.49,0.4,2019-10-11,17:36,N,nominal,1.0NRT,295.3,2.2,D
9.97754,-63.17945,331.9,0.42,0.38,2019-10-11,17:36,N,nominal,1.0NRT,294.7,1.3,D
10.40879,-63.29385,337,0.42,0.38,2019-10-11,17:36,N,nominal,1.0NRT,292,3.2,D
10.42471,-63.28131,336.3,0.42,0.38,2019-10-11,17:36,N,nominal,1.0NRT,296.5,3.3,D
10.42869,-63.27814,335.2,0.42,0.38,2019-10-11,17:36,N,nominal,1.0NRT,296.4,9.9,D
10.42815,-63.28188,330.8,0.42,0.38,2019-10-11,17:36,N,nominal,1.0NRT,294.8,3.3,D
10.63302,-63.12683,332.8,0.43,0.38,2019-10-11,17:36,N,nominal,1.0NRT,293,5.3,D
7.2471,-63.25724,331.6,0.4,0.37,2019-10-11,17:36,N,nominal,1.0NRT,299.3,2.5,D
9.23306,-64.30046,341.1,0.39,0.36,2019-10-11,17:36,N,nominal,1.0NRT,273.8,7.2,D
9.85281,-63.33921,338.1,0.41,0.37,2019-10-11,17:36,N,nominal,1.0NRT,287.2,4.6,D
10.42576,-63.34737,344.5,0.42,0.37,2019-10-11,17:36,N,nominal,1.0NRT,299.1,5.3,D
10.4087,-63.46545,333,0.41,0.37,2019-10-11,17:36,N,nominal,1.0NRT,292.1,2.3,D
10.42973,-63.34425,330.2,0.42,0.37,2019-10-11,17:36,N,nominal,1.0NRT,297.5,36.4,D
10.42919,-63.34798,338.2,0.42,0.37,2019-10-11,17:36,N,nominal,1.0NRT,304.4,36.4,D
10.43716,-63.34158,331.8,0.42,0.37,2019-10-11,17:36,N,nominal,1.0NRT,296.2,2.8,D
27.20763,-80.52163,348.8,0.4,0.6,2019-10-11,17:42,N,nominal,1.0NRT,290.3,3.5,D
19.68336,-71.64772,331.4,0.5,0.41,2019-10-11,17:42,N,nominal,1.0NRT,301.9,3.2,D
19.67218,-71.64554,330.5,0.5,0.41,2019-10-11,17:42,N,low,1.0NRT,301.9,3.9,D
19.69291,-71.46006,337.3,0.49,0.4,2019-10-11,17:42,N,nominal,1.0NRT,301.6,3.7,D
19.60597,-71.13795,333.4,0.47,0.4,2019-10-11,17:42,N,nominal,1.0NRT,303,2.3,D
19.66401,-70.46457,345.5,0.44,0.39,2019-10-11,17:42,N,nominal,1.0NRT,299.2,6.3,D
19.66047,-70.46403,340.1,0.44,0.39,2019-10-11,17:42,N,nominal,1.0NRT,300.3,4.5,D
19.63726,-70.40755,330.5,0.44,0.38,2019-10-11,17:42,N,nominal,1.0NRT,298.6,2.4,D
19.56038,-70.32603,332.4,0.44,0.38,2019-10-11,17:42,N,nominal,1.0NRT,298.3,2.2,D
19.29458,-71.43124,331.5,0.49,0.41,2019-10-11,17:42,N,nominal,1.0NRT,295.7,3.3,D
19.4508,-69.99002,330.1,0.43,0.38,2019-10-11,17:42,N,nominal,1.0NRT,300.8,2.1,D
19.44668,-69.93983,336.7,0.42,0.38,2019-10-11,17:42,N,nominal,1.0NRT,302.4,4.7,D
18.5557,-73.99291,330.8,0.47,0.48,2019-10-11,17:42,N,nominal,1.0NRT,296,3.3,D
19.18891,-70.1449,332.3,0.43,0.38,2019-10-11,17:42,N,nominal,1.0NRT,302.2,3.1,D
19.13842,-70.40593,341.1,0.45,0.39,2019-10-11,17:42,N,nominal,1.0NRT,301.1,8,D
19.13629,-70.39684,346.3,0.45,0.39,2019-10-11,17:42,N,nominal,1.0NRT,303.3,27.7,D
19.13275,-70.39617,339.3,0.45,0.39,2019-10-11,17:42,N,nominal,1.0NRT,308.3,27.7,D
19.12707,-70.36477,334.4,0.44,0.39,2019-10-11,17:42,N,nominal,1.0NRT,299.3,2.9,D
19.12777,-70.36057,335.6,0.44,0.39,2019-10-11,17:42,N,nominal,1.0NRT,300.4,2.9,D
19.14407,-69.93925,352,0.43,0.38,2019-10-11,17:42,N,nominal,1.0NRT,300.2,10.1,D
19.1406,-69.93861,348.9,0.43,0.38,2019-10-11,17:42,N,nominal,1.0NRT,302.4,6,D
19.02266,-70.42904,344.7,0.45,0.39,2019-10-11,17:42,N,nominal,1.0NRT,300.1,9.2,D
19.11782,-69.83163,334.5,0.42,0.38,2019-10-11,17:42,N,nominal,1.0NRT,298.5,4.6,D
18.95887,-70.41711,338.9,0.45,0.39,2019-10-11,17:42,N,nominal,1.0NRT,299.9,2.8,D
33.14066,-80.11625,342.5,0.56,0.52,2019-10-11,17:42,N,nominal,1.0NRT,300.2,11.8,D
18.46709,-68.50504,329.7,0.39,0.37,2019-10-11,17:42,N,nominal,1.0NRT,299.1,2.2,D
18.72467,-68.69238,339.9,0.4,0.37,2019-10-11,17:42,N,nominal,1.0NRT,295.6,5.4,D
18.27375,-72.54446,334.5,0.39,0.44,2019-10-11,17:42,N,nominal,1.0NRT,298.2,2.1,D
18.5654,-70.98719,333.1,0.48,0.4,2019-10-11,17:42,N,nominal,1.0NRT,299.4,3.1,D
18.67447,-70.54258,338.4,0.46,0.39,2019-10-11,17:42,N,nominal,1.0NRT,299.1,5.8,D
18.81756,-70.42453,335.5,0.45,0.39,2019-10-11,17:42,N,nominal,1.0NRT,296.5,3.7,D
19.02899,-69.6022,331.1,0.42,0.37,2019-10-11,17:42,N,nominal,1.0NRT,294.9,3.7,D
18.92701,-70.35107,332.9,0.45,0.39,2019-10-11,17:42,N,nominal,1.0NRT,299.3,30.4,D
19.07371,-69.64692,337,0.42,0.38,2019-10-11,17:42,N,nominal,1.0NRT,297,3.7,D
30.13273,-82.76768,334.4,0.46,0.64,2019-10-11,17:42,N,nominal,1.0NRT,297.2,2.4,D
31.09756,-81.94356,327,0.4,0.6,2019-10-11,17:42,N,nominal,1.0NRT,292.8,0.8,D
31.83218,-82.06946,367,0.39,0.59,2019-10-11,17:42,N,high,1.0NRT,303.7,18.7,D
31.8279,-82.06786,340.2,0.39,0.59,2019-10-11,17:42,N,nominal,1.0NRT,298.1,9.7,D
31.83321,-82.06967,367,0.39,0.59,2019-10-11,17:42,N,high,1.0NRT,299.9,9.7,D
31.38914,-84.13568,340,0.52,0.67,2019-10-11,17:42,N,nominal,1.0NRT,300.5,4.9,D
31.38771,-84.14108,334.9,0.52,0.67,2019-10-11,17:42,N,nominal,1.0NRT,297.9,4.9,D
31.83867,-82.59501,367,0.41,0.61,2019-10-11,17:42,N,high,1.0NRT,309.6,26.7,D
31.60759,-83.8944,334.4,0.5,0.65,2019-10-11,17:42,N,nominal,1.0NRT,299.9,4.1,D
33.01231,-79.88387,332.1,0.55,0.51,2019-10-11,17:42,N,nominal,1.0NRT,298.2,7.3,D
33.01397,-79.88654,339.1,0.55,0.51,2019-10-11,17:42,N,nominal,1.0NRT,298.6,7.9,D
32.39506,-83.15385,327.7,0.43,0.62,2019-10-11,17:42,N,low,1.0NRT,298.2,2.5,D
32.3473,-83.97864,333.8,0.48,0.65,2019-10-11,17:42,N,nominal,1.0NRT,302.1,3.3,D
32.35,-83.97822,331.7,0.48,0.65,2019-10-11,17:42,N,nominal,1.0NRT,300.8,2.8,D
30.13483,-82.76482,343.8,0.47,0.64,2019-10-11,17:42,N,nominal,1.0NRT,297.2,3.8,D
29.86193,-82.84023,330,0.48,0.64,2019-10-11,17:42,N,low,1.0NRT,300.3,6.6,D
29.86376,-82.84284,337.8,0.48,0.64,2019-10-11,17:42,N,nominal,1.0NRT,301.4,4.8,D
29.70422,-83.09208,367,0.5,0.65,2019-10-11,17:42,N,high,1.0NRT,298.5,9.9,D
29.79712,-82.66377,329.1,0.47,0.64,2019-10-11,17:42,N,low,1.0NRT,300.9,5,D
29.79836,-82.65899,326.6,0.47,0.64,2019-10-11,17:42,N,low,1.0NRT,300.5,6.2,D
29.70288,-83.09328,337.2,0.5,0.66,2019-10-11,17:42,N,nominal,1.0NRT,296.7,8.4,D
29.70418,-83.0882,367,0.5,0.66,2019-10-11,17:42,N,high,1.0NRT,298,12.5,D
29.7991,-82.66537,332.8,0.47,0.64,2019-10-11,17:42,N,nominal,1.0NRT,299.7,3.1,D
29.94879,-81.70884,329.7,0.41,0.61,2019-10-11,17:42,N,nominal,1.0NRT,293.8,2.2,D
29.94973,-81.7097,327.5,0.41,0.61,2019-10-11,17:42,N,nominal,1.0NRT,293.4,2.6,D
29.41569,-83.00443,367,0.5,0.66,2019-10-11,17:42,N,high,1.0NRT,300.9,16.6,D
29.41342,-83.00585,330.7,0.5,0.66,2019-10-11,17:42,N,nominal,1.0NRT,295.9,5.8,D
29.41471,-83.00076,347.8,0.5,0.66,2019-10-11,17:42,N,nominal,1.0NRT,297.2,8.4,D
28.66897,-82.51168,335.4,0.49,0.65,2019-10-11,17:42,N,nominal,1.0NRT,296.7,13.5,D
28.67023,-82.50677,367,0.49,0.65,2019-10-11,17:42,N,high,1.0NRT,302.1,13.5,D
28.66438,-82.50491,367,0.49,0.65,2019-10-11,17:42,N,high,1.0NRT,299.5,13.5,D
28.73226,-81.99644,343,0.45,0.63,2019-10-11,17:42,N,nominal,1.0NRT,300.1,4.1,D
28.76276,-81.55035,329.9,0.43,0.62,2019-10-11,17:42,N,nominal,1.0NRT,298.8,3.8,D
28.56943,-81.71751,340.6,0.44,0.62,2019-10-11,17:42,N,nominal,1.0NRT,299.7,4.7,D
27.1983,-81.59425,335,0.47,0.64,2019-10-11,17:42,N,nominal,1.0NRT,294.1,7.7,D
27.19944,-81.58958,367,0.47,0.64,2019-10-11,17:42,N,high,1.0NRT,294,13.4,D
27.19368,-81.58783,367,0.47,0.64,2019-10-11,17:42,N,high,1.0NRT,294.5,11.7,D
17.99548,-66.31219,340.8,0.39,0.36,2019-10-11,17:42,N,nominal,1.0NRT,299,5.5,D
16.90052,-92.31227,328,0.38,0.36,2019-10-11,19:18,N,nominal,1.0NRT,295.2,1.8,D
15.0156,-89.29438,332.3,0.43,0.38,2019-10-11,19:18,N,nominal,1.0NRT,289.1,9.7,D
14.83315,-92.15938,335.1,0.38,0.36,2019-10-11,19:18,N,nominal,1.0NRT,294.6,2.9,D
15.67682,-86.61628,335.2,0.4,0.44,2019-10-11,19:18,N,nominal,1.0NRT,294.4,3.6,D
15.52184,-88.00391,338.9,0.5,0.41,2019-10-11,19:18,N,nominal,1.0NRT,302.4,4.2,D
15.56406,-87.88932,334.3,0.51,0.41,2019-10-11,19:18,N,nominal,1.0NRT,299.5,6.8,D
15.56342,-87.89408,333.5,0.51,0.41,2019-10-11,19:18,N,nominal,1.0NRT,298.4,3,D
15.87511,-86.051,340.4,0.44,0.46,2019-10-11,19:18,N,nominal,1.0NRT,292.8,4.5,D
15.66283,-87.71988,349.1,0.52,0.42,2019-10-11,19:18,N,nominal,1.0NRT,301.9,10.5,D
15.66219,-87.72475,334,0.52,0.42,2019-10-11,19:18,N,nominal,1.0NRT,300.5,10.5,D
15.70313,-87.91208,330.8,0.51,0.41,2019-10-11,19:18,N,low,1.0NRT,303.1,5.4,D
15.68026,-88.42952,332.1,0.48,0.4,2019-10-11,19:18,N,nominal,1.0NRT,298.6,3.5,D
15.89019,-89.93288,335.6,0.42,0.37,2019-10-11,19:18,N,nominal,1.0NRT,293,4.8,D
16.03818,-90.09385,335.2,0.41,0.37,2019-10-11,19:18,N,nominal,1.0NRT,299.6,4.4,D
16.12677,-89.88439,330.8,0.42,0.38,2019-10-11,19:18,N,nominal,1.0NRT,296.7,3,D
16.07326,-90.6946,344.8,0.4,0.37,2019-10-11,19:18,N,nominal,1.0NRT,297.4,4.7,D
16.20691,-89.97988,335.8,0.42,0.38,2019-10-11,19:18,N,nominal,1.0NRT,298.5,4.6,D
16.14541,-90.48747,338.7,0.4,0.37,2019-10-11,19:18,N,nominal,1.0NRT,297.4,4.2,D
16.18994,-90.70482,334.3,0.4,0.37,2019-10-11,19:18,N,nominal,1.0NRT,294.4,4.7,D
16.19129,-90.70522,334.3,0.4,0.37,2019-10-11,19:18,N,nominal,1.0NRT,293.8,4.8,D
16.41307,-90.19757,333,0.41,0.37,2019-10-11,19:18,N,nominal,1.0NRT,297,1.6,D
16.30647,-91.49247,331,0.39,0.36,2019-10-11,19:18,N,nominal,1.0NRT,294.6,2.9,D
16.70621,-90.21778,335.4,0.41,0.37,2019-10-11,19:18,N,nominal,1.0NRT,300.9,5.5,D
16.70567,-90.22165,347.9,0.41,0.37,2019-10-11,19:18,N,nominal,1.0NRT,302.3,5.5,D
16.89946,-89.525,333.7,0.44,0.38,2019-10-11,19:18,N,nominal,1.0NRT,298.3,3.6,D
16.90242,-89.52516,332,0.44,0.38,2019-10-11,19:18,N,nominal,1.0NRT,294,3.7,D
16.89344,-89.77343,332.6,0.43,0.38,2019-10-11,19:18,N,nominal,1.0NRT,297.7,2.4,D
16.94485,-90.15445,345.3,0.42,0.38,2019-10-11,19:18,N,nominal,1.0NRT,300.6,14.7,D
17.19421,-88.8484,329.9,0.47,0.4,2019-10-11,19:18,N,nominal,1.0NRT,296.3,3.3,D
17.20982,-88.97627,335.7,0.47,0.4,2019-10-11,19:18,N,nominal,1.0NRT,294.8,3.8,D
17.21346,-88.97679,333.6,0.47,0.4,2019-10-11,19:18,N,nominal,1.0NRT,295.3,3.3,D
17.03518,-90.32733,332.9,0.41,0.37,2019-10-11,19:18,N,nominal,1.0NRT,299.6,3.3,D
16.95928,-91.16778,336.1,0.39,0.36,2019-10-11,19:18,N,nominal,1.0NRT,296.3,4.6,D
17.09718,-90.43118,339,0.41,0.37,2019-10-11,19:18,N,nominal,1.0NRT,298.8,3.4,D
17.11256,-91.31653,329,0.39,0.36,2019-10-11,19:18,N,nominal,1.0NRT,296.4,2.3,D
19.39407,-92.04461,332.6,0.39,0.36,2019-10-11,19:24,N,nominal,1.0NRT,296.1,5.1,D
22.25859,-97.81272,330.9,0.51,0.41,2019-10-11,19:24,N,low,1.0NRT,303.4,2.3,D
22.2632,-97.80862,338.2,0.5,0.41,2019-10-11,19:24,N,nominal,1.0NRT,304.1,7.2,D
22.10859,-100.05455,341.7,0.45,0.47,2019-10-11,19:24,N,nominal,1.0NRT,311.1,2.9,D
22.73788,-97.86723,332.2,0.5,0.41,2019-10-11,19:24,N,nominal,1.0NRT,301,3.2,D
22.89554,-98.86743,339.4,0.56,0.43,2019-10-11,19:24,N,nominal,1.0NRT,304.4,7.1,D
22.90479,-99.125,349,0.39,0.44,2019-10-11,19:24,N,nominal,1.0NRT,301.1,12.9,D
24.87142,-99.65106,340.6,0.38,0.43,2019-10-11,19:24,N,nominal,1.0NRT,297.4,5.5,D
25.25791,-98.35389,339.1,0.49,0.4,2019-10-11,19:24,N,nominal,1.0NRT,306.1,6,D
25.25902,-98.35734,336.4,0.49,0.4,2019-10-11,19:24,N,nominal,1.0NRT,300.4,3.1,D
30.49636,-109.63284,331.2,0.55,0.68,2019-10-11,19:24,N,nominal,1.0NRT,303.6,3.4,D
32.61163,-103.30562,341.1,0.44,0.46,2019-10-11,19:24,N,nominal,1.0NRT,301.2,6,D
32.60977,-103.30869,340.5,0.44,0.46,2019-10-11,19:24,N,nominal,1.0NRT,298.9,4.1,D
27.87775,-81.78863,334.5,0.56,0.69,2019-10-11,19:24,N,nominal,1.0NRT,294.8,6.4,D
27.87218,-81.78871,331.1,0.56,0.69,2019-10-11,19:24,N,nominal,1.0NRT,295.2,9.7,D
28.06047,-82.11034,332.8,0.54,0.68,2019-10-11,19:24,N,nominal,1.0NRT,297.5,4.6,D
26.12344,-98.4996,337,0.48,0.4,2019-10-11,19:24,N,nominal,1.0NRT,300.7,4.6,D
28.06269,-82.1143,330.5,0.54,0.68,2019-10-11,19:24,N,nominal,1.0NRT,296.6,4.2,D
26.13718,-98.50762,335.9,0.48,0.4,2019-10-11,19:24,N,nominal,1.0NRT,300.1,9.7,D
25.90799,-100.06012,344.9,0.39,0.44,2019-10-11,19:24,N,nominal,1.0NRT,301,86.6,D
26.18382,-98.60793,334,0.49,0.4,2019-10-11,19:24,N,nominal,1.0NRT,300,2.9,D
26.19913,-98.58621,337.9,0.49,0.4,2019-10-11,19:24,N,nominal,1.0NRT,300.9,17.9,D
26.19827,-98.59104,334.4,0.49,0.4,2019-10-11,19:24,N,nominal,1.0NRT,298.3,17.9,D
26.20708,-98.56295,333.2,0.48,0.4,2019-10-11,19:24,N,nominal,1.0NRT,298.8,2.7,D
26.19739,-98.58886,339.9,0.49,0.4,2019-10-11,19:24,N,nominal,1.0NRT,301.2,37.5,D
26.20547,-98.56564,331.2,0.48,0.4,2019-10-11,19:24,N,nominal,1.0NRT,299.1,2.1,D
28.67366,-82.50352,343.6,0.52,0.67,2019-10-11,19:24,N,nominal,1.0NRT,296.5,7.6,D
28.67165,-82.50201,347.5,0.52,0.67,2019-10-11,19:24,N,nominal,1.0NRT,297.8,7.8,D
28.17249,-89.22392,341,0.4,0.44,2019-10-11,19:24,N,nominal,1.0NRT,295,4.3,D
29.70555,-83.09132,341.7,0.49,0.65,2019-10-11,19:24,N,nominal,1.0NRT,298.3,7.6,D
29.79784,-82.6549,327.5,0.52,0.67,2019-10-11,19:24,N,low,1.0NRT,300.9,4.2,D
29.79725,-82.66592,328.6,0.52,0.67,2019-10-11,19:24,N,low,1.0NRT,299.8,5.4,D
30.57244,-85.13691,337.3,0.37,0.58,2019-10-11,19:24,N,nominal,1.0NRT,292.9,3.7,D
29.74381,-94.99973,331.8,0.39,0.36,2019-10-11,19:24,N,nominal,1.0NRT,291.4,3.5,D
31.38725,-84.13536,331.5,0.44,0.62,2019-10-11,19:24,N,nominal,1.0NRT,291.9,3.4,D
31.38717,-84.13619,334.5,0.44,0.62,2019-10-11,19:24,N,nominal,1.0NRT,292.4,3,D
31.53914,-81.99437,367,0.58,0.7,2019-10-11,19:24,N,high,1.0NRT,293.8,23.2,D
31.60604,-83.89137,329.2,0.45,0.63,2019-10-11,19:24,N,nominal,1.0NRT,300.7,2.3,D
31.83419,-82.06854,327,0.58,0.7,2019-10-11,19:24,N,nominal,1.0NRT,296.2,3,D
31.91306,-87.60149,355,0.55,0.51,2019-10-11,19:24,N,nominal,1.0NRT,300.6,14.4,D
32.19821,-85.30115,344.7,0.38,0.59,2019-10-11,19:24,N,nominal,1.0NRT,289.7,5.6,D
32.26799,-87.03038,328.1,0.6,0.53,2019-10-11,19:24,N,nominal,1.0NRT,296.9,2.1,D
33.01585,-79.88379,331,0.79,0.78,2019-10-11,19:24,N,nominal,1.0NRT,293.2,8.3,D
33.01593,-79.88725,334.5,0.79,0.78,2019-10-11,19:24,N,nominal,1.0NRT,293.8,6.1,D
31.36393,-101.7793,341.9,0.39,0.44,2019-10-11,19:24,N,nominal,1.0NRT,294.4,7,D
31.4805,-101.83463,335.8,0.39,0.44,2019-10-11,19:24,N,nominal,1.0NRT,295.4,0.9,D
31.32068,-103.61376,337.3,0.48,0.48,2019-10-11,19:24,N,nominal,1.0NRT,299.3,1.7,D
31.62661,-104.01738,349.6,0.5,0.49,2019-10-11,19:24,N,nominal,1.0NRT,297.3,4.8,D
32.90516,-97.6753,331,0.39,0.36,2019-10-11,19:24,N,nominal,1.0NRT,293.4,3.7,D
32.90847,-97.67605,332.4,0.39,0.36,2019-10-11,19:24,N,nominal,1.0NRT,291.8,3.7,D
32.15661,-101.93157,346.2,0.57,0.43,2019-10-11,19:24,N,nominal,1.0NRT,297.7,14.8,D
33.32196,-95.59474,328.7,0.39,0.36,2019-10-11,19:24,N,nominal,1.0NRT,288.6,2.8,D
33.04543,-97.52153,333.3,0.39,0.36,2019-10-11,19:24,N,nominal,1.0NRT,291,2.4,D
31.86118,-103.90704,342.3,0.49,0.49,2019-10-11,19:24,N,nominal,1.0NRT,298.4,3.8,D
17.29311,-92.7955,331,0.39,0.36,2019-10-11,19:24,N,nominal,1.0NRT,295.5,6.4,D
17.72586,-92.17323,346.6,0.38,0.36,2019-10-11,19:24,N,nominal,1.0NRT,298.1,7.8,D
17.65541,-93.36105,330.5,0.39,0.36,2019-10-11,19:24,N,nominal,1.0NRT,295.2,0.6,D
17.89453,-92.49011,346.9,0.38,0.36,2019-10-11,19:24,N,nominal,1.0NRT,299.1,14.9,D
17.89783,-92.49066,344.5,0.38,0.36,2019-10-11,19:24,N,nominal,1.0NRT,297.1,14.9,D
17.84289,-93.11617,344.4,0.39,0.36,2019-10-11,19:24,N,nominal,1.0NRT,297.2,5.8,D
17.84233,-93.1198,337.9,0.39,0.36,2019-10-11,19:24,N,nominal,1.0NRT,296.3,5.3,D
17.89987,-93.18221,348.5,0.39,0.36,2019-10-11,19:24,N,nominal,1.0NRT,300.3,6.6,D
17.89931,-93.18585,332.6,0.39,0.36,2019-10-11,19:24,N,nominal,1.0NRT,295.2,6.6,D
17.90319,-93.18277,338.1,0.39,0.36,2019-10-11,19:24,N,nominal,1.0NRT,297.4,5.8,D
17.90262,-93.18641,332.2,0.39,0.36,2019-10-11,19:24,N,nominal,1.0NRT,297.5,5.8,D
18.20324,-94.00714,336.2,0.4,0.37,2019-10-11,19:24,N,nominal,1.0NRT,296.6,3.8,D
18.4021,-92.75403,335.5,0.38,0.36,2019-10-11,19:24,N,nominal,1.0NRT,298.2,3.3,D
18.49227,-94.79372,340.3,0.42,0.37,2019-10-11,19:24,N,nominal,1.0NRT,297,5.1,D
19.29582,-92.16397,334.8,0.39,0.36,2019-10-11,19:24,N,nominal,1.0NRT,298.7,19.7,D
19.29528,-92.16765,333.2,0.39,0.36,2019-10-11,19:24,N,nominal,1.0NRT,296.6,19.7,D
19.36897,-92.00647,343.2,0.39,0.36,2019-10-11,19:24,N,nominal,1.0NRT,296.3,5.6,D
21.98765,-98.19794,335.5,0.53,0.42,2019-10-11,19:24,N,nominal,1.0NRT,301.6,1.8,D
19.39794,-92.04146,342.4,0.39,0.36,2019-10-11,19:24,N,nominal,1.0NRT,296.3,7.3,D
19.4362,-92.03631,346.7,0.39,0.36,2019-10-11,19:24,N,nominal,1.0NRT,296.8,4.1,D
19.43954,-92.03685,338.1,0.39,0.36,2019-10-11,19:24,N,nominal,1.0NRT,296.5,4.1,D
19.44286,-92.03738,337.2,0.39,0.36,2019-10-11,19:24,N,nominal,1.0NRT,296,3.8,D
19.52181,-92.19047,333.8,0.39,0.36,2019-10-11,19:24,N,nominal,1.0NRT,295.3,3.7,D
19.56514,-92.23582,330.4,0.39,0.36,2019-10-11,19:24,N,nominal,1.0NRT,296.5,1.9,D
19.56846,-92.23637,332.6,0.39,0.36,2019-10-11,19:24,N,nominal,1.0NRT,296.3,9.9,D
17.92643,-102.20148,327.9,0.37,0.58,2019-10-11,19:24,N,nominal,1.0NRT,292.1,4.1,D
19.02361,-98.62428,339.5,0.42,0.45,2019-10-11,19:24,N,nominal,1.0NRT,303.5,11.5,D
18.54857,-101.30264,326.9,0.63,0.54,2019-10-11,19:24,N,low,1.0NRT,297.7,10.2,D
19.17624,-98.32013,329.7,0.4,0.44,2019-10-11,19:24,N,nominal,1.0NRT,298.9,2.1,D
21.43405,-87.8179,342.9,0.4,0.44,2019-10-11,19:24,N,nominal,1.0NRT,300.3,11.7,D
21.43861,-87.81453,330.1,0.4,0.44,2019-10-11,19:24,N,nominal,1.0NRT,297.6,4.3,D
21.44272,-87.81506,338.8,0.4,0.44,2019-10-11,19:24,N,nominal,1.0NRT,298.1,4.3,D
21.44226,-87.81898,340.3,0.4,0.44,2019-10-11,19:24,N,nominal,1.0NRT,298.2,4.3,D
20.03088,-99.27293,337.6,0.44,0.46,2019-10-11,19:24,N,nominal,1.0NRT,306.7,3.3,D
20.04953,-99.29042,351.5,0.44,0.46,2019-10-11,19:24,N,nominal,1.0NRT,305.6,8.1,D
20.51594,-97.47832,339,0.51,0.41,2019-10-11,19:24,N,nominal,1.0NRT,302.4,104.6,D
20.51059,-97.92159,333.3,0.54,0.42,2019-10-11,19:24,N,nominal,1.0NRT,297.7,3.7,D
20.678,-97.65896,333.3,0.52,0.42,2019-10-11,19:24,N,nominal,1.0NRT,293.4,4.1,D
20.9793,-97.49424,333.9,0.51,0.41,2019-10-11,19:24,N,nominal,1.0NRT,297.9,3.1,D
20.49257,-100.74457,335.3,0.54,0.5,2019-10-11,19:24,N,nominal,1.0NRT,299.1,3.3,D
21.0059,-98.1228,339.7,0.55,0.42,2019-10-11,19:24,N,nominal,1.0NRT,299.4,10.3,D
20.52449,-100.9242,343.2,0.55,0.51,2019-10-11,19:24,N,nominal,1.0NRT,306.2,7.6,D
20.52737,-100.92213,330.1,0.55,0.51,2019-10-11,19:24,N,low,1.0NRT,303.7,8.7,D
21.10522,-98.00043,334.2,0.54,0.42,2019-10-11,19:24,N,nominal,1.0NRT,299.4,4.8,D
21.14292,-98.03465,331.9,0.54,0.42,2019-10-11,19:24,N,nominal,1.0NRT,298.2,4.6,D
21.28345,-98.56987,340.7,0.38,0.43,2019-10-11,19:24,N,nominal,1.0NRT,300.3,4.7,D
21.2828,-98.57347,330.7,0.38,0.43,2019-10-11,19:24,N,nominal,1.0NRT,299.3,4.7,D
21.36303,-98.48245,331.4,0.57,0.43,2019-10-11,19:24,N,nominal,1.0NRT,299.4,3.9,D
21.57701,-98.84,334,0.39,0.44,2019-10-11,19:24,N,nominal,1.0NRT,298.6,1.8,D
21.78937,-98.77755,340.6,0.39,0.44,2019-10-11,19:24,N,nominal,1.0NRT,301,5.6,D
21.89623,-98.27819,335.3,0.54,0.42,2019-10-11,19:24,N,nominal,1.0NRT,303.7,9.1,D
21.90009,-98.27901,355.1,0.54,0.42,2019-10-11,19:24,N,nominal,1.0NRT,305.3,37.4,D
21.89757,-98.2756,343.2,0.54,0.42,2019-10-11,19:24,N,nominal,1.0NRT,303.7,31.3,D
21.96406,-98.28404,333.3,0.54,0.42,2019-10-11,19:24,N,low,1.0NRT,304.4,1.8,D
32.22136,-115.12405,343,0.42,0.45,2019-10-11,21:06,N,nominal,1.0NRT,310,5.2,D
31.35496,-115.73915,336.3,0.57,0.43,2019-10-11,21:06,N,nominal,1.0NRT,306,3.3,D
31.15587,-116.07911,335.6,0.55,0.42,2019-10-11,21:06,N,low,1.0NRT,310.4,3.1,D
31.15651,-116.07353,352.9,0.55,0.42,2019-10-11,21:06,N,nominal,1.0NRT,311.4,10.2,D
31.06053,-116.18658,340,0.54,0.42,2019-10-11,21:06,N,nominal,1.0NRT,308.9,5.4,D
31.06077,-116.18414,336.2,0.54,0.42,2019-10-11,21:06,N,low,1.0NRT,309.2,3.9,D
30.66138,-111.85948,344.7,0.62,0.54,2019-10-11,21:06,N,nominal,1.0NRT,311.3,13.9,D
29.02442,-111.01079,339.4,0.34,0.56,2019-10-11,21:06,N,nominal,1.0NRT,308.9,1.9,D
28.27372,-111.27689,345.8,0.32,0.54,2019-10-11,21:06,N,nominal,1.0NRT,308.7,4.1,D
27.08894,-109.57994,333.7,0.39,0.6,2019-10-11,21:06,N,nominal,1.0NRT,303.3,3.4,D
27.03738,-109.8777,332.1,0.38,0.58,2019-10-11,21:06,N,low,1.0NRT,304.7,2.1,D
26.44598,-109.08406,330.6,0.42,0.61,2019-10-11,21:06,N,low,1.0NRT,302.1,0.8,D
26.28682,-108.9465,334.6,0.42,0.61,2019-10-11,21:06,N,nominal,1.0NRT,300,2.9,D
25.7775,-108.81628,335.4,0.42,0.61,2019-10-11,21:06,N,nominal,1.0NRT,302,3,D
25.3481,-108.12021,333.2,0.46,0.64,2019-10-11,21:06,N,nominal,1.0NRT,301.5,2.7,D
32.40718,-116.89964,367,0.51,0.41,2019-10-11,21:06,N,low,1.0NRT,325.1,74.9,D
32.40336,-116.89923,367,0.51,0.41,2019-10-11,21:06,N,low,1.0NRT,327.2,38.4,D
32.40398,-116.89377,337.7,0.51,0.41,2019-10-11,21:06,N,low,1.0NRT,312.2,14.2,D
32.5813,-115.01491,335.4,0.43,0.46,2019-10-11,21:06,N,low,1.0NRT,308.9,3.4,D
33.41637,-110.86142,343,0.38,0.59,2019-10-11,21:06,N,nominal,1.0NRT,308.2,3.9,D
32.28599,-115.28175,332.5,0.41,0.45,2019-10-11,21:06,N,low,1.0NRT,307.4,2.2,D
32.13279,-116.08005,335,0.56,0.43,2019-10-11,21:06,N,nominal,1.0NRT,301.2,19.7,D
32.12885,-116.0793,334.2,0.56,0.43,2019-10-11,21:06,N,nominal,1.0NRT,308,19.7,D
32.13107,-116.0774,342,0.56,0.43,2019-10-11,21:06,N,nominal,1.0NRT,310.4,37.9,D
32.22556,-115.1246,352.5,0.42,0.45,2019-10-11,21:06,N,nominal,1.0NRT,310.7,5.2,D
