latitude,longitude,bright_ti4,scan,track,acq_date,acq_time,satellite,confidence,version,bright_ti5,frp,daynight
9.64671,-63.57152,342.8,0.41,0.37,2019-09-28,05:36,N,nominal,1.0NRT,296.1,10,N
11.75034,-70.17373,305.3,0.35,0.57,2019-09-28,05:36,N,nominal,1.0NRT,293.4,0.9,N
11.73849,-70.20238,346.1,0.35,0.57,2019-09-28,05:36,N,nominal,1.0NRT,294.1,16.6,N
11.73805,-70.1989,349.6,0.35,0.57,2019-09-28,05:36,N,nominal,1.0NRT,296.5,8.3,N
11.73762,-70.19546,311.1,0.35,0.57,2019-09-28,05:36,N,nominal,1.0NRT,293.6,8.3,N
10.56083,-62.30863,312,0.39,0.36,2019-09-28,05:36,N,nominal,1.0NRT,295.3,1.3,N
10.41672,-61.48524,312.2,0.38,0.36,2019-09-28,05:36,N,nominal,1.0NRT,291.3,1.9,N
10.39246,-61.48197,315.5,0.38,0.36,2019-09-28,05:36,N,nominal,1.0NRT,295,2.4,N
11.63151,-70.23785,308.3,0.35,0.57,2019-09-28,05:36,N,nominal,1.0NRT,293.4,0.4,N
10.20732,-61.27507,306,0.38,0.36,2019-09-28,05:36,N,nominal,1.0NRT,292.8,0.4,N
10.13861,-60.99143,315.9,0.39,0.36,2019-09-28,05:36,N,nominal,1.0NRT,295.2,2.3,N
10.1859,-61.69749,320.4,0.38,0.36,2019-09-28,05:36,N,nominal,1.0NRT,295.8,3,N
10.18259,-61.69802,332.8,0.38,0.36,2019-09-28,05:36,N,nominal,1.0NRT,295.8,3,N
10.1815,-61.69103,321.4,0.38,0.36,2019-09-28,05:36,N,nominal,1.0NRT,295.5,1.7,N
10.17819,-61.69156,331.3,0.38,0.36,2019-09-28,05:36,N,nominal,1.0NRT,295.9,2.8,N
10.17873,-61.69506,311.4,0.38,0.36,2019-09-28,05:36,N,nominal,1.0NRT,294.4,1.6,N
10.39916,-64.1669,317.4,0.44,0.38,2019-09-28,05:36,N,nominal,1.0NRT,294.5,1.8,N
10.39943,-64.16541,317.7,0.44,0.38,2019-09-28,05:36,N,nominal,1.0NRT,294.3,1.4,N
10.23166,-64.55987,311.7,0.45,0.39,2019-09-28,05:36,N,nominal,1.0NRT,294.8,1.7,N
9.97801,-63.18071,316.3,0.4,0.37,2019-09-28,05:36,N,nominal,1.0NRT,286.9,0.4,N
9.97462,-63.18122,312.5,0.4,0.37,2019-09-28,05:36,N,nominal,1.0NRT,286.5,0.5,N
11.13503,-72.57264,306,0.5,0.66,2019-09-28,05:36,N,nominal,1.0NRT,289.9,3.7,N
11.12389,-72.58355,309.8,0.5,0.66,2019-09-28,05:36,N,nominal,1.0NRT,290.2,3,N
10.07851,-64.85757,325.8,0.47,0.4,2019-09-28,05:36,N,nominal,1.0NRT,295.3,2.3,N
9.85528,-63.33882,330.8,0.41,0.37,2019-09-28,05:36,N,nominal,1.0NRT,293.8,2.6,N
9.85187,-63.33935,330.8,0.41,0.37,2019-09-28,05:36,N,nominal,1.0NRT,293,2.6,N
10.07548,-64.86238,304.7,0.47,0.4,2019-09-28,05:36,N,nominal,1.0NRT,288.9,2.3,N
10.07537,-64.86037,312.2,0.47,0.4,2019-09-28,05:36,N,nominal,1.0NRT,291.2,2.2,N
10.06161,-64.89298,326.3,0.47,0.4,2019-09-28,05:36,N,nominal,1.0NRT,295.9,3.2,N
10.05841,-64.87148,339.3,0.47,0.4,2019-09-28,05:36,N,nominal,1.0NRT,298.3,10.2,N
10.05778,-64.86719,346.4,0.47,0.4,2019-09-28,05:36,N,nominal,1.0NRT,299.7,10.2,N
10.05796,-64.8935,323.6,0.47,0.4,2019-09-28,05:36,N,nominal,1.0NRT,295.1,3.8,N
10.05669,-64.88496,321.1,0.47,0.4,2019-09-28,05:36,N,nominal,1.0NRT,294.7,3.3,N
10.05477,-64.87199,316.3,0.47,0.4,2019-09-28,05:36,N,nominal,1.0NRT,294.8,2.5,N
10.05413,-64.8677,319.2,0.47,0.4,2019-09-28,05:36,N,nominal,1.0NRT,294.5,2.5,N
9.77487,-63.26756,334.6,0.4,0.37,2019-09-28,05:36,N,nominal,1.0NRT,294.7,7.2,N
9.77091,-63.26441,320.6,0.4,0.37,2019-09-28,05:36,N,nominal,1.0NRT,291.9,1,N
9.74373,-63.43137,311.6,0.41,0.37,2019-09-28,05:36,N,nominal,1.0NRT,292.7,1.2,N
9.74316,-63.42766,318.6,0.41,0.37,2019-09-28,05:36,N,nominal,1.0NRT,292.9,1,N
9.74032,-63.43191,304.1,0.41,0.37,2019-09-28,05:36,N,nominal,1.0NRT,291.6,1.2,N
9.73975,-63.4282,310,0.41,0.37,2019-09-28,05:36,N,nominal,1.0NRT,291.8,1,N
9.73634,-63.47448,344.3,0.41,0.37,2019-09-28,05:36,N,nominal,1.0NRT,296.6,16.5,N
9.73577,-63.47076,340.3,0.41,0.37,2019-09-28,05:36,N,nominal,1.0NRT,296.4,16.5,N
9.73292,-63.47504,342.9,0.41,0.37,2019-09-28,05:36,N,nominal,1.0NRT,294.5,16.5,N
9.73065,-63.46012,318.2,0.41,0.37,2019-09-28,05:36,N,nominal,1.0NRT,292.4,1.4,N
9.72724,-63.46067,315.8,0.41,0.37,2019-09-28,05:36,N,nominal,1.0NRT,291.3,1.1,N
9.72553,-63.47239,307,0.41,0.37,2019-09-28,05:36,N,nominal,1.0NRT,291,1.1,N
9.70265,-63.52917,337,0.41,0.37,2019-09-28,05:36,N,nominal,1.0NRT,293.9,4.4,N
9.68396,-63.47482,307.9,0.41,0.37,2019-09-28,05:36,N,nominal,1.0NRT,291.4,1.2,N
9.68055,-63.47536,331.9,0.41,0.37,2019-09-28,05:36,N,nominal,1.0NRT,293.3,3.3,N
9.67999,-63.47164,313.9,0.41,0.37,2019-09-28,05:36,N,nominal,1.0NRT,291.6,3.3,N
9.67713,-63.47591,338.5,0.41,0.37,2019-09-28,05:36,N,nominal,1.0NRT,295.8,3.3,N
9.67657,-63.47218,320.4,0.41,0.37,2019-09-28,05:36,N,nominal,1.0NRT,292,3.3,N
9.6777,-63.47963,304.9,0.41,0.37,2019-09-28,05:36,N,nominal,1.0NRT,291.9,1.4,N
9.67601,-63.46845,304,0.41,0.37,2019-09-28,05:36,N,nominal,1.0NRT,291.1,1.4,N
9.67372,-63.47644,307.4,0.41,0.37,2019-09-28,05:36,N,nominal,1.0NRT,291.6,0.9,N
9.67316,-63.47272,306.1,0.41,0.37,2019-09-28,05:36,N,nominal,1.0NRT,291.1,0.9,N
9.67311,-63.49561,322.8,0.41,0.37,2019-09-28,05:36,N,nominal,1.0NRT,293.6,1.6,N
9.65468,-63.53197,331,0.41,0.37,2019-09-28,05:36,N,nominal,1.0NRT,297.4,11.5,N
9.66497,-63.59931,318,0.41,0.37,2019-09-28,05:36,N,nominal,1.0NRT,293.8,1.2,N
9.65525,-63.53571,308.7,0.41,0.37,2019-09-28,05:36,N,nominal,1.0NRT,293.4,1.3,N
9.65183,-63.53625,339,0.41,0.37,2019-09-28,05:36,N,nominal,1.0NRT,299.6,18.4,N
9.65127,-63.53251,332.9,0.41,0.37,2019-09-28,05:36,N,nominal,1.0NRT,294.5,4.3,N
9.65069,-63.52879,307.2,0.41,0.37,2019-09-28,05:36,N,nominal,1.0NRT,293.5,4.3,N
9.65298,-63.56668,334.1,0.41,0.37,2019-09-28,05:36,N,nominal,1.0NRT,295.6,28.5,N
9.65241,-63.56293,325.7,0.41,0.37,2019-09-28,05:36,N,nominal,1.0NRT,302.7,32.1,N
9.64671,-63.52561,329.5,0.41,0.37,2019-09-28,05:36,N,nominal,1.0NRT,293.2,2.2,N
9.64956,-63.56723,345.9,0.41,0.37,2019-09-28,05:36,N,nominal,1.0NRT,295.6,10,N
9.64899,-63.56348,337.9,0.41,0.37,2019-09-28,05:36,N,nominal,1.0NRT,296.4,8,N
9.64842,-63.55975,313.9,0.41,0.37,2019-09-28,05:36,N,nominal,1.0NRT,293.4,8,N
9.65471,-63.62406,325.3,0.41,0.37,2019-09-28,05:36,N,nominal,1.0NRT,291.5,2.3,N
9.65414,-63.6203,321.9,0.41,0.37,2019-09-28,05:36,N,nominal,1.0NRT,291.7,2.3,N
9.64614,-63.56778,328.1,0.41,0.37,2019-09-28,05:36,N,nominal,1.0NRT,292.6,10,N
9.64557,-63.56403,336.5,0.41,0.37,2019-09-28,05:36,N,nominal,1.0NRT,293.7,8,N
9.645,-63.56029,329.3,0.41,0.37,2019-09-28,05:36,N,nominal,1.0NRT,294.5,8,N
9.64443,-63.55656,334.8,0.41,0.37,2019-09-28,05:36,N,nominal,1.0NRT,295.9,11.7,N
9.65528,-63.62782,309.6,0.41,0.37,2019-09-28,05:36,N,nominal,1.0NRT,289.9,1.3,N
9.65186,-63.62837,336.3,0.41,0.37,2019-09-28,05:36,N,nominal,1.0NRT,302.5,29.5,N
9.65128,-63.62461,346.9,0.41,0.37,2019-09-28,05:36,N,nominal,1.0NRT,300.8,24.9,N
9.65071,-63.62084,322,0.41,0.37,2019-09-28,05:36,N,nominal,1.0NRT,299.4,24.9,N
9.64329,-63.57207,334,0.41,0.37,2019-09-28,05:36,N,nominal,1.0NRT,293.8,2.6,N
9.64215,-63.56458,349.6,0.41,0.37,2019-09-28,05:36,N,nominal,1.0NRT,308.2,132.9,N
9.64101,-63.5571,335.3,0.41,0.37,2019-09-28,05:36,N,nominal,1.0NRT,293.7,7.8,N
9.65243,-63.63214,306.6,0.41,0.37,2019-09-28,05:36,N,nominal,1.0NRT,289.8,29.5,N
9.65014,-63.61708,301.8,0.41,0.37,2019-09-28,05:36,N,nominal,1.0NRT,289.3,1.2,N
9.64272,-63.56833,311.7,0.41,0.37,2019-09-28,05:36,N,nominal,1.0NRT,292.6,2.6,N
9.64843,-63.62891,345.7,0.41,0.37,2019-09-28,05:36,N,nominal,1.0NRT,292.1,29.5,N
9.649,-63.63269,305.7,0.41,0.37,2019-09-28,05:36,N,nominal,1.0NRT,289.9,29.5,N
9.64785,-63.62515,314.1,0.41,0.37,2019-09-28,05:36,N,nominal,1.0NRT,289.9,24.9,N
9.64728,-63.62138,306.1,0.41,0.37,2019-09-28,05:36,N,nominal,1.0NRT,289.5,24.9,N
9.63987,-63.57262,307.3,0.41,0.37,2019-09-28,05:36,N,nominal,1.0NRT,291.9,2.6,N
9.63873,-63.56514,304.3,0.41,0.37,2019-09-28,05:36,N,nominal,1.0NRT,292.2,132.9,N
9.62949,-63.68953,303.8,0.42,0.37,2019-09-28,05:36,N,nominal,1.0NRT,289.8,0.3,N
9.62662,-63.69386,333.3,0.42,0.37,2019-09-28,05:36,N,nominal,1.0NRT,311.4,39.1,N
9.62605,-63.69008,308.2,0.42,0.37,2019-09-28,05:36,N,nominal,1.0NRT,289.4,2.2,N
9.62318,-63.69439,324.7,0.42,0.37,2019-09-28,05:36,N,nominal,1.0NRT,294.1,39.1,N
9.62086,-63.72575,335.2,0.42,0.37,2019-09-28,05:36,N,nominal,1.0NRT,313.8,62.6,N
9.62029,-63.72195,334.2,0.42,0.37,2019-09-28,05:36,N,nominal,1.0NRT,297.7,13.9,N
9.61741,-63.72628,338.8,0.42,0.37,2019-09-28,05:36,N,nominal,1.0NRT,294.2,3.2,N
9.61685,-63.7225,318.1,0.42,0.37,2019-09-28,05:36,N,nominal,1.0NRT,292.9,2.4,N
9.62079,-63.77231,319,0.42,0.38,2019-09-28,05:36,N,nominal,1.0NRT,293.1,1.8,N
9.61454,-63.7306,302.4,0.42,0.37,2019-09-28,05:36,N,nominal,1.0NRT,291.7,3.2,N
9.56439,-63.63025,325.5,0.41,0.37,2019-09-28,05:36,N,nominal,1.0NRT,293.7,1.3,N
9.56132,-63.6301,345.6,0.41,0.37,2019-09-28,05:36,N,nominal,1.0NRT,294.6,5.1,N
9.47454,-64.38712,304.9,0.44,0.38,2019-09-28,05:36,N,nominal,1.0NRT,289.5,0.8,N
9.47101,-64.38766,302.8,0.44,0.38,2019-09-28,05:36,N,nominal,1.0NRT,290.3,0.8,N
9.2941,-63.89887,312.8,0.42,0.38,2019-09-28,05:36,N,nominal,1.0NRT,292.8,1.1,N
9.38642,-64.54865,332.1,0.45,0.39,2019-09-28,05:36,N,nominal,1.0NRT,293.1,15.6,N
9.38582,-64.54458,342.4,0.45,0.39,2019-09-28,05:36,N,nominal,1.0NRT,294.5,15.6,N
9.37575,-64.52539,333.9,0.45,0.39,2019-09-28,05:36,N,nominal,1.0NRT,291.3,5.2,N
9.37516,-64.52132,317,0.44,0.39,2019-09-28,05:36,N,nominal,1.0NRT,291,5.2,N
9.37457,-64.51728,305.8,0.44,0.39,2019-09-28,05:36,N,nominal,1.0NRT,290.8,4,N
9.37339,-64.53406,331.7,0.45,0.39,2019-09-28,05:36,N,nominal,1.0NRT,291.2,5.9,N
9.3722,-64.52594,331.1,0.45,0.39,2019-09-28,05:36,N,nominal,1.0NRT,290.6,5.2,N
9.37161,-64.52187,332.4,0.44,0.39,2019-09-28,05:36,N,nominal,1.0NRT,292.9,5.2,N
9.37102,-64.51781,320.1,0.44,0.39,2019-09-28,05:36,N,nominal,1.0NRT,292.5,4,N
9.37433,-64.53233,330.7,0.45,0.39,2019-09-28,05:36,N,nominal,1.0NRT,290.9,3.8,N
9.37311,-64.52421,333.2,0.44,0.39,2019-09-28,05:36,N,nominal,1.0NRT,291.5,17,N
9.37249,-64.52015,335.8,0.44,0.39,2019-09-28,05:36,N,nominal,1.0NRT,295,17,N
9.27505,-64.04195,314.6,0.42,0.38,2019-09-28,05:36,N,nominal,1.0NRT,292.9,4.1,N
9.27158,-64.0425,333.5,0.42,0.38,2019-09-28,05:36,N,nominal,1.0NRT,294.1,4.1,N
10.1214,-70.41554,305.2,0.35,0.57,2019-09-28,05:36,N,nominal,1.0NRT,288.4,0.2,N
9.22757,-64.05715,330.5,0.43,0.38,2019-09-28,05:36,N,nominal,1.0NRT,296.7,3.5,N
9.2241,-64.05772,307.7,0.43,0.38,2019-09-28,05:36,N,nominal,1.0NRT,293,3.5,N
9.26854,-64.71835,305.8,0.45,0.39,2019-09-28,05:36,N,nominal,1.0NRT,288.9,0.6,N
9.22261,-64.50858,306.1,0.44,0.39,2019-09-28,05:36,N,nominal,1.0NRT,292.1,0.7,N
9.21907,-64.50912,304.3,0.44,0.39,2019-09-28,05:36,N,nominal,1.0NRT,291,0.7,N
9.10356,-64.14262,307.9,0.43,0.38,2019-09-28,05:36,N,nominal,1.0NRT,293.4,1.4,N
9.10242,-64.14167,319.7,0.43,0.38,2019-09-28,05:36,N,nominal,1.0NRT,293.9,1.7,N
8.936,-63.92309,314.3,0.42,0.38,2019-09-28,05:36,N,nominal,1.0NRT,293.7,0.8,N
8.93255,-63.92362,310.5,0.42,0.38,2019-09-28,05:36,N,nominal,1.0NRT,292.1,0.4,N
8.9073,-63.80382,325.2,0.41,0.37,2019-09-28,05:36,N,nominal,1.0NRT,294.2,1.7,N
8.74381,-63.04972,315.4,0.39,0.37,2019-09-28,05:36,N,nominal,1.0NRT,295.7,0.7,N
8.74045,-63.05024,304.3,0.39,0.37,2019-09-28,05:36,N,nominal,1.0NRT,294.3,0.7,N
8.64863,-62.777,318.8,0.39,0.36,2019-09-28,05:36,N,nominal,1.0NRT,293.5,1.3,N
8.6896,-63.15376,310.1,0.4,0.37,2019-09-28,05:36,N,nominal,1.0NRT,295.1,0.7,N
8.68624,-63.15429,336.7,0.4,0.37,2019-09-28,05:36,N,nominal,1.0NRT,299.3,9.9,N
9.5234,-70.64795,310.9,0.35,0.57,2019-09-28,05:36,N,nominal,1.0NRT,269.3,0.8,N
9.517,-70.97979,296.4,0.37,0.58,2019-09-28,05:36,N,nominal,1.0NRT,279.9,1.1,N
9.51161,-70.98055,316.9,0.37,0.58,2019-09-28,05:36,N,nominal,1.0NRT,280.8,1.1,N
8.52641,-64.07288,330.1,0.42,0.38,2019-09-28,05:36,N,nominal,1.0NRT,294.5,2,N
9.51472,-70.97977,311.9,0.37,0.58,2019-09-28,05:36,N,nominal,1.0NRT,281.1,1.3,N
8.21696,-62.87296,330.2,0.39,0.36,2019-09-28,05:36,N,nominal,1.0NRT,291.5,2.7,N
7.46565,-63.48006,308,0.4,0.37,2019-09-28,05:36,N,nominal,1.0NRT,292.9,1.3,N
26.60101,-78.48296,332,0.51,0.41,2019-09-28,07:12,N,nominal,1.0NRT,297.7,36.1,N
32.12925,-93.41058,300.1,0.44,0.62,2019-09-28,07:12,N,nominal,1.0NRT,288.3,1.9,N
32.12896,-93.40578,304.7,0.44,0.62,2019-09-28,07:12,N,nominal,1.0NRT,288.6,1.9,N
32.12838,-93.396,319.7,0.44,0.62,2019-09-28,07:12,N,nominal,1.0NRT,288.5,4.5,N
31.58141,-87.49227,305.8,0.39,0.44,2019-09-28,07:12,N,nominal,1.0NRT,293.1,1.1,N
32.24571,-97.55109,303.7,0.76,0.77,2019-09-28,07:12,N,nominal,1.0NRT,290,1.1,N
30.68705,-81.72044,322.6,0.38,0.36,2019-09-28,07:12,N,nominal,1.0NRT,292.2,1.6,N
31.90992,-94.22047,302,0.48,0.65,2019-09-28,07:12,N,nominal,1.0NRT,287.8,1,N
30.89546,-84.35726,309.2,0.42,0.38,2019-09-28,07:12,N,nominal,1.0NRT,292.4,0.8,N
30.89456,-84.3595,307.5,0.42,0.38,2019-09-28,07:12,N,nominal,1.0NRT,291.9,0.7,N
31.15273,-87.97852,305,0.41,0.45,2019-09-28,07:12,N,nominal,1.0NRT,294,1.1,N
31.14949,-87.98785,341.2,0.41,0.45,2019-09-28,07:12,N,nominal,1.0NRT,295.8,3.5,N
31.14903,-87.9835,307,0.41,0.45,2019-09-28,07:12,N,nominal,1.0NRT,293.6,3.5,N
30.94263,-88.01058,312.2,0.41,0.45,2019-09-28,07:12,N,nominal,1.0NRT,293.6,2.4,N
30.93893,-88.01553,325.2,0.41,0.45,2019-09-28,07:12,N,nominal,1.0NRT,293.9,2.4,N
29.98182,-81.38214,331.2,0.39,0.36,2019-09-28,07:12,N,nominal,1.0NRT,294.4,3.9,N
30.06901,-83.52255,306.2,0.4,0.37,2019-09-28,07:12,N,nominal,1.0NRT,293.9,0.7,N
30.74696,-92.25523,312.3,0.36,0.58,2019-09-28,07:12,N,nominal,1.0NRT,291.3,1.5,N
30.54374,-90.00435,304.6,0.53,0.5,2019-09-28,07:12,N,nominal,1.0NRT,291.9,0.8,N
30.87303,-94.88861,301,0.52,0.67,2019-09-28,07:12,N,nominal,1.0NRT,288.2,1.3,N
30.34009,-88.49003,307.4,0.43,0.46,2019-09-28,07:12,N,nominal,1.0NRT,295.5,2.5,N
30.33962,-88.4855,308.7,0.43,0.46,2019-09-28,07:12,N,nominal,1.0NRT,295.7,3.4,N
30.58324,-91.23991,305.7,0.63,0.54,2019-09-28,07:12,N,nominal,1.0NRT,291.9,1.6,N
30.58427,-91.23878,303.8,0.63,0.54,2019-09-28,07:12,N,nominal,1.0NRT,291.9,1,N
30.81141,-96.65356,302.1,0.66,0.73,2019-09-28,07:12,N,nominal,1.0NRT,289.4,0.6,N
30.48285,-91.17708,306.6,0.62,0.54,2019-09-28,07:12,N,nominal,1.0NRT,293.6,3,N
30.48287,-91.17702,306.8,0.62,0.54,2019-09-28,07:12,N,nominal,1.0NRT,294,2.6,N
30.81064,-96.65253,302.3,0.66,0.73,2019-09-28,07:12,N,nominal,1.0NRT,289.5,0.8,N
30.38208,-90.71383,303.6,0.58,0.52,2019-09-28,07:12,N,nominal,1.0NRT,291.3,1.1,N
30.42647,-91.8688,303,0.34,0.56,2019-09-28,07:12,N,nominal,1.0NRT,290.7,0.3,N
30.32186,-91.23698,305.8,0.62,0.54,2019-09-28,07:12,N,nominal,1.0NRT,293,2.8,N
30.18483,-90.99178,304.4,0.6,0.53,2019-09-28,07:12,N,nominal,1.0NRT,292.5,1.6,N
30.25811,-93.28854,320.9,0.41,0.61,2019-09-28,07:12,N,nominal,1.0NRT,292.1,2.5,N
33.01471,-79.88445,326.9,0.39,0.36,2019-09-28,07:12,N,nominal,1.0NRT,293.1,2.4,N
33.08987,-80.34084,307.6,0.39,0.36,2019-09-28,07:12,N,nominal,1.0NRT,291.5,0.9,N
33.01139,-79.88524,316.6,0.39,0.36,2019-09-28,07:12,N,nominal,1.0NRT,292.2,1.1,N
33.00806,-79.88602,310,0.39,0.36,2019-09-28,07:12,N,nominal,1.0NRT,292.6,1.1,N
33.00335,-79.87845,308.5,0.39,0.36,2019-09-28,07:12,N,nominal,1.0NRT,292.6,1.4,N
32.75726,-80.70246,314,0.39,0.36,2019-09-28,07:12,N,nominal,1.0NRT,290.8,1.1,N
33.43946,-88.57018,323.2,0.47,0.48,2019-09-28,07:12,N,nominal,1.0NRT,293.3,3,N
33.44042,-88.58048,310.5,0.47,0.48,2019-09-28,07:12,N,nominal,1.0NRT,293.5,1.3,N
33.24568,-86.81941,304,0.57,0.43,2019-09-28,07:12,N,nominal,1.0NRT,291.3,0.8,N
33.22106,-86.81696,312.5,0.57,0.43,2019-09-28,07:12,N,nominal,1.0NRT,292.1,1.9,N
33.2183,-86.79228,313.2,0.57,0.43,2019-09-28,07:12,N,nominal,1.0NRT,291.8,2.1,N
33.17778,-86.75541,303.5,0.56,0.43,2019-09-28,07:12,N,nominal,1.0NRT,291,0.8,N
32.76976,-83.62879,304.4,0.42,0.37,2019-09-28,07:12,N,nominal,1.0NRT,291.9,0.9,N
33.10416,-86.79828,308,0.56,0.43,2019-09-28,07:12,N,nominal,1.0NRT,292,2.3,N
33.09292,-86.8063,311.3,0.57,0.43,2019-09-28,07:12,N,nominal,1.0NRT,291.1,2,N
33.30588,-89.33974,312.9,0.52,0.5,2019-09-28,07:12,N,nominal,1.0NRT,292.8,1.7,N
33.21037,-88.44109,312.9,0.46,0.47,2019-09-28,07:12,N,nominal,1.0NRT,291.3,1.8,N
32.47499,-84.11228,302.8,0.43,0.38,2019-09-28,07:12,N,nominal,1.0NRT,291.3,0.5,N
32.43044,-84.97617,307,0.46,0.39,2019-09-28,07:12,N,nominal,1.0NRT,291.6,0.9,N
32.17797,-85.0294,304.6,0.46,0.39,2019-09-28,07:12,N,nominal,1.0NRT,292.3,0.7,N
31.9943,-85.69696,307.1,0.49,0.4,2019-09-28,07:12,N,nominal,1.0NRT,291.2,1.5,N
32.31469,-90.13295,308.6,0.56,0.52,2019-09-28,07:12,N,nominal,1.0NRT,293.5,1.7,N
32.37252,-92.36941,309.5,0.38,0.59,2019-09-28,07:12,N,nominal,1.0NRT,289.4,1,N
32.57309,-97.68038,353,0.78,0.78,2019-09-28,07:12,N,nominal,1.0NRT,290.4,11.7,N
32.57327,-97.68921,302.1,0.78,0.78,2019-09-28,07:12,N,nominal,1.0NRT,290,10.1,N
32.57295,-97.6843,347.5,0.78,0.78,2019-09-28,07:12,N,nominal,1.0NRT,290.2,8,N
32.57272,-97.67561,309.1,0.77,0.78,2019-09-28,07:12,N,nominal,1.0NRT,289.7,8,N
31.3892,-84.13828,307.2,0.42,0.38,2019-09-28,07:12,N,nominal,1.0NRT,291.2,0.6,N
32.12867,-93.40086,337.4,0.44,0.62,2019-09-28,07:12,N,nominal,1.0NRT,289.6,4.5,N
30.24023,-93.27707,306,0.41,0.61,2019-09-28,07:12,N,nominal,1.0NRT,292.3,1.6,N
29.99775,-90.40115,306.1,0.55,0.51,2019-09-28,07:12,N,nominal,1.0NRT,294.8,3.1,N
30.17859,-93.32944,308.3,0.41,0.61,2019-09-28,07:12,N,nominal,1.0NRT,292.7,2.2,N
30.11355,-93.29604,307.8,0.41,0.61,2019-09-28,07:12,N,nominal,1.0NRT,291.5,1.3,N
30.04007,-93.33543,307.1,0.41,0.61,2019-09-28,07:12,N,nominal,1.0NRT,292.1,1.4,N
30.06701,-94.07399,303.4,0.46,0.63,2019-09-28,07:12,N,nominal,1.0NRT,290,0.6,N
29.68191,-89.9753,308,0.52,0.5,2019-09-28,07:12,N,nominal,1.0NRT,294.6,3.1,N
29.75621,-93.88283,303.5,0.44,0.63,2019-09-28,07:12,N,nominal,1.0NRT,290.7,0.9,N
29.74621,-95.01691,305.9,0.52,0.67,2019-09-28,07:12,N,nominal,1.0NRT,289,2.8,N
29.74556,-95.00585,315.3,0.52,0.67,2019-09-28,07:12,N,nominal,1.0NRT,289.3,1.8,N
29.74524,-95.00031,310.3,0.52,0.67,2019-09-28,07:12,N,nominal,1.0NRT,289.6,1.8,N
19.39107,-92.04223,300.2,0.52,0.5,2019-09-28,07:12,N,nominal,1.0NRT,248.6,1,N
18.95156,-88.97945,305.9,0.51,0.41,2019-09-28,07:12,N,nominal,1.0NRT,288.6,1,N
18.95091,-88.97462,303.5,0.51,0.41,2019-09-28,07:12,N,nominal,1.0NRT,288.9,0.7,N
19.29451,-92.1693,315,0.53,0.5,2019-09-28,07:12,N,nominal,1.0NRT,270.3,2.8,N
19.29391,-92.16423,314.9,0.53,0.5,2019-09-28,07:12,N,nominal,1.0NRT,270.6,2.8,N
18.1412,-92.82613,311,0.56,0.52,2019-09-28,07:12,N,nominal,1.0NRT,273.3,1.9,N
17.89395,-92.48967,339.3,0.53,0.5,2019-09-28,07:12,N,nominal,1.0NRT,269.4,6.3,N
17.89454,-92.49473,296.9,0.53,0.5,2019-09-28,07:12,N,nominal,1.0NRT,267.3,6.3,N
15.94201,-84.98875,306.8,0.39,0.36,2019-09-28,07:12,N,nominal,1.0NRT,289,0.6,N
29.73934,-95.00639,308.2,0.52,0.67,2019-09-28,07:12,N,nominal,1.0NRT,289.3,1.5,N
29.73902,-95.00088,306.7,0.52,0.67,2019-09-28,07:12,N,nominal,1.0NRT,289.5,1.5,N
29.73355,-95.12442,307.4,0.53,0.67,2019-09-28,07:12,N,nominal,1.0NRT,288.9,1.9,N
28.05679,-80.74861,308.7,0.4,0.37,2019-09-28,07:12,N,nominal,1.0NRT,294.1,1.1,N
29.62582,-95.06979,325.1,0.52,0.67,2019-09-28,07:12,N,nominal,1.0NRT,289.8,1.6,N
29.62614,-95.07534,313.2,0.52,0.67,2019-09-28,07:12,N,nominal,1.0NRT,289.2,3.3,N
29.61958,-95.07031,306.8,0.52,0.67,2019-09-28,07:12,N,nominal,1.0NRT,288.9,1.6,N
29.3714,-94.92129,307.1,0.51,0.66,2019-09-28,07:12,N,nominal,1.0NRT,290.2,2.7,N
29.37379,-94.93699,304.5,0.51,0.66,2019-09-28,07:12,N,nominal,1.0NRT,289.9,1.9,N
29.37277,-94.92078,308.6,0.51,0.66,2019-09-28,07:12,N,nominal,1.0NRT,290.3,2.2,N
29.34107,-97.11125,301.6,0.68,0.74,2019-09-28,07:12,N,nominal,1.0NRT,287.8,1.5,N
27.85954,-82.60436,315,0.38,0.36,2019-09-28,07:12,N,nominal,1.0NRT,294.8,1.4,N
27.85893,-82.60048,305.8,0.38,0.36,2019-09-28,07:12,N,nominal,1.0NRT,295,1.3,N
27.65935,-81.38594,317.6,0.39,0.36,2019-09-28,07:12,N,nominal,1.0NRT,293.7,1.2,N
27.65602,-81.38663,307.1,0.39,0.36,2019-09-28,07:12,N,nominal,1.0NRT,293.9,1.2,N
27.65137,-81.3794,315.9,0.39,0.36,2019-09-28,07:12,N,nominal,1.0NRT,292.9,1.1,N
27.6507,-81.37543,308.1,0.39,0.36,2019-09-28,07:12,N,nominal,1.0NRT,292.8,1,N
27.65004,-81.37147,318.1,0.39,0.37,2019-09-28,07:12,N,nominal,1.0NRT,293.8,1,N
27.64803,-81.3801,304.6,0.39,0.36,2019-09-28,07:12,N,nominal,1.0NRT,293.2,1.1,N
27.64737,-81.37613,312.1,0.39,0.36,2019-09-28,07:12,N,nominal,1.0NRT,293.7,1,N
27.64671,-81.37215,304.2,0.39,0.37,2019-09-28,07:12,N,nominal,1.0NRT,292.5,1,N
26.65961,-78.03191,331.6,0.54,0.42,2019-09-28,07:12,N,nominal,1.0NRT,292.7,2.5,N
26.65858,-78.02656,303.8,0.54,0.42,2019-09-28,07:12,N,nominal,1.0NRT,291.9,2.5,N
26.65782,-78.04348,315.8,0.54,0.42,2019-09-28,07:12,N,nominal,1.0NRT,292.9,1.7,N
26.6568,-78.03815,305.2,0.54,0.42,2019-09-28,07:12,N,nominal,1.0NRT,292.4,1.7,N
26.65603,-78.05505,346.5,0.53,0.42,2019-09-28,07:12,N,nominal,1.0NRT,295.3,6.6,N
26.65501,-78.04973,330.3,0.54,0.42,2019-09-28,07:12,N,nominal,1.0NRT,293.4,6.6,N
26.65399,-78.0444,305.5,0.54,0.42,2019-09-28,07:12,N,nominal,1.0NRT,292.6,1.9,N
26.65221,-78.05595,322.8,0.53,0.42,2019-09-28,07:12,N,nominal,1.0NRT,293.2,6.6,N
26.60988,-78.38494,322.5,0.52,0.41,2019-09-28,07:12,N,nominal,1.0NRT,293.7,1.9,N
26.60891,-78.37981,319.2,0.52,0.41,2019-09-28,07:12,N,nominal,1.0NRT,292.8,3.3,N
26.60611,-78.38583,307.1,0.52,0.41,2019-09-28,07:12,N,nominal,1.0NRT,292.8,1.9,N
26.60379,-78.47701,332.1,0.51,0.41,2019-09-28,07:12,N,nominal,1.0NRT,293.9,12.6,N
26.60283,-78.47193,340.3,0.51,0.41,2019-09-28,07:12,N,nominal,1.0NRT,293.2,12.6,N
26.60005,-78.47789,316.5,0.51,0.41,2019-09-28,07:12,N,nominal,1.0NRT,297.1,12.6,N
26.59726,-78.48383,332.6,0.51,0.41,2019-09-28,07:12,N,nominal,1.0NRT,295.6,16.5,N
26.5963,-78.47877,307.3,0.51,0.41,2019-09-28,07:12,N,nominal,1.0NRT,292.3,5.1,N
28.75886,-97.98605,312,0.76,0.77,2019-09-28,07:12,N,nominal,1.0NRT,289.6,1.4,N
26.05915,-98.25003,304.3,0.75,0.77,2019-09-28,07:12,N,nominal,1.0NRT,290.6,2,N
26.05875,-98.24213,315.2,0.75,0.77,2019-09-28,07:12,N,nominal,1.0NRT,291.1,2,N
26.05731,-98.24648,316.6,0.75,0.77,2019-09-28,07:12,N,nominal,1.0NRT,290.8,2.8,N
21.65214,-78.88316,315.8,0.39,0.44,2019-09-28,07:12,N,nominal,1.0NRT,291.4,0.9,N
22.28162,-97.81983,302.4,0.66,0.73,2019-09-28,07:12,N,nominal,1.0NRT,285.4,2.4,N
22.26067,-97.81516,304.5,0.66,0.73,2019-09-28,07:12,N,nominal,1.0NRT,285.6,2.8,N
22.28098,-97.81762,320.3,0.66,0.73,2019-09-28,07:12,N,nominal,1.0NRT,284.7,2.5,N
22.25999,-97.8129,304.9,0.66,0.73,2019-09-28,07:12,N,nominal,1.0NRT,285.2,4.7,N
20.51932,-97.48158,329.1,0.6,0.71,2019-09-28,07:12,N,nominal,1.0NRT,283,10.8,N
20.51883,-97.47557,307.2,0.6,0.71,2019-09-28,07:12,N,nominal,1.0NRT,283,10.8,N
20.51272,-97.48219,367,0.6,0.71,2019-09-28,07:12,N,high,1.0NRT,282.1,10.8,N
20.51223,-97.47618,341.3,0.6,0.71,2019-09-28,07:12,N,nominal,1.0NRT,281.3,10.8,N
19.3948,-92.04566,321.4,0.52,0.5,2019-09-28,07:12,N,nominal,1.0NRT,250.8,3.1,N
19.39628,-92.04662,295.4,0.52,0.5,2019-09-28,07:12,N,nominal,1.0NRT,250.7,1,N
19.39568,-92.04162,298.6,0.52,0.5,2019-09-28,07:12,N,nominal,1.0NRT,249.8,1,N
19.39166,-92.04723,310.5,0.52,0.5,2019-09-28,07:12,N,nominal,1.0NRT,249.2,1,N
11.08183,-72.67779,308,0.75,0.77,2019-09-28,07:18,N,nominal,1.0NRT,288.2,4.3,N
11.03406,-72.66125,303.5,0.76,0.77,2019-09-28,07:18,N,nominal,1.0NRT,288.1,1.1,N
11.0853,-72.67911,308.9,0.75,0.77,2019-09-28,07:18,N,nominal,1.0NRT,288.3,2.2,N
11.00298,-72.70834,303.7,0.75,0.77,2019-09-28,07:18,N,nominal,1.0NRT,288.7,1.7,N
11.07847,-72.68172,303.7,0.75,0.77,2019-09-28,07:18,N,nominal,1.0NRT,288.2,2.2,N
10.99954,-72.70766,303,0.75,0.77,2019-09-28,07:18,N,nominal,1.0NRT,288.7,2.9,N
32.12822,-93.39687,367,0.5,0.66,2019-09-28,08:48,N,high,1.0NRT,288.8,18,N
32.12681,-93.3917,300.9,0.5,0.66,2019-09-28,08:48,N,nominal,1.0NRT,287.6,5.2,N
32.31327,-90.13354,302.7,0.75,0.77,2019-09-28,08:48,N,nominal,1.0NRT,290.2,0.5,N
26.88822,-101.45763,308.4,0.45,0.47,2019-09-28,08:54,N,nominal,1.0NRT,289.2,5.3,N
31.40725,-103.02463,315.2,0.48,0.4,2019-09-28,08:54,N,nominal,1.0NRT,292.8,2.1,N
29.62142,-95.06828,343.8,0.47,0.64,2019-09-28,08:54,N,nominal,1.0NRT,289.8,2.1,N
29.62715,-95.06632,310.9,0.47,0.64,2019-09-28,08:54,N,nominal,1.0NRT,289.5,2.1,N
29.71322,-95.23121,305.2,0.45,0.63,2019-09-28,08:54,N,nominal,1.0NRT,289.9,1.2,N
29.72221,-95.12149,303.8,0.46,0.64,2019-09-28,08:54,N,nominal,1.0NRT,289.5,2.6,N
31.49803,-103.1455,310.7,0.47,0.4,2019-09-28,08:54,N,nominal,1.0NRT,289.3,0.7,N
31.55161,-103.4141,297.5,0.46,0.39,2019-09-28,08:54,N,nominal,1.0NRT,275.9,0.7,N
29.74018,-94.99667,315,0.47,0.64,2019-09-28,08:54,N,nominal,1.0NRT,289.7,3.2,N
29.7414,-95.00145,319.2,0.47,0.64,2019-09-28,08:54,N,nominal,1.0NRT,289.7,5.1,N
29.74382,-95.01101,307.3,0.47,0.64,2019-09-28,08:54,N,nominal,1.0NRT,289.4,1.4,N
29.74503,-95.01579,304.9,0.47,0.64,2019-09-28,08:54,N,nominal,1.0NRT,289.7,1.4,N
31.20211,-101.33452,305.1,0.38,0.43,2019-09-28,08:54,N,nominal,1.0NRT,292,1.1,N
29.73949,-95.00033,312.8,0.47,0.64,2019-09-28,08:54,N,nominal,1.0NRT,289.7,2.6,N
29.7432,-95.01463,308.5,0.47,0.64,2019-09-28,08:54,N,nominal,1.0NRT,289.4,2.4,N
29.74522,-94.9984,325.8,0.47,0.64,2019-09-28,08:54,N,nominal,1.0NRT,290.4,2.6,N
31.26732,-101.41093,303.2,0.57,0.43,2019-09-28,08:54,N,nominal,1.0NRT,292.8,0.8,N
31.77035,-104.01531,296.5,0.43,0.38,2019-09-28,08:54,N,nominal,1.0NRT,278.5,1.3,N
31.36129,-101.78037,306.8,0.54,0.42,2019-09-28,08:54,N,nominal,1.0NRT,293,1.3,N
31.4409,-102.18792,317.3,0.52,0.41,2019-09-28,08:54,N,nominal,1.0NRT,293.6,1.5,N
31.36512,-101.77933,316.9,0.54,0.42,2019-09-28,08:54,N,nominal,1.0NRT,294.1,1.8,N
31.52442,-101.76267,317.8,0.54,0.42,2019-09-28,08:54,N,nominal,1.0NRT,293.1,1.8,N
33.00047,-110.77013,307.6,0.48,0.4,2019-09-28,08:54,N,nominal,1.0NRT,290.3,1.3,N
32.06404,-104.3604,304.7,0.42,0.38,2019-09-28,08:54,N,nominal,1.0NRT,286.9,0.6,N
31.58379,-101.67508,306.4,0.55,0.42,2019-09-28,08:54,N,nominal,1.0NRT,292.4,1,N
31.58366,-101.6743,312.1,0.54,0.42,2019-09-28,08:54,N,nominal,1.0NRT,292.6,1.2,N
31.75005,-102.47248,302.8,0.5,0.41,2019-09-28,08:54,N,nominal,1.0NRT,291.9,0.4,N
31.67368,-101.94357,306.4,0.53,0.42,2019-09-28,08:54,N,nominal,1.0NRT,292.6,1.7,N
31.68394,-101.93501,309.3,0.53,0.42,2019-09-28,08:54,N,nominal,1.0NRT,292.9,0.9,N
31.70285,-101.88933,305.2,0.53,0.42,2019-09-28,08:54,N,nominal,1.0NRT,293.1,0.8,N
29.88838,-93.96541,305.5,0.53,0.67,2019-09-28,08:54,N,nominal,1.0NRT,289.9,1.7,N
31.7034,-101.87174,313.2,0.53,0.42,2019-09-28,08:54,N,nominal,1.0NRT,292.6,1.3,N
29.887,-93.9649,303.6,0.53,0.67,2019-09-28,08:54,N,nominal,1.0NRT,289.9,2.9,N
32.15258,-104.01397,297.4,0.43,0.38,2019-09-28,08:54,N,nominal,1.0NRT,279.7,1.1,N
30.30266,-95.30692,306.8,0.44,0.62,2019-09-28,08:54,N,nominal,1.0NRT,288.9,1.4,N
31.79257,-101.74651,318.8,0.54,0.42,2019-09-28,08:54,N,nominal,1.0NRT,293.2,1.8,N
32.21328,-103.70843,309.4,0.44,0.38,2019-09-28,08:54,N,nominal,1.0NRT,287.4,1.2,N
30.0696,-94.064,303.7,0.52,0.67,2019-09-28,08:54,N,nominal,1.0NRT,288.7,2.5,N
32.33405,-104.19944,310.4,0.42,0.38,2019-09-28,08:54,N,nominal,1.0NRT,288.4,0.8,N
32.33825,-104.20303,303.3,0.42,0.38,2019-09-28,08:54,N,nominal,1.0NRT,287.2,0.8,N
33.41492,-110.86728,305.6,0.49,0.41,2019-09-28,08:54,N,nominal,1.0NRT,287.4,1.4,N
33.41864,-110.86658,301.3,0.49,0.41,2019-09-28,08:54,N,nominal,1.0NRT,287.9,0.7,N
30.63926,-95.55402,302.1,0.42,0.61,2019-09-28,08:54,N,nominal,1.0NRT,289.3,1.5,N
30.64033,-95.55833,336,0.41,0.61,2019-09-28,08:54,N,nominal,1.0NRT,289.8,4.5,N
30.63684,-95.55538,305.7,0.41,0.61,2019-09-28,08:54,N,nominal,1.0NRT,289.6,1.7,N
30.63794,-95.55967,334.3,0.41,0.61,2019-09-28,08:54,N,nominal,1.0NRT,289.9,4.5,N
32.61387,-104.53101,301.3,0.41,0.37,2019-09-28,08:54,N,nominal,1.0NRT,287.6,0.4,N
32.62023,-104.46625,301.4,0.41,0.37,2019-09-28,08:54,N,nominal,1.0NRT,288,0.4,N
30.17901,-93.32557,306.7,0.57,0.69,2019-09-28,08:54,N,nominal,1.0NRT,290,2.5,N
32.636,-104.47591,298.4,0.41,0.37,2019-09-28,08:54,N,nominal,1.0NRT,287.8,0.3,N
32.57845,-104.1059,298.3,0.42,0.38,2019-09-28,08:54,N,nominal,1.0NRT,287.8,0.4,N
32.63975,-104.45688,306.2,0.41,0.37,2019-09-28,08:54,N,nominal,1.0NRT,288,0.5,N
30.17487,-93.32673,307.2,0.57,0.69,2019-09-28,08:54,N,nominal,1.0NRT,289.7,2.7,N
32.64872,-104.18777,298.7,0.42,0.38,2019-09-28,08:54,N,nominal,1.0NRT,287.6,0.3,N
32.65376,-103.89361,300.8,0.43,0.38,2019-09-28,08:54,N,nominal,1.0NRT,287.7,0.5,N
32.04608,-100.6823,304.7,0.4,0.44,2019-09-28,08:54,N,nominal,1.0NRT,292.3,1.1,N
32.04696,-100.68649,326.1,0.4,0.44,2019-09-28,08:54,N,nominal,1.0NRT,292.8,2,N
32.40623,-101.54649,315.9,0.54,0.42,2019-09-28,08:54,N,nominal,1.0NRT,292.1,1.5,N
31.48149,-97.23974,302,0.32,0.54,2019-09-28,08:54,N,nominal,1.0NRT,291.6,0.3,N
30.32325,-91.23598,302.6,0.73,0.76,2019-09-28,08:54,N,nominal,1.0NRT,289.4,1.6,N
30.74729,-92.25205,304.2,0.63,0.72,2019-09-28,08:54,N,nominal,1.0NRT,290,1,N
30.48555,-91.17865,302.5,0.73,0.76,2019-09-28,08:54,N,nominal,1.0NRT,290.1,2.9,N
32.24558,-97.55181,307.4,0.59,0.53,2019-09-28,08:54,N,nominal,1.0NRT,292.2,1.1,N
31.59842,-94.24328,301.6,0.47,0.64,2019-09-28,08:54,N,nominal,1.0NRT,288.4,0.5,N
32.57478,-97.67947,354.9,0.57,0.52,2019-09-28,08:54,N,nominal,1.0NRT,293.1,19.4,N
19.94782,-101.03635,309,0.33,0.55,2019-09-28,08:54,N,nominal,1.0NRT,277.2,0.9,N
19.95283,-101.03517,307.1,0.33,0.55,2019-09-28,08:54,N,nominal,1.0NRT,277.7,0.9,N
19.9572,-101.03085,299.1,0.33,0.55,2019-09-28,08:54,N,nominal,1.0NRT,277.6,0.7,N
19.95784,-101.03397,299.8,0.33,0.55,2019-09-28,08:54,N,nominal,1.0NRT,277.7,0.7,N
19.17967,-96.23978,301.9,0.68,0.74,2019-09-28,08:54,N,nominal,1.0NRT,277.1,1.2,N
20.05132,-99.28889,307.8,0.42,0.61,2019-09-28,08:54,N,nominal,1.0NRT,281.2,3.6,N
20.04844,-99.28696,297.7,0.42,0.61,2019-09-28,08:54,N,nominal,1.0NRT,281.8,2.1,N
20.04931,-99.29089,299.2,0.42,0.61,2019-09-28,08:54,N,nominal,1.0NRT,281.4,2.2,N
20.52448,-100.92389,299.8,0.33,0.55,2019-09-28,08:54,N,nominal,1.0NRT,278.8,0.6,N
20.57611,-101.16801,309.4,0.63,0.54,2019-09-28,08:54,N,nominal,1.0NRT,283.8,1.4,N
20.57737,-101.17398,296.8,0.63,0.54,2019-09-28,08:54,N,nominal,1.0NRT,284.9,2.9,N
20.57977,-101.1609,299.2,0.63,0.54,2019-09-28,08:54,N,nominal,1.0NRT,283.6,1.4,N
20.41531,-99.01962,297.3,0.43,0.62,2019-09-28,08:54,N,nominal,1.0NRT,281.8,0.6,N
20.41814,-99.02122,295.9,0.43,0.62,2019-09-28,08:54,N,nominal,1.0NRT,281.7,0.9,N
20.51046,-97.47536,317.4,0.53,0.67,2019-09-28,08:54,N,nominal,1.0NRT,277.3,9.6,N
20.51162,-97.48042,335.5,0.53,0.67,2019-09-28,08:54,N,nominal,1.0NRT,276.9,9.6,N
20.51657,-97.47367,336.4,0.53,0.67,2019-09-28,08:54,N,nominal,1.0NRT,278.3,9.6,N
20.51773,-97.47877,367,0.53,0.67,2019-09-28,08:54,N,high,1.0NRT,276.6,9.6,N
20.51479,-97.47269,310.1,0.53,0.67,2019-09-28,08:54,N,nominal,1.0NRT,276.8,11.3,N
20.51716,-97.48281,302.4,0.53,0.67,2019-09-28,08:54,N,nominal,1.0NRT,273,15.2,N
20.51597,-97.47775,367,0.53,0.67,2019-09-28,08:54,N,high,1.0NRT,276.9,15.2,N
21.80721,-98.5675,304.9,0.43,0.62,2019-09-28,08:54,N,nominal,1.0NRT,287.2,0.2,N
22.04582,-98.86793,308.2,0.41,0.6,2019-09-28,08:54,N,nominal,1.0NRT,288.2,0.6,N
22.47319,-100.37654,302.8,0.32,0.55,2019-09-28,08:54,N,nominal,1.0NRT,288.6,1.1,N
22.26122,-97.80216,303.5,0.47,0.64,2019-09-28,08:54,N,nominal,1.0NRT,287.8,4,N
22.26228,-97.80669,304.6,0.47,0.64,2019-09-28,08:54,N,nominal,1.0NRT,287.6,4,N
22.28178,-97.81106,342.9,0.47,0.64,2019-09-28,08:54,N,nominal,1.0NRT,287.7,9.4,N
25.4274,-108.09605,308.3,0.39,0.36,2019-09-28,08:54,N,nominal,1.0NRT,294.6,0.4,N
24.78838,-99.24413,307.2,0.34,0.56,2019-09-28,08:54,N,nominal,1.0NRT,294.2,1.1,N
25.6974,-100.2685,307.5,0.56,0.52,2019-09-28,08:54,N,nominal,1.0NRT,290.7,2.4,N
25.69345,-100.26833,306.6,0.56,0.52,2019-09-28,08:54,N,nominal,1.0NRT,290.3,1.2,N
25.69812,-100.26707,302.6,0.56,0.52,2019-09-28,08:54,N,nominal,1.0NRT,290.6,1.2,N
27.03003,-103.37064,302.8,0.53,0.42,2019-09-28,08:54,N,nominal,1.0NRT,292.4,1.9,N
26.01723,-98.48449,312.1,0.35,0.57,2019-09-28,08:54,N,nominal,1.0NRT,292.4,1.4,N
26.0591,-98.24072,309.2,0.37,0.58,2019-09-28,08:54,N,nominal,1.0NRT,293.2,2.5,N
26.05994,-98.24434,321.4,0.37,0.58,2019-09-28,08:54,N,nominal,1.0NRT,293.8,3.5,N
26.85303,-101.39598,302.5,0.46,0.47,2019-09-28,08:54,N,nominal,1.0NRT,285.7,0.6,N
26.87987,-101.41714,316.5,0.46,0.47,2019-09-28,08:54,N,nominal,1.0NRT,288.5,5,N
26.87893,-101.41261,331.6,0.46,0.47,2019-09-28,08:54,N,nominal,1.0NRT,288.9,3,N
26.88636,-101.4486,341.6,0.45,0.47,2019-09-28,08:54,N,nominal,1.0NRT,290.5,9.2,N
26.88317,-101.41141,330.6,0.46,0.47,2019-09-28,08:54,N,nominal,1.0NRT,288.2,3,N
28.68752,-106.08937,304.2,0.4,0.37,2019-09-28,08:54,N,nominal,1.0NRT,291.1,1.9,N
28.04874,-99.81367,311.6,0.54,0.51,2019-09-28,08:54,N,nominal,1.0NRT,291.1,1.9,N
27.81162,-97.42767,307.8,0.37,0.58,2019-09-28,08:54,N,nominal,1.0NRT,292.9,2.7,N
27.81616,-97.48402,308,0.37,0.58,2019-09-28,08:54,N,nominal,1.0NRT,293.1,2.7,N
27.83123,-97.52338,307.2,0.37,0.58,2019-09-28,08:54,N,nominal,1.0NRT,293.4,2.1,N
28.9486,-101.38599,322.5,0.42,0.45,2019-09-28,08:54,N,nominal,1.0NRT,291.9,2.2,N
28.95267,-101.38479,311.8,0.42,0.45,2019-09-28,08:54,N,nominal,1.0NRT,291.9,1,N
28.96165,-101.38645,307.2,0.42,0.45,2019-09-28,08:54,N,nominal,1.0NRT,291.7,1,N
30.49725,-109.62863,302.9,0.42,0.37,2019-09-28,08:54,N,nominal,1.0NRT,285.4,47.7,N
30.49786,-109.63297,327.1,0.42,0.37,2019-09-28,08:54,N,nominal,1.0NRT,297.2,47.7,N
28.93353,-97.8606,306.2,0.33,0.56,2019-09-28,08:54,N,nominal,1.0NRT,292.7,0.6,N
28.96036,-97.90673,318.1,0.33,0.55,2019-09-28,08:54,N,nominal,1.0NRT,292.6,0.7,N
28.99366,-97.84247,305.6,0.33,0.56,2019-09-28,08:54,N,nominal,1.0NRT,292.6,0.6,N
28.99595,-97.84251,303.6,0.33,0.56,2019-09-28,08:54,N,nominal,1.0NRT,292.5,0.6,N
29.57575,-98.0348,304.5,0.63,0.54,2019-09-28,08:54,N,nominal,1.0NRT,291.3,1.9,N
29.06805,-95.74896,306.7,0.44,0.62,2019-09-28,08:54,N,nominal,1.0NRT,291.2,1.9,N
28.98607,-95.3535,305.6,0.47,0.64,2019-09-28,08:54,N,nominal,1.0NRT,290.3,1.4,N
31.01479,-103.5849,300.4,0.46,0.39,2019-09-28,08:54,N,nominal,1.0NRT,289.8,0.5,N
31.08322,-103.52624,306.6,0.46,0.39,2019-09-28,08:54,N,nominal,1.0NRT,290.4,0.7,N
31.18547,-103.63875,304.6,0.45,0.39,2019-09-28,08:54,N,nominal,1.0NRT,290.8,0.7,N
31.21381,-103.63934,301.7,0.45,0.39,2019-09-28,08:54,N,nominal,1.0NRT,290.2,0.8,N
31.23331,-103.60492,319.9,0.45,0.39,2019-09-28,08:54,N,nominal,1.0NRT,291.5,1.5,N
29.36896,-94.90793,305.5,0.48,0.65,2019-09-28,08:54,N,nominal,1.0NRT,291.5,2,N
29.37148,-94.91781,308.2,0.48,0.65,2019-09-28,08:54,N,nominal,1.0NRT,291.2,1.9,N
29.37648,-94.93742,307.2,0.48,0.65,2019-09-28,08:54,N,nominal,1.0NRT,291.4,1.9,N
29.37266,-94.93752,304.2,0.48,0.65,2019-09-28,08:54,N,nominal,1.0NRT,291,1.2,N
29.37463,-94.9209,306,0.48,0.65,2019-09-28,08:54,N,nominal,1.0NRT,291.2,1.6,N
31.33054,-103.21825,317.2,0.47,0.4,2019-09-28,08:54,N,nominal,1.0NRT,292.5,1.2,N
31.33155,-103.22031,327.4,0.47,0.4,2019-09-28,08:54,N,nominal,1.0NRT,292.9,2.2,N
31.96634,-106.5854,309.4,0.38,0.36,2019-09-28,08:54,N,nominal,1.0NRT,289.4,1.3,N
29.62251,-95.06375,312.7,0.47,0.64,2019-09-28,08:54,N,nominal,1.0NRT,289.1,3,N
29.8151,-95.83107,303.9,0.42,0.61,2019-09-28,08:54,N,nominal,1.0NRT,288.8,1.1,N
29.62373,-95.06855,333.6,0.47,0.64,2019-09-28,08:54,N,nominal,1.0NRT,289.8,4.2,N
31.40818,-103.02598,309.6,0.48,0.4,2019-09-28,08:54,N,nominal,1.0NRT,291.9,1.7,N
10.07723,-64.86234,340.1,0.73,0.76,2019-09-28,16:42,N,nominal,1.0NRT,286.9,6.5,D
7.86039,-63.00063,367,0.61,0.71,2019-09-28,16:42,N,low,1.0NRT,288.1,8.9,D
8.74574,-63.0511,328,0.59,0.7,2019-09-28,16:42,N,nominal,1.0NRT,293.3,7,D
9.22725,-64.05917,343,0.68,0.74,2019-09-28,16:42,N,nominal,1.0NRT,294,12.1,D
9.27279,-64.04202,344.4,0.67,0.74,2019-09-28,16:42,N,nominal,1.0NRT,292.1,10.3,D
9.97733,-63.18366,348.1,0.57,0.69,2019-09-28,16:42,N,nominal,1.0NRT,291.8,7.7,D
10.18366,-63.94037,330.9,0.64,0.72,2019-09-28,16:42,N,nominal,1.0NRT,291.3,6.2,D
10.22195,-63.95625,336.5,0.64,0.72,2019-09-28,16:42,N,nominal,1.0NRT,291.2,9.2,D
10.05729,-64.86959,344.5,0.74,0.76,2019-09-28,16:42,N,nominal,1.0NRT,286.3,13.9,D
10.08079,-64.86128,332.2,0.73,0.76,2019-09-28,16:42,N,nominal,1.0NRT,286.7,7.7,D
10.22429,-63.95867,350.3,0.64,0.72,2019-09-28,16:42,N,nominal,1.0NRT,291.3,9.8,D
10.06055,-64.87264,340.1,0.74,0.76,2019-09-28,16:42,N,nominal,1.0NRT,287.2,12.7,D
7.86149,-62.99482,326.9,0.61,0.71,2019-09-28,16:42,N,nominal,1.0NRT,288,8.9,D
9.27161,-64.04828,345.3,0.67,0.74,2019-09-28,16:42,N,nominal,1.0NRT,292.2,10.3,D
9.22817,-64.06149,367,0.67,0.74,2019-09-28,16:42,N,high,1.0NRT,293.8,16.8,D
9.27388,-64.04427,367,0.67,0.74,2019-09-28,16:42,N,high,1.0NRT,291.9,15.4,D
9.64446,-63.55822,367,0.62,0.71,2019-09-28,16:42,N,high,1.0NRT,293.1,229.8,D
9.64992,-63.52987,336.9,0.61,0.71,2019-09-28,16:42,N,nominal,1.0NRT,292.2,14.5,D
9.64225,-63.56971,347.8,0.62,0.71,2019-09-28,16:42,N,nominal,1.0NRT,291.3,21.5,D
9.65651,-63.53088,367,0.61,0.71,2019-09-28,16:42,N,high,1.0NRT,290.4,14.5,D
9.6248,-63.69588,367,0.63,0.72,2019-09-28,16:42,N,high,1.0NRT,294,42.9,D
9.61918,-63.72506,367,0.63,0.72,2019-09-28,16:42,N,high,1.0NRT,293.5,48.7,D
9.65543,-63.53651,349.2,0.61,0.71,2019-09-28,16:42,N,nominal,1.0NRT,287.6,19,D
9.64888,-63.57067,345.6,0.62,0.71,2019-09-28,16:42,N,nominal,1.0NRT,287.8,21.5,D
9.64778,-63.57639,330.8,0.62,0.71,2019-09-28,16:42,N,nominal,1.0NRT,289.5,21.5,D
9.61806,-63.73086,347.7,0.63,0.72,2019-09-28,16:42,N,nominal,1.0NRT,286,20.8,D
9.84167,-62.62634,326.1,0.53,0.67,2019-09-28,16:42,N,nominal,1.0NRT,289,3,D
9.64152,-63.56123,367,0.61,0.71,2019-09-28,16:42,N,high,1.0NRT,294.2,67.5,D
9.6483,-63.52727,332.2,0.61,0.71,2019-09-28,16:42,N,nominal,1.0NRT,291.6,18.2,D
9.64266,-63.55553,337.4,0.61,0.71,2019-09-28,16:42,N,nominal,1.0NRT,292.6,67.5,D
9.64037,-63.56698,279.4,0.62,0.71,2019-09-28,16:42,N,low,1.0NRT,293,50.8,D
9.65378,-63.53385,367,0.61,0.71,2019-09-28,16:42,N,high,1.0NRT,291.5,23.4,D
9.64586,-63.57364,367,0.62,0.71,2019-09-28,16:42,N,high,1.0NRT,290.9,50.8,D
9.64815,-63.56215,355.5,0.61,0.71,2019-09-28,16:42,N,nominal,1.0NRT,288.5,67.5,D
9.647,-63.56789,352.8,0.62,0.71,2019-09-28,16:42,N,nominal,1.0NRT,289.8,50.8,D
9.62875,-63.69384,367,0.63,0.72,2019-09-28,16:42,N,high,1.0NRT,293,30.1,D
9.83978,-62.62492,333.2,0.53,0.67,2019-09-28,16:42,N,nominal,1.0NRT,289.4,4.9,D
9.62759,-63.69965,348.5,0.63,0.72,2019-09-28,16:42,N,nominal,1.0NRT,291.7,30.1,D
9.62295,-63.72294,345.8,0.63,0.72,2019-09-28,16:42,N,nominal,1.0NRT,291.2,46.6,D
9.70199,-63.53047,335,0.61,0.71,2019-09-28,16:42,N,nominal,1.0NRT,286.8,3.4,D
9.73326,-63.47446,367,0.61,0.71,2019-09-28,16:42,N,high,1.0NRT,294.1,28.2,D
9.77273,-63.27135,332,0.59,0.7,2019-09-28,16:42,N,nominal,1.0NRT,291.7,3.9,D
9.74204,-63.42933,330.5,0.6,0.71,2019-09-28,16:42,N,nominal,1.0NRT,291.3,4.2,D
9.73214,-63.48024,354.1,0.61,0.71,2019-09-28,16:42,N,nominal,1.0NRT,288.9,13.8,D
9.73984,-63.47539,367,0.61,0.71,2019-09-28,16:42,N,high,1.0NRT,291.8,25.6,D
9.85365,-63.3391,354.6,0.59,0.7,2019-09-28,16:42,N,nominal,1.0NRT,292.9,12.5,D
9.9773,-63.1803,330.2,0.57,0.69,2019-09-28,16:42,N,nominal,1.0NRT,291.4,8.3,D
9.97632,-63.18554,326.7,0.57,0.69,2019-09-28,16:42,N,nominal,1.0NRT,291.5,6.8,D
8.24761,-65.60567,332,0.45,0.63,2019-09-28,18:18,N,nominal,1.0NRT,293,3.2,D
8.02223,-66.35355,341.4,0.39,0.6,2019-09-28,18:18,N,nominal,1.0NRT,296.7,4,D
7.69934,-65.11575,333.7,0.47,0.64,2019-09-28,18:18,N,nominal,1.0NRT,293.5,3.3,D
7.66666,-64.16296,330.1,0.55,0.68,2019-09-28,18:18,N,nominal,1.0NRT,292.1,3.5,D
7.67062,-64.16003,330.3,0.55,0.68,2019-09-28,18:18,N,nominal,1.0NRT,291.8,5.3,D
7.11847,-74.18077,333.8,0.4,0.37,2019-09-28,18:18,N,nominal,1.0NRT,288.4,2.5,D
7.10977,-74.02953,333.9,0.41,0.37,2019-09-28,18:18,N,nominal,1.0NRT,295.1,2.5,D
7.33437,-72.50407,330.3,0.47,0.4,2019-09-28,18:18,N,nominal,1.0NRT,296.2,2.3,D
7.36299,-75.31929,330.1,0.39,0.36,2019-09-28,18:24,N,nominal,1.0NRT,297,2.7,D
9.74089,-63.46999,346.8,0.65,0.73,2019-09-28,18:24,N,nominal,1.0NRT,288.6,9,D
9.73557,-63.47004,367,0.65,0.73,2019-09-28,18:24,N,high,1.0NRT,291.2,23.6,D
9.73489,-63.47595,355.8,0.65,0.73,2019-09-28,18:24,N,nominal,1.0NRT,291.7,23.6,D
8.95305,-69.82349,332.4,0.47,0.48,2019-09-28,18:24,N,nominal,1.0NRT,293.8,2.3,D
8.51366,-73.09565,332.5,0.45,0.39,2019-09-28,18:24,N,nominal,1.0NRT,297.5,4.2,D
8.24775,-75.0288,340.1,0.39,0.36,2019-09-28,18:24,N,nominal,1.0NRT,295,4.1,D
9.3434,-67.53963,329.6,0.34,0.56,2019-09-28,18:24,N,nominal,1.0NRT,297.6,1.4,D
9.97875,-63.18135,328.6,0.68,0.74,2019-09-28,18:24,N,nominal,1.0NRT,290.5,3.8,D
8.75408,-72.68764,347.1,0.48,0.4,2019-09-28,18:24,N,nominal,1.0NRT,297.6,33.9,D
9.5208,-68.84177,334.7,0.56,0.51,2019-09-28,18:24,N,nominal,1.0NRT,298.3,5.2,D
10.05695,-64.86585,333.1,0.53,0.67,2019-09-28,18:24,N,nominal,1.0NRT,293.7,13,D
10.05635,-64.87079,352.1,0.53,0.67,2019-09-28,18:24,N,nominal,1.0NRT,295,12.7,D
10.07703,-64.85724,367,0.53,0.67,2019-09-28,18:24,N,high,1.0NRT,292.8,12.2,D
10.08142,-64.85577,330.4,0.53,0.67,2019-09-28,18:24,N,nominal,1.0NRT,292,14.1,D
10.08085,-64.86076,329.5,0.53,0.67,2019-09-28,18:24,N,nominal,1.0NRT,292,12.5,D
10.07681,-64.89545,335.3,0.53,0.67,2019-09-28,18:24,N,nominal,1.0NRT,295.3,13.4,D
9.62712,-69.31181,339,0.52,0.5,2019-09-28,18:24,N,nominal,1.0NRT,296.2,5.2,D
9.62608,-69.31019,330.3,0.52,0.5,2019-09-28,18:24,N,nominal,1.0NRT,296.2,6.7,D
9.50955,-70.43748,341.6,0.44,0.46,2019-09-28,18:24,N,nominal,1.0NRT,291.7,2.8,D
9.46637,-70.94396,340.2,0.41,0.45,2019-09-28,18:24,N,nominal,1.0NRT,297,3.3,D
10.01756,-68.10374,339,0.32,0.55,2019-09-28,18:24,N,nominal,1.0NRT,294.3,2.8,D
9.66005,-70.91341,349.2,0.41,0.45,2019-09-28,18:24,N,nominal,1.0NRT,296.4,8,D
9.72059,-70.49567,340.1,0.44,0.46,2019-09-28,18:24,N,nominal,1.0NRT,298.1,3.8,D
9.69314,-70.76292,344.4,0.42,0.45,2019-09-28,18:24,N,nominal,1.0NRT,295.8,4.9,D
8.97869,-75.76569,339.1,0.39,0.36,2019-09-28,18:24,N,nominal,1.0NRT,302.1,8,D
8.97816,-75.76918,334.4,0.39,0.36,2019-09-28,18:24,N,nominal,1.0NRT,299,8,D
8.98201,-75.76618,331.3,0.39,0.36,2019-09-28,18:24,N,nominal,1.0NRT,300.9,8,D
10.10193,-67.88802,339.2,0.33,0.55,2019-09-28,18:24,N,nominal,1.0NRT,296.6,3.9,D
9.91484,-69.31327,337.3,0.53,0.5,2019-09-28,18:24,N,nominal,1.0NRT,297.3,4.3,D
10.30134,-66.57435,334.5,0.41,0.61,2019-09-28,18:24,N,nominal,1.0NRT,294.1,5.5,D
10.40945,-68.30094,336.6,0.63,0.54,2019-09-28,18:24,N,nominal,1.0NRT,295,6.7,D
9.66846,-73.62077,340.3,0.44,0.38,2019-09-28,18:24,N,nominal,1.0NRT,289.2,11.8,D
9.66788,-73.62478,335.4,0.44,0.38,2019-09-28,18:24,N,nominal,1.0NRT,290.2,6,D
9.672,-73.62129,337,0.44,0.38,2019-09-28,18:24,N,nominal,1.0NRT,290,11.8,D
9.67141,-73.62529,331.8,0.44,0.38,2019-09-28,18:24,N,nominal,1.0NRT,290.4,6,D
10.40939,-68.29796,335,0.63,0.54,2019-09-28,18:24,N,nominal,1.0NRT,294.3,4.4,D
10.15564,-70.51648,335.5,0.44,0.46,2019-09-28,18:24,N,nominal,1.0NRT,300,2.5,D
10.4643,-68.46289,335.8,0.61,0.54,2019-09-28,18:24,N,nominal,1.0NRT,299.1,6.8,D
10.14417,-71.03931,339.6,0.41,0.45,2019-09-28,18:24,N,nominal,1.0NRT,294.5,2.5,D
10.45449,-68.83766,343,0.58,0.52,2019-09-28,18:24,N,nominal,1.0NRT,299.4,12.9,D
10.45134,-68.86125,331.2,0.58,0.52,2019-09-28,18:24,N,nominal,1.0NRT,298.3,3.1,D
10.15501,-71.05207,347.8,0.41,0.45,2019-09-28,18:24,N,nominal,1.0NRT,295,6.7,D
10.15338,-71.05114,342.9,0.41,0.45,2019-09-28,18:24,N,nominal,1.0NRT,295.4,6.7,D
10.45347,-68.83888,356.5,0.58,0.52,2019-09-28,18:24,N,nominal,1.0NRT,298.5,12.2,D
10.46147,-68.85313,356.2,0.58,0.52,2019-09-28,18:24,N,nominal,1.0NRT,302.5,202,D
9.66063,-74.74403,341.7,0.4,0.37,2019-09-28,18:24,N,nominal,1.0NRT,277.2,7.1,D
10.54053,-69.0312,353,0.56,0.52,2019-09-28,18:24,N,nominal,1.0NRT,299.5,10.1,D
10.54071,-69.0295,340.5,0.56,0.52,2019-09-28,18:24,N,nominal,1.0NRT,298.5,5.9,D
10.54013,-69.03409,331.5,0.56,0.52,2019-09-28,18:24,N,nominal,1.0NRT,298.9,5.9,D
10.55918,-68.92236,332.4,0.57,0.52,2019-09-28,18:24,N,nominal,1.0NRT,299.7,4.1,D
10.57835,-68.88702,336.4,0.58,0.52,2019-09-28,18:24,N,nominal,1.0NRT,299.4,4.4,D
10.73319,-68.78302,330.8,0.59,0.53,2019-09-28,18:24,N,nominal,1.0NRT,298.5,8.4,D
10.72095,-69.24427,348.2,0.55,0.51,2019-09-28,18:24,N,nominal,1.0NRT,299.7,13.2,D
10.72552,-69.24586,355.6,0.55,0.51,2019-09-28,18:24,N,nominal,1.0NRT,298.5,13.2,D
10.72241,-69.24303,341.1,0.55,0.51,2019-09-28,18:24,N,nominal,1.0NRT,301.1,16.9,D
10.72172,-69.24847,337.5,0.55,0.51,2019-09-28,18:24,N,nominal,1.0NRT,298.1,16.9,D
10.46621,-72.12818,330.3,0.53,0.42,2019-09-28,18:24,N,nominal,1.0NRT,299.6,2.7,D
10.89957,-69.10895,336.6,0.56,0.52,2019-09-28,18:24,N,nominal,1.0NRT,300.4,2.4,D
10.67281,-70.85352,343.3,0.43,0.46,2019-09-28,18:24,N,nominal,1.0NRT,296.1,5.1,D
10.37531,-73.31183,333.4,0.46,0.39,2019-09-28,18:24,N,nominal,1.0NRT,293.1,2.3,D
10.37596,-73.31163,334.7,0.46,0.39,2019-09-28,18:24,N,nominal,1.0NRT,293.8,2.6,D
10.89095,-69.5614,331.3,0.52,0.5,2019-09-28,18:24,N,nominal,1.0NRT,298.4,1.9,D
10.91831,-69.49458,335.4,0.53,0.5,2019-09-28,18:24,N,nominal,1.0NRT,299.2,4.7,D
10.93314,-69.41566,342.3,0.54,0.51,2019-09-28,18:24,N,nominal,1.0NRT,302.7,10,D
10.93012,-69.47615,346.4,0.53,0.5,2019-09-28,18:24,N,nominal,1.0NRT,301.4,8.3,D
10.93478,-69.47672,351.4,0.53,0.5,2019-09-28,18:24,N,nominal,1.0NRT,300.7,22.3,D
10.97494,-69.35006,337.4,0.54,0.51,2019-09-28,18:24,N,nominal,1.0NRT,301,3.8,D
10.97965,-69.35056,340.2,0.54,0.51,2019-09-28,18:24,N,nominal,1.0NRT,300.3,6.1,D
10.98202,-69.51287,347,0.53,0.5,2019-09-28,18:24,N,nominal,1.0NRT,300.1,7.3,D
11.01061,-69.4405,344.6,0.54,0.5,2019-09-28,18:24,N,nominal,1.0NRT,299.8,6.8,D
10.75316,-71.92552,335.9,0.55,0.43,2019-09-28,18:24,N,nominal,1.0NRT,303.8,5,D
11.1953,-68.70448,342.3,0.6,0.53,2019-09-28,18:24,N,nominal,1.0NRT,298.8,8.6,D
11.20027,-68.70474,338.1,0.6,0.53,2019-09-28,18:24,N,nominal,1.0NRT,298.2,9.5,D
11.08456,-69.58381,340.9,0.52,0.5,2019-09-28,18:24,N,nominal,1.0NRT,296.4,8.6,D
11.19696,-68.70231,340.1,0.6,0.53,2019-09-28,18:24,N,nominal,1.0NRT,298.6,12.3,D
11.0879,-69.5831,330.4,0.53,0.5,2019-09-28,18:24,N,nominal,1.0NRT,295.3,10.1,D
10.88309,-71.82127,339,0.56,0.43,2019-09-28,18:24,N,nominal,1.0NRT,304.8,3.3,D
11.33108,-68.71085,349.5,0.6,0.53,2019-09-28,18:24,N,nominal,1.0NRT,300.5,15.5,D
11.32752,-68.71274,332.5,0.61,0.53,2019-09-28,18:24,N,nominal,1.0NRT,299.8,4.4,D
11.33245,-68.71335,342.4,0.61,0.53,2019-09-28,18:24,N,nominal,1.0NRT,299.5,13.6,D
10.88729,-72.22454,335.1,0.53,0.42,2019-09-28,18:24,N,nominal,1.0NRT,303.2,3.3,D
10.93148,-72.27527,334.3,0.53,0.42,2019-09-28,18:24,N,nominal,1.0NRT,302.4,4.8,D
11.02363,-72.4399,343.5,0.52,0.42,2019-09-28,18:24,N,nominal,1.0NRT,300.7,5.6,D
11.26148,-72.05051,336.2,0.55,0.43,2019-09-28,18:24,N,nominal,1.0NRT,301.1,4.7,D
10.9543,-74.68773,331.1,0.41,0.37,2019-09-28,18:24,N,nominal,1.0NRT,295.9,2,D
11.63144,-70.23402,345.1,0.48,0.48,2019-09-28,18:24,N,nominal,1.0NRT,302.5,4.5,D
11.2553,-73.19335,333,0.48,0.4,2019-09-28,18:24,N,nominal,1.0NRT,301.8,1.9,D
11.25428,-73.1918,335.9,0.48,0.4,2019-09-28,18:24,N,nominal,1.0NRT,303.1,2.7,D
11.21665,-73.83068,340,0.45,0.39,2019-09-28,18:24,N,nominal,1.0NRT,294,10.3,D
11.73876,-70.19632,347.2,0.49,0.48,2019-09-28,18:24,N,nominal,1.0NRT,302.6,13.2,D
11.73819,-70.20063,333.1,0.49,0.48,2019-09-28,18:24,N,nominal,1.0NRT,300.7,13.2,D
13.89161,-85.59918,334,0.62,0.54,2019-09-28,18:24,N,nominal,1.0NRT,279.8,5.7,D
13.8923,-85.60126,331,0.62,0.54,2019-09-28,18:24,N,nominal,1.0NRT,279.5,5.4,D
14.25904,-85.96948,344.4,0.32,0.55,2019-09-28,18:24,N,nominal,1.0NRT,279.1,10,D
14.25796,-85.97504,337.4,0.32,0.55,2019-09-28,18:24,N,nominal,1.0NRT,278.5,7.4,D
14.25849,-85.97228,367,0.32,0.55,2019-09-28,18:24,N,low,1.0NRT,280.3,7.4,D
14.47387,-86.16663,341,0.33,0.55,2019-09-28,18:24,N,nominal,1.0NRT,281,8,D
14.47448,-86.16348,367,0.33,0.55,2019-09-28,18:24,N,low,1.0NRT,282.7,14.5,D
15.61295,-84.73771,343.4,0.51,0.49,2019-09-28,18:24,N,nominal,1.0NRT,293.9,6.4,D
15.61748,-84.73856,327.2,0.51,0.49,2019-09-28,18:24,N,nominal,1.0NRT,292.8,6.4,D
15.40177,-85.95306,334.4,0.62,0.54,2019-09-28,18:24,N,nominal,1.0NRT,275.8,7.5,D
15.48362,-85.90419,329.4,0.61,0.53,2019-09-28,18:24,N,nominal,1.0NRT,279.2,6.2,D
15.72509,-84.79142,340.1,0.51,0.49,2019-09-28,18:24,N,nominal,1.0NRT,292.5,7.1,D
9.73343,-63.47485,367,0.65,0.73,2019-09-28,18:24,N,high,1.0NRT,292,25.7,D
9.73415,-63.46894,367,0.65,0.73,2019-09-28,18:24,N,high,1.0NRT,290.8,33,D
8.99677,-68.83713,333.6,0.55,0.51,2019-09-28,18:24,N,nominal,1.0NRT,296.5,4.5,D
9.65306,-63.63163,349.6,0.63,0.72,2019-09-28,18:24,N,nominal,1.0NRT,292,45,D
9.65375,-63.62583,349.3,0.63,0.72,2019-09-28,18:24,N,nominal,1.0NRT,293.7,45,D
9.65445,-63.61996,367,0.63,0.72,2019-09-28,18:24,N,high,1.0NRT,295.1,82.4,D
9.65408,-63.56554,351.4,0.64,0.72,2019-09-28,18:24,N,nominal,1.0NRT,291.3,28.7,D
9.65479,-63.55955,338.6,0.64,0.72,2019-09-28,18:24,N,nominal,1.0NRT,288.5,52.6,D
9.64668,-63.57039,367,0.64,0.72,2019-09-28,18:24,N,high,1.0NRT,290.5,28.7,D
9.64738,-63.56445,367,0.64,0.72,2019-09-28,18:24,N,high,1.0NRT,290.7,28.7,D
9.62239,-63.71906,342.1,0.62,0.72,2019-09-28,18:24,N,nominal,1.0NRT,289,71.3,D
9.64139,-63.55736,330.6,0.64,0.72,2019-09-28,18:24,N,nominal,1.0NRT,290,57.5,D
8.52591,-72.1491,347.4,0.5,0.41,2019-09-28,18:24,N,nominal,1.0NRT,298.7,11.6,D
9.62403,-63.7281,334.5,0.62,0.71,2019-09-28,18:24,N,nominal,1.0NRT,289.3,15.2,D
9.62476,-63.72227,346.1,0.62,0.72,2019-09-28,18:24,N,nominal,1.0NRT,289.3,15.2,D
9.64335,-63.573,334.1,0.64,0.72,2019-09-28,18:24,N,nominal,1.0NRT,290.8,77.6,D
9.64483,-63.56113,367,0.64,0.72,2019-09-28,18:24,N,high,1.0NRT,294.9,183.4,D
9.61738,-63.72726,347.4,0.62,0.71,2019-09-28,18:24,N,nominal,1.0NRT,289.3,15.2,D
9.61811,-63.7214,367,0.62,0.72,2019-09-28,18:24,N,high,1.0NRT,291.9,15.2,D
9.56138,-63.6311,340.1,0.63,0.72,2019-09-28,18:24,N,nominal,1.0NRT,289.7,2.8,D
9.37637,-64.52111,333.1,0.55,0.68,2019-09-28,18:24,N,nominal,1.0NRT,287.6,6.3,D
8.64564,-69.7535,332.6,0.47,0.48,2019-09-28,18:24,N,nominal,1.0NRT,293.4,3.8,D
8.02321,-73.86398,333.9,0.42,0.38,2019-09-28,18:24,N,nominal,1.0NRT,297.5,3.9,D
9.23052,-64.66972,339.8,0.53,0.67,2019-09-28,18:24,N,nominal,1.0NRT,288.9,4,D
9.27482,-64.0425,342.8,0.59,0.7,2019-09-28,18:24,N,nominal,1.0NRT,291.5,4.8,D
9.22667,-64.05897,352.6,0.58,0.7,2019-09-28,18:24,N,nominal,1.0NRT,291.5,7.9,D
8.0782,-72.86774,330.5,0.46,0.39,2019-09-28,18:24,N,nominal,1.0NRT,288.7,3.6,D
8.01939,-73.0611,335.7,0.45,0.39,2019-09-28,18:24,N,nominal,1.0NRT,292.5,6,D
9.22701,-64.06043,337,0.58,0.7,2019-09-28,18:24,N,nominal,1.0NRT,292,6.9,D
9.22769,-64.05499,332.9,0.58,0.7,2019-09-28,18:24,N,nominal,1.0NRT,289.3,7.3,D
7.83264,-73.377,333,0.43,0.38,2019-09-28,18:24,N,nominal,1.0NRT,294.3,3.1,D
7.76619,-73.80724,330.6,0.42,0.38,2019-09-28,18:24,N,nominal,1.0NRT,295.2,0.7,D
7.47916,-74.83458,339.6,0.39,0.36,2019-09-28,18:24,N,nominal,1.0NRT,293.9,6,D
7.40903,-75.25924,340.3,0.39,0.36,2019-09-28,18:24,N,nominal,1.0NRT,295.2,4.1,D
7.40042,-74.79688,344.1,0.39,0.36,2019-09-28,18:24,N,nominal,1.0NRT,294.3,5.2,D
7.46195,-73.98374,334.7,0.41,0.37,2019-09-28,18:24,N,nominal,1.0NRT,297.6,3.9,D
7.30882,-74.98457,335.3,0.39,0.36,2019-09-28,18:24,N,nominal,1.0NRT,296.4,3.4,D
7.29654,-74.97554,343.1,0.39,0.36,2019-09-28,18:24,N,nominal,1.0NRT,299.1,9.4,D
8.47474,-66.13912,331.4,0.41,0.61,2019-09-28,18:24,N,nominal,1.0NRT,288.1,6.9,D
7.28119,-74.02574,342.3,0.41,0.37,2019-09-28,18:24,N,nominal,1.0NRT,298.3,35,D
7.13684,-74.84006,335.4,0.39,0.36,2019-09-28,18:24,N,nominal,1.0NRT,299.3,2.7,D
8.68864,-63.15206,335.6,0.66,0.73,2019-09-28,18:24,N,nominal,1.0NRT,290.7,6.5,D
7.19921,-74.03932,332,0.41,0.37,2019-09-28,18:24,N,nominal,1.0NRT,295.2,2.4,D
7.11721,-74.56853,331.5,0.39,0.37,2019-09-28,18:24,N,nominal,1.0NRT,290.8,2.2,D
27.88186,-81.81632,336,0.39,0.36,2019-09-28,18:24,N,nominal,1.0NRT,302,5.9,D
27.65803,-81.3881,341.3,0.39,0.36,2019-09-28,18:24,N,nominal,1.0NRT,310.1,7.5,D
27.65864,-81.38419,347.2,0.39,0.36,2019-09-28,18:24,N,nominal,1.0NRT,305.6,8.5,D
27.64993,-81.37443,345.4,0.39,0.36,2019-09-28,18:24,N,nominal,1.0NRT,305.1,4.8,D
27.52476,-81.92525,334.6,0.39,0.36,2019-09-28,18:24,N,nominal,1.0NRT,304.5,3.3,D
27.59541,-80.40458,342.6,0.38,0.36,2019-09-28,18:24,N,nominal,1.0NRT,301.6,3.4,D
27.48063,-80.35899,332.9,0.38,0.36,2019-09-28,18:24,N,nominal,1.0NRT,301.6,1.6,D
27.38855,-80.56468,340.6,0.38,0.36,2019-09-28,18:24,N,nominal,1.0NRT,303.3,3.2,D
27.38525,-80.56406,349.2,0.38,0.36,2019-09-28,18:24,N,nominal,1.0NRT,303.8,9.6,D
26.66155,-78.03321,336.6,0.42,0.38,2019-09-28,18:24,N,nominal,1.0NRT,293.5,1,D
26.65528,-78.05375,338.6,0.42,0.38,2019-09-28,18:24,N,nominal,1.0NRT,298.6,3,D
26.65584,-78.04953,330,0.42,0.38,2019-09-28,18:24,N,nominal,1.0NRT,297.5,3,D
26.65641,-78.0453,342.6,0.42,0.38,2019-09-28,18:24,N,nominal,1.0NRT,297.7,4.3,D
26.65697,-78.04108,347.1,0.42,0.38,2019-09-28,18:24,N,nominal,1.0NRT,299.6,4.3,D
26.65472,-78.05796,367,0.42,0.38,2019-09-28,18:24,N,high,1.0NRT,306.7,21.9,D
23.01077,-82.87716,336.1,0.46,0.39,2019-09-28,18:24,N,nominal,1.0NRT,296.4,4.6,D
22.88565,-80.87,336.6,0.4,0.37,2019-09-28,18:24,N,nominal,1.0NRT,299.3,4.9,D
19.44128,-92.03963,327.9,0.63,0.72,2019-09-28,18:24,N,nominal,1.0NRT,283.4,5.2,D
19.39122,-92.04606,341.3,0.63,0.72,2019-09-28,18:24,N,nominal,1.0NRT,281.1,11.3,D
19.8115,-72.95441,341,0.42,0.45,2019-09-28,18:24,N,nominal,1.0NRT,293.4,3,D
19.26736,-69.8353,335.9,0.32,0.55,2019-09-28,18:24,N,nominal,1.0NRT,288.4,2.4,D
19.17231,-70.21262,333.4,0.61,0.53,2019-09-28,18:24,N,nominal,1.0NRT,287.3,7.5,D
19.26279,-69.3027,367,0.35,0.57,2019-09-28,18:24,N,high,1.0NRT,291.8,12.1,D
18.92825,-69.20677,333.5,0.35,0.57,2019-09-28,18:24,N,nominal,1.0NRT,289.6,2.6,D
18.9286,-69.20333,331,0.35,0.57,2019-09-28,18:24,N,nominal,1.0NRT,289.4,2.6,D
18.83603,-69.42949,328.1,0.34,0.56,2019-09-28,18:24,N,nominal,1.0NRT,289.1,2.3,D
18.31927,-71.25741,329.6,0.51,0.49,2019-09-28,18:24,N,nominal,1.0NRT,292.4,3.3,D
15.68478,-86.59033,348.5,0.34,0.56,2019-09-28,18:24,N,nominal,1.0NRT,294,5.5,D
15.69741,-86.49976,325.4,0.33,0.55,2019-09-28,18:24,N,nominal,1.0NRT,292.7,1.1,D
15.94416,-85.07994,355.5,0.53,0.5,2019-09-28,18:24,N,nominal,1.0NRT,290.7,13.2,D
15.94456,-85.08229,336,0.53,0.5,2019-09-28,18:24,N,nominal,1.0NRT,289.9,5.1,D
15.94548,-85.07735,326.8,0.53,0.5,2019-09-28,18:24,N,nominal,1.0NRT,288.7,5.1,D
15.94092,-85.07626,331.2,0.53,0.5,2019-09-28,18:24,N,nominal,1.0NRT,289.6,5.1,D
15.82393,-84.79446,336.1,0.51,0.49,2019-09-28,18:24,N,nominal,1.0NRT,293.2,4.2,D
8.75775,-72.68816,341.3,0.48,0.4,2019-09-28,18:24,N,nominal,1.0NRT,303.4,98,D
9.238,-69.39773,343.8,0.51,0.49,2019-09-28,18:24,N,nominal,1.0NRT,294.4,9.8,D
9.0388,-71.9809,339.9,0.52,0.42,2019-09-28,18:24,N,nominal,1.0NRT,297.2,5.1,D
9.49787,-68.8313,335.2,0.56,0.51,2019-09-28,18:24,N,nominal,1.0NRT,296.9,5.7,D
9.0562,-71.96873,331.5,0.52,0.42,2019-09-28,18:24,N,nominal,1.0NRT,296.8,2.3,D
8.942,-72.85728,337.8,0.47,0.4,2019-09-28,18:24,N,nominal,1.0NRT,293.3,38.3,D
8.91812,-73.02671,333.8,0.46,0.39,2019-09-28,18:24,N,nominal,1.0NRT,291,4.5,D
30.85062,-92.84163,338.6,0.39,0.6,2019-09-28,18:30,N,nominal,1.0NRT,296.2,4.8,D
27.85883,-82.60323,337.6,0.41,0.37,2019-09-28,18:30,N,nominal,1.0NRT,306.4,4.4,D
28.05866,-82.11006,335.4,0.39,0.37,2019-09-28,18:30,N,nominal,1.0NRT,305.2,2.1,D
28.31094,-82.51836,336.3,0.4,0.37,2019-09-28,18:30,N,nominal,1.0NRT,304.3,2.6,D
28.73587,-81.99099,331.3,0.39,0.36,2019-09-28,18:30,N,low,1.0NRT,306.1,2.7,D
28.73524,-81.99496,332.7,0.39,0.36,2019-09-28,18:30,N,low,1.0NRT,306.8,2.7,D
29.85113,-82.35448,338.9,0.39,0.36,2019-09-28,18:30,N,nominal,1.0NRT,293.8,2.8,D
30.11243,-82.18403,333.2,0.39,0.36,2019-09-28,18:30,N,nominal,1.0NRT,300.5,4.3,D
30.24889,-83.12029,349.3,0.4,0.37,2019-09-28,18:30,N,nominal,1.0NRT,304.5,6.7,D
31.05389,-81.73214,346.2,0.38,0.36,2019-09-28,18:30,N,nominal,1.0NRT,303.4,12.3,D
30.69138,-85.0487,352,0.46,0.39,2019-09-28,18:30,N,nominal,1.0NRT,305.5,12.4,D
30.69493,-85.04955,333.9,0.46,0.39,2019-09-28,18:30,N,nominal,1.0NRT,299.8,5.7,D
31.3553,-82.47471,335.4,0.39,0.36,2019-09-28,18:30,N,nominal,1.0NRT,307.8,3,D
31.24117,-83.43677,332.3,0.4,0.37,2019-09-28,18:30,N,nominal,1.0NRT,298.3,4,D
31.90032,-81.57398,340.4,0.38,0.36,2019-09-28,18:30,N,nominal,1.0NRT,302.6,3.3,D
31.91202,-81.72242,333.5,0.38,0.36,2019-09-28,18:30,N,nominal,1.0NRT,300.2,3.2,D
31.91043,-81.75546,345.8,0.38,0.36,2019-09-28,18:30,N,nominal,1.0NRT,303.7,6.9,D
29.86215,-92.28442,329.5,0.38,0.59,2019-09-28,18:30,N,nominal,1.0NRT,297.5,2.8,D
32.03858,-81.6479,342.2,0.38,0.36,2019-09-28,18:30,N,nominal,1.0NRT,304.3,6.1,D
31.58684,-84.75701,335,0.43,0.38,2019-09-28,18:30,N,nominal,1.0NRT,300.3,6,D
30.1289,-91.80974,367,0.36,0.57,2019-09-28,18:30,N,high,1.0NRT,297.7,8.5,D
30.29487,-91.29224,342.3,0.33,0.55,2019-09-28,18:30,N,nominal,1.0NRT,295.3,2.7,D
30.20011,-91.74229,339.9,0.35,0.57,2019-09-28,18:30,N,nominal,1.0NRT,296.5,4,D
30.40455,-91.43309,367,0.33,0.56,2019-09-28,18:30,N,high,1.0NRT,295.5,20.6,D
31.15263,-87.98666,339.7,0.41,0.45,2019-09-28,18:30,N,nominal,1.0NRT,298.1,5.2,D
30.40375,-91.43652,351.7,0.33,0.56,2019-09-28,18:30,N,nominal,1.0NRT,298.4,20.8,D
30.48254,-91.31663,367,0.33,0.55,2019-09-28,18:30,N,high,1.0NRT,297.6,6.5,D
29.62468,-95.07321,343.3,0.56,0.69,2019-09-28,18:30,N,nominal,1.0NRT,294.1,5.5,D
32.38873,-81.83979,330.3,0.38,0.36,2019-09-28,18:30,N,low,1.0NRT,303.5,3.9,D
32.46439,-81.51516,332,0.39,0.36,2019-09-28,18:30,N,low,1.0NRT,303.9,2.7,D
30.79672,-90.54455,367,0.58,0.52,2019-09-28,18:30,N,high,1.0NRT,302.4,33,D
30.79537,-90.55054,339.1,0.58,0.52,2019-09-28,18:30,N,nominal,1.0NRT,298.7,11.7,D
30.80144,-90.54599,346.6,0.58,0.52,2019-09-28,18:30,N,nominal,1.0NRT,317,240.3,D
31.82066,-88.51409,343.7,0.43,0.46,2019-09-28,18:30,N,nominal,1.0NRT,296.3,16.8,D
31.43488,-89.75827,342.1,0.51,0.49,2019-09-28,18:30,N,nominal,1.0NRT,294.8,8.1,D
32.4761,-84.1134,334.8,0.41,0.37,2019-09-28,18:30,N,nominal,1.0NRT,299.2,6.3,D
33.01367,-79.88631,334.3,0.41,0.37,2019-09-28,18:30,N,nominal,1.0NRT,293.5,3.7,D
30.72632,-91.50294,352,0.33,0.55,2019-09-28,18:30,N,nominal,1.0NRT,297.2,36.3,D
30.72795,-91.49613,332.9,0.33,0.55,2019-09-28,18:30,N,nominal,1.0NRT,296.3,55,D
30.4076,-92.4232,333,0.38,0.59,2019-09-28,18:30,N,nominal,1.0NRT,299.7,8.7,D
30.41289,-92.42489,345,0.38,0.59,2019-09-28,18:30,N,nominal,1.0NRT,296.8,8.7,D
30.41195,-92.42879,356.7,0.38,0.59,2019-09-28,18:30,N,nominal,1.0NRT,300.4,8.7,D
30.40836,-92.42585,367,0.38,0.59,2019-09-28,18:30,N,high,1.0NRT,300.3,12.4,D
30.41365,-92.42753,367,0.38,0.59,2019-09-28,18:30,N,high,1.0NRT,297.8,13.6,D
30.41269,-92.43142,333.2,0.38,0.59,2019-09-28,18:30,N,nominal,1.0NRT,297.7,7.2,D
30.25908,-93.28645,367,0.43,0.62,2019-09-28,18:30,N,high,1.0NRT,299.3,30,D
30.72433,-91.49754,367,0.33,0.55,2019-09-28,18:30,N,high,1.0NRT,302.5,51.5,D
30.72354,-91.50095,353,0.33,0.55,2019-09-28,18:30,N,nominal,1.0NRT,295.9,32.1,D
30.72932,-91.49908,367,0.33,0.55,2019-09-28,18:30,N,high,1.0NRT,300.9,51.5,D
30.72853,-91.5025,337.8,0.33,0.55,2019-09-28,18:30,N,nominal,1.0NRT,296.5,32.1,D
32.59007,-81.83038,335,0.38,0.36,2019-09-28,18:30,N,nominal,1.0NRT,301.3,3.1,D
33.35757,-94.35943,354.4,0.42,0.61,2019-09-28,18:30,N,nominal,1.0NRT,291.5,7.2,D
33.35872,-94.35503,344.4,0.42,0.61,2019-09-28,18:30,N,nominal,1.0NRT,289.4,7.2,D
30.72713,-91.49953,367,0.33,0.55,2019-09-28,18:30,N,high,1.0NRT,312.4,55,D
33.35434,-94.35682,367,0.42,0.61,2019-09-28,18:30,N,high,1.0NRT,291.3,5.1,D
33.36631,-91.34542,354.9,0.57,0.52,2019-09-28,18:30,N,nominal,1.0NRT,300.3,29.5,D
33.36165,-91.34391,344.8,0.57,0.52,2019-09-28,18:30,N,nominal,1.0NRT,300.6,29.5,D
32.42973,-94.04446,338.9,0.42,0.61,2019-09-28,18:30,N,nominal,1.0NRT,292.8,10.5,D
32.4231,-94.04693,330.1,0.42,0.61,2019-09-28,18:30,N,nominal,1.0NRT,292.9,10.5,D
32.42541,-94.03806,331.1,0.42,0.61,2019-09-28,18:30,N,nominal,1.0NRT,294,20.3,D
32.42426,-94.04248,367,0.42,0.61,2019-09-28,18:30,N,high,1.0NRT,300.2,10.5,D
32.4267,-94.04626,327.6,0.42,0.61,2019-09-28,18:30,N,nominal,1.0NRT,292.9,9.2,D
32.42784,-94.04179,367,0.42,0.61,2019-09-28,18:30,N,high,1.0NRT,295.4,18,D
32.42123,-94.04427,367,0.42,0.61,2019-09-28,18:30,N,high,1.0NRT,295.1,9.2,D
32.42237,-94.03979,367,0.42,0.61,2019-09-28,18:30,N,high,1.0NRT,298,18,D
32.13011,-93.39706,348.3,0.39,0.6,2019-09-28,18:30,N,nominal,1.0NRT,293.4,11.9,D
32.12905,-93.40134,367,0.39,0.6,2019-09-28,18:30,N,high,1.0NRT,293.8,11.2,D
32.37651,-91.78489,336.9,0.63,0.54,2019-09-28,18:30,N,nominal,1.0NRT,300.7,11.4,D
31.76636,-94.04121,332.6,0.44,0.62,2019-09-28,18:30,N,nominal,1.0NRT,288.8,7.6,D
31.76081,-94.03922,367,0.44,0.62,2019-09-28,18:30,N,low,1.0NRT,289.8,7.6,D
31.76536,-94.04145,349.6,0.44,0.62,2019-09-28,18:30,N,nominal,1.0NRT,288.7,7.8,D
31.7598,-94.03943,342.9,0.44,0.62,2019-09-28,18:30,N,nominal,1.0NRT,287.8,7.8,D
32.76878,-87.55035,334.3,0.55,0.43,2019-09-28,18:30,N,nominal,1.0NRT,299.4,5.2,D
33.03386,-84.95999,330.4,0.43,0.38,2019-09-28,18:30,N,nominal,1.0NRT,300.3,4.3,D
31.48653,-92.41974,335.6,0.36,0.57,2019-09-28,18:30,N,nominal,1.0NRT,296.3,4.2,D
33.41605,-81.89791,330.6,0.38,0.36,2019-09-28,18:30,N,low,1.0NRT,305.5,3.9,D
33.49533,-80.94854,331.9,0.39,0.36,2019-09-28,18:30,N,nominal,1.0NRT,298.4,2.2,D
30.85139,-92.84154,335.4,0.39,0.59,2019-09-28,18:30,N,nominal,1.0NRT,295.8,4,D
32.67183,-84.09867,339.7,0.41,0.37,2019-09-28,18:30,N,nominal,1.0NRT,300.2,3.7,D
25.07769,-111.82497,341.4,0.44,0.46,2019-09-28,20:06,N,nominal,1.0NRT,309.9,6,D
19.67413,-103.37661,329.6,0.39,0.36,2019-09-28,20:06,N,nominal,1.0NRT,288.4,3,D
19.42962,-92.07726,342.8,0.52,0.67,2019-09-28,20:06,N,nominal,1.0NRT,283.9,6.3,D
19.39493,-92.04324,336,0.52,0.67,2019-09-28,20:06,N,nominal,1.0NRT,282.7,8.1,D
25.72051,-100.3063,331.2,0.57,0.43,2019-09-28,20:06,N,low,1.0NRT,305.3,5.8,D
23.88108,-99.14912,348.7,0.42,0.45,2019-09-28,20:06,N,nominal,1.0NRT,291.3,9.3,D
23.88346,-99.15413,333.8,0.42,0.45,2019-09-28,20:06,N,nominal,1.0NRT,283.8,3.7,D
23.88394,-99.14999,367,0.42,0.45,2019-09-28,20:06,N,high,1.0NRT,293,25.2,D
22.98307,-99.13573,340.7,0.41,0.45,2019-09-28,20:06,N,nominal,1.0NRT,295.9,6.4,D
22.92632,-98.99689,332.6,0.41,0.45,2019-09-28,20:06,N,nominal,1.0NRT,296.1,1.4,D
22.92681,-98.99282,330.7,0.41,0.45,2019-09-28,20:06,N,nominal,1.0NRT,296.4,1.5,D
22.73486,-97.86597,337.4,0.48,0.48,2019-09-28,20:06,N,nominal,1.0NRT,281.6,4.5,D
22.73632,-97.86772,333.9,0.48,0.48,2019-09-28,20:06,N,nominal,1.0NRT,281.5,4.4,D
22.39085,-98.56264,341.7,0.43,0.46,2019-09-28,20:06,N,nominal,1.0NRT,289.1,7.8,D
22.1268,-99.40633,334.9,0.38,0.43,2019-09-28,20:06,N,nominal,1.0NRT,293.2,3.7,D
25.74575,-103.01958,340.8,0.43,0.38,2019-09-28,20:06,N,nominal,1.0NRT,301.2,5,D
25.88417,-102.9579,342,0.43,0.38,2019-09-28,20:06,N,nominal,1.0NRT,311.3,22.6,D
25.21999,-107.62094,333.6,0.42,0.37,2019-09-28,20:06,N,nominal,1.0NRT,302.9,5,D
26.70585,-98.44674,340.1,0.5,0.49,2019-09-28,20:06,N,nominal,1.0NRT,294.2,7.7,D
25.41481,-108.33112,339,0.44,0.38,2019-09-28,20:06,N,low,1.0NRT,310.9,6.6,D
25.45876,-108.26456,338.3,0.43,0.38,2019-09-28,20:06,N,low,1.0NRT,309.4,7.2,D
25.07941,-111.81635,344.8,0.44,0.46,2019-09-28,20:06,N,nominal,1.0NRT,309.1,5.1,D
21.87704,-97.95178,332.6,0.47,0.47,2019-09-28,20:06,N,nominal,1.0NRT,270.2,3.8,D
25.07682,-111.82927,336.3,0.44,0.46,2019-09-28,20:06,N,low,1.0NRT,309.1,3.9,D
25.7275,-108.78807,342.4,0.45,0.39,2019-09-28,20:06,N,nominal,1.0NRT,307.2,3.1,D
25.80526,-108.54711,349.7,0.44,0.38,2019-09-28,20:06,N,nominal,1.0NRT,312.1,9.2,D
26.87955,-101.41304,334.4,0.51,0.41,2019-09-28,20:06,N,nominal,1.0NRT,301.2,4.8,D
26.88335,-101.41355,335.5,0.51,0.41,2019-09-28,20:06,N,nominal,1.0NRT,301.5,6.8,D
26.88656,-101.45061,339,0.51,0.41,2019-09-28,20:06,N,nominal,1.0NRT,302,5.3,D
26.18686,-109.00014,349.3,0.45,0.39,2019-09-28,20:06,N,nominal,1.0NRT,311.1,7.8,D
26.23659,-108.96874,333,0.45,0.39,2019-09-28,20:06,N,low,1.0NRT,307.3,8,D
26.23581,-108.97325,349.5,0.45,0.39,2019-09-28,20:06,N,nominal,1.0NRT,314.3,14.8,D
26.23502,-108.97776,345.2,0.45,0.39,2019-09-28,20:06,N,nominal,1.0NRT,310.4,14.8,D
26.23857,-108.97852,367,0.45,0.39,2019-09-28,20:06,N,high,1.0NRT,312.7,14.8,D
26.23935,-108.97401,352.8,0.45,0.39,2019-09-28,20:06,N,nominal,1.0NRT,311.4,14.8,D
26.46381,-109.0197,344,0.45,0.39,2019-09-28,20:06,N,nominal,1.0NRT,309.9,4.6,D
28.43377,-99.85239,339.3,0.43,0.46,2019-09-28,20:06,N,nominal,1.0NRT,301.4,3.7,D
27.10982,-109.90833,345.4,0.48,0.4,2019-09-28,20:06,N,nominal,1.0NRT,310.4,3.6,D
27.11436,-109.9043,334.5,0.48,0.4,2019-09-28,20:06,N,low,1.0NRT,309.2,7.5,D
27.11348,-109.90914,343.6,0.48,0.4,2019-09-28,20:06,N,nominal,1.0NRT,314.4,7.5,D
28.94733,-101.38215,335.6,0.54,0.42,2019-09-28,20:06,N,nominal,1.0NRT,300.2,14,D
28.94668,-101.38779,345.6,0.54,0.42,2019-09-28,20:06,N,nominal,1.0NRT,302.4,14,D
28.95123,-101.38267,340.2,0.54,0.42,2019-09-28,20:06,N,nominal,1.0NRT,300.5,14,D
28.95058,-101.38826,338.6,0.54,0.42,2019-09-28,20:06,N,nominal,1.0NRT,298.7,14,D
29.74519,-95.00015,342.3,0.43,0.62,2019-09-28,20:06,N,nominal,1.0NRT,297.5,5.8,D
29.57602,-98.03275,335.8,0.57,0.52,2019-09-28,20:06,N,nominal,1.0NRT,294.2,5.1,D
30.02724,-92.63024,329,0.61,0.71,2019-09-28,20:06,N,nominal,1.0NRT,293.1,1.7,D
30.11855,-91.07424,329.7,0.75,0.77,2019-09-28,20:06,N,nominal,1.0NRT,291.3,6,D
30.26112,-93.2887,367,0.56,0.68,2019-09-28,20:06,N,high,1.0NRT,294.5,16.3,D
30.16965,-95.18176,347.7,0.43,0.62,2019-09-28,20:06,N,nominal,1.0NRT,297.1,5.6,D
30.36164,-91.91919,367,0.67,0.74,2019-09-28,20:06,N,high,1.0NRT,293.5,16.6,D
30.26287,-93.2849,339.6,0.56,0.69,2019-09-28,20:06,N,nominal,1.0NRT,293.1,13.3,D
30.26259,-93.29087,346,0.56,0.68,2019-09-28,20:06,N,nominal,1.0NRT,293.6,11.5,D
30.17081,-95.18073,340.8,0.43,0.62,2019-09-28,20:06,N,nominal,1.0NRT,296.4,3.8,D
30.38123,-90.71339,328.1,0.79,0.78,2019-09-28,20:06,N,nominal,1.0NRT,291.3,6.6,D
30.36177,-91.92031,367,0.67,0.74,2019-09-28,20:06,N,high,1.0NRT,294.1,24.3,D
28.30904,-110.62997,331.1,0.5,0.41,2019-09-28,20:06,N,low,1.0NRT,305.3,2,D
30.30168,-95.30989,333.1,0.42,0.61,2019-09-28,20:06,N,nominal,1.0NRT,289.7,3.1,D
30.70205,-91.54769,367,0.71,0.75,2019-09-28,20:06,N,high,1.0NRT,290.4,27.9,D
30.70173,-91.55545,334.6,0.71,0.75,2019-09-28,20:06,N,nominal,1.0NRT,290.1,15.6,D
30.69902,-91.54973,367,0.71,0.75,2019-09-28,20:06,N,high,1.0NRT,292.2,29.1,D
25.71719,-100.30005,336.9,0.57,0.43,2019-09-28,20:06,N,nominal,1.0NRT,304.3,4.6,D
25.93074,-98.01728,341,0.52,0.5,2019-09-28,20:06,N,nominal,1.0NRT,293.1,10.2,D
25.93099,-98.02004,340.9,0.52,0.5,2019-09-28,20:06,N,nominal,1.0NRT,292.8,8,D
25.92638,-98.0195,340.6,0.52,0.5,2019-09-28,20:06,N,nominal,1.0NRT,293.3,8,D
25.27086,-102.18876,345,0.45,0.39,2019-09-28,20:06,N,nominal,1.0NRT,311.8,17.7,D
24.49678,-104.12872,331.2,0.39,0.36,2019-09-28,20:06,N,low,1.0NRT,302.5,2.3,D
23.8848,-99.15381,340.9,0.42,0.45,2019-09-28,20:06,N,nominal,1.0NRT,290.8,6.8,D
23.88526,-99.14965,367,0.42,0.45,2019-09-28,20:06,N,high,1.0NRT,290.9,15.1,D
30.73532,-112.44411,344.8,0.56,0.43,2019-09-28,20:12,N,nominal,1.0NRT,311.8,9.8,D
30.73397,-112.44475,337.1,0.56,0.43,2019-09-28,20:12,N,low,1.0NRT,310.7,4.6,D
32.55123,-115.32085,346,0.49,0.49,2019-09-28,20:12,N,nominal,1.0NRT,310.8,4.2,D
30.73671,-112.4516,337,0.56,0.43,2019-09-28,20:12,N,low,1.0NRT,310.3,4.6,D
33.15018,-94.29505,353.6,0.51,0.66,2019-09-28,20:12,N,nominal,1.0NRT,289.3,22.4,D
33.15046,-94.28943,367,0.51,0.66,2019-09-28,20:12,N,low,1.0NRT,288.4,22.4,D
33.149,-94.29166,357.3,0.51,0.66,2019-09-28,20:12,N,nominal,1.0NRT,288.4,9.6,D
33.1552,-94.29218,367,0.51,0.66,2019-09-28,20:12,N,low,1.0NRT,289.2,30,D
33.35347,-91.35864,350.6,0.75,0.77,2019-09-28,20:12,N,nominal,1.0NRT,291.7,9.8,D
33.36069,-91.35878,340.2,0.75,0.77,2019-09-28,20:12,N,nominal,1.0NRT,287.6,9.8,D
33.35482,-91.36034,367,0.76,0.77,2019-09-28,20:12,N,high,1.0NRT,291.1,16.4,D
32.71799,-104.44381,338.6,0.44,0.38,2019-09-28,20:12,N,nominal,1.0NRT,304.2,2.5,D
32.81175,-104.04498,336.8,0.45,0.39,2019-09-28,20:12,N,nominal,1.0NRT,299.3,4.8,D
31.31646,-116.21896,333.2,0.59,0.53,2019-09-28,20:12,N,nominal,1.0NRT,301.9,3.7,D
32.89335,-109.76492,337.4,0.41,0.37,2019-09-28,20:12,N,nominal,1.0NRT,309.7,3.1,D
32.50122,-114.88143,339.5,0.47,0.48,2019-09-28,20:12,N,low,1.0NRT,311.7,4.8,D
32.51021,-115.1972,344.8,0.49,0.48,2019-09-28,20:12,N,nominal,1.0NRT,309.4,7.8,D
29.04024,-111.49196,339.2,0.54,0.42,2019-09-28,20:12,N,nominal,1.0NRT,308.7,9.1,D
31.36537,-101.77385,335.9,0.55,0.43,2019-09-28,20:12,N,nominal,1.0NRT,300.3,3.9,D
31.2351,-103.60861,338.9,0.45,0.39,2019-09-28,20:12,N,nominal,1.0NRT,306.5,1.4,D
31.72229,-103.57269,338.6,0.46,0.39,2019-09-28,20:12,N,nominal,1.0NRT,306.4,4.2,D
31.71191,-103.8643,336,0.45,0.39,2019-09-28,20:12,N,nominal,1.0NRT,303,2.1,D
32.21181,-101.93299,336.9,0.55,0.43,2019-09-28,20:12,N,nominal,1.0NRT,295.5,12.5,D
32.00273,-104.0009,335.1,0.44,0.39,2019-09-28,20:12,N,nominal,1.0NRT,301.8,1.9,D
