latitude,longitude,bright_ti4,scan,track,acq_date,acq_time,satellite,confidence,version,bright_ti5,frp,daynight
9.65269,-63.63426,330.9,0.5,0.49,2019-09-13,05:18,N,nominal,1.0NRT,286.7,3.6,N
11.96856,-70.02129,325.3,0.72,0.75,2019-09-13,05:18,N,nominal,1.0NRT,289.5,4.6,N
11.96778,-70.0139,320,0.72,0.75,2019-09-13,05:18,N,nominal,1.0NRT,289.1,5.5,N
11.96931,-70.02852,306.3,0.72,0.75,2019-09-13,05:18,N,nominal,1.0NRT,289.4,4.6,N
11.96146,-70.02165,320.5,0.72,0.75,2019-09-13,05:18,N,nominal,1.0NRT,289,4.6,N
11.9607,-70.01431,330.9,0.72,0.75,2019-09-13,05:18,N,nominal,1.0NRT,288.9,5.5,N
11.96224,-70.02911,308.6,0.72,0.75,2019-09-13,05:18,N,nominal,1.0NRT,289.5,4.6,N
11.96482,-70.0266,320.5,0.72,0.75,2019-09-13,05:18,N,nominal,1.0NRT,289.3,12,N
11.96399,-70.0192,343.3,0.72,0.75,2019-09-13,05:18,N,nominal,1.0NRT,289.8,9.6,N
11.96318,-70.01189,332,0.71,0.75,2019-09-13,05:18,N,nominal,1.0NRT,289.1,9.6,N
11.74003,-70.20802,320.9,0.73,0.76,2019-09-13,05:18,N,nominal,1.0NRT,289.8,13.4,N
11.73925,-70.20094,355.1,0.73,0.76,2019-09-13,05:18,N,nominal,1.0NRT,289.8,14.5,N
11.73597,-70.23689,305.7,0.73,0.76,2019-09-13,05:18,N,nominal,1.0NRT,289.7,2.7,N
11.7352,-70.22982,311.8,0.73,0.76,2019-09-13,05:18,N,nominal,1.0NRT,289.9,2.2,N
11.64352,-70.15216,305.5,0.72,0.76,2019-09-13,05:18,N,nominal,1.0NRT,290.1,2,N
11.63066,-70.23107,313.5,0.73,0.76,2019-09-13,05:18,N,nominal,1.0NRT,289.8,3.1,N
11.62359,-70.23222,309.6,0.73,0.76,2019-09-13,05:18,N,nominal,1.0NRT,289.3,3.1,N
11.62282,-70.22514,317.6,0.73,0.76,2019-09-13,05:18,N,nominal,1.0NRT,289.9,4.4,N
11.62706,-70.22903,309.9,0.73,0.76,2019-09-13,05:18,N,nominal,1.0NRT,289.8,3.3,N
11.62,-70.23019,317.3,0.73,0.76,2019-09-13,05:18,N,nominal,1.0NRT,289.6,3.3,N
10.56063,-62.31115,309.8,0.42,0.45,2019-09-13,05:18,N,nominal,1.0NRT,291.3,2,N
10.39244,-61.48174,308.6,0.56,0.43,2019-09-13,05:18,N,nominal,1.0NRT,293.5,1.7,N
10.18781,-61.69507,315.7,0.57,0.43,2019-09-13,05:18,N,nominal,1.0NRT,293.1,2.9,N
10.18457,-61.70091,326,0.57,0.43,2019-09-13,05:18,N,nominal,1.0NRT,293.8,5.1,N
10.18381,-61.69565,321.4,0.57,0.43,2019-09-13,05:18,N,nominal,1.0NRT,293.2,2.5,N
10.18305,-61.69039,310.5,0.57,0.43,2019-09-13,05:18,N,nominal,1.0NRT,293.4,2.5,N
10.17905,-61.69097,319,0.57,0.43,2019-09-13,05:18,N,nominal,1.0NRT,293.6,2.5,N
9.97934,-63.18333,338.9,0.47,0.48,2019-09-13,05:18,N,nominal,1.0NRT,288.8,4.8,N
9.97877,-63.17902,318,0.47,0.48,2019-09-13,05:18,N,nominal,1.0NRT,288.7,4.8,N
9.97493,-63.18392,339.4,0.47,0.48,2019-09-13,05:18,N,nominal,1.0NRT,288.8,5.6,N
9.97436,-63.17961,325.3,0.47,0.48,2019-09-13,05:18,N,nominal,1.0NRT,288.4,5.6,N
9.9794,-63.18145,319.5,0.47,0.48,2019-09-13,05:18,N,nominal,1.0NRT,288.8,2.9,N
9.97499,-63.18204,352.9,0.47,0.48,2019-09-13,05:18,N,nominal,1.0NRT,289.3,13.9,N
10.08313,-64.87247,313.6,0.61,0.54,2019-09-13,05:18,N,nominal,1.0NRT,287.3,2.8,N
10.07588,-64.85615,338.8,0.61,0.53,2019-09-13,05:18,N,nominal,1.0NRT,285.4,5.7,N
10.07664,-64.86179,318.5,0.61,0.54,2019-09-13,05:18,N,nominal,1.0NRT,286.4,5.7,N
10.05752,-64.86966,327.8,0.61,0.54,2019-09-13,05:18,N,nominal,1.0NRT,287.2,5.6,N
10.06058,-64.89261,302.9,0.61,0.54,2019-09-13,05:18,N,nominal,1.0NRT,287.1,1.2,N
10.05676,-64.86402,302.6,0.61,0.54,2019-09-13,05:18,N,nominal,1.0NRT,286,1.7,N
10.05602,-64.85849,310.7,0.61,0.53,2019-09-13,05:18,N,nominal,1.0NRT,286.9,1.7,N
9.77622,-63.26678,300.6,0.47,0.48,2019-09-13,05:18,N,nominal,1.0NRT,287.4,0.5,N
9.7772,-63.26902,302.5,0.47,0.48,2019-09-13,05:18,N,nominal,1.0NRT,287.6,0.6,N
9.77217,-63.26537,299.8,0.47,0.48,2019-09-13,05:18,N,nominal,1.0NRT,287.5,0.4,N
9.74098,-63.43105,339.2,0.49,0.48,2019-09-13,05:18,N,nominal,1.0NRT,287.6,4.9,N
9.74203,-63.47194,304.1,0.49,0.48,2019-09-13,05:18,N,nominal,1.0NRT,287.3,1.3,N
9.73757,-63.47269,346.2,0.49,0.48,2019-09-13,05:18,N,nominal,1.0NRT,290.8,3.5,N
9.73881,-63.48177,304.1,0.49,0.49,2019-09-13,05:18,N,nominal,1.0NRT,287.5,1.1,N
9.73819,-63.47723,308.8,0.49,0.48,2019-09-13,05:18,N,nominal,1.0NRT,287.1,1.1,N
9.73695,-63.46817,308.9,0.49,0.48,2019-09-13,05:18,N,nominal,1.0NRT,288.4,3.5,N
9.73434,-63.4825,302.8,0.49,0.49,2019-09-13,05:18,N,nominal,1.0NRT,286.6,1.1,N
9.73373,-63.47799,310.7,0.49,0.48,2019-09-13,05:18,N,nominal,1.0NRT,287.4,1.1,N
9.73311,-63.47343,312.9,0.49,0.48,2019-09-13,05:18,N,nominal,1.0NRT,288.7,3.5,N
9.72865,-63.47421,304.2,0.49,0.48,2019-09-13,05:18,N,nominal,1.0NRT,288.3,2.1,N
9.7268,-63.46066,306.2,0.49,0.48,2019-09-13,05:18,N,nominal,1.0NRT,287.5,1.8,N
9.70381,-63.52727,308.5,0.49,0.49,2019-09-13,05:18,N,nominal,1.0NRT,284.7,1.4,N
9.70245,-63.52934,302.5,0.49,0.49,2019-09-13,05:18,N,nominal,1.0NRT,284.2,0.9,N
9.68082,-63.47317,341.3,0.49,0.48,2019-09-13,05:18,N,nominal,1.0NRT,288.7,7.1,N
9.68145,-63.47763,307.6,0.49,0.48,2019-09-13,05:18,N,nominal,1.0NRT,286.9,7.1,N
9.67636,-63.47387,340.9,0.49,0.48,2019-09-13,05:18,N,nominal,1.0NRT,288.5,13.3,N
9.67699,-63.47834,308.9,0.49,0.48,2019-09-13,05:18,N,nominal,1.0NRT,287.2,13.3,N
9.67502,-63.49689,308.3,0.49,0.49,2019-09-13,05:18,N,nominal,1.0NRT,286.1,1.2,N
9.65311,-63.53675,350.1,0.49,0.49,2019-09-13,05:18,N,nominal,1.0NRT,284.8,11.5,N
9.65249,-63.53229,343.3,0.49,0.49,2019-09-13,05:18,N,nominal,1.0NRT,286.2,11.5,N
9.65187,-63.52781,303.8,0.49,0.49,2019-09-13,05:18,N,nominal,1.0NRT,284.4,3.1,N
9.65234,-63.56447,355.9,0.49,0.49,2019-09-13,05:18,N,nominal,1.0NRT,287.6,6.2,N
9.6474,-63.52853,333.5,0.49,0.49,2019-09-13,05:18,N,nominal,1.0NRT,285.6,4.7,N
9.66172,-63.63282,307,0.5,0.49,2019-09-13,05:18,N,nominal,1.0NRT,287.1,1.8,N
9.66109,-63.62822,303.3,0.5,0.49,2019-09-13,05:18,N,nominal,1.0NRT,287.6,2.3,N
9.66046,-63.62362,308.2,0.5,0.49,2019-09-13,05:18,N,nominal,1.0NRT,287.7,2.3,N
9.65983,-63.61904,305.8,0.5,0.49,2019-09-13,05:18,N,nominal,1.0NRT,287.5,2.6,N
9.65358,-63.57352,305.3,0.49,0.49,2019-09-13,05:18,N,nominal,1.0NRT,283,2.7,N
9.65296,-63.56899,318.4,0.49,0.49,2019-09-13,05:18,N,nominal,1.0NRT,283.8,2.7,N
9.65172,-63.55996,313.7,0.49,0.49,2019-09-13,05:18,N,nominal,1.0NRT,284,6.2,N
9.6511,-63.55546,305.3,0.49,0.49,2019-09-13,05:18,N,nominal,1.0NRT,283.2,0.6,N
9.65048,-63.55097,300.7,0.49,0.49,2019-09-13,05:18,N,nominal,1.0NRT,282.8,0.6,N
9.65657,-63.62891,321.4,0.5,0.49,2019-09-13,05:18,N,nominal,1.0NRT,288,2.3,N
9.65594,-63.62432,332,0.5,0.49,2019-09-13,05:18,N,nominal,1.0NRT,288.2,2.3,N
9.65532,-63.61974,322.2,0.5,0.49,2019-09-13,05:18,N,nominal,1.0NRT,287.5,2.6,N
9.64785,-63.56521,327.5,0.49,0.49,2019-09-13,05:18,N,nominal,1.0NRT,284.5,6.2,N
9.65784,-63.63816,310.6,0.5,0.49,2019-09-13,05:18,N,nominal,1.0NRT,286.2,1.8,N
9.65721,-63.63353,316.7,0.5,0.49,2019-09-13,05:18,N,nominal,1.0NRT,287.3,1.8,N
9.64909,-63.57426,306.5,0.49,0.49,2019-09-13,05:18,N,nominal,1.0NRT,284.2,2.7,N
9.64847,-63.56974,313.8,0.49,0.49,2019-09-13,05:18,N,nominal,1.0NRT,284.6,2.7,N
9.64723,-63.56069,314.8,0.49,0.49,2019-09-13,05:18,N,nominal,1.0NRT,284.1,6.2,N
9.64661,-63.55619,307.9,0.49,0.49,2019-09-13,05:18,N,nominal,1.0NRT,283.6,0.6,N
9.646,-63.55169,302,0.49,0.49,2019-09-13,05:18,N,nominal,1.0NRT,283.3,0.6,N
9.65206,-63.62963,352.9,0.5,0.49,2019-09-13,05:18,N,nominal,1.0NRT,293.2,44,N
9.65144,-63.62503,367,0.5,0.49,2019-09-13,05:18,N,high,1.0NRT,295.9,44,N
9.65081,-63.62045,332.7,0.5,0.49,2019-09-13,05:18,N,nominal,1.0NRT,290,16.7,N
9.64398,-63.57049,342.9,0.49,0.49,2019-09-13,05:18,N,nominal,1.0NRT,285.8,6,N
9.64336,-63.56596,341.7,0.49,0.49,2019-09-13,05:18,N,nominal,1.0NRT,285.5,20.3,N
9.64275,-63.56144,341.6,0.49,0.49,2019-09-13,05:18,N,nominal,1.0NRT,289,20.3,N
9.64213,-63.55693,354.4,0.49,0.49,2019-09-13,05:18,N,nominal,1.0NRT,284.6,9.8,N
9.65396,-63.64352,303.4,0.5,0.49,2019-09-13,05:18,N,nominal,1.0NRT,284.3,0.7,N
9.65333,-63.63889,308.9,0.5,0.49,2019-09-13,05:18,N,nominal,1.0NRT,286.2,3.6,N
9.65018,-63.61587,311.7,0.5,0.49,2019-09-13,05:18,N,nominal,1.0NRT,286.2,16.7,N
9.6446,-63.575,306.4,0.49,0.49,2019-09-13,05:18,N,nominal,1.0NRT,284.7,6,N
9.64151,-63.55244,304.2,0.49,0.49,2019-09-13,05:18,N,nominal,1.0NRT,283.5,9.8,N
9.64755,-63.63036,340,0.5,0.49,2019-09-13,05:18,N,nominal,1.0NRT,284.8,44,N
9.64693,-63.62576,322.7,0.5,0.49,2019-09-13,05:18,N,nominal,1.0NRT,287.6,44,N
9.64944,-63.6442,300.2,0.5,0.49,2019-09-13,05:18,N,nominal,1.0NRT,284.5,0.7,N
9.6463,-63.62117,316.6,0.5,0.49,2019-09-13,05:18,N,nominal,1.0NRT,286.6,16.7,N
9.63888,-63.56671,302.1,0.49,0.49,2019-09-13,05:18,N,nominal,1.0NRT,283.5,20.3,N
9.63826,-63.56218,302.9,0.49,0.49,2019-09-13,05:18,N,nominal,1.0NRT,283.5,20.3,N
9.64242,-63.62648,306.7,0.5,0.49,2019-09-13,05:18,N,nominal,1.0NRT,287.1,3.1,N
9.6418,-63.62189,302.2,0.5,0.49,2019-09-13,05:18,N,nominal,1.0NRT,285.7,1.7,N
9.63414,-63.70193,301.3,0.5,0.49,2019-09-13,05:18,N,nominal,1.0NRT,288.2,1.3,N
9.63352,-63.69731,311.2,0.5,0.49,2019-09-13,05:18,N,nominal,1.0NRT,288.1,3.6,N
9.6329,-63.69269,311.8,0.5,0.49,2019-09-13,05:18,N,nominal,1.0NRT,288.3,3.6,N
9.63228,-63.68808,304.3,0.5,0.49,2019-09-13,05:18,N,nominal,1.0NRT,288.5,2.1,N
9.62899,-63.69801,328,0.5,0.49,2019-09-13,05:18,N,nominal,1.0NRT,287.5,3.6,N
9.62837,-63.69339,348.3,0.5,0.49,2019-09-13,05:18,N,nominal,1.0NRT,291.2,3.6,N
9.62775,-63.68877,325.5,0.5,0.49,2019-09-13,05:18,N,nominal,1.0NRT,288.2,2.1,N
9.63023,-63.70726,301.2,0.5,0.49,2019-09-13,05:18,N,nominal,1.0NRT,287.3,1.3,N
9.62961,-63.70264,313.2,0.5,0.49,2019-09-13,05:18,N,nominal,1.0NRT,287.4,1.3,N
9.62714,-63.68418,305.3,0.5,0.49,2019-09-13,05:18,N,nominal,1.0NRT,287.9,2.1,N
9.62446,-63.69869,325,0.5,0.49,2019-09-13,05:18,N,nominal,1.0NRT,287.4,3.6,N
9.62384,-63.69408,348,0.5,0.49,2019-09-13,05:18,N,nominal,1.0NRT,289,3.6,N
9.62322,-63.68946,321.4,0.5,0.49,2019-09-13,05:18,N,nominal,1.0NRT,288,2.3,N
9.62569,-63.70796,301.4,0.5,0.49,2019-09-13,05:18,N,nominal,1.0NRT,286.8,1.2,N
9.62507,-63.70333,313.6,0.5,0.49,2019-09-13,05:18,N,nominal,1.0NRT,287,1.2,N
9.62261,-63.68487,302,0.5,0.49,2019-09-13,05:18,N,nominal,1.0NRT,287.6,2.3,N
9.62362,-63.72717,340.6,0.51,0.49,2019-09-13,05:18,N,nominal,1.0NRT,288.4,4.6,N
9.62301,-63.72254,331.3,0.51,0.49,2019-09-13,05:18,N,nominal,1.0NRT,288.9,4.6,N
9.62486,-63.73644,299.4,0.51,0.49,2019-09-13,05:18,N,nominal,1.0NRT,286.2,0.7,N
9.62424,-63.7318,312.9,0.51,0.49,2019-09-13,05:18,N,nominal,1.0NRT,287.3,0.7,N
9.62239,-63.71791,306.3,0.51,0.49,2019-09-13,05:18,N,nominal,1.0NRT,288,1,N
9.62054,-63.70403,304.1,0.5,0.49,2019-09-13,05:18,N,nominal,1.0NRT,286.9,1.2,N
9.61992,-63.69939,311.1,0.5,0.49,2019-09-13,05:18,N,nominal,1.0NRT,287.6,3.6,N
9.61931,-63.69479,307.4,0.5,0.49,2019-09-13,05:18,N,nominal,1.0NRT,287,3.6,N
9.6197,-63.73249,322.6,0.51,0.49,2019-09-13,05:18,N,nominal,1.0NRT,287.8,1.8,N
9.61908,-63.72786,343.3,0.51,0.49,2019-09-13,05:18,N,nominal,1.0NRT,292.2,10.9,N
9.61847,-63.72323,341.5,0.51,0.49,2019-09-13,05:18,N,nominal,1.0NRT,290.2,10.9,N
9.62031,-63.73713,307.1,0.51,0.49,2019-09-13,05:18,N,nominal,1.0NRT,287.3,1.8,N
9.61785,-63.71861,312.7,0.51,0.49,2019-09-13,05:18,N,nominal,1.0NRT,288.5,1.1,N
9.61723,-63.71398,300.5,0.51,0.49,2019-09-13,05:18,N,nominal,1.0NRT,287.3,1.1,N
9.61515,-63.73317,300.8,0.51,0.49,2019-09-13,05:18,N,nominal,1.0NRT,286.1,1.8,N
9.61453,-63.72853,305.5,0.51,0.49,2019-09-13,05:18,N,nominal,1.0NRT,288.4,10.9,N
9.61392,-63.72393,307.7,0.51,0.49,2019-09-13,05:18,N,nominal,1.0NRT,287.7,10.9,N
9.61331,-63.71932,301.3,0.51,0.49,2019-09-13,05:18,N,nominal,1.0NRT,286.8,1.1,N
9.6284,-63.70044,324.8,0.5,0.49,2019-09-13,05:18,N,nominal,1.0NRT,287.8,2.2,N
9.62774,-63.69582,346.5,0.5,0.49,2019-09-13,05:18,N,nominal,1.0NRT,290.7,6.6,N
9.62709,-63.69122,347.8,0.5,0.49,2019-09-13,05:18,N,nominal,1.0NRT,290.7,6.6,N
9.62905,-63.70505,307.9,0.5,0.49,2019-09-13,05:18,N,nominal,1.0NRT,287.1,2.2,N
9.62644,-63.68662,314.1,0.5,0.49,2019-09-13,05:18,N,nominal,1.0NRT,288,1.6,N
9.62579,-63.68204,301.6,0.5,0.49,2019-09-13,05:18,N,nominal,1.0NRT,287.9,1.6,N
9.62386,-63.70112,320.9,0.5,0.49,2019-09-13,05:18,N,nominal,1.0NRT,287.2,2.2,N
9.62321,-63.69651,336.1,0.5,0.49,2019-09-13,05:18,N,nominal,1.0NRT,287.7,6.6,N
9.62256,-63.6919,332.7,0.5,0.49,2019-09-13,05:18,N,nominal,1.0NRT,288.2,6.6,N
9.62452,-63.70574,305.6,0.5,0.49,2019-09-13,05:18,N,nominal,1.0NRT,286.7,2.2,N
9.62191,-63.68731,307.9,0.5,0.49,2019-09-13,05:18,N,nominal,1.0NRT,287.8,1.6,N
9.62259,-63.7249,356.3,0.51,0.49,2019-09-13,05:18,N,nominal,1.0NRT,292.9,14.4,N
9.62389,-63.73415,311.5,0.51,0.49,2019-09-13,05:18,N,nominal,1.0NRT,287.4,4.2,N
9.62324,-63.72952,317.9,0.51,0.49,2019-09-13,05:18,N,nominal,1.0NRT,288,4.2,N
9.62194,-63.72028,316.6,0.51,0.49,2019-09-13,05:18,N,nominal,1.0NRT,288.8,14.4,N
9.62128,-63.71565,304.3,0.5,0.49,2019-09-13,05:18,N,nominal,1.0NRT,287.9,1.1,N
9.61933,-63.70181,307.4,0.5,0.49,2019-09-13,05:18,N,nominal,1.0NRT,286.9,1.6,N
9.61868,-63.69721,307,0.5,0.49,2019-09-13,05:18,N,nominal,1.0NRT,287.3,2.2,N
9.61805,-63.72558,355.7,0.51,0.49,2019-09-13,05:18,N,nominal,1.0NRT,290.6,14.4,N
9.61935,-63.73483,314.1,0.51,0.49,2019-09-13,05:18,N,nominal,1.0NRT,287.1,4.2,N
9.6187,-63.7302,318.1,0.51,0.49,2019-09-13,05:18,N,nominal,1.0NRT,288.9,4.2,N
9.6174,-63.72097,319.8,0.51,0.49,2019-09-13,05:18,N,nominal,1.0NRT,288.5,14.4,N
9.61675,-63.71635,305.4,0.5,0.49,2019-09-13,05:18,N,nominal,1.0NRT,288.3,1.1,N
9.61415,-63.73086,301.5,0.51,0.49,2019-09-13,05:18,N,nominal,1.0NRT,287.2,1.3,N
9.61351,-63.72626,305.4,0.51,0.49,2019-09-13,05:18,N,nominal,1.0NRT,287.8,0.9,N
9.61286,-63.72166,299.7,0.51,0.49,2019-09-13,05:18,N,nominal,1.0NRT,286.6,0.9,N
9.56321,-63.63051,319.9,0.5,0.49,2019-09-13,05:18,N,nominal,1.0NRT,284.9,2,N
9.47219,-64.3872,306.3,0.56,0.51,2019-09-13,05:18,N,nominal,1.0NRT,285.8,0.6,N
9.38773,-64.54877,338,0.57,0.52,2019-09-13,05:18,N,nominal,1.0NRT,280.2,9.1,N
9.38701,-64.54352,337.5,0.57,0.52,2019-09-13,05:18,N,nominal,1.0NRT,279.4,6.1,N
9.2976,-63.89774,300.2,0.51,0.5,2019-09-13,05:18,N,nominal,1.0NRT,281.2,0.2,N
9.29303,-63.89842,299.5,0.51,0.5,2019-09-13,05:18,N,nominal,1.0NRT,281.4,0.2,N
9.37457,-64.52401,336.6,0.57,0.52,2019-09-13,05:18,N,nominal,1.0NRT,281.2,2.7,N
9.376,-64.53452,319.2,0.57,0.52,2019-09-13,05:18,N,nominal,1.0NRT,281.4,4.7,N
9.37385,-64.51875,314.9,0.57,0.52,2019-09-13,05:18,N,nominal,1.0NRT,280.7,2.7,N
9.27516,-64.04147,333.8,0.53,0.5,2019-09-13,05:18,N,nominal,1.0NRT,284.2,2.7,N
9.27582,-64.04629,304.4,0.53,0.5,2019-09-13,05:18,N,nominal,1.0NRT,282.9,2.7,N
9.27054,-64.04216,313.2,0.53,0.5,2019-09-13,05:18,N,nominal,1.0NRT,282.9,2.4,N
9.2302,-64.05781,301,0.53,0.5,2019-09-13,05:18,N,nominal,1.0NRT,281.5,0.5,N
9.22703,-64.06032,335.2,0.53,0.5,2019-09-13,05:18,N,nominal,1.0NRT,283.2,4.4,N
9.18341,-63.91593,308.8,0.51,0.5,2019-09-13,05:18,N,nominal,1.0NRT,285.7,0.9,N
9.23175,-64.29988,339.3,0.55,0.51,2019-09-13,05:18,N,nominal,1.0NRT,283,7.5,N
9.23243,-64.30483,311.5,0.55,0.51,2019-09-13,05:18,N,nominal,1.0NRT,281.6,6.2,N
9.22162,-64.50984,306,0.56,0.52,2019-09-13,05:18,N,nominal,1.0NRT,279.3,1.2,N
9.18302,-64.87003,324.6,0.6,0.53,2019-09-13,05:18,N,nominal,1.0NRT,285.4,3.2,N
8.90721,-63.80436,320.4,0.5,0.49,2019-09-13,05:18,N,nominal,1.0NRT,289.2,2,N
8.72815,-62.90708,326.1,0.43,0.46,2019-09-13,05:18,N,nominal,1.0NRT,288.5,1.9,N
8.72872,-62.91106,311.9,0.43,0.46,2019-09-13,05:18,N,nominal,1.0NRT,287.9,2,N
8.72391,-62.9077,325.2,0.43,0.46,2019-09-13,05:18,N,nominal,1.0NRT,288.1,1.9,N
8.74455,-63.05222,307.6,0.44,0.46,2019-09-13,05:18,N,nominal,1.0NRT,288.9,0.8,N
8.74397,-63.04816,306.5,0.44,0.46,2019-09-13,05:18,N,nominal,1.0NRT,289.4,0.8,N
8.72447,-62.91168,309.8,0.43,0.46,2019-09-13,05:18,N,nominal,1.0NRT,287.9,2,N
8.6569,-62.76927,331.6,0.42,0.46,2019-09-13,05:18,N,nominal,1.0NRT,286.5,3.8,N
8.68891,-63.15633,331.5,0.45,0.47,2019-09-13,05:18,N,nominal,1.0NRT,291,2.8,N
8.68834,-63.15223,311.4,0.45,0.47,2019-09-13,05:18,N,nominal,1.0NRT,290.4,1.5,N
8.68459,-63.15696,334.1,0.45,0.47,2019-09-13,05:18,N,nominal,1.0NRT,290.8,4.8,N
8.68403,-63.15285,326,0.45,0.47,2019-09-13,05:18,N,nominal,1.0NRT,290.8,3.2,N
8.69045,-63.23203,305.3,0.46,0.47,2019-09-13,05:18,N,nominal,1.0NRT,289.4,0.5,N
8.68681,-63.15525,342.9,0.45,0.47,2019-09-13,05:18,N,nominal,1.0NRT,292.4,9.8,N
8.6889,-63.23074,312.1,0.46,0.47,2019-09-13,05:18,N,nominal,1.0NRT,289.8,1.1,N
8.55691,-64.13539,327.7,0.52,0.5,2019-09-13,05:18,N,nominal,1.0NRT,289.5,3,N
8.52937,-64.07186,306.9,0.51,0.5,2019-09-13,05:18,N,nominal,1.0NRT,289.2,0.9,N
8.52479,-64.07254,324.3,0.51,0.5,2019-09-13,05:18,N,nominal,1.0NRT,289.5,2.7,N
8.30161,-62.78236,307.8,0.42,0.45,2019-09-13,05:18,N,nominal,1.0NRT,291.3,1.1,N
8.22512,-62.87634,328,0.43,0.46,2019-09-13,05:18,N,nominal,1.0NRT,291,3.7,N
33.00327,-79.87728,313.3,0.45,0.39,2019-09-13,06:48,N,nominal,1.0NRT,294.3,2.2,N
33.39178,-79.32965,305.5,0.43,0.38,2019-09-13,06:48,N,nominal,1.0NRT,292.8,0.7,N
33.01522,-79.88499,330.5,0.45,0.39,2019-09-13,06:48,N,nominal,1.0NRT,293.3,3.5,N
33.01165,-79.88564,313.5,0.45,0.39,2019-09-13,06:48,N,nominal,1.0NRT,292.5,1.9,N
27.30125,-90.13402,307.8,0.48,0.65,2019-09-13,06:54,N,nominal,1.0NRT,291.3,4.7,N
22.76303,-80.58423,305.2,0.4,0.37,2019-09-13,06:54,N,nominal,1.0NRT,291.5,1.1,N
22.43186,-80.79764,308.8,0.4,0.37,2019-09-13,06:54,N,nominal,1.0NRT,268.9,0.7,N
21.97042,-78.40901,308.5,0.39,0.36,2019-09-13,06:54,N,nominal,1.0NRT,290.5,0.7,N
20.52387,-76.63599,336.5,0.45,0.39,2019-09-13,06:54,N,nominal,1.0NRT,292.8,4.8,N
20.52462,-76.64027,309.2,0.45,0.39,2019-09-13,06:54,N,nominal,1.0NRT,291.5,1.3,N
18.92677,-70.35486,337.7,0.37,0.58,2019-09-13,06:54,N,nominal,1.0NRT,292.4,2.4,N
18.92606,-70.35154,312.3,0.37,0.58,2019-09-13,06:54,N,nominal,1.0NRT,292,2.4,N
20.94538,-89.66297,303.8,0.39,0.59,2019-09-13,06:54,N,nominal,1.0NRT,288.8,1,N
20.94572,-89.66469,308.9,0.39,0.59,2019-09-13,06:54,N,nominal,1.0NRT,289.2,1,N
19.6025,-92.29709,313.6,0.55,0.68,2019-09-13,06:54,N,nominal,1.0NRT,275.9,2.6,N
19.56683,-92.18706,302.3,0.54,0.68,2019-09-13,06:54,N,nominal,1.0NRT,277.8,3.1,N
19.56532,-92.24117,367,0.55,0.68,2019-09-13,06:54,N,high,1.0NRT,284.8,19.3,N
19.56484,-92.23581,324.3,0.55,0.68,2019-09-13,06:54,N,nominal,1.0NRT,283.6,19.3,N
19.56581,-92.24654,305.1,0.55,0.68,2019-09-13,06:54,N,nominal,1.0NRT,282.9,19.3,N
19.56436,-92.23045,305.2,0.55,0.68,2019-09-13,06:54,N,nominal,1.0NRT,283.5,3.6,N
29.68386,-91.47419,302.1,0.61,0.71,2019-09-13,06:54,N,nominal,1.0NRT,288.6,1.2,N
19.52255,-92.1918,308.1,0.54,0.68,2019-09-13,06:54,N,nominal,1.0NRT,270.8,2.7,N
19.43632,-92.04211,309.9,0.53,0.67,2019-09-13,06:54,N,nominal,1.0NRT,271.6,6,N
19.43584,-92.03693,316.1,0.53,0.67,2019-09-13,06:54,N,nominal,1.0NRT,275.3,7,N
19.39874,-92.0462,321.6,0.53,0.67,2019-09-13,06:54,N,nominal,1.0NRT,266,8.3,N
19.39248,-92.04688,347.9,0.53,0.67,2019-09-13,06:54,N,nominal,1.0NRT,263.7,8.3,N
19.39492,-92.0481,353.6,0.53,0.67,2019-09-13,06:54,N,nominal,1.0NRT,264.8,10.1,N
19.39442,-92.04292,329.6,0.53,0.67,2019-09-13,06:54,N,nominal,1.0NRT,262.3,10.1,N
18.64427,-92.1732,352.9,0.53,0.67,2019-09-13,06:54,N,nominal,1.0NRT,271.4,4.8,N
18.64473,-92.17834,299.3,0.53,0.67,2019-09-13,06:54,N,nominal,1.0NRT,270.5,4.8,N
18.64735,-92.17544,311.6,0.53,0.67,2019-09-13,06:54,N,nominal,1.0NRT,270.3,2.7,N
18.64685,-92.1703,313.8,0.53,0.67,2019-09-13,06:54,N,nominal,1.0NRT,272.1,2.7,N
18.64109,-92.17612,327.6,0.53,0.67,2019-09-13,06:54,N,nominal,1.0NRT,271.7,2.7,N
18.64059,-92.17097,314.6,0.53,0.67,2019-09-13,06:54,N,nominal,1.0NRT,272.7,2.7,N
11.96467,-70.01121,328.5,0.53,0.67,2019-09-13,06:54,N,nominal,1.0NRT,290.1,3.3,N
11.96655,-70.02044,304.9,0.53,0.67,2019-09-13,06:54,N,nominal,1.0NRT,289.8,1.8,N
11.96562,-70.01586,309.3,0.53,0.67,2019-09-13,06:54,N,nominal,1.0NRT,289.9,3.3,N
11.96368,-70.00629,305.6,0.53,0.67,2019-09-13,06:54,N,nominal,1.0NRT,289.6,2.4,N
11.74297,-70.19847,306.9,0.52,0.67,2019-09-13,06:54,N,nominal,1.0NRT,291.6,3.9,N
11.742,-70.19375,306.3,0.52,0.67,2019-09-13,06:54,N,nominal,1.0NRT,291.8,3.9,N
11.73679,-70.19949,343.6,0.52,0.67,2019-09-13,06:54,N,nominal,1.0NRT,292,3.9,N
11.73585,-70.19489,335.1,0.52,0.67,2019-09-13,06:54,N,nominal,1.0NRT,291.5,3.9,N
14.5626,-86.89956,295.7,0.43,0.46,2019-09-13,06:54,N,nominal,1.0NRT,276.9,1,N
11.73774,-70.20412,307.9,0.52,0.67,2019-09-13,06:54,N,nominal,1.0NRT,291.2,5.2,N
11.73753,-70.23419,309.8,0.52,0.67,2019-09-13,06:54,N,nominal,1.0NRT,291.3,2.1,N
11.73656,-70.22945,312.5,0.52,0.67,2019-09-13,06:54,N,nominal,1.0NRT,291.2,1.6,N
11.74285,-70.19507,305.2,0.52,0.67,2019-09-13,06:54,N,nominal,1.0NRT,291.8,2.9,N
11.7367,-70.19625,367,0.52,0.67,2019-09-13,06:54,N,high,1.0NRT,292,13.9,N
11.73854,-70.20551,307.4,0.52,0.67,2019-09-13,06:54,N,nominal,1.0NRT,291.3,5.7,N
11.7376,-70.20077,315.5,0.52,0.67,2019-09-13,06:54,N,nominal,1.0NRT,291.7,5.7,N
11.73719,-70.23092,320.7,0.52,0.67,2019-09-13,06:54,N,nominal,1.0NRT,291.5,4.1,N
11.6294,-70.2337,310.4,0.52,0.67,2019-09-13,06:54,N,nominal,1.0NRT,289,2.6,N
11.62844,-70.22901,305.7,0.52,0.67,2019-09-13,06:54,N,nominal,1.0NRT,285.8,2,N
11.6203,-70.22047,309.2,0.52,0.67,2019-09-13,06:54,N,nominal,1.0NRT,278.6,1.5,N
11.63016,-70.23027,313.4,0.52,0.67,2019-09-13,06:54,N,nominal,1.0NRT,287.9,4.4,N
11.6221,-70.22178,323.8,0.52,0.67,2019-09-13,06:54,N,nominal,1.0NRT,278.2,2.5,N
14.47831,-90.90584,355,0.39,0.59,2019-09-13,06:54,N,nominal,1.0NRT,255.8,20.7,N
11.0356,-70.5806,313,0.51,0.66,2019-09-13,06:54,N,nominal,1.0NRT,290.1,2.2,N
11.08283,-72.67992,318.9,0.37,0.58,2019-09-13,06:54,N,nominal,1.0NRT,287.6,3.3,N
11.04585,-72.71631,305.6,0.37,0.58,2019-09-13,06:54,N,nominal,1.0NRT,286.7,1.1,N
11.03546,-72.66269,306.3,0.37,0.58,2019-09-13,06:54,N,nominal,1.0NRT,288.6,1.7,N
11.04838,-72.71725,306.8,0.37,0.58,2019-09-13,06:54,N,nominal,1.0NRT,286.4,1.2,N
11.03247,-72.66124,309.1,0.37,0.58,2019-09-13,06:54,N,nominal,1.0NRT,288.5,1.2,N
10.99768,-72.71047,306.2,0.37,0.58,2019-09-13,06:54,N,nominal,1.0NRT,286.3,1.8,N
10.36516,-71.46346,300.2,0.46,0.63,2019-09-13,06:54,N,nominal,1.0NRT,269.1,3.3,N
10.0808,-71.79281,319.2,0.44,0.62,2019-09-13,06:54,N,nominal,1.0NRT,282.9,3,N
9.51573,-70.97868,313.1,0.51,0.66,2019-09-13,06:54,N,nominal,1.0NRT,282.3,1.5,N
9.51555,-70.98061,306.8,0.51,0.66,2019-09-13,06:54,N,nominal,1.0NRT,283,2.6,N
29.68327,-89.97807,307.6,0.5,0.66,2019-09-13,06:54,N,nominal,1.0NRT,291.8,2.5,N
29.64375,-92.76345,305.8,0.73,0.76,2019-09-13,06:54,N,nominal,1.0NRT,290.9,2,N
29.64038,-92.76973,307.3,0.73,0.76,2019-09-13,06:54,N,nominal,1.0NRT,291,2.8,N
27.30159,-90.13905,344.5,0.48,0.65,2019-09-13,06:54,N,nominal,1.0NRT,291.2,4.7,N
30.0007,-90.4097,310,0.53,0.67,2019-09-13,06:54,N,nominal,1.0NRT,290.5,31.1,N
29.99981,-90.39265,312.6,0.53,0.67,2019-09-13,06:54,N,nominal,1.0NRT,290.1,10.6,N
30.00383,-90.40279,367,0.53,0.67,2019-09-13,06:54,N,high,1.0NRT,293.6,35.4,N
30.00349,-90.39712,335.6,0.53,0.67,2019-09-13,06:54,N,nominal,1.0NRT,291.4,15.9,N
30.00416,-90.40847,307.1,0.53,0.67,2019-09-13,06:54,N,nominal,1.0NRT,290.2,35.4,N
30.00316,-90.39145,303.4,0.53,0.67,2019-09-13,06:54,N,nominal,1.0NRT,289.7,15.9,N
29.99754,-90.40329,367,0.53,0.67,2019-09-13,06:54,N,high,1.0NRT,290.9,35.4,N
29.9972,-90.39761,353.5,0.53,0.67,2019-09-13,06:54,N,nominal,1.0NRT,291.3,15.9,N
29.99787,-90.40899,307.8,0.53,0.67,2019-09-13,06:54,N,nominal,1.0NRT,289.9,35.4,N
29.99688,-90.39196,305.7,0.53,0.67,2019-09-13,06:54,N,nominal,1.0NRT,290.1,15.9,N
29.68294,-89.97389,305.5,0.5,0.66,2019-09-13,06:54,N,nominal,1.0NRT,291.7,2.8,N
33.23129,-82.96971,303.5,0.42,0.45,2019-09-13,06:54,N,nominal,1.0NRT,291.1,1.4,N
33.23176,-82.97227,305.6,0.42,0.45,2019-09-13,06:54,N,nominal,1.0NRT,291,1.6,N
33.43297,-85.31084,302.6,0.58,0.52,2019-09-13,06:54,N,nominal,1.0NRT,289.7,0.5,N
33.44779,-88.58268,305.7,0.44,0.63,2019-09-13,06:54,N,nominal,1.0NRT,292.5,2.2,N
33.44137,-88.5734,304.7,0.44,0.63,2019-09-13,06:54,N,nominal,1.0NRT,292.1,1.8,N
33.24627,-86.81971,308.5,0.35,0.57,2019-09-13,06:54,N,nominal,1.0NRT,292.9,0.6,N
33.24701,-86.81824,305.7,0.35,0.57,2019-09-13,06:54,N,nominal,1.0NRT,293,0.6,N
33.31924,-88.286,303.5,0.43,0.62,2019-09-13,06:54,N,nominal,1.0NRT,291.8,0.7,N
33.22034,-86.81712,304.4,0.35,0.57,2019-09-13,06:54,N,nominal,1.0NRT,292.6,1.1,N
33.22005,-86.81313,306.3,0.35,0.57,2019-09-13,06:54,N,nominal,1.0NRT,293,0.9,N
33.21835,-86.78991,319.4,0.35,0.57,2019-09-13,06:54,N,nominal,1.0NRT,293.8,1.3,N
33.23574,-87.50574,305.8,0.38,0.59,2019-09-13,06:54,N,nominal,1.0NRT,293.1,1.2,N
33.17878,-86.75602,304.6,0.35,0.56,2019-09-13,06:54,N,nominal,1.0NRT,292.6,0.6,N
32.82072,-82.87497,303.8,0.41,0.45,2019-09-13,06:54,N,nominal,1.0NRT,291.2,0.8,N
33.30602,-89.34209,303.3,0.49,0.65,2019-09-13,06:54,N,nominal,1.0NRT,291.5,0.9,N
33.30577,-89.3387,304.8,0.49,0.65,2019-09-13,06:54,N,nominal,1.0NRT,291.4,1,N
33.10359,-86.80272,308.9,0.35,0.57,2019-09-13,06:54,N,nominal,1.0NRT,293.3,1.3,N
33.1033,-86.7988,314.3,0.35,0.57,2019-09-13,06:54,N,nominal,1.0NRT,294.2,1.3,N
33.09306,-86.80383,307.4,0.35,0.57,2019-09-13,06:54,N,nominal,1.0NRT,293,0.7,N
32.94546,-89.60721,303.7,0.5,0.66,2019-09-13,06:54,N,nominal,1.0NRT,291.7,1.9,N
32.93929,-89.60769,320.8,0.5,0.66,2019-09-13,06:54,N,nominal,1.0NRT,292,1.9,N
32.43043,-84.97556,298.4,0.54,0.51,2019-09-13,06:54,N,nominal,1.0NRT,281.6,0.7,N
32.31516,-90.13879,312,0.53,0.67,2019-09-13,06:54,N,nominal,1.0NRT,292.7,1.8,N
32.31276,-90.13765,317.5,0.53,0.67,2019-09-13,06:54,N,nominal,1.0NRT,292.4,2.3,N
31.81514,-86.56457,303.3,0.33,0.55,2019-09-13,06:54,N,nominal,1.0NRT,292,0.3,N
31.30967,-84.22176,302.8,0.47,0.48,2019-09-13,06:54,N,nominal,1.0NRT,292.4,0.2,N
31.5804,-87.49158,305.7,0.37,0.58,2019-09-13,06:54,N,nominal,1.0NRT,293.8,1.2,N
31.66447,-89.09311,301.1,0.46,0.63,2019-09-13,06:54,N,nominal,1.0NRT,290.3,1.2,N
30.97939,-84.4258,305.7,0.48,0.48,2019-09-13,06:54,N,nominal,1.0NRT,294,1.3,N
31.15097,-87.98639,331.8,0.39,0.59,2019-09-13,06:54,N,nominal,1.0NRT,293.8,3.7,N
31.15125,-87.99056,312.1,0.39,0.59,2019-09-13,06:54,N,nominal,1.0NRT,292.6,3.7,N
30.93736,-88.01588,304.4,0.39,0.59,2019-09-13,06:54,N,nominal,1.0NRT,292.6,1.9,N
30.93707,-88.01174,312.9,0.39,0.59,2019-09-13,06:54,N,nominal,1.0NRT,292.9,1.7,N
30.8338,-89.19469,310,0.46,0.63,2019-09-13,06:54,N,nominal,1.0NRT,291,0.9,N
30.33987,-88.49182,306.1,0.41,0.61,2019-09-13,06:54,N,nominal,1.0NRT,293.4,1.9,N
30.33958,-88.48743,309.2,0.41,0.61,2019-09-13,06:54,N,nominal,1.0NRT,293.8,1.9,N
30.4803,-91.18497,304.2,0.6,0.7,2019-09-13,06:54,N,nominal,1.0NRT,289.6,3.4,N
30.48254,-91.18297,307.8,0.59,0.7,2019-09-13,06:54,N,nominal,1.0NRT,289.8,3.4,N
30.32177,-91.24,303.5,0.6,0.7,2019-09-13,06:54,N,nominal,1.0NRT,289.4,2.3,N
30.21394,-91.02366,316.2,0.58,0.7,2019-09-13,06:54,N,nominal,1.0NRT,288.9,1.2,N
30.21362,-91.01743,306.1,0.58,0.7,2019-09-13,06:54,N,nominal,1.0NRT,289,1.2,N
30.25856,-93.28852,309.4,0.79,0.78,2019-09-13,06:54,N,nominal,1.0NRT,289.6,2.1,N
30.2583,-93.29062,307.7,0.79,0.78,2019-09-13,06:54,N,nominal,1.0NRT,289.8,2.3,N
30.1097,-90.89862,306,0.57,0.69,2019-09-13,06:54,N,nominal,1.0NRT,290,1.8,N
30.17874,-93.32953,304.3,0.79,0.78,2019-09-13,06:54,N,nominal,1.0NRT,290.2,3,N
30.0617,-90.60191,304,0.55,0.68,2019-09-13,06:54,N,nominal,1.0NRT,290.5,2.3,N
30.0067,-90.40347,305.9,0.53,0.67,2019-09-13,06:54,N,nominal,1.0NRT,290.1,52.6,N
30.0064,-90.39779,306.9,0.53,0.67,2019-09-13,06:54,N,nominal,1.0NRT,289.7,52.6,N
30.0004,-90.404,367,0.53,0.67,2019-09-13,06:54,N,high,1.0NRT,293.6,52.6,N
9.26701,-70.76633,295.3,0.53,0.67,2019-09-13,07:00,N,nominal,1.0NRT,272.1,1.9,N
8.26035,-72.10881,300.4,0.45,0.63,2019-09-13,07:00,N,nominal,1.0NRT,280.9,1.4,N
8.07659,-72.60294,303.5,0.42,0.61,2019-09-13,07:00,N,nominal,1.0NRT,278.8,0.9,N
8.04322,-72.42078,307.7,0.43,0.62,2019-09-13,07:00,N,nominal,1.0NRT,283.4,1.5,N
8.03121,-72.41946,302.3,0.43,0.62,2019-09-13,07:00,N,nominal,1.0NRT,283.3,0.7,N
7.98602,-72.91235,295.9,0.4,0.6,2019-09-13,07:00,N,nominal,1.0NRT,275.2,1.1,N
7.97996,-72.91042,297.3,0.4,0.6,2019-09-13,07:00,N,nominal,1.0NRT,278,0.9,N
7.97874,-72.90385,297.5,0.4,0.6,2019-09-13,07:00,N,nominal,1.0NRT,277.6,0.9,N
7.88822,-72.5733,308.1,0.42,0.61,2019-09-13,07:00,N,nominal,1.0NRT,281.7,2.1,N
7.89105,-72.57152,309.1,0.42,0.61,2019-09-13,07:00,N,nominal,1.0NRT,281.2,2.2,N
7.89036,-72.56768,301.9,0.42,0.61,2019-09-13,07:00,N,nominal,1.0NRT,279.6,1.1,N
31.74507,-102.5454,302.4,0.38,0.36,2019-09-13,08:30,N,nominal,1.0NRT,291.5,0.3,N
29.37206,-94.92245,309,0.51,0.5,2019-09-13,08:30,N,nominal,1.0NRT,296.3,3,N
29.37545,-94.93805,310.7,0.51,0.49,2019-09-13,08:30,N,nominal,1.0NRT,296.8,3.1,N
30.96557,-102.80679,304.1,0.39,0.36,2019-09-13,08:30,N,nominal,1.0NRT,290.1,0.3,N
31.10743,-103.6339,303,0.39,0.36,2019-09-13,08:30,N,nominal,1.0NRT,290.5,0.5,N
30.64617,-100.27624,306.6,0.41,0.37,2019-09-13,08:30,N,nominal,1.0NRT,289.8,0.4,N
30.64691,-100.28048,303.3,0.41,0.37,2019-09-13,08:30,N,nominal,1.0NRT,289.9,1.3,N
31.18585,-103.64027,301.9,0.39,0.36,2019-09-13,08:30,N,nominal,1.0NRT,291.5,0.7,N
30.64956,-100.27544,302.9,0.41,0.37,2019-09-13,08:30,N,nominal,1.0NRT,289.9,0.3,N
30.6503,-100.27969,303.1,0.41,0.37,2019-09-13,08:30,N,nominal,1.0NRT,290.2,1.2,N
29.71275,-95.23391,307.3,0.48,0.48,2019-09-13,08:30,N,nominal,1.0NRT,296.1,2.4,N
29.72912,-95.22394,305.6,0.48,0.48,2019-09-13,08:30,N,nominal,1.0NRT,294.3,1.7,N
32.52742,-116.77752,307.4,0.63,0.72,2019-09-13,08:30,N,nominal,1.0NRT,290.6,0.8,N
29.74175,-95.00205,319.7,0.5,0.49,2019-09-13,08:30,N,nominal,1.0NRT,296.8,4.8,N
31.24973,-103.13696,301.4,0.39,0.36,2019-09-13,08:30,N,nominal,1.0NRT,290.9,0.4,N
29.74782,-94.99853,306.7,0.5,0.49,2019-09-13,08:30,N,nominal,1.0NRT,295.7,1.5,N
32.52959,-116.77816,302.7,0.63,0.72,2019-09-13,08:30,N,nominal,1.0NRT,291.1,1.4,N
30.33967,-97.62106,302.9,0.53,0.42,2019-09-13,08:30,N,nominal,1.0NRT,292.3,0.7,N
31.33011,-103.22236,305.4,0.39,0.36,2019-09-13,08:30,N,nominal,1.0NRT,291.4,1.2,N
31.33343,-103.22169,329.5,0.39,0.36,2019-09-13,08:30,N,nominal,1.0NRT,293.7,1.2,N
31.35333,-103.04352,308.7,0.39,0.36,2019-09-13,08:30,N,nominal,1.0NRT,291.8,1,N
31.40836,-103.02383,306.6,0.39,0.36,2019-09-13,08:30,N,nominal,1.0NRT,291.8,0.6,N
31.58607,-104.06891,306,0.4,0.37,2019-09-13,08:30,N,nominal,1.0NRT,289.8,0.6,N
31.58945,-104.06826,306.3,0.4,0.37,2019-09-13,08:30,N,nominal,1.0NRT,289.9,0.6,N
31.20296,-101.33826,305.9,0.39,0.36,2019-09-13,08:30,N,nominal,1.0NRT,290.3,0.4,N
31.61171,-104.0004,311.9,0.4,0.37,2019-09-13,08:30,N,nominal,1.0NRT,290.7,0.6,N
31.49755,-103.14512,320.8,0.39,0.36,2019-09-13,08:30,N,nominal,1.0NRT,291.9,1.8,N
31.62761,-104.01474,302.5,0.4,0.37,2019-09-13,08:30,N,nominal,1.0NRT,288.8,0.6,N
31.62822,-104.01898,317.3,0.4,0.37,2019-09-13,08:30,N,nominal,1.0NRT,289.9,1.1,N
31.20275,-101.25409,327.7,0.39,0.36,2019-09-13,08:30,N,nominal,1.0NRT,291.2,2.3,N
31.96723,-106.58585,307.9,0.5,0.41,2019-09-13,08:30,N,nominal,1.0NRT,287.6,1.4,N
29.75369,-93.87656,307.1,0.58,0.52,2019-09-13,08:30,N,nominal,1.0NRT,294,2.9,N
31.55152,-103.4167,313.3,0.39,0.36,2019-09-13,08:30,N,nominal,1.0NRT,293.1,0.9,N
31.64787,-104.0108,302.7,0.4,0.37,2019-09-13,08:30,N,nominal,1.0NRT,289.1,0.3,N
31.66874,-104.0111,297.9,0.4,0.37,2019-09-13,08:30,N,nominal,1.0NRT,286.1,0.5,N
29.83384,-93.96496,315,0.57,0.52,2019-09-13,08:30,N,nominal,1.0NRT,294.5,3.5,N
30.41562,-96.69824,303.3,0.39,0.44,2019-09-13,08:30,N,nominal,1.0NRT,292.1,0.8,N
31.44231,-102.19109,316.1,0.38,0.36,2019-09-13,08:30,N,nominal,1.0NRT,291.7,1.4,N
31.72286,-104.02369,300.2,0.4,0.37,2019-09-13,08:30,N,nominal,1.0NRT,289.7,0.5,N
31.72625,-104.02303,306.4,0.4,0.37,2019-09-13,08:30,N,nominal,1.0NRT,290.5,0.5,N
31.78559,-104.37257,303.2,0.41,0.37,2019-09-13,08:30,N,nominal,1.0NRT,288.9,0.5,N
31.3496,-101.40294,328.1,0.39,0.36,2019-09-13,08:30,N,nominal,1.0NRT,291,1.8,N
29.63636,-92.76593,320.3,0.34,0.56,2019-09-13,08:30,N,nominal,1.0NRT,293,2.9,N
31.61739,-102.99554,305.1,0.39,0.36,2019-09-13,08:30,N,nominal,1.0NRT,291.5,0.5,N
29.64058,-92.76093,320,0.34,0.56,2019-09-13,08:30,N,nominal,1.0NRT,292.2,2.9,N
29.64139,-92.76437,337.3,0.34,0.56,2019-09-13,08:30,N,nominal,1.0NRT,292.7,2.9,N
29.6456,-92.75936,308.5,0.34,0.56,2019-09-13,08:30,N,nominal,1.0NRT,292.2,1,N
29.64641,-92.7628,319.5,0.34,0.56,2019-09-13,08:30,N,nominal,1.0NRT,292.5,1.6,N
29.65224,-92.76466,311.1,0.34,0.56,2019-09-13,08:30,N,nominal,1.0NRT,292.4,1.6,N
31.77936,-104.03014,299.8,0.4,0.37,2019-09-13,08:30,N,nominal,1.0NRT,288.7,0.5,N
30.09728,-94.63889,302.9,0.51,0.5,2019-09-13,08:30,N,nominal,1.0NRT,291.9,0.8,N
31.72334,-103.5704,312.8,0.4,0.37,2019-09-13,08:30,N,nominal,1.0NRT,290.9,1.6,N
31.72394,-103.57455,323.8,0.4,0.37,2019-09-13,08:30,N,nominal,1.0NRT,289,1.6,N
31.81004,-103.89957,297.6,0.4,0.37,2019-09-13,08:30,N,nominal,1.0NRT,283.9,1,N
31.83749,-103.94637,300,0.4,0.37,2019-09-13,08:30,N,nominal,1.0NRT,288.6,0.3,N
31.52384,-101.76302,333.4,0.39,0.36,2019-09-13,08:30,N,nominal,1.0NRT,290.4,1.8,N
31.52713,-101.76229,302.6,0.39,0.36,2019-09-13,08:30,N,nominal,1.0NRT,289.2,1.8,N
31.87114,-103.98779,309.8,0.4,0.37,2019-09-13,08:30,N,nominal,1.0NRT,290.9,0.6,N
31.85965,-103.9072,332.7,0.4,0.37,2019-09-13,08:30,N,nominal,1.0NRT,286.4,4.7,N
30.06721,-94.06982,306.1,0.55,0.51,2019-09-13,08:30,N,nominal,1.0NRT,294.9,2.6,N
31.62558,-102.23202,303.4,0.38,0.36,2019-09-13,08:30,N,nominal,1.0NRT,290.7,0.4,N
31.62887,-102.23132,305.3,0.38,0.36,2019-09-13,08:30,N,nominal,1.0NRT,291.2,0.4,N
31.55182,-101.33133,303.2,0.39,0.36,2019-09-13,08:30,N,nominal,1.0NRT,289.3,0.5,N
31.55512,-101.33059,307.3,0.39,0.36,2019-09-13,08:30,N,nominal,1.0NRT,289.5,0.5,N
31.64863,-101.90821,319.2,0.38,0.36,2019-09-13,08:30,N,nominal,1.0NRT,290.1,1.4,N
31.96546,-104.01529,301.5,0.4,0.37,2019-09-13,08:30,N,nominal,1.0NRT,290.9,0.3,N
31.93119,-103.63081,327.4,0.4,0.37,2019-09-13,08:30,N,nominal,1.0NRT,293.7,2.4,N
31.89835,-103.35921,329,0.39,0.36,2019-09-13,08:30,N,nominal,1.0NRT,287.9,1.8,N
31.68402,-101.93798,313.4,0.38,0.36,2019-09-13,08:30,N,nominal,1.0NRT,288.6,0.7,N
31.95189,-103.67842,314.5,0.4,0.37,2019-09-13,08:30,N,nominal,1.0NRT,292.2,0.7,N
30.74438,-96.65861,305.6,0.39,0.44,2019-09-13,08:30,N,nominal,1.0NRT,292.3,0.6,N
32.06276,-104.35967,300.5,0.41,0.37,2019-09-13,08:30,N,nominal,1.0NRT,286.6,0.7,N
31.70072,-101.8718,310.6,0.38,0.36,2019-09-13,08:30,N,nominal,1.0NRT,287.9,0.8,N
31.70401,-101.87108,330.1,0.38,0.36,2019-09-13,08:30,N,nominal,1.0NRT,290,2.4,N
30.15298,-93.7207,306.2,0.58,0.52,2019-09-13,08:30,N,nominal,1.0NRT,293,1.2,N
30.81079,-96.65002,304.8,0.39,0.44,2019-09-13,08:30,N,nominal,1.0NRT,292,0.5,N
31.79965,-102.08904,329,0.38,0.36,2019-09-13,08:30,N,nominal,1.0NRT,293.1,2.3,N
31.79977,-102.06815,304.9,0.38,0.36,2019-09-13,08:30,N,nominal,1.0NRT,291,0.2,N
30.11145,-93.29637,306.2,0.61,0.54,2019-09-13,08:30,N,nominal,1.0NRT,292.3,2.2,N
31.72644,-101.54559,315.5,0.39,0.36,2019-09-13,08:30,N,nominal,1.0NRT,287.1,1.3,N
29.77595,-91.73443,309.6,0.38,0.59,2019-09-13,08:30,N,nominal,1.0NRT,290.8,0.4,N
32.01859,-103.27666,306,0.39,0.36,2019-09-13,08:30,N,nominal,1.0NRT,289.6,0.9,N
32.02192,-103.27599,316.8,0.39,0.36,2019-09-13,08:30,N,nominal,1.0NRT,291.4,1.5,N
32.02157,-103.25053,310.2,0.39,0.36,2019-09-13,08:30,N,nominal,1.0NRT,292,0.7,N
31.79321,-101.74838,317.2,0.38,0.36,2019-09-13,08:30,N,nominal,1.0NRT,290.9,0.9,N
32.13437,-103.92796,308.7,0.4,0.37,2019-09-13,08:30,N,nominal,1.0NRT,291.3,0.7,N
29.77682,-91.73386,303.9,0.38,0.59,2019-09-13,08:30,N,nominal,1.0NRT,290.1,0.9,N
30.3407,-94.06225,304.2,0.55,0.51,2019-09-13,08:30,N,nominal,1.0NRT,293.5,1.9,N
32.17253,-104.02629,305.7,0.41,0.37,2019-09-13,08:30,N,nominal,1.0NRT,291.7,0.5,N
30.17679,-93.32806,307.6,0.61,0.53,2019-09-13,08:30,N,nominal,1.0NRT,293.6,3.2,N
32.16358,-103.64725,308.5,0.4,0.37,2019-09-13,08:30,N,nominal,1.0NRT,285.1,1.3,N
30.24176,-93.27444,307.1,0.61,0.53,2019-09-13,08:30,N,nominal,1.0NRT,293.7,2.2,N
31.91002,-101.86557,317.8,0.38,0.36,2019-09-13,08:30,N,nominal,1.0NRT,291.8,1.1,N
30.26049,-93.28874,318.6,0.61,0.53,2019-09-13,08:30,N,nominal,1.0NRT,292.6,2.4,N
32.7563,-108.14584,301.3,0.41,0.45,2019-09-13,08:30,N,nominal,1.0NRT,286.8,0.2,N
31.97398,-102.09943,303,0.38,0.36,2019-09-13,08:30,N,nominal,1.0NRT,290.6,0.4,N
32.75832,-108.14332,299.1,0.41,0.45,2019-09-13,08:30,N,nominal,1.0NRT,287.4,0.6,N
30.26239,-93.28804,317,0.61,0.53,2019-09-13,08:30,N,nominal,1.0NRT,292.9,3.3,N
32.28484,-104.00614,326.3,0.41,0.37,2019-09-13,08:30,N,nominal,1.0NRT,292.4,2.9,N
32.30501,-103.92706,303.6,0.4,0.37,2019-09-13,08:30,N,nominal,1.0NRT,291.9,0.4,N
32.26991,-103.42049,298.3,0.4,0.37,2019-09-13,08:30,N,nominal,1.0NRT,279.6,0.4,N
32.19242,-102.5689,302.2,0.39,0.36,2019-09-13,08:30,N,nominal,1.0NRT,289.9,0.3,N
32.33284,-103.4183,301.5,0.4,0.37,2019-09-13,08:30,N,nominal,1.0NRT,288.2,0.3,N
32.15479,-101.93343,307.1,0.38,0.36,2019-09-13,08:30,N,nominal,1.0NRT,291.5,3.2,N
32.15415,-101.92938,330.3,0.38,0.36,2019-09-13,08:30,N,nominal,1.0NRT,295.3,4.2,N
29.68293,-89.97284,308.3,0.49,0.65,2019-09-13,08:30,N,nominal,1.0NRT,292.2,2.1,N
32.20996,-101.938,299.8,0.38,0.36,2019-09-13,08:30,N,nominal,1.0NRT,285.9,1.8,N
32.20935,-101.93404,330,0.38,0.36,2019-09-13,08:30,N,nominal,1.0NRT,288.5,2.7,N
32.21326,-101.93728,305,0.38,0.36,2019-09-13,08:30,N,nominal,1.0NRT,286.4,1.8,N
32.21264,-101.93333,331.1,0.38,0.36,2019-09-13,08:30,N,nominal,1.0NRT,288.8,2.7,N
30.04054,-91.06387,302.5,0.41,0.61,2019-09-13,08:30,N,nominal,1.0NRT,290.3,0.3,N
32.62105,-104.46735,304.1,0.42,0.38,2019-09-13,08:30,N,nominal,1.0NRT,291.6,0.7,N
32.57814,-104.10852,301.8,0.41,0.37,2019-09-13,08:30,N,nominal,1.0NRT,291.4,0.3,N
32.25932,-101.82336,302.6,0.38,0.36,2019-09-13,08:30,N,nominal,1.0NRT,289.5,0.4,N
31.48055,-97.23896,304,0.53,0.42,2019-09-13,08:30,N,nominal,1.0NRT,291.7,0.3,N
30.05879,-90.66564,306,0.43,0.62,2019-09-13,08:30,N,nominal,1.0NRT,291.5,1.4,N
32.42491,-102.11981,301.1,0.38,0.36,2019-09-13,08:30,N,nominal,1.0NRT,286,0.7,N
31.349,-96.16941,303.6,0.4,0.44,2019-09-13,08:30,N,nominal,1.0NRT,293.3,0.8,N
30.05945,-90.59747,305.8,0.44,0.62,2019-09-13,08:30,N,nominal,1.0NRT,291.2,2.6,N
31.35301,-96.1683,314.6,0.4,0.44,2019-09-13,08:30,N,nominal,1.0NRT,293.2,1.6,N
30.20841,-91.01939,303.1,0.41,0.61,2019-09-13,08:30,N,nominal,1.0NRT,290.9,1,N
30.21385,-91.01755,330.4,0.41,0.61,2019-09-13,08:30,N,nominal,1.0NRT,290.7,2.1,N
30.3257,-91.28037,305.5,0.4,0.6,2019-09-13,08:30,N,nominal,1.0NRT,290.2,1,N
30.32111,-91.23787,306,0.4,0.6,2019-09-13,08:30,N,nominal,1.0NRT,292,1.9,N
31.70945,-97.58833,304.9,0.5,0.41,2019-09-13,08:30,N,nominal,1.0NRT,291.2,0.6,N
31.71027,-97.59235,307.7,0.5,0.41,2019-09-13,08:30,N,nominal,1.0NRT,291.5,1.1,N
30.48067,-91.18009,308.9,0.4,0.6,2019-09-13,08:30,N,nominal,1.0NRT,293,1.3,N
30.48168,-91.18414,305.3,0.4,0.6,2019-09-13,08:30,N,nominal,1.0NRT,292.4,1.3,N
30.74708,-92.2519,314.8,0.34,0.56,2019-09-13,08:30,N,nominal,1.0NRT,291.3,1.6,N
30.58235,-91.24036,307.6,0.39,0.59,2019-09-13,08:30,N,nominal,1.0NRT,291.2,0.7,N
32.24542,-97.55208,308.8,0.5,0.41,2019-09-13,08:30,N,nominal,1.0NRT,287.6,1.5,N
31.37698,-93.25539,304,0.58,0.52,2019-09-13,08:30,N,nominal,1.0NRT,291.5,1.7,N
30.73837,-89.90079,306.1,0.46,0.64,2019-09-13,08:30,N,nominal,1.0NRT,290.1,0.4,N
30.34112,-88.4882,307.5,0.57,0.69,2019-09-13,08:30,N,nominal,1.0NRT,292.8,3.2,N
30.73751,-89.90191,306,0.46,0.64,2019-09-13,08:30,N,nominal,1.0NRT,290.3,0.6,N
32.75859,-96.74892,305.1,0.53,0.42,2019-09-13,08:30,N,nominal,1.0NRT,291.6,1.1,N
32.76022,-96.74733,306.8,0.53,0.42,2019-09-13,08:30,N,nominal,1.0NRT,291.9,1,N
32.13071,-93.39916,305.2,0.55,0.51,2019-09-13,08:30,N,nominal,1.0NRT,292.8,3.3,N
32.12944,-93.39354,322.4,0.55,0.51,2019-09-13,08:30,N,nominal,1.0NRT,293.4,3.2,N
30.94159,-88.01314,305.1,0.58,0.7,2019-09-13,08:30,N,nominal,1.0NRT,292.4,1.6,N
31.14909,-87.98763,325.1,0.58,0.7,2019-09-13,08:30,N,nominal,1.0NRT,291.6,4,N
32.31435,-90.13285,327.9,0.41,0.61,2019-09-13,08:30,N,nominal,1.0NRT,293.5,3.5,N
32.94199,-89.60712,327.2,0.43,0.62,2019-09-13,08:30,N,nominal,1.0NRT,292.8,2.1,N
33.44534,-88.58061,304.1,0.47,0.64,2019-09-13,08:30,N,nominal,1.0NRT,292.7,1.3,N
33.23405,-87.5059,305.6,0.54,0.68,2019-09-13,08:30,N,nominal,1.0NRT,292.5,0.9,N
33.10196,-86.79913,307.2,0.6,0.7,2019-09-13,08:30,N,nominal,1.0NRT,291.5,1.1,N
33.10157,-86.80046,306.8,0.6,0.7,2019-09-13,08:30,N,nominal,1.0NRT,291.5,1.6,N
33.17923,-86.75496,303.7,0.6,0.7,2019-09-13,08:30,N,nominal,1.0NRT,291.3,0.9,N
33.2168,-86.78882,305.4,0.6,0.7,2019-09-13,08:30,N,nominal,1.0NRT,291.8,0.9,N
33.24593,-86.81796,302.3,0.59,0.7,2019-09-13,08:30,N,nominal,1.0NRT,291.9,0.7,N
33.17943,-86.75519,303.4,0.6,0.7,2019-09-13,08:30,N,nominal,1.0NRT,291.2,0.9,N
33.21725,-86.78901,304.9,0.59,0.7,2019-09-13,08:30,N,nominal,1.0NRT,291.8,1.3,N
33.24659,-86.81807,302.3,0.59,0.7,2019-09-13,08:30,N,nominal,1.0NRT,291.7,0.9,N
33.41135,-110.85978,300.3,0.59,0.53,2019-09-13,08:30,N,nominal,1.0NRT,289.4,0.8,N
33.41674,-110.86519,299.5,0.59,0.53,2019-09-13,08:30,N,nominal,1.0NRT,288.4,3.1,N
33.41623,-110.85904,330.7,0.59,0.53,2019-09-13,08:30,N,nominal,1.0NRT,290,3.4,N
30.10793,-90.89344,304,0.42,0.61,2019-09-13,08:30,N,nominal,1.0NRT,291.2,1.6,N
30.10901,-90.89778,303.8,0.42,0.61,2019-09-13,08:30,N,nominal,1.0NRT,291.3,1.3,N
32.35148,-101.95399,315.1,0.38,0.36,2019-09-13,08:30,N,nominal,1.0NRT,291.5,0.7,N
32.39322,-102.13368,304.6,0.38,0.36,2019-09-13,08:30,N,nominal,1.0NRT,290.2,0.4,N
32.38857,-102.03961,304.1,0.38,0.36,2019-09-13,08:30,N,nominal,1.0NRT,290.7,0.4,N
30.10606,-90.8966,307.6,0.42,0.61,2019-09-13,08:30,N,nominal,1.0NRT,291.6,1,N
32.41896,-102.12531,304.4,0.38,0.36,2019-09-13,08:30,N,nominal,1.0NRT,289.3,0.7,N
22.26191,-97.80819,307.2,0.48,0.48,2019-09-13,08:36,N,nominal,1.0NRT,286.1,1.3,N
22.35224,-97.87287,304.2,0.47,0.48,2019-09-13,08:36,N,nominal,1.0NRT,288.5,1.1,N
24.16788,-106.98682,302.2,0.44,0.38,2019-09-13,08:36,N,nominal,1.0NRT,281.4,0.7,N
25.45414,-100.99956,298.6,0.44,0.38,2019-09-13,08:36,N,nominal,1.0NRT,286.9,0.4,N
25.60351,-100.92041,325.2,0.44,0.38,2019-09-13,08:36,N,nominal,1.0NRT,288,2.8,N
25.58298,-99.93475,321.3,0.48,0.4,2019-09-13,08:36,N,nominal,1.0NRT,289.7,2.8,N
25.69618,-100.26778,322.4,0.46,0.39,2019-09-13,08:36,N,nominal,1.0NRT,291.4,2.9,N
25.71637,-100.29667,328.3,0.46,0.39,2019-09-13,08:36,N,nominal,1.0NRT,290.8,3,N
25.72079,-100.30046,309.7,0.46,0.39,2019-09-13,08:36,N,nominal,1.0NRT,291.7,1.9,N
25.72162,-100.30504,319.6,0.46,0.39,2019-09-13,08:36,N,nominal,1.0NRT,291.3,1.9,N
27.50141,-113.37553,324.5,0.36,0.57,2019-09-13,08:36,N,nominal,1.0NRT,288.6,1.9,N
25.72227,-100.10268,308.2,0.47,0.4,2019-09-13,08:36,N,nominal,1.0NRT,290.4,1,N
27.02786,-103.37061,302.8,0.38,0.36,2019-09-13,08:36,N,nominal,1.0NRT,283.7,0.9,N
26.17206,-98.1192,304.8,0.39,0.44,2019-09-13,08:36,N,nominal,1.0NRT,291.4,0.7,N
26.85314,-101.39552,302.5,0.41,0.37,2019-09-13,08:36,N,nominal,1.0NRT,289.2,0.5,N
26.85654,-101.39478,305.1,0.41,0.37,2019-09-13,08:36,N,nominal,1.0NRT,289.9,0.5,N
26.87704,-101.41154,309.4,0.41,0.37,2019-09-13,08:36,N,nominal,1.0NRT,291.1,0.9,N
26.87846,-101.41974,315.9,0.41,0.37,2019-09-13,08:36,N,nominal,1.0NRT,291.4,1.9,N
26.88623,-101.46473,311.4,0.41,0.37,2019-09-13,08:36,N,nominal,1.0NRT,290.6,1.1,N
26.88043,-101.41078,307,0.41,0.37,2019-09-13,08:36,N,nominal,1.0NRT,291.6,0.9,N
26.88114,-101.41489,318.9,0.41,0.37,2019-09-13,08:36,N,nominal,1.0NRT,292.1,1.9,N
26.88891,-101.45989,302.6,0.41,0.37,2019-09-13,08:36,N,nominal,1.0NRT,290.6,1.5,N
26.88679,-101.44761,331.1,0.41,0.37,2019-09-13,08:36,N,nominal,1.0NRT,291.9,7.2,N
26.89229,-101.45915,322.2,0.41,0.37,2019-09-13,08:36,N,nominal,1.0NRT,291.1,1.4,N
26.51325,-98.94437,303.5,0.52,0.42,2019-09-13,08:36,N,nominal,1.0NRT,290.6,0.9,N
26.51702,-98.94348,302.9,0.52,0.42,2019-09-13,08:36,N,nominal,1.0NRT,291.1,0.9,N
26.51508,-98.94173,309.2,0.52,0.42,2019-09-13,08:36,N,nominal,1.0NRT,291.1,1,N
26.51608,-98.94689,302.6,0.52,0.42,2019-09-13,08:36,N,nominal,1.0NRT,291.1,1,N
27.45263,-98.12244,311.1,0.55,0.43,2019-09-13,08:36,N,nominal,1.0NRT,291.2,1.6,N
27.4516,-98.12174,310.4,0.55,0.43,2019-09-13,08:36,N,nominal,1.0NRT,291.3,1.9,N
27.81601,-97.4847,309.3,0.39,0.44,2019-09-13,08:36,N,nominal,1.0NRT,295.2,1.9,N
28.27884,-99.60276,303.7,0.46,0.39,2019-09-13,08:36,N,nominal,1.0NRT,291.3,0.7,N
27.88852,-97.27828,318.4,0.4,0.44,2019-09-13,08:36,N,nominal,1.0NRT,295.2,2.9,N
28.50834,-99.27926,310.3,0.47,0.4,2019-09-13,08:36,N,nominal,1.0NRT,291.9,1,N
28.47634,-99.08589,321.4,0.48,0.4,2019-09-13,08:36,N,nominal,1.0NRT,292.5,1.5,N
28.53447,-98.95672,311.8,0.49,0.4,2019-09-13,08:36,N,nominal,1.0NRT,291.8,1,N
28.53697,-98.49574,306.2,0.51,0.41,2019-09-13,08:36,N,nominal,1.0NRT,292.6,0.7,N
28.60138,-98.26475,327.5,0.52,0.42,2019-09-13,08:36,N,nominal,1.0NRT,292.9,2.9,N
30.54827,-112.32858,311,0.33,0.56,2019-09-13,08:36,N,nominal,1.0NRT,293.1,0.7,N
28.51329,-96.79527,308.2,0.42,0.45,2019-09-13,08:36,N,nominal,1.0NRT,295.1,0.9,N
30.49725,-109.63374,338.6,0.46,0.47,2019-09-13,08:36,N,nominal,1.0NRT,292.5,5.9,N
28.81,-98.13136,306.1,0.53,0.42,2019-09-13,08:36,N,nominal,1.0NRT,292,0.5,N
31.08907,-116.09612,298.1,0.57,0.69,2019-09-13,08:36,N,nominal,1.0NRT,281.1,1.5,N
28.93542,-97.8824,312.4,0.54,0.42,2019-09-13,08:36,N,nominal,1.0NRT,292.8,1.5,N
28.93577,-97.88138,316.9,0.54,0.42,2019-09-13,08:36,N,nominal,1.0NRT,293.1,1,N
28.95697,-97.7022,306.8,0.55,0.43,2019-09-13,08:36,N,nominal,1.0NRT,292.6,1,N
29.3412,-97.11187,305.6,0.39,0.44,2019-09-13,08:36,N,nominal,1.0NRT,294.1,1.6,N
29.57633,-98.03291,330.3,0.52,0.41,2019-09-13,08:36,N,nominal,1.0NRT,293.6,3.9,N
29.42023,-97.17384,309.8,0.38,0.43,2019-09-13,08:36,N,nominal,1.0NRT,292.6,0.6,N
29.6788,-98.18156,306.8,0.51,0.41,2019-09-13,08:36,N,nominal,1.0NRT,292.1,1.7,N
29.68253,-98.18066,303.5,0.51,0.41,2019-09-13,08:36,N,nominal,1.0NRT,292.2,0.9,N
19.56823,-92.23315,343.8,0.6,0.71,2019-09-13,08:36,N,nominal,1.0NRT,280.4,5.9,N
19.60209,-92.29075,303.8,0.59,0.7,2019-09-13,08:36,N,nominal,1.0NRT,280.6,1.2,N
22.23689,-98.02397,307.6,0.46,0.47,2019-09-13,08:36,N,nominal,1.0NRT,287.8,1.4,N
22.26627,-97.80717,310.5,0.48,0.48,2019-09-13,08:36,N,nominal,1.0NRT,289.5,1.3,N
16.2053,-95.16473,311.4,0.46,0.63,2019-09-13,08:36,N,nominal,1.0NRT,286.9,2.8,N
16.2129,-95.17199,307.4,0.46,0.63,2019-09-13,08:36,N,nominal,1.0NRT,287.3,2.5,N
18.79662,-99.1795,300,0.45,0.47,2019-09-13,08:36,N,nominal,1.0NRT,283.9,0.8,N
17.65605,-93.36037,354.7,0.56,0.69,2019-09-13,08:36,N,nominal,1.0NRT,280.1,12,N
17.96699,-94.51424,307.5,0.46,0.64,2019-09-13,08:36,N,nominal,1.0NRT,273.7,6.6,N
17.96793,-94.51865,314.4,0.46,0.64,2019-09-13,08:36,N,nominal,1.0NRT,273.1,4.3,N
17.97469,-94.52165,304.9,0.46,0.64,2019-09-13,08:36,N,nominal,1.0NRT,276.2,4.3,N
17.97564,-94.52607,303.3,0.46,0.64,2019-09-13,08:36,N,nominal,1.0NRT,274.2,5.5,N
17.97231,-94.52047,297.6,0.46,0.64,2019-09-13,08:36,N,nominal,1.0NRT,275.9,2.7,N
17.97328,-94.52486,314.4,0.46,0.64,2019-09-13,08:36,N,nominal,1.0NRT,275.2,2.7,N
17.97133,-94.51607,335.4,0.46,0.64,2019-09-13,08:36,N,nominal,1.0NRT,275.7,4.5,N
17.9788,-94.11777,296.5,0.49,0.65,2019-09-13,08:36,N,nominal,1.0NRT,268.9,4.2,N
17.79167,-93.12143,300.2,0.57,0.69,2019-09-13,08:36,N,nominal,1.0NRT,278.5,1.3,N
17.83706,-93.11568,312.1,0.57,0.69,2019-09-13,08:36,N,nominal,1.0NRT,278.9,5.3,N
17.83829,-93.12117,327,0.57,0.69,2019-09-13,08:36,N,nominal,1.0NRT,279.4,9.1,N
17.84334,-93.11399,325.5,0.57,0.69,2019-09-13,08:36,N,nominal,1.0NRT,279.3,5.3,N
17.84458,-93.11948,345.8,0.57,0.69,2019-09-13,08:36,N,nominal,1.0NRT,280.3,9.1,N
17.89049,-93.17605,314.9,0.57,0.69,2019-09-13,08:36,N,nominal,1.0NRT,282,5.9,N
17.89169,-93.18141,346.9,0.57,0.69,2019-09-13,08:36,N,nominal,1.0NRT,281.9,5.9,N
17.89288,-93.18678,335.4,0.57,0.69,2019-09-13,08:36,N,nominal,1.0NRT,279.5,8.9,N
17.89915,-93.18517,307,0.57,0.69,2019-09-13,08:36,N,nominal,1.0NRT,281.7,8.9,N
17.89795,-93.17974,336.3,0.57,0.69,2019-09-13,08:36,N,nominal,1.0NRT,282.2,5.9,N
17.79471,-92.68739,300.1,0.61,0.71,2019-09-13,08:36,N,nominal,1.0NRT,282.6,0.8,N
18.09448,-94.04522,313.2,0.49,0.65,2019-09-13,08:36,N,nominal,1.0NRT,281.1,2.4,N
17.89179,-93.17517,311.4,0.57,0.69,2019-09-13,08:36,N,nominal,1.0NRT,282.2,3.7,N
17.89303,-93.18056,319,0.57,0.69,2019-09-13,08:36,N,nominal,1.0NRT,281.8,5.1,N
18.08932,-94.04516,304.3,0.49,0.65,2019-09-13,08:36,N,nominal,1.0NRT,279.7,1.7,N
17.89425,-93.1859,344.4,0.57,0.69,2019-09-13,08:36,N,nominal,1.0NRT,280.8,5.1,N
17.89929,-93.17892,327.5,0.57,0.69,2019-09-13,08:36,N,nominal,1.0NRT,282.4,5.1,N
17.90052,-93.18431,320.9,0.57,0.69,2019-09-13,08:36,N,nominal,1.0NRT,281.9,5.1,N
17.79296,-92.68798,308,0.61,0.71,2019-09-13,08:36,N,nominal,1.0NRT,282.1,1.3,N
18.19939,-94.00314,301,0.5,0.65,2019-09-13,08:36,N,nominal,1.0NRT,282.4,2.7,N
18.20041,-94.00784,334.9,0.5,0.65,2019-09-13,08:36,N,nominal,1.0NRT,283,2.7,N
18.20185,-94.0058,341.7,0.49,0.65,2019-09-13,08:36,N,nominal,1.0NRT,282.7,6.8,N
17.89637,-92.48721,347.6,0.63,0.72,2019-09-13,08:36,N,nominal,1.0NRT,283.7,8.5,N
17.89774,-92.49316,320.8,0.63,0.72,2019-09-13,08:36,N,nominal,1.0NRT,284,9.1,N
18.2205,-93.89152,308.2,0.5,0.66,2019-09-13,08:36,N,nominal,1.0NRT,282.4,1,N
18.22155,-93.89627,300.8,0.5,0.66,2019-09-13,08:36,N,nominal,1.0NRT,282.1,1,N
18.06407,-93.09892,295.3,0.57,0.69,2019-09-13,08:36,N,nominal,1.0NRT,275.4,1.8,N
19.18049,-96.23392,310.3,0.34,0.56,2019-09-13,08:36,N,nominal,1.0NRT,284,1,N
18.64084,-92.16813,302.2,0.63,0.72,2019-09-13,08:36,N,nominal,1.0NRT,253.9,3.4,N
18.64222,-92.17416,297.9,0.63,0.72,2019-09-13,08:36,N,nominal,1.0NRT,253,3.5,N
18.64497,-92.16697,295.2,0.63,0.72,2019-09-13,08:36,N,nominal,1.0NRT,255.6,1.7,N
18.64639,-92.17299,300.8,0.63,0.72,2019-09-13,08:36,N,nominal,1.0NRT,257,1.7,N
20.52135,-100.92245,301.4,0.51,0.41,2019-09-13,08:36,N,nominal,1.0NRT,284.7,1.7,N
20.52508,-100.92168,316.2,0.51,0.41,2019-09-13,08:36,N,nominal,1.0NRT,285,1.7,N
20.57765,-101.17152,325.2,0.49,0.4,2019-09-13,08:36,N,nominal,1.0NRT,283.9,3.3,N
19.29486,-92.16216,307.4,0.61,0.71,2019-09-13,08:36,N,nominal,1.0NRT,255.7,6.6,N
19.29438,-92.16491,302.9,0.61,0.71,2019-09-13,08:36,N,nominal,1.0NRT,256.4,3.9,N
19.36625,-92.00119,314.9,0.63,0.72,2019-09-13,08:36,N,nominal,1.0NRT,281.5,4.9,N
19.3773,-92.04888,312.3,0.62,0.71,2019-09-13,08:36,N,nominal,1.0NRT,283.1,3.3,N
19.39438,-92.04459,312.7,0.62,0.71,2019-09-13,08:36,N,nominal,1.0NRT,282.4,5.1,N
19.39579,-92.05052,303,0.62,0.71,2019-09-13,08:36,N,nominal,1.0NRT,282.5,5.1,N
19.39298,-92.03867,356.5,0.62,0.71,2019-09-13,08:36,N,nominal,1.0NRT,282.3,8.9,N
19.39947,-92.03693,309.5,0.62,0.71,2019-09-13,08:36,N,nominal,1.0NRT,281.2,2.1,N
19.43817,-92.03255,309.1,0.62,0.71,2019-09-13,08:36,N,nominal,1.0NRT,279.9,2.7,N
19.56182,-92.23486,336.5,0.6,0.71,2019-09-13,08:36,N,nominal,1.0NRT,280.4,4.9,N
32.52745,-116.77404,303.5,0.35,0.56,2019-09-13,10:12,N,nominal,1.0NRT,289.4,1,N
32.52654,-116.77541,313.5,0.35,0.56,2019-09-13,10:12,N,nominal,1.0NRT,289.6,1.1,N
33.42102,-110.86173,310.9,0.69,0.74,2019-09-13,10:12,N,nominal,1.0NRT,288.8,2.4,N
33.41439,-110.86431,308.2,0.69,0.74,2019-09-13,10:12,N,nominal,1.0NRT,288.6,2.4,N
10.53339,-70.60575,334.9,0.39,0.37,2019-09-13,18:00,N,nominal,1.0NRT,291.8,2.7,D
7.72221,-61.69101,341.5,0.39,0.59,2019-09-13,18:00,N,nominal,1.0NRT,288.2,5.1,D
7.7671,-62.22811,329,0.35,0.57,2019-09-13,18:00,N,nominal,1.0NRT,276.7,1.7,D
7.78867,-65.29711,336.6,0.44,0.46,2019-09-13,18:00,N,nominal,1.0NRT,272,4,D
7.7881,-65.30111,340.7,0.44,0.46,2019-09-13,18:00,N,nominal,1.0NRT,273,4,D
8.13123,-65.09182,347,0.46,0.47,2019-09-13,18:00,N,nominal,1.0NRT,290.1,6.5,D
8.11147,-66.16555,340.3,0.39,0.44,2019-09-13,18:00,N,nominal,1.0NRT,294.4,3.7,D
8.52555,-64.07316,330.7,0.54,0.51,2019-09-13,18:00,N,nominal,1.0NRT,292.1,2.3,D
8.55674,-64.13678,341.2,0.54,0.51,2019-09-13,18:00,N,nominal,1.0NRT,293.4,5.9,D
8.72639,-62.90816,356,0.33,0.55,2019-09-13,18:00,N,nominal,1.0NRT,290.5,4.8,D
8.74356,-63.05041,338.6,0.32,0.55,2019-09-13,18:00,N,nominal,1.0NRT,292.3,3.5,D
8.4182,-65.52606,334.8,0.44,0.46,2019-09-13,18:00,N,nominal,1.0NRT,288.7,3.7,D
8.41768,-65.52496,332.4,0.44,0.46,2019-09-13,18:00,N,nominal,1.0NRT,287.6,3.2,D
8.53107,-66.71198,343.5,0.55,0.43,2019-09-13,18:00,N,nominal,1.0NRT,298.6,9.2,D
8.55686,-66.70012,336.4,0.55,0.43,2019-09-13,18:00,N,nominal,1.0NRT,298.6,5.3,D
8.65446,-66.39483,343.7,0.39,0.44,2019-09-13,18:00,N,nominal,1.0NRT,295.8,4.4,D
9.2742,-64.04287,339.6,0.56,0.52,2019-09-13,18:00,N,nominal,1.0NRT,286.4,6,D
9.27437,-64.04556,331.4,0.56,0.52,2019-09-13,18:00,N,nominal,1.0NRT,286.2,5.9,D
9.37516,-64.52194,341.2,0.52,0.5,2019-09-13,18:00,N,nominal,1.0NRT,290.5,7.8,D
9.37323,-64.53623,329.1,0.52,0.5,2019-09-13,18:00,N,nominal,1.0NRT,286.1,2.6,D
9.3864,-64.54294,340.3,0.52,0.5,2019-09-13,18:00,N,nominal,1.0NRT,287.4,8.4,D
9.38575,-64.54771,341.4,0.52,0.5,2019-09-13,18:00,N,nominal,1.0NRT,289.7,8.9,D
8.55748,-70.57832,344.2,0.39,0.36,2019-09-13,18:00,N,nominal,1.0NRT,292.6,6.1,D
9.56154,-63.63091,329.5,0.6,0.53,2019-09-13,18:00,N,nominal,1.0NRT,281,3,D
9.64187,-63.55517,349.8,0.61,0.54,2019-09-13,18:00,N,nominal,1.0NRT,284.5,25.8,D
9.64111,-63.56081,344.5,0.61,0.54,2019-09-13,18:00,N,nominal,1.0NRT,284.2,25.8,D
9.64036,-63.56641,336.2,0.61,0.54,2019-09-13,18:00,N,nominal,1.0NRT,282.9,10.8,D
9.62372,-63.69003,344.6,0.6,0.53,2019-09-13,18:00,N,nominal,1.0NRT,284.5,43.3,D
9.61927,-63.72305,351.1,0.6,0.53,2019-09-13,18:00,N,nominal,1.0NRT,286.9,41.1,D
9.61853,-63.72855,340.9,0.6,0.53,2019-09-13,18:00,N,nominal,1.0NRT,280.5,41.1,D
9.64454,-63.57279,334.4,0.61,0.53,2019-09-13,18:00,N,nominal,1.0NRT,282.7,10.8,D
9.62788,-63.69623,338.8,0.6,0.53,2019-09-13,18:00,N,nominal,1.0NRT,279.4,43.3,D
9.65481,-63.53404,348.8,0.61,0.54,2019-09-13,18:00,N,nominal,1.0NRT,282.5,14.9,D
9.64759,-63.62456,332.3,0.61,0.53,2019-09-13,18:00,N,nominal,1.0NRT,283.4,7.1,D
9.64684,-63.63008,342.4,0.61,0.53,2019-09-13,18:00,N,nominal,1.0NRT,283.2,7.1,D
9.65326,-63.61974,345.1,0.61,0.53,2019-09-13,18:00,N,nominal,1.0NRT,285.8,42.6,D
9.65251,-63.62528,352.6,0.61,0.53,2019-09-13,18:00,N,nominal,1.0NRT,286.6,106.9,D
9.67822,-63.47332,353.8,0.62,0.54,2019-09-13,18:00,N,nominal,1.0NRT,282.3,35.2,D
9.64229,-63.55696,344.2,0.61,0.54,2019-09-13,18:00,N,nominal,1.0NRT,283.6,18.6,D
9.64158,-63.5626,351.9,0.61,0.54,2019-09-13,18:00,N,nominal,1.0NRT,284.5,42.4,D
9.62515,-63.69209,343.7,0.6,0.53,2019-09-13,18:00,N,nominal,1.0NRT,285.2,70.8,D
9.65084,-63.52933,341.1,0.62,0.54,2019-09-13,18:00,N,nominal,1.0NRT,282.4,12.1,D
9.64509,-63.57462,328.7,0.61,0.54,2019-09-13,18:00,N,nominal,1.0NRT,282.5,4.5,D
9.65506,-63.53579,350.4,0.62,0.54,2019-09-13,18:00,N,nominal,1.0NRT,281.4,12.1,D
9.64923,-63.62094,348.2,0.61,0.53,2019-09-13,18:00,N,nominal,1.0NRT,286.9,52.9,D
9.64852,-63.62649,347.8,0.61,0.53,2019-09-13,18:00,N,nominal,1.0NRT,286.7,52.9,D
9.64781,-63.63202,336.4,0.61,0.53,2019-09-13,18:00,N,nominal,1.0NRT,282.5,28.5,D
9.65344,-63.62723,343.6,0.61,0.53,2019-09-13,18:00,N,nominal,1.0NRT,283.8,52.9,D
9.678,-63.47496,348.8,0.62,0.54,2019-09-13,18:00,N,nominal,1.0NRT,282.4,27.2,D
9.70117,-63.53059,329.8,0.62,0.54,2019-09-13,18:00,N,nominal,1.0NRT,278.6,3.9,D
9.73445,-63.46994,347.6,0.62,0.54,2019-09-13,18:00,N,nominal,1.0NRT,282.8,16.2,D
9.73943,-63.47069,329.3,0.62,0.54,2019-09-13,18:00,N,nominal,1.0NRT,281.2,6.3,D
9.7764,-63.2688,340.9,0.32,0.55,2019-09-13,18:00,N,nominal,1.0NRT,284.6,3.8,D
10.07539,-64.85628,339.6,0.51,0.49,2019-09-13,18:00,N,nominal,1.0NRT,280.9,7.8,D
10.41916,-63.32747,330.7,0.33,0.55,2019-09-13,18:00,N,nominal,1.0NRT,283,5.4,D
10.41877,-63.33045,344,0.33,0.55,2019-09-13,18:00,N,nominal,1.0NRT,283.1,4.2,D
9.50962,-70.42875,330.8,0.39,0.36,2019-09-13,18:00,N,nominal,1.0NRT,299.5,2.8,D
9.96082,-67.94102,331.6,0.49,0.4,2019-09-13,18:00,N,nominal,1.0NRT,294.6,3.7,D
10.00736,-67.93433,331.7,0.49,0.4,2019-09-13,18:00,N,nominal,1.0NRT,294.7,3.5,D
10.0098,-67.94382,333.5,0.49,0.4,2019-09-13,18:00,N,nominal,1.0NRT,293.9,7,D
9.65465,-70.43262,338.9,0.39,0.36,2019-09-13,18:00,N,nominal,1.0NRT,298.6,2.3,D
9.64113,-70.65365,331.5,0.39,0.36,2019-09-13,18:00,N,nominal,1.0NRT,287.3,6,D
9.64061,-70.65715,332.3,0.39,0.36,2019-09-13,18:00,N,nominal,1.0NRT,287.3,6,D
9.63137,-70.74199,332.2,0.39,0.36,2019-09-13,18:00,N,nominal,1.0NRT,271.4,2.8,D
10.30185,-66.10146,345,0.42,0.46,2019-09-13,18:00,N,nominal,1.0NRT,290,7.4,D
10.02484,-68.66209,334.9,0.45,0.39,2019-09-13,18:00,N,nominal,1.0NRT,292.1,3.7,D
10.02645,-68.66201,333.3,0.45,0.39,2019-09-13,18:00,N,nominal,1.0NRT,291.6,3.9,D
10.4301,-66.35192,340.8,0.41,0.45,2019-09-13,18:00,N,nominal,1.0NRT,289.1,4.3,D
10.49538,-66.19544,327.6,0.42,0.45,2019-09-13,18:00,N,nominal,1.0NRT,282.4,3.3,D
10.58891,-66.36055,346.6,0.41,0.45,2019-09-13,18:00,N,nominal,1.0NRT,288.5,6.5,D
10.11077,-69.87586,333.5,0.41,0.37,2019-09-13,18:00,N,nominal,1.0NRT,301.6,2,D
10.35907,-69.28006,339.7,0.43,0.38,2019-09-13,18:00,N,nominal,1.0NRT,298.7,144.8,D
10.36202,-69.28433,331.6,0.43,0.38,2019-09-13,18:00,N,nominal,1.0NRT,297.6,23.6,D
10.60102,-69.35046,337.1,0.43,0.38,2019-09-13,18:00,N,nominal,1.0NRT,296,19.3,D
10.40912,-70.66793,335.8,0.39,0.36,2019-09-13,18:00,N,nominal,1.0NRT,294.3,7.5,D
10.60449,-69.35114,337.4,0.43,0.38,2019-09-13,18:00,N,nominal,1.0NRT,294.4,19.3,D
10.3831,-71.04866,330.1,0.39,0.36,2019-09-13,18:00,N,nominal,1.0NRT,288.1,2.5,D
10.53541,-70.18629,334.6,0.4,0.37,2019-09-13,18:00,N,nominal,1.0NRT,302.4,1.5,D
10.66294,-69.4989,338.5,0.43,0.38,2019-09-13,18:00,N,nominal,1.0NRT,293.3,4.4,D
10.66642,-69.49932,333.9,0.43,0.38,2019-09-13,18:00,N,nominal,1.0NRT,293.3,3.2,D
10.42112,-71.24539,336.8,0.39,0.36,2019-09-13,18:00,N,nominal,1.0NRT,299.2,4.3,D
10.42059,-71.2489,336.2,0.39,0.36,2019-09-13,18:00,N,nominal,1.0NRT,299.8,4.3,D
9.73371,-63.47559,347.4,0.62,0.54,2019-09-13,18:00,N,nominal,1.0NRT,284.1,16.2,D
18.7821,-70.17076,334.9,0.48,0.4,2019-09-13,18:06,N,nominal,1.0NRT,297.8,1.4,D
30.26792,-83.07568,339,0.42,0.45,2019-09-13,18:06,N,nominal,1.0NRT,285.1,4.7,D
28.57063,-87.93905,328.5,0.43,0.62,2019-09-13,18:06,N,nominal,1.0NRT,288,5.5,D
28.57172,-87.93469,329.2,0.43,0.62,2019-09-13,18:06,N,nominal,1.0NRT,288.3,7.6,D
29.71005,-82.87286,341,0.42,0.45,2019-09-13,18:06,N,nominal,1.0NRT,281.8,4.4,D
28.57518,-87.93657,355.5,0.43,0.62,2019-09-13,18:06,N,nominal,1.0NRT,288.5,9.1,D
22.69698,-82.88462,343.1,0.57,0.52,2019-09-13,18:06,N,nominal,1.0NRT,287.9,16.1,D
22.69614,-82.88772,338.7,0.57,0.52,2019-09-13,18:06,N,nominal,1.0NRT,287.1,16.8,D
22.76859,-80.57405,328.8,0.41,0.45,2019-09-13,18:06,N,nominal,1.0NRT,291.8,2.3,D
22.19765,-80.64155,327.5,0.43,0.46,2019-09-13,18:06,N,nominal,1.0NRT,294.5,2.1,D
21.82811,-79.88008,327.3,0.39,0.44,2019-09-13,18:06,N,nominal,1.0NRT,291.9,3.5,D
20.52368,-76.63978,354.8,0.43,0.38,2019-09-13,18:06,N,nominal,1.0NRT,309.5,30,D
20.52436,-76.6357,367,0.43,0.38,2019-09-13,18:06,N,high,1.0NRT,307.1,30,D
20.5209,-76.63506,347.6,0.43,0.38,2019-09-13,18:06,N,nominal,1.0NRT,302.8,6.7,D
19.80334,-71.6441,334.1,0.42,0.38,2019-09-13,18:06,N,nominal,1.0NRT,286.7,2.2,D
19.79988,-71.64356,338,0.42,0.38,2019-09-13,18:06,N,nominal,1.0NRT,289.4,2.2,D
19.3877,-71.68093,351.7,0.42,0.38,2019-09-13,18:06,N,nominal,1.0NRT,293.1,6.8,D
19.37224,-71.69073,332.3,0.42,0.37,2019-09-13,18:06,N,nominal,1.0NRT,293.6,2.6,D
19.14418,-71.52645,334.1,0.42,0.38,2019-09-13,18:06,N,nominal,1.0NRT,294.1,2.5,D
19.02519,-72.34386,334.5,0.4,0.37,2019-09-13,18:06,N,nominal,1.0NRT,301.7,4.8,D
19.20611,-70.33179,336.9,0.47,0.4,2019-09-13,18:06,N,nominal,1.0NRT,302.7,4.3,D
19.1789,-70.3689,335,0.47,0.4,2019-09-13,18:06,N,nominal,1.0NRT,302,3.7,D
19.20737,-70.15162,336,0.48,0.4,2019-09-13,18:06,N,nominal,1.0NRT,304.6,2.6,D
19.17995,-70.16846,336.9,0.48,0.4,2019-09-13,18:06,N,nominal,1.0NRT,302.5,2.5,D
19.28775,-69.17613,332.1,0.54,0.42,2019-09-13,18:06,N,nominal,1.0NRT,293.8,4.3,D
19.23106,-69.37206,344.7,0.53,0.42,2019-09-13,18:06,N,nominal,1.0NRT,293,6.7,D
19.15139,-69.89962,331.8,0.49,0.41,2019-09-13,18:06,N,nominal,1.0NRT,294.4,4.1,D
19.14766,-69.89909,337.7,0.49,0.41,2019-09-13,18:06,N,nominal,1.0NRT,295.7,4.3,D
18.91871,-71.07785,333.7,0.44,0.38,2019-09-13,18:06,N,nominal,1.0NRT,298.2,3.5,D
18.92816,-70.35493,345.2,0.47,0.4,2019-09-13,18:06,N,nominal,1.0NRT,307,27.8,D
18.78058,-71.39519,333.9,0.42,0.38,2019-09-13,18:06,N,nominal,1.0NRT,301.2,9.4,D
18.9245,-70.35458,333.4,0.47,0.4,2019-09-13,18:06,N,nominal,1.0NRT,302.6,1.9,D
18.8752,-70.13728,333.5,0.48,0.4,2019-09-13,18:06,N,nominal,1.0NRT,299.3,2.5,D
18.79676,-70.17283,331,0.48,0.4,2019-09-13,18:06,N,low,1.0NRT,302.2,3.5,D
18.78705,-70.18976,340,0.47,0.4,2019-09-13,18:06,N,nominal,1.0NRT,302.6,6.8,D
18.69263,-70.39405,333.2,0.46,0.39,2019-09-13,18:06,N,nominal,1.0NRT,299.5,5.6,D
18.55264,-71.28002,334.4,0.43,0.38,2019-09-13,18:06,N,nominal,1.0NRT,299.1,1.6,D
18.58393,-70.89828,330.4,0.44,0.38,2019-09-13,18:06,N,nominal,1.0NRT,298.4,2.1,D
18.39656,-71.32257,341.4,0.42,0.38,2019-09-13,18:06,N,nominal,1.0NRT,310.8,5.6,D
18.71139,-68.58279,367,0.38,0.43,2019-09-13,18:06,N,high,1.0NRT,298.9,10.9,D
18.58997,-69.28431,331.3,0.52,0.42,2019-09-13,18:06,N,nominal,1.0NRT,293.7,3.3,D
18.53385,-69.59952,336,0.5,0.41,2019-09-13,18:06,N,nominal,1.0NRT,301.1,7.5,D
18.20063,-71.89928,335.5,0.4,0.37,2019-09-13,18:06,N,nominal,1.0NRT,301.5,1.9,D
15.55069,-85.42255,333.4,0.57,0.69,2019-09-13,18:06,N,nominal,1.0NRT,289.8,14.8,D
15.54967,-85.42719,367,0.57,0.69,2019-09-13,18:06,N,high,1.0NRT,291.6,16.4,D
18.44859,-68.47859,336.1,0.39,0.44,2019-09-13,18:06,N,nominal,1.0NRT,297.9,12.2,D
18.44903,-68.47494,342.1,0.39,0.44,2019-09-13,18:06,N,nominal,1.0NRT,300.2,12.2,D
17.99414,-71.66248,336.2,0.41,0.37,2019-09-13,18:06,N,nominal,1.0NRT,304.7,2.7,D
15.54988,-85.42181,335.1,0.57,0.69,2019-09-13,18:06,N,nominal,1.0NRT,291,12.1,D
15.54887,-85.42656,367,0.57,0.69,2019-09-13,18:06,N,high,1.0NRT,291.9,12.1,D
14.56269,-86.89789,348.2,0.74,0.76,2019-09-13,18:06,N,nominal,1.0NRT,296.9,20.4,D
14.56115,-86.90472,367,0.75,0.77,2019-09-13,18:06,N,high,1.0NRT,298.1,20.4,D
14.56657,-86.89659,328.6,0.75,0.77,2019-09-13,18:06,N,nominal,1.0NRT,296.3,12.9,D
14.56507,-86.90348,367,0.75,0.77,2019-09-13,18:06,N,high,1.0NRT,297.7,17.5,D
14.55803,-86.90202,336.9,0.75,0.77,2019-09-13,18:06,N,nominal,1.0NRT,296.7,17.5,D
14.55949,-86.89539,325.4,0.75,0.77,2019-09-13,18:06,N,nominal,1.0NRT,295.4,12.9,D
17.99209,-66.36176,331.4,0.52,0.5,2019-09-13,18:06,N,nominal,1.0NRT,297.2,4.4,D
13.86824,-85.60625,341.3,0.63,0.72,2019-09-13,18:06,N,nominal,1.0NRT,284.2,9.3,D
13.87114,-85.60508,334.5,0.64,0.72,2019-09-13,18:06,N,nominal,1.0NRT,283.9,8.4,D
13.40955,-84.95864,327,0.59,0.7,2019-09-13,18:06,N,nominal,1.0NRT,287.4,2.1,D
13.3398,-83.88938,326.5,0.5,0.66,2019-09-13,18:06,N,nominal,1.0NRT,278.7,4.5,D
11.96808,-70.02061,343.2,0.42,0.37,2019-09-13,18:06,N,nominal,1.0NRT,301.3,7.6,D
11.96864,-70.0168,337.7,0.42,0.37,2019-09-13,18:06,N,nominal,1.0NRT,300.9,7.6,D
11.96463,-70.02013,344.4,0.42,0.37,2019-09-13,18:06,N,nominal,1.0NRT,302.4,7.6,D
11.96518,-70.01633,341.8,0.42,0.37,2019-09-13,18:06,N,nominal,1.0NRT,302.2,7.6,D
11.96574,-70.01253,343.9,0.42,0.38,2019-09-13,18:06,N,nominal,1.0NRT,302.2,4.4,D
11.9663,-70.0087,336.1,0.42,0.38,2019-09-13,18:06,N,nominal,1.0NRT,300.5,4.4,D
11.73497,-70.23293,333.2,0.41,0.37,2019-09-13,18:06,N,nominal,1.0NRT,297.2,2.2,D
11.73552,-70.22918,349.6,0.41,0.37,2019-09-13,18:06,N,nominal,1.0NRT,303.4,2.2,D
11.73994,-70.19916,350.4,0.41,0.37,2019-09-13,18:06,N,nominal,1.0NRT,299.5,12.1,D
11.73652,-70.19865,349.7,0.41,0.37,2019-09-13,18:06,N,nominal,1.0NRT,302.4,12.1,D
11.63024,-70.23246,340.1,0.41,0.37,2019-09-13,18:06,N,nominal,1.0NRT,301.3,6.8,D
11.63078,-70.22874,341.1,0.41,0.37,2019-09-13,18:06,N,nominal,1.0NRT,300.4,6.8,D
11.15829,-72.16161,337.8,0.38,0.36,2019-09-13,18:06,N,nominal,1.0NRT,299.6,5.5,D
11.33928,-69.59602,348.5,0.43,0.38,2019-09-13,18:06,N,nominal,1.0NRT,301.8,12.4,D
10.94318,-72.1302,350.3,0.38,0.36,2019-09-13,18:06,N,nominal,1.0NRT,304.1,20.7,D
10.8242,-72.13256,338.2,0.38,0.36,2019-09-13,18:06,N,nominal,1.0NRT,299.9,4.6,D
10.82474,-72.12905,334.5,0.38,0.36,2019-09-13,18:06,N,nominal,1.0NRT,299.4,4.6,D
10.65721,-72.40755,331.2,0.39,0.36,2019-09-13,18:06,N,nominal,1.0NRT,299.1,1.3,D
11.0743,-69.03157,337.9,0.45,0.39,2019-09-13,18:06,N,nominal,1.0NRT,297.9,5.8,D
10.96076,-69.49787,341.6,0.43,0.38,2019-09-13,18:06,N,nominal,1.0NRT,306.3,33.4,D
10.96133,-69.49395,332.4,0.43,0.38,2019-09-13,18:06,N,nominal,1.0NRT,299.6,15,D
10.95725,-69.49747,334.4,0.43,0.38,2019-09-13,18:06,N,nominal,1.0NRT,299.4,2.4,D
10.94137,-69.18436,344,0.44,0.38,2019-09-13,18:06,N,nominal,1.0NRT,298.5,28.8,D
10.86166,-69.53279,337.1,0.43,0.38,2019-09-13,18:06,N,nominal,1.0NRT,299.2,2.7,D
10.84434,-69.55418,337.7,0.42,0.38,2019-09-13,18:06,N,nominal,1.0NRT,302.3,6.4,D
10.99615,-68.45234,367,0.48,0.4,2019-09-13,18:06,N,low,1.0NRT,289,28.7,D
10.34699,-72.81612,353.5,0.39,0.36,2019-09-13,18:06,N,low,1.0NRT,291.8,30.2,D
10.34364,-72.81572,348.2,0.39,0.36,2019-09-13,18:06,N,nominal,1.0NRT,293.3,32.7,D
10.94484,-68.78517,334.3,0.46,0.39,2019-09-13,18:06,N,nominal,1.0NRT,293.1,4.1,D
10.99248,-68.45181,334.7,0.48,0.4,2019-09-13,18:06,N,nominal,1.0NRT,283.3,4,D
10.57229,-71.16125,334,0.39,0.36,2019-09-13,18:06,N,nominal,1.0NRT,297.1,6,D
10.57282,-71.15771,331.8,0.39,0.36,2019-09-13,18:06,N,nominal,1.0NRT,296.9,5.5,D
10.6686,-70.39718,334.6,0.4,0.37,2019-09-13,18:06,N,low,1.0NRT,304.8,2.5,D
32.56118,-91.63336,349.7,0.56,0.69,2019-09-13,18:12,N,nominal,1.0NRT,301.7,9.3,D
29.99747,-90.3986,367,0.55,0.68,2019-09-13,18:12,N,high,1.0NRT,300.2,14.4,D
29.99593,-90.40426,335.6,0.55,0.68,2019-09-13,18:12,N,nominal,1.0NRT,297.7,14.4,D
30.0036,-90.40073,343.8,0.55,0.68,2019-09-13,18:12,N,nominal,1.0NRT,297,14.4,D
32.19405,-81.26846,330.5,0.48,0.4,2019-09-13,18:12,N,nominal,1.0NRT,295.9,2.1,D
32.2888,-81.0013,345.2,0.46,0.39,2019-09-13,18:12,N,nominal,1.0NRT,300.6,6.2,D
31.13586,-86.64382,342.9,0.32,0.54,2019-09-13,18:12,N,nominal,1.0NRT,292,6.7,D
31.46254,-85.33601,333.6,0.53,0.5,2019-09-13,18:12,N,nominal,1.0NRT,303.4,14,D
31.46133,-85.34151,353.6,0.53,0.5,2019-09-13,18:12,N,nominal,1.0NRT,308.3,14,D
31.46585,-85.34293,349.4,0.53,0.5,2019-09-13,18:12,N,nominal,1.0NRT,304.1,19.2,D
32.16898,-82.26915,329.4,0.53,0.42,2019-09-13,18:12,N,nominal,1.0NRT,281.5,3,D
29.64775,-92.76066,328.6,0.76,0.77,2019-09-13,18:12,N,nominal,1.0NRT,291.4,11.1,D
31.68796,-84.80316,353.5,0.49,0.48,2019-09-13,18:12,N,nominal,1.0NRT,301.4,10.1,D
32.301,-81.99196,339.5,0.51,0.41,2019-09-13,18:12,N,nominal,1.0NRT,300.7,5.3,D
32.30474,-81.99294,337.7,0.51,0.41,2019-09-13,18:12,N,nominal,1.0NRT,301,5.3,D
31.59771,-85.63029,341.7,0.55,0.51,2019-09-13,18:12,N,nominal,1.0NRT,302.6,97,D
31.60231,-85.63163,342.9,0.55,0.51,2019-09-13,18:12,N,nominal,1.0NRT,303.7,39.4,D
31.60103,-85.63735,345.4,0.55,0.51,2019-09-13,18:12,N,nominal,1.0NRT,305.2,39.4,D
30.83505,-89.19553,367,0.45,0.63,2019-09-13,18:12,N,high,1.0NRT,300.7,11.4,D
31.34258,-87.18993,367,0.34,0.56,2019-09-13,18:12,N,high,1.0NRT,298.6,4.3,D
31.14995,-87.98778,344.8,0.38,0.59,2019-09-13,18:12,N,nominal,1.0NRT,301,9.1,D
31.36089,-87.15829,353.6,0.34,0.56,2019-09-13,18:12,N,nominal,1.0NRT,298.6,13.6,D
31.36349,-87.17013,367,0.34,0.56,2019-09-13,18:12,N,high,1.0NRT,299.8,12.1,D
31.36267,-87.17358,367,0.34,0.56,2019-09-13,18:12,N,high,1.0NRT,301.4,13.3,D
31.36673,-87.15643,353.9,0.34,0.56,2019-09-13,18:12,N,nominal,1.0NRT,297.3,19.3,D
31.36591,-87.15989,356.6,0.34,0.56,2019-09-13,18:12,N,nominal,1.0NRT,301,13.6,D
30.82213,-89.74622,331.1,0.49,0.65,2019-09-13,18:12,N,nominal,1.0NRT,298.4,3.3,D
31.81358,-86.22388,333.7,0.58,0.52,2019-09-13,18:12,N,nominal,1.0NRT,304.6,117.4,D
31.81833,-86.22523,345.5,0.58,0.52,2019-09-13,18:12,N,nominal,1.0NRT,299,11.3,D
31.81753,-86.22535,353.8,0.58,0.52,2019-09-13,18:12,N,nominal,1.0NRT,298.6,16.6,D
32.03991,-85.84007,347.8,0.55,0.51,2019-09-13,18:12,N,nominal,1.0NRT,301.6,18.2,D
32.58673,-90.06456,337.4,0.46,0.63,2019-09-13,18:12,N,nominal,1.0NRT,299.1,3.4,D
32.03865,-85.84579,350.2,0.55,0.51,2019-09-13,18:12,N,nominal,1.0NRT,305.3,22.2,D
32.0362,-85.84157,340.6,0.55,0.51,2019-09-13,18:12,N,nominal,1.0NRT,300,23.8,D
32.04211,-85.83723,367,0.55,0.51,2019-09-13,18:12,N,high,1.0NRT,307.4,61,D
32.04081,-85.84293,356.8,0.55,0.51,2019-09-13,18:12,N,nominal,1.0NRT,305.4,23.8,D
32.0395,-85.84863,339.4,0.55,0.51,2019-09-13,18:12,N,nominal,1.0NRT,300.8,23.8,D
32.58592,-91.61703,367,0.56,0.69,2019-09-13,18:12,N,high,1.0NRT,299.7,11,D
32.04671,-85.83864,355.7,0.55,0.51,2019-09-13,18:12,N,nominal,1.0NRT,305.6,74.5,D
32.04542,-85.8443,337.4,0.55,0.51,2019-09-13,18:12,N,nominal,1.0NRT,299.9,17.3,D
32.99937,-81.27428,343.2,0.46,0.39,2019-09-13,18:12,N,nominal,1.0NRT,300.8,126.8,D
31.93389,-86.48158,346.7,0.6,0.53,2019-09-13,18:12,N,nominal,1.0NRT,300,23.2,D
31.93867,-86.48308,342.9,0.6,0.53,2019-09-13,18:12,N,nominal,1.0NRT,297.5,10.1,D
31.42525,-89.02415,337.7,0.43,0.62,2019-09-13,18:12,N,nominal,1.0NRT,299.1,7,D
31.42412,-89.0286,346.5,0.43,0.62,2019-09-13,18:12,N,nominal,1.0NRT,299.3,6.4,D
30.9983,-91.99091,328.8,0.64,0.72,2019-09-13,18:12,N,nominal,1.0NRT,295.9,4.3,D
31.72148,-89.51955,344.4,0.45,0.63,2019-09-13,18:12,N,nominal,1.0NRT,298.9,12,D
31.72833,-89.51684,367,0.45,0.63,2019-09-13,18:12,N,high,1.0NRT,297.5,26.5,D
31.72713,-89.52147,352.4,0.45,0.63,2019-09-13,18:12,N,nominal,1.0NRT,298.4,12,D
32.2292,-88.55836,367,0.39,0.59,2019-09-13,18:12,N,high,1.0NRT,303.3,12.7,D
32.23021,-88.55433,339.9,0.39,0.59,2019-09-13,18:12,N,nominal,1.0NRT,294.7,12.7,D
31.07895,-93.13585,331.9,0.73,0.76,2019-09-13,18:12,N,nominal,1.0NRT,292.7,8.7,D
31.69457,-91.4148,338.7,0.57,0.69,2019-09-13,18:12,N,nominal,1.0NRT,299.1,5.9,D
31.88308,-91.35172,334.4,0.56,0.69,2019-09-13,18:12,N,nominal,1.0NRT,299.4,4.1,D
31.88522,-91.35498,329.3,0.56,0.69,2019-09-13,18:12,N,low,1.0NRT,300.9,2.9,D
31.891,-91.38293,349,0.56,0.69,2019-09-13,18:12,N,nominal,1.0NRT,301.4,7,D
31.89714,-91.38522,367,0.56,0.69,2019-09-13,18:12,N,high,1.0NRT,300.4,15.4,D
31.89552,-91.39108,351.4,0.56,0.69,2019-09-13,18:12,N,nominal,1.0NRT,301.2,15.4,D
32.58343,-89.61034,367,0.43,0.62,2019-09-13,18:12,N,high,1.0NRT,300.7,16.2,D
32.58225,-89.61483,350.4,0.43,0.62,2019-09-13,18:12,N,nominal,1.0NRT,301.2,16.2,D
32.58897,-89.61231,367,0.43,0.62,2019-09-13,18:12,N,high,1.0NRT,297.6,16.2,D
32.5878,-89.6168,343.8,0.43,0.62,2019-09-13,18:12,N,nominal,1.0NRT,296.5,16.2,D
32.28665,-91.03924,332.2,0.53,0.67,2019-09-13,18:12,N,nominal,1.0NRT,300,6.9,D
32.28572,-91.03629,335.6,0.53,0.67,2019-09-13,18:12,N,nominal,1.0NRT,299.8,6,D
33.23023,-87.51276,330.4,0.32,0.55,2019-09-13,18:12,N,nominal,1.0NRT,298.9,1.3,D
33.37574,-91.37229,331.3,0.51,0.66,2019-09-13,18:12,N,nominal,1.0NRT,299.5,2.7,D
33.37425,-91.37772,331.1,0.52,0.66,2019-09-13,18:12,N,nominal,1.0NRT,297.5,2.7,D
33.38165,-91.37461,331.5,0.51,0.66,2019-09-13,18:12,N,nominal,1.0NRT,299.7,5.8,D
33.38016,-91.38005,345,0.52,0.66,2019-09-13,18:12,N,nominal,1.0NRT,300.5,5.8,D
31.21473,-85.13582,340.2,0.52,0.5,2019-09-13,18:12,N,nominal,1.0NRT,303.8,10.6,D
30.00198,-90.39664,354.2,0.55,0.68,2019-09-13,18:12,N,nominal,1.0NRT,298.5,31.1,D
30.00048,-90.40228,352.1,0.55,0.68,2019-09-13,18:12,N,nominal,1.0NRT,298.4,31.4,D
33.26909,-93.74486,367,0.69,0.74,2019-09-13,18:12,N,high,1.0NRT,296.5,26.5,D
33.26692,-93.7522,348.1,0.69,0.74,2019-09-13,18:12,N,nominal,1.0NRT,294.7,13.4,D
33.18188,-91.65016,342,0.54,0.68,2019-09-13,18:12,N,nominal,1.0NRT,298.7,6.9,D
33.41056,-90.16485,350,0.44,0.62,2019-09-13,18:12,N,nominal,1.0NRT,301.2,8.2,D
33.41013,-90.16574,342.7,0.44,0.63,2019-09-13,18:12,N,nominal,1.0NRT,300.9,4.3,D
33.41135,-90.16105,337.6,0.44,0.63,2019-09-13,18:12,N,nominal,1.0NRT,300.4,4.3,D
33.10241,-91.27576,335.1,0.52,0.67,2019-09-13,18:12,N,nominal,1.0NRT,299.2,3.2,D
33.11467,-90.86486,330.9,0.49,0.65,2019-09-13,18:12,N,low,1.0NRT,301,2.2,D
32.58728,-91.62077,367,0.56,0.68,2019-09-13,18:12,N,high,1.0NRT,299.7,24.5,D
32.52245,-91.77853,342.1,0.57,0.69,2019-09-13,18:12,N,nominal,1.0NRT,299.3,7.9,D
32.56239,-91.63712,341.2,0.56,0.69,2019-09-13,18:12,N,nominal,1.0NRT,300.2,9.3,D
32.58432,-91.62287,352.1,0.56,0.69,2019-09-13,18:12,N,nominal,1.0NRT,295.2,11,D
33.26931,-93.74315,367,0.69,0.74,2019-09-13,18:12,N,high,1.0NRT,296.1,14,D
33.26709,-93.75047,367,0.69,0.74,2019-09-13,18:12,N,high,1.0NRT,295.2,14,D
30.39617,-85.05783,332.6,0.54,0.51,2019-09-13,18:12,N,nominal,1.0NRT,299.2,2.6,D
30.78152,-84.88878,337.6,0.52,0.5,2019-09-13,18:12,N,nominal,1.0NRT,304.3,8.4,D
30.78036,-84.8941,341.6,0.52,0.5,2019-09-13,18:12,N,nominal,1.0NRT,304.4,6.1,D
30.78485,-84.8954,333,0.52,0.5,2019-09-13,18:12,N,nominal,1.0NRT,306.4,5.2,D
31.01688,-84.15531,330.8,0.46,0.47,2019-09-13,18:12,N,nominal,1.0NRT,293.5,2.9,D
31.29021,-83.00259,326.2,0.4,0.44,2019-09-13,18:12,N,nominal,1.0NRT,293.4,2.3,D
31.19431,-84.13346,334.1,0.46,0.47,2019-09-13,18:12,N,nominal,1.0NRT,298.7,6,D
31.19525,-84.13689,335.2,0.46,0.47,2019-09-13,18:12,N,nominal,1.0NRT,298.6,4.6,D
31.84348,-81.80946,342.9,0.51,0.41,2019-09-13,18:12,N,nominal,1.0NRT,299.5,10.4,D
31.7829,-82.41942,335.6,0.55,0.42,2019-09-13,18:12,N,nominal,1.0NRT,285.3,11.4,D
31.21143,-85.12907,346.5,0.52,0.5,2019-09-13,18:12,N,nominal,1.0NRT,305.6,9.7,D
31.21593,-85.13041,345.1,0.52,0.5,2019-09-13,18:12,N,nominal,1.0NRT,305,10.6,D
13.65828,-85.85798,339.9,0.56,0.69,2019-09-13,19:42,N,nominal,1.0NRT,291.8,5.7,D
13.65774,-85.86278,329.9,0.56,0.69,2019-09-13,19:42,N,nominal,1.0NRT,292.5,5.7,D
13.66009,-85.86079,351.4,0.56,0.69,2019-09-13,19:42,N,nominal,1.0NRT,293.7,8.5,D
25.05228,-111.57759,335.3,0.41,0.61,2019-09-13,19:48,N,nominal,1.0NRT,295.6,4.1,D
27.45353,-98.11849,352.7,0.45,0.39,2019-09-13,19:48,N,nominal,1.0NRT,292.7,28.1,D
27.44938,-98.12244,333.8,0.45,0.39,2019-09-13,19:48,N,nominal,1.0NRT,295.8,6.8,D
26.8882,-101.44864,341.6,0.38,0.36,2019-09-13,19:48,N,nominal,1.0NRT,300.9,4.4,D
26.87976,-101.41531,343.6,0.38,0.36,2019-09-13,19:48,N,nominal,1.0NRT,303.1,4.8,D
24.22933,-107.19146,328.2,0.46,0.47,2019-09-13,19:48,N,nominal,1.0NRT,296.3,2,D
25.58314,-99.93467,336.5,0.39,0.36,2019-09-13,19:48,N,nominal,1.0NRT,299,1.7,D
25.74542,-100.23232,337.7,0.39,0.36,2019-09-13,19:48,N,nominal,1.0NRT,303.3,4.1,D
25.74873,-100.23291,337.3,0.39,0.36,2019-09-13,19:48,N,nominal,1.0NRT,301.5,4.1,D
25.77381,-100.17826,333.3,0.39,0.36,2019-09-13,19:48,N,nominal,1.0NRT,303.1,3.7,D
26.67555,-98.51145,352.6,0.43,0.38,2019-09-13,19:48,N,nominal,1.0NRT,297.5,7.7,D
26.67497,-98.51572,336.2,0.43,0.38,2019-09-13,19:48,N,nominal,1.0NRT,287.9,2.8,D
26.88035,-101.41147,331.8,0.38,0.36,2019-09-13,19:48,N,low,1.0NRT,302.8,4.8,D
26.87646,-101.41467,331.8,0.38,0.36,2019-09-13,19:48,N,nominal,1.0NRT,300.9,2.3,D
27.29658,-97.69639,340.4,0.46,0.39,2019-09-13,19:48,N,nominal,1.0NRT,303,3,D
26.67844,-98.51629,336.2,0.43,0.38,2019-09-13,19:48,N,nominal,1.0NRT,289.8,4.8,D
19.6017,-92.2933,333.9,0.5,0.49,2019-09-13,19:48,N,nominal,1.0NRT,289,5.9,D
19.50284,-99.19313,344,0.38,0.36,2019-09-13,19:48,N,nominal,1.0NRT,301.9,6.5,D
22.26293,-97.80589,340.4,0.42,0.37,2019-09-13,19:48,N,nominal,1.0NRT,299.6,7.8,D
22.95958,-100.13287,336.1,0.38,0.36,2019-09-13,19:48,N,nominal,1.0NRT,303.7,4.9,D
24.77027,-99.67037,346.9,0.39,0.36,2019-09-13,19:48,N,nominal,1.0NRT,294.8,7.3,D
26.67902,-98.51202,347.2,0.43,0.38,2019-09-13,19:48,N,nominal,1.0NRT,298.3,11.2,D
25.63605,-98.25388,340.2,0.43,0.38,2019-09-13,19:48,N,nominal,1.0NRT,299.3,7,D
33.13382,-90.84922,341.2,0.43,0.62,2019-09-13,19:48,N,nominal,1.0NRT,291.5,19.6,D
33.18399,-91.64919,367,0.39,0.59,2019-09-13,19:48,N,high,1.0NRT,298.2,8.7,D
33.18372,-91.65344,355.7,0.39,0.59,2019-09-13,19:48,N,nominal,1.0NRT,297.9,8.7,D
33.30273,-91.68959,337.4,0.39,0.59,2019-09-13,19:48,N,nominal,1.0NRT,296.9,2.8,D
13.85845,-85.65248,341.3,0.58,0.7,2019-09-13,19:48,N,nominal,1.0NRT,293,7.4,D
13.92397,-85.71896,329.7,0.57,0.69,2019-09-13,19:48,N,nominal,1.0NRT,290.9,6.2,D
30.80715,-112.80386,340.6,0.36,0.57,2019-09-13,19:48,N,low,1.0NRT,312.1,4.2,D
30.80659,-112.80421,343.6,0.36,0.57,2019-09-13,19:48,N,nominal,1.0NRT,312.5,4.8,D
13.92846,-85.79953,333.8,0.57,0.69,2019-09-13,19:48,N,nominal,1.0NRT,296.1,5.1,D
14.1716,-83.85392,336.6,0.76,0.77,2019-09-13,19:48,N,nominal,1.0NRT,288.5,6.3,D
13.88493,-87.21461,354.5,0.46,0.63,2019-09-13,19:48,N,nominal,1.0NRT,301.7,14,D
13.88453,-87.21816,339.5,0.46,0.63,2019-09-13,19:48,N,nominal,1.0NRT,298.4,7.1,D
13.8908,-87.21531,341.2,0.46,0.63,2019-09-13,19:48,N,nominal,1.0NRT,296.9,8.6,D
13.89037,-87.2192,338.8,0.46,0.63,2019-09-13,19:48,N,nominal,1.0NRT,295.8,6.6,D
14.25685,-83.82018,347.1,0.77,0.77,2019-09-13,19:48,N,nominal,1.0NRT,291,17.2,D
14.25947,-83.81425,327.5,0.77,0.77,2019-09-13,19:48,N,nominal,1.0NRT,290.4,13.6,D
14.2588,-83.82153,343.8,0.77,0.77,2019-09-13,19:48,N,nominal,1.0NRT,290.8,11.6,D
14.31044,-85.47414,332.2,0.6,0.71,2019-09-13,19:48,N,nominal,1.0NRT,293.9,5.6,D
14.30916,-85.4737,329.6,0.6,0.71,2019-09-13,19:48,N,nominal,1.0NRT,293.1,4.6,D
14.2378,-86.24606,337.5,0.54,0.67,2019-09-13,19:48,N,nominal,1.0NRT,296.3,4.8,D
14.23157,-87.63246,367,0.43,0.62,2019-09-13,19:48,N,high,1.0NRT,302.9,14.8,D
14.31964,-87.10239,347.2,0.47,0.64,2019-09-13,19:48,N,nominal,1.0NRT,297,7.5,D
14.02957,-90.37458,332.8,0.56,0.52,2019-09-13,19:48,N,nominal,1.0NRT,292.8,9.6,D
14.42991,-87.48357,328.4,0.45,0.63,2019-09-13,19:48,N,nominal,1.0NRT,288.7,3.4,D
14.65269,-86.38194,341.2,0.53,0.67,2019-09-13,19:48,N,nominal,1.0NRT,292.9,6,D
14.6507,-86.3818,337.3,0.53,0.67,2019-09-13,19:48,N,nominal,1.0NRT,292.6,6.8,D
14.69524,-86.31844,334.8,0.54,0.68,2019-09-13,19:48,N,nominal,1.0NRT,295.5,4,D
14.69459,-86.32466,330.5,0.54,0.67,2019-09-13,19:48,N,nominal,1.0NRT,295,4,D
14.87913,-87.34155,334.3,0.46,0.64,2019-09-13,19:48,N,nominal,1.0NRT,291.7,2.8,D
14.9452,-88.48317,337,0.39,0.59,2019-09-13,19:48,N,nominal,1.0NRT,293.4,4.2,D
14.94535,-88.48315,337.7,0.39,0.59,2019-09-13,19:48,N,nominal,1.0NRT,292.4,4.4,D
15.0018,-88.16988,345.8,0.41,0.6,2019-09-13,19:48,N,nominal,1.0NRT,292.7,8.5,D
15.25403,-85.92229,333.3,0.58,0.7,2019-09-13,19:48,N,nominal,1.0NRT,296.2,4.8,D
15.04224,-88.21445,338.6,0.4,0.6,2019-09-13,19:48,N,nominal,1.0NRT,294.4,6.2,D
15.04187,-88.21778,335.6,0.4,0.6,2019-09-13,19:48,N,nominal,1.0NRT,294.2,4.6,D
15.07715,-88.15633,333.3,0.41,0.61,2019-09-13,19:48,N,nominal,1.0NRT,292.7,3.5,D
15.42457,-85.8598,335.4,0.59,0.7,2019-09-13,19:48,N,nominal,1.0NRT,299,6.4,D
15.34102,-86.8359,335.1,0.5,0.66,2019-09-13,19:48,N,nominal,1.0NRT,295.8,4.1,D
15.34075,-86.83561,334.4,0.5,0.66,2019-09-13,19:48,N,nominal,1.0NRT,296.4,3.6,D
15.24814,-88.31772,333.2,0.4,0.6,2019-09-13,19:48,N,nominal,1.0NRT,288.7,2.4,D
15.15203,-89.47811,338.4,0.33,0.56,2019-09-13,19:48,N,nominal,1.0NRT,292.5,4.7,D
15.14896,-89.47839,344,0.33,0.56,2019-09-13,19:48,N,nominal,1.0NRT,293.6,5,D
15.86418,-91.85616,330.2,0.48,0.48,2019-09-13,19:48,N,nominal,1.0NRT,291.1,3.5,D
15.7928,-96.94016,342.5,0.4,0.37,2019-09-13,19:48,N,nominal,1.0NRT,300,3.6,D
15.79375,-96.94021,341.4,0.4,0.37,2019-09-13,19:48,N,nominal,1.0NRT,299.2,4.3,D
16.20337,-95.16927,341.1,0.47,0.39,2019-09-13,19:48,N,nominal,1.0NRT,303.4,5.1,D
16.2542,-95.09632,331,0.47,0.4,2019-09-13,19:48,N,nominal,1.0NRT,299,1.2,D
16.2578,-95.94683,333.7,0.43,0.38,2019-09-13,19:48,N,nominal,1.0NRT,291.8,3.5,D
17.86206,-91.57593,342.6,0.53,0.5,2019-09-13,19:48,N,nominal,1.0NRT,292.1,9.1,D
17.22618,-100.8182,343,0.42,0.37,2019-09-13,19:48,N,nominal,1.0NRT,296.9,8.5,D
18.36243,-95.54137,332.9,0.47,0.4,2019-09-13,19:48,N,nominal,1.0NRT,295.2,1.6,D
19.36583,-92.00556,331,0.52,0.5,2019-09-13,19:48,N,nominal,1.0NRT,290.6,4,D
19.39404,-92.04417,342.7,0.51,0.5,2019-09-13,19:48,N,nominal,1.0NRT,291.2,13.8,D
19.43708,-92.03437,344.5,0.52,0.5,2019-09-13,19:48,N,nominal,1.0NRT,291.2,6.7,D
19.44168,-92.03493,343,0.52,0.5,2019-09-13,19:48,N,nominal,1.0NRT,290.8,6.7,D
19.43659,-92.03262,332.7,0.52,0.5,2019-09-13,19:48,N,nominal,1.0NRT,290.7,4.9,D
19.43604,-92.03757,336.7,0.52,0.5,2019-09-13,19:48,N,nominal,1.0NRT,290.7,4.9,D
31.29161,-94.20979,345.8,0.53,0.5,2019-09-13,19:48,N,nominal,1.0NRT,305.2,31.1,D
31.29211,-94.20419,342.6,0.53,0.5,2019-09-13,19:48,N,nominal,1.0NRT,301.8,32,D
31.28546,-94.2259,336.3,0.53,0.5,2019-09-13,19:48,N,nominal,1.0NRT,300.7,7,D
31.28646,-94.21483,338.5,0.53,0.5,2019-09-13,19:48,N,nominal,1.0NRT,301.4,31.1,D
31.28697,-94.20924,355.6,0.53,0.5,2019-09-13,19:48,N,nominal,1.0NRT,304.7,31.1,D
31.28232,-94.20869,343.2,0.53,0.5,2019-09-13,19:48,N,nominal,1.0NRT,302.6,10.7,D
31.37666,-90.95266,340.9,0.41,0.61,2019-09-13,19:48,N,nominal,1.0NRT,296.4,11.5,D
31.37639,-90.95712,367,0.41,0.61,2019-09-13,19:48,N,high,1.0NRT,299.9,11.5,D
31.37998,-90.95301,337.5,0.41,0.61,2019-09-13,19:48,N,nominal,1.0NRT,297.5,7.1,D
31.37967,-90.95749,367,0.41,0.61,2019-09-13,19:48,N,high,1.0NRT,298.5,7.1,D
31.37402,-90.95695,338.7,0.41,0.61,2019-09-13,19:48,N,nominal,1.0NRT,296.1,7.1,D
31.42772,-89.02402,333.4,0.53,0.67,2019-09-13,19:48,N,nominal,1.0NRT,298.1,4.4,D
31.12994,-92.98092,351.9,0.62,0.54,2019-09-13,19:48,N,nominal,1.0NRT,296.5,13.9,D
31.12495,-92.98032,332.5,0.62,0.54,2019-09-13,19:48,N,nominal,1.0NRT,297.8,9.6,D
31.12988,-92.97951,348.2,0.62,0.54,2019-09-13,19:48,N,nominal,1.0NRT,295.2,8.9,D
31.12489,-92.97891,331.5,0.62,0.54,2019-09-13,19:48,N,nominal,1.0NRT,298,8.9,D
31.20012,-91.98026,337.5,0.36,0.57,2019-09-13,19:48,N,nominal,1.0NRT,302.3,4.2,D
30.99804,-91.99048,350.5,0.35,0.57,2019-09-13,19:48,N,nominal,1.0NRT,298.7,5,D
30.9937,-91.99162,336.9,0.35,0.57,2019-09-13,19:48,N,nominal,1.0NRT,297,6.4,D
30.76312,-93.92091,337.4,0.54,0.51,2019-09-13,19:48,N,nominal,1.0NRT,301.6,8,D
30.73757,-94.04942,341.6,0.53,0.5,2019-09-13,19:48,N,nominal,1.0NRT,293.8,8.6,D
30.88043,-88.91485,336,0.54,0.68,2019-09-13,19:48,N,nominal,1.0NRT,298.6,7.8,D
30.28081,-96.29353,330.1,0.39,0.44,2019-09-13,19:48,N,low,1.0NRT,302.2,2.1,D
30.27677,-96.29292,333.6,0.39,0.44,2019-09-13,19:48,N,nominal,1.0NRT,303.1,2.1,D
30.87811,-88.91105,341,0.54,0.68,2019-09-13,19:48,N,nominal,1.0NRT,298.8,5.7,D
30.83731,-89.19342,367,0.52,0.67,2019-09-13,19:48,N,high,1.0NRT,296.9,9.7,D
30.30849,-94.77731,338.7,0.48,0.48,2019-09-13,19:48,N,nominal,1.0NRT,298.8,6.6,D
29.98636,-94.48808,340.1,0.49,0.49,2019-09-13,19:48,N,nominal,1.0NRT,297.7,7.6,D
29.98685,-94.48293,348.6,0.49,0.49,2019-09-13,19:48,N,nominal,1.0NRT,301,19.8,D
30.0442,-91.06673,340.6,0.39,0.6,2019-09-13,19:48,N,nominal,1.0NRT,299.5,3.4,D
29.34258,-98.22961,348.2,0.46,0.39,2019-09-13,19:48,N,nominal,1.0NRT,307.3,23.1,D
30.0019,-90.39243,356.1,0.43,0.62,2019-09-13,19:48,N,nominal,1.0NRT,301.5,9.5,D
30.0016,-90.39702,367,0.43,0.62,2019-09-13,19:48,N,high,1.0NRT,304.3,9.5,D
27.16918,-110.03188,340.5,0.6,0.53,2019-09-13,19:48,N,nominal,1.0NRT,296.6,5.6,D
29.65223,-92.76286,341.5,0.61,0.54,2019-09-13,19:48,N,nominal,1.0NRT,294.8,5.8,D
29.64725,-92.76234,341.7,0.61,0.54,2019-09-13,19:48,N,nominal,1.0NRT,297.8,6.1,D
29.64227,-92.76181,338.9,0.61,0.54,2019-09-13,19:48,N,nominal,1.0NRT,295.1,6.1,D
29.63729,-92.76127,340,0.61,0.54,2019-09-13,19:48,N,nominal,1.0NRT,299,3.5,D
28.76141,-97.98629,339.6,0.47,0.39,2019-09-13,19:48,N,low,1.0NRT,309.9,5,D
29.02242,-95.69936,337,0.41,0.45,2019-09-13,19:48,N,nominal,1.0NRT,296.2,3,D
28.60361,-98.26454,337,0.45,0.39,2019-09-13,19:48,N,nominal,1.0NRT,305.4,3.8,D
28.56271,-96.8493,339.8,0.52,0.42,2019-09-13,19:48,N,nominal,1.0NRT,303,7,D
27.28599,-100.21605,335.4,0.39,0.36,2019-09-13,19:48,N,nominal,1.0NRT,305.1,1.3,D
25.75723,-108.77471,332.8,0.54,0.5,2019-09-13,19:48,N,nominal,1.0NRT,298.3,3.2,D
32.72055,-93.41324,350.9,0.61,0.53,2019-09-13,19:48,N,nominal,1.0NRT,301.2,11.9,D
32.85219,-91.64698,353.6,0.39,0.59,2019-09-13,19:48,N,nominal,1.0NRT,301.1,4.9,D
32.85192,-91.6512,339.5,0.39,0.59,2019-09-13,19:48,N,nominal,1.0NRT,301.6,4.9,D
32.9265,-91.09709,367,0.42,0.61,2019-09-13,19:48,N,high,1.0NRT,300.6,9.3,D
32.92678,-91.09252,340.9,0.42,0.61,2019-09-13,19:48,N,nominal,1.0NRT,297.4,9.6,D
32.93218,-91.09758,348.6,0.42,0.61,2019-09-13,19:48,N,nominal,1.0NRT,296.2,9.3,D
32.45535,-97.04332,338.2,0.57,0.43,2019-09-13,19:48,N,nominal,1.0NRT,307.3,5.4,D
31.79935,-102.08567,337.2,0.38,0.36,2019-09-13,19:48,N,nominal,1.0NRT,300.9,3.1,D
33.1025,-91.27366,347.7,0.41,0.6,2019-09-13,19:48,N,nominal,1.0NRT,302.3,5.8,D
33.13354,-90.85396,367,0.43,0.62,2019-09-13,19:48,N,high,1.0NRT,301.7,19.6,D
33.13327,-90.85873,331.5,0.43,0.62,2019-09-13,19:48,N,nominal,1.0NRT,286.5,11.1,D
31.29676,-94.20477,347.6,0.53,0.5,2019-09-13,19:48,N,nominal,1.0NRT,302,30.2,D
31.81477,-86.22601,367,0.78,0.78,2019-09-13,19:48,N,high,1.0NRT,295.7,16.8,D
31.81504,-86.21706,334.6,0.78,0.78,2019-09-13,19:48,N,nominal,1.0NRT,294.4,16.8,D
31.81515,-86.21915,348.2,0.78,0.78,2019-09-13,19:48,N,nominal,1.0NRT,294.8,26.7,D
31.81493,-86.22806,353.3,0.78,0.78,2019-09-13,19:48,N,nominal,1.0NRT,295.2,18.6,D
31.45618,-93.17784,336,0.61,0.53,2019-09-13,19:48,N,nominal,1.0NRT,301.7,6.3,D
31.7274,-89.51463,330.7,0.5,0.66,2019-09-13,19:48,N,nominal,1.0NRT,292.9,6.3,D
31.51805,-94.1562,330.1,0.53,0.5,2019-09-13,19:48,N,low,1.0NRT,301.9,2.4,D
31.89418,-91.35027,337.3,0.39,0.6,2019-09-13,19:48,N,nominal,1.0NRT,301.6,1.6,D
31.89733,-91.38469,367,0.39,0.59,2019-09-13,19:48,N,high,1.0NRT,306.6,7,D
31.89702,-91.38892,350.6,0.39,0.59,2019-09-13,19:48,N,nominal,1.0NRT,304,7,D
31.89342,-91.34975,335,0.39,0.6,2019-09-13,19:48,N,nominal,1.0NRT,300.7,7.2,D
31.89678,-91.38425,367,0.39,0.59,2019-09-13,19:48,N,high,1.0NRT,306.2,5.5,D
31.89651,-91.38849,351.5,0.39,0.59,2019-09-13,19:48,N,nominal,1.0NRT,305.3,5.5,D
31.90204,-91.38896,343.5,0.39,0.59,2019-09-13,19:48,N,nominal,1.0NRT,299.2,5.5,D
30.9674,-101.25317,345.6,0.39,0.36,2019-09-13,19:48,N,nominal,1.0NRT,300.7,5.5,D
30.96682,-101.25723,346.8,0.39,0.36,2019-09-13,19:48,N,nominal,1.0NRT,297.2,4.5,D
30.97072,-101.25381,341.5,0.39,0.36,2019-09-13,19:48,N,nominal,1.0NRT,299.3,7.9,D
30.97014,-101.25787,347.2,0.39,0.36,2019-09-13,19:48,N,nominal,1.0NRT,298.1,6.2,D
32.22903,-88.55556,334.1,0.58,0.69,2019-09-13,19:48,N,nominal,1.0NRT,300.1,4.8,D
32.22874,-88.55737,331.4,0.58,0.7,2019-09-13,19:48,N,nominal,1.0NRT,299.9,3.4,D
32.21492,-91.50335,367,0.39,0.59,2019-09-13,19:48,N,high,1.0NRT,293.3,5.9,D
32.22044,-91.50382,334.9,0.39,0.59,2019-09-13,19:48,N,nominal,1.0NRT,298.8,5.9,D
32.12764,-93.39539,333.2,0.6,0.53,2019-09-13,19:48,N,nominal,1.0NRT,299.2,3.5,D
32.3822,-91.32319,344.3,0.4,0.6,2019-09-13,19:48,N,nominal,1.0NRT,304.2,6.8,D
32.24726,-93.97074,331.6,0.56,0.51,2019-09-13,19:48,N,nominal,1.0NRT,300,6.7,D
31.36485,-101.77511,343.1,0.39,0.36,2019-09-13,19:48,N,nominal,1.0NRT,305.8,5.5,D
31.36425,-101.77915,350.1,0.39,0.36,2019-09-13,19:48,N,nominal,1.0NRT,304.5,5.5,D
32.58128,-89.61084,348.6,0.5,0.66,2019-09-13,19:48,N,nominal,1.0NRT,299.4,13,D
32.58744,-89.61117,367,0.5,0.66,2019-09-13,19:48,N,high,1.0NRT,301.2,13,D
32.58773,-89.6056,336.4,0.5,0.66,2019-09-13,19:48,N,nominal,1.0NRT,297,22,D
32.45439,-91.8832,367,0.37,0.58,2019-09-13,19:48,N,high,1.0NRT,306.5,18.5,D
32.45411,-91.88721,367,0.37,0.58,2019-09-13,19:48,N,high,1.0NRT,300.9,16,D
32.4598,-91.88364,331.8,0.37,0.58,2019-09-13,19:48,N,nominal,1.0NRT,298.8,18.5,D
32.49362,-91.71431,367,0.38,0.59,2019-09-13,19:48,N,high,1.0NRT,312.9,48.8,D
32.49392,-91.71017,338.5,0.38,0.59,2019-09-13,19:48,N,nominal,1.0NRT,301.7,48.8,D
32.49333,-91.71846,340.7,0.38,0.59,2019-09-13,19:48,N,nominal,1.0NRT,303.6,32.7,D
32.49447,-91.71421,367,0.38,0.59,2019-09-13,19:48,N,high,1.0NRT,309.8,45.5,D
32.49474,-91.71005,330.3,0.38,0.59,2019-09-13,19:48,N,nominal,1.0NRT,301.9,45.5,D
31.3406,-103.01796,342.8,0.39,0.36,2019-09-13,19:48,N,nominal,1.0NRT,303.2,3,D
31.33223,-103.22091,338,0.39,0.36,2019-09-13,19:48,N,nominal,1.0NRT,305.7,3.5,D
31.27646,-103.56681,338,0.39,0.36,2019-09-13,19:48,N,nominal,1.0NRT,305.6,3,D
32.64265,-91.72365,367,0.38,0.59,2019-09-13,19:48,N,high,1.0NRT,301.1,27.6,D
32.6421,-91.73193,367,0.38,0.59,2019-09-13,19:48,N,high,1.0NRT,298,19.9,D
32.64238,-91.72779,353.1,0.38,0.59,2019-09-13,19:48,N,nominal,1.0NRT,302.2,27.6,D
32.64812,-91.72412,367,0.38,0.59,2019-09-13,19:48,N,high,1.0NRT,300.8,27.6,D
32.64785,-91.72826,352.7,0.38,0.59,2019-09-13,19:48,N,nominal,1.0NRT,303.6,27.6,D
31.95058,-99.35499,367,0.44,0.38,2019-09-13,19:48,N,high,1.0NRT,301.9,24.9,D
31.94998,-99.35968,354.9,0.44,0.38,2019-09-13,19:48,N,nominal,1.0NRT,307.9,24.9,D
31.94937,-99.36436,356.6,0.44,0.38,2019-09-13,19:48,N,nominal,1.0NRT,308.1,16.6,D
31.94876,-99.36901,349.7,0.44,0.38,2019-09-13,19:48,N,nominal,1.0NRT,304.8,16.6,D
31.95291,-99.36494,367,0.44,0.38,2019-09-13,19:48,N,high,1.0NRT,309.5,19.3,D
31.95411,-99.35558,349.6,0.44,0.38,2019-09-13,19:48,N,nominal,1.0NRT,301.5,16,D
31.95351,-99.36027,356.5,0.44,0.38,2019-09-13,19:48,N,nominal,1.0NRT,305.2,16,D
31.9523,-99.36961,352.7,0.44,0.38,2019-09-13,19:48,N,nominal,1.0NRT,306.7,19.3,D
31.95704,-99.36087,367,0.44,0.38,2019-09-13,19:48,N,high,1.0NRT,305.5,16,D
31.95644,-99.36555,367,0.44,0.38,2019-09-13,19:48,N,high,1.0NRT,307.6,19.3,D
31.95765,-99.3562,356.2,0.44,0.38,2019-09-13,19:48,N,nominal,1.0NRT,302.7,16,D
31.95583,-99.37022,351.3,0.44,0.38,2019-09-13,19:48,N,nominal,1.0NRT,306.1,19.3,D
31.96058,-99.36149,367,0.44,0.38,2019-09-13,19:48,N,high,1.0NRT,302.9,17.6,D
31.95997,-99.36614,367,0.44,0.38,2019-09-13,19:48,N,high,1.0NRT,303.5,6.4,D
31.95936,-99.37082,340.1,0.44,0.38,2019-09-13,19:48,N,nominal,1.0NRT,300.8,6.4,D
31.9635,-99.36676,350.4,0.44,0.38,2019-09-13,19:48,N,nominal,1.0NRT,303,6.4,D
31.9629,-99.37142,340.2,0.44,0.38,2019-09-13,19:48,N,nominal,1.0NRT,300.6,6.4,D
31.95969,-99.36447,367,0.44,0.38,2019-09-13,19:48,N,high,1.0NRT,303.8,8.9,D
31.96028,-99.35979,352.1,0.44,0.38,2019-09-13,19:48,N,nominal,1.0NRT,302.7,16.9,D
31.9591,-99.36914,354.7,0.44,0.38,2019-09-13,19:48,N,nominal,1.0NRT,302.5,8.9,D
31.96323,-99.36509,343.3,0.44,0.38,2019-09-13,19:48,N,nominal,1.0NRT,302.2,8.9,D
31.96264,-99.36976,353.2,0.44,0.38,2019-09-13,19:48,N,nominal,1.0NRT,301.7,8.9,D
31.49782,-103.1431,336.2,0.39,0.36,2019-09-13,19:48,N,nominal,1.0NRT,304,1.1,D
33.41888,-110.86145,350.8,0.49,0.49,2019-09-13,19:54,N,nominal,1.0NRT,314.2,28.3,D
32.14554,-115.04627,345.3,0.45,0.63,2019-09-13,19:54,N,nominal,1.0NRT,314.8,7.1,D
32.14115,-115.0396,348,0.45,0.63,2019-09-13,19:54,N,nominal,1.0NRT,313.3,5.4,D
32.14109,-115.04059,347.3,0.45,0.63,2019-09-13,19:54,N,nominal,1.0NRT,313,5.4,D
31.8196,-112.69612,367,0.68,0.74,2019-09-13,21:30,N,high,1.0NRT,307.5,18,D
32.50295,-116.74532,340.1,0.4,0.6,2019-09-13,21:30,N,nominal,1.0NRT,310.1,2.9,D
31.81976,-112.69901,367,0.68,0.74,2019-09-13,21:30,N,high,1.0NRT,312.1,37.1,D
31.82667,-112.6993,367,0.68,0.74,2019-09-13,21:30,N,high,1.0NRT,315,37.1,D
31.82626,-112.70377,349.5,0.68,0.74,2019-09-13,21:30,N,nominal,1.0NRT,312.4,37.1,D
31.82651,-112.69643,367,0.68,0.74,2019-09-13,21:30,N,high,1.0NRT,311.3,51.1,D
31.81935,-112.70348,344.8,0.68,0.74,2019-09-13,21:30,N,nominal,1.0NRT,308,10.7,D
