latitude,longitude,bright_ti4,scan,track,acq_date,acq_time,satellite,confidence,version,bright_ti5,frp,daynight
9.51169,-70.97944,305.3,0.46,0.47,2019-09-22,05:48,N,nominal,1.0NRT,282.4,0.8,N
18.9277,-70.3548,302.4,0.55,0.51,2019-09-22,05:48,N,nominal,1.0NRT,257.1,1.2,N
11.74953,-70.17411,304.1,0.43,0.46,2019-09-22,05:48,N,nominal,1.0NRT,288.1,0.6,N
11.74001,-70.20016,341.5,0.44,0.46,2019-09-22,05:48,N,nominal,1.0NRT,290.3,13.9,N
11.73946,-70.19603,311.2,0.44,0.46,2019-09-22,05:48,N,nominal,1.0NRT,288.7,3.3,N
11.74109,-70.1994,319.8,0.44,0.46,2019-09-22,05:48,N,nominal,1.0NRT,289,9.4,N
11.73685,-70.20007,343.8,0.44,0.46,2019-09-22,05:48,N,nominal,1.0NRT,289.8,9.4,N
11.73627,-70.19595,306,0.43,0.46,2019-09-22,05:48,N,nominal,1.0NRT,288.9,3,N
11.62379,-70.22317,319.9,0.44,0.46,2019-09-22,05:48,N,nominal,1.0NRT,289.5,1.8,N
10.42087,-66.95621,301.8,0.42,0.38,2019-09-22,05:48,N,nominal,1.0NRT,285.9,0.7,N
9.8543,-63.33725,330.2,0.4,0.37,2019-09-22,05:48,N,nominal,1.0NRT,283.1,3.3,N
9.85394,-63.34042,321,0.4,0.37,2019-09-22,05:48,N,nominal,1.0NRT,282,3,N
9.85336,-63.33677,329,0.4,0.37,2019-09-22,05:48,N,nominal,1.0NRT,282.4,2.8,N
10.41936,-66.95528,301.9,0.42,0.38,2019-09-22,05:48,N,nominal,1.0NRT,286.2,0.7,N
10.05933,-64.86968,320.1,0.38,0.36,2019-09-22,05:48,N,nominal,1.0NRT,283.6,3.1,N
10.05602,-64.87022,330.8,0.38,0.36,2019-09-22,05:48,N,nominal,1.0NRT,285.5,4.1,N
10.05657,-64.87371,317.3,0.38,0.36,2019-09-22,05:48,N,nominal,1.0NRT,286,3.2,N
11.13403,-72.57749,300.1,0.61,0.54,2019-09-22,05:48,N,nominal,1.0NRT,278.5,2.1,N
10.48581,-68.11848,322.7,0.48,0.4,2019-09-22,05:48,N,nominal,1.0NRT,283,3.6,N
10.48279,-68.11779,320.6,0.48,0.4,2019-09-22,05:48,N,nominal,1.0NRT,283,3.7,N
9.74245,-63.42979,335.3,0.4,0.37,2019-09-22,05:48,N,nominal,1.0NRT,282.4,3.8,N
9.73875,-63.47121,345.6,0.4,0.37,2019-09-22,05:48,N,nominal,1.0NRT,285.4,8,N
9.73933,-63.47482,301.9,0.4,0.37,2019-09-22,05:48,N,nominal,1.0NRT,282.5,8,N
9.73596,-63.47535,344.2,0.4,0.37,2019-09-22,05:48,N,nominal,1.0NRT,287.7,8,N
9.73538,-63.47175,349,0.4,0.37,2019-09-22,05:48,N,nominal,1.0NRT,285.9,8,N
9.73654,-63.47896,302.4,0.4,0.37,2019-09-22,05:48,N,nominal,1.0NRT,279.6,1.6,N
9.7326,-63.47589,331,0.4,0.37,2019-09-22,05:48,N,nominal,1.0NRT,279.2,2.5,N
9.72969,-63.45784,323.5,0.4,0.37,2019-09-22,05:48,N,nominal,1.0NRT,284.4,1.3,N
9.73201,-63.47228,307.1,0.4,0.37,2019-09-22,05:48,N,nominal,1.0NRT,281.1,2.5,N
9.73027,-63.46145,304.2,0.4,0.37,2019-09-22,05:48,N,nominal,1.0NRT,283.9,1.3,N
9.72691,-63.462,319.8,0.4,0.37,2019-09-22,05:48,N,nominal,1.0NRT,284.1,1.3,N
9.72529,-63.47338,304.2,0.4,0.37,2019-09-22,05:48,N,nominal,1.0NRT,282.5,1,N
9.68379,-63.47293,302.2,0.4,0.37,2019-09-22,05:48,N,nominal,1.0NRT,282.6,2.9,N
9.68042,-63.47347,337.4,0.4,0.37,2019-09-22,05:48,N,nominal,1.0NRT,286.6,2.9,N
9.68101,-63.47709,304.2,0.4,0.37,2019-09-22,05:48,N,nominal,1.0NRT,283.9,2.9,N
9.67984,-63.46986,303.4,0.4,0.37,2019-09-22,05:48,N,nominal,1.0NRT,281.6,0.8,N
9.67706,-63.47402,340.3,0.4,0.37,2019-09-22,05:48,N,nominal,1.0NRT,287,7.3,N
9.67765,-63.47763,303,0.4,0.37,2019-09-22,05:48,N,nominal,1.0NRT,283.9,7.3,N
9.67647,-63.47041,303.1,0.4,0.37,2019-09-22,05:48,N,nominal,1.0NRT,283.1,1.5,N
9.67385,-63.49679,313.7,0.4,0.37,2019-09-22,05:48,N,nominal,1.0NRT,284.9,1.3,N
9.65367,-63.52921,328.1,0.4,0.37,2019-09-22,05:48,N,nominal,1.0NRT,287.2,4.3,N
9.66464,-63.59767,307.6,0.4,0.37,2019-09-22,05:48,N,nominal,1.0NRT,282.8,0.8,N
9.65887,-63.56168,304.3,0.4,0.37,2019-09-22,05:48,N,nominal,1.0NRT,277.7,0.6,N
9.6583,-63.55807,300.6,0.4,0.37,2019-09-22,05:48,N,nominal,1.0NRT,277.8,0.6,N
9.65483,-63.53643,306.8,0.4,0.37,2019-09-22,05:48,N,nominal,1.0NRT,283.6,0.8,N
9.65425,-63.53282,315.8,0.4,0.37,2019-09-22,05:48,N,nominal,1.0NRT,284.3,4.3,N
9.65667,-63.56942,302.6,0.4,0.37,2019-09-22,05:48,N,nominal,1.0NRT,277.5,1,N
9.65609,-63.56582,310.7,0.4,0.37,2019-09-22,05:48,N,nominal,1.0NRT,279.1,1,N
9.65551,-63.56221,313.8,0.4,0.37,2019-09-22,05:48,N,nominal,1.0NRT,279.7,0.6,N
9.65494,-63.55861,307.4,0.4,0.37,2019-09-22,05:48,N,nominal,1.0NRT,279.4,0.6,N
9.65436,-63.555,302.3,0.4,0.37,2019-09-22,05:48,N,nominal,1.0NRT,280.4,0.6,N
9.65378,-63.5514,300.2,0.4,0.37,2019-09-22,05:48,N,nominal,1.0NRT,279.5,0.6,N
9.65147,-63.53697,306.9,0.4,0.37,2019-09-22,05:48,N,nominal,1.0NRT,282.4,0.8,N
9.65031,-63.52975,307.1,0.4,0.37,2019-09-22,05:48,N,nominal,1.0NRT,283.7,4.3,N
9.64973,-63.52614,310.7,0.4,0.37,2019-09-22,05:48,N,nominal,1.0NRT,283.7,0.8,N
9.65273,-63.56635,341.7,0.4,0.37,2019-09-22,05:48,N,nominal,1.0NRT,282,8,N
9.65216,-63.56275,339.7,0.4,0.37,2019-09-22,05:48,N,nominal,1.0NRT,291.4,12,N
9.64637,-63.52668,320.8,0.4,0.37,2019-09-22,05:48,N,nominal,1.0NRT,282.7,1.3,N
9.65331,-63.56995,307.7,0.4,0.37,2019-09-22,05:48,N,nominal,1.0NRT,277.5,8,N
9.65158,-63.55914,307.7,0.4,0.37,2019-09-22,05:48,N,nominal,1.0NRT,283,12,N
9.651,-63.55555,304.9,0.4,0.37,2019-09-22,05:48,N,nominal,1.0NRT,281.7,0.7,N
9.65042,-63.55194,305.7,0.4,0.37,2019-09-22,05:48,N,nominal,1.0NRT,281.7,0.7,N
9.64937,-63.56689,331.3,0.4,0.37,2019-09-22,05:48,N,nominal,1.0NRT,280.3,8,N
9.6488,-63.56329,340.6,0.4,0.37,2019-09-22,05:48,N,nominal,1.0NRT,283.7,12,N
9.65745,-63.61723,300.8,0.4,0.37,2019-09-22,05:48,N,nominal,1.0NRT,277.7,1.1,N
9.65687,-63.61364,298.8,0.4,0.37,2019-09-22,05:48,N,nominal,1.0NRT,277.3,0.9,N
9.64995,-63.57049,308.1,0.4,0.37,2019-09-22,05:48,N,nominal,1.0NRT,277,8,N
9.64822,-63.55969,309,0.4,0.37,2019-09-22,05:48,N,nominal,1.0NRT,283.4,12,N
9.64706,-63.55249,304.8,0.4,0.37,2019-09-22,05:48,N,nominal,1.0NRT,283.2,0.7,N
9.6466,-63.57102,348.4,0.4,0.37,2019-09-22,05:48,N,nominal,1.0NRT,282.1,2.6,N
9.64544,-63.56383,330.1,0.4,0.37,2019-09-22,05:48,N,nominal,1.0NRT,283.5,9.3,N
9.64486,-63.56023,330.3,0.4,0.37,2019-09-22,05:48,N,nominal,1.0NRT,284.6,9.3,N
9.64428,-63.55663,335.1,0.4,0.37,2019-09-22,05:48,N,nominal,1.0NRT,287,8.2,N
9.65582,-63.62853,303.6,0.4,0.37,2019-09-22,05:48,N,nominal,1.0NRT,282.3,7,N
9.65524,-63.62495,311.3,0.4,0.37,2019-09-22,05:48,N,nominal,1.0NRT,281.1,7,N
9.65467,-63.62137,317.7,0.4,0.37,2019-09-22,05:48,N,nominal,1.0NRT,277.8,4,N
9.65409,-63.61777,309.7,0.4,0.37,2019-09-22,05:48,N,nominal,1.0NRT,275.9,4,N
9.65352,-63.61418,300.7,0.4,0.37,2019-09-22,05:48,N,nominal,1.0NRT,277.8,0.5,N
9.64717,-63.57463,299,0.4,0.37,2019-09-22,05:48,N,nominal,1.0NRT,275,0.4,N
9.64602,-63.56743,311,0.4,0.37,2019-09-22,05:48,N,nominal,1.0NRT,281.6,2.6,N
9.6437,-63.55302,308.6,0.4,0.37,2019-09-22,05:48,N,nominal,1.0NRT,285.9,8.2,N
9.65247,-63.62908,337,0.4,0.37,2019-09-22,05:48,N,nominal,1.0NRT,284.9,7,N
9.65189,-63.62549,329.8,0.4,0.37,2019-09-22,05:48,N,nominal,1.0NRT,279.7,7,N
9.65131,-63.62191,343.3,0.4,0.37,2019-09-22,05:48,N,nominal,1.0NRT,283.4,4,N
9.64324,-63.57157,325.1,0.4,0.37,2019-09-22,05:48,N,nominal,1.0NRT,281.9,2.6,N
9.64208,-63.56437,347.7,0.4,0.37,2019-09-22,05:48,N,nominal,1.0NRT,285,9.3,N
9.6415,-63.56077,320.4,0.4,0.37,2019-09-22,05:48,N,nominal,1.0NRT,283.5,9.3,N
9.64092,-63.55716,326,0.4,0.37,2019-09-22,05:48,N,nominal,1.0NRT,283.5,8.2,N
9.65304,-63.63266,303.8,0.4,0.37,2019-09-22,05:48,N,nominal,1.0NRT,281,1.1,N
9.65074,-63.61832,310.7,0.4,0.37,2019-09-22,05:48,N,nominal,1.0NRT,275.6,4,N
9.65016,-63.61473,302.4,0.4,0.37,2019-09-22,05:48,N,nominal,1.0NRT,277.6,0.5,N
9.64381,-63.57517,298.8,0.4,0.37,2019-09-22,05:48,N,nominal,1.0NRT,277.2,0.4,N
9.64266,-63.56796,302.7,0.4,0.37,2019-09-22,05:48,N,nominal,1.0NRT,281.6,2.6,N
9.64034,-63.55356,319,0.4,0.37,2019-09-22,05:48,N,nominal,1.0NRT,283,8.2,N
9.64911,-63.62961,331.1,0.4,0.37,2019-09-22,05:48,N,nominal,1.0NRT,282.9,14.5,N
9.64854,-63.62603,325.4,0.4,0.37,2019-09-22,05:48,N,nominal,1.0NRT,278.7,14.5,N
9.64969,-63.63321,303.2,0.4,0.37,2019-09-22,05:48,N,nominal,1.0NRT,279.8,1.1,N
9.64796,-63.62245,309.8,0.4,0.37,2019-09-22,05:48,N,nominal,1.0NRT,278.7,0.8,N
9.64739,-63.61885,307.1,0.4,0.37,2019-09-22,05:48,N,nominal,1.0NRT,277.9,0.8,N
9.64681,-63.61528,301.2,0.4,0.37,2019-09-22,05:48,N,nominal,1.0NRT,275.6,0.5,N
9.64576,-63.63016,303.7,0.4,0.37,2019-09-22,05:48,N,nominal,1.0NRT,278.6,14.5,N
9.64518,-63.62658,303.1,0.4,0.37,2019-09-22,05:48,N,nominal,1.0NRT,277.8,14.5,N
9.64461,-63.62299,299.7,0.4,0.37,2019-09-22,05:48,N,nominal,1.0NRT,278.1,0.8,N
9.64346,-63.61581,297.7,0.4,0.37,2019-09-22,05:48,N,nominal,1.0NRT,275.8,0.5,N
9.63212,-63.69503,305.9,0.39,0.36,2019-09-22,05:48,N,nominal,1.0NRT,277.8,1.3,N
9.63155,-63.69145,310,0.39,0.36,2019-09-22,05:48,N,nominal,1.0NRT,277.6,1.6,N
9.63097,-63.68787,304,0.39,0.36,2019-09-22,05:48,N,nominal,1.0NRT,276.4,1.6,N
9.62878,-63.69557,323.5,0.39,0.36,2019-09-22,05:48,N,nominal,1.0NRT,277.2,1.3,N
9.6282,-63.69199,342.7,0.39,0.36,2019-09-22,05:48,N,nominal,1.0NRT,278.9,1.6,N
9.62935,-63.69915,305.2,0.39,0.36,2019-09-22,05:48,N,nominal,1.0NRT,277.4,1.3,N
9.62762,-63.68841,312.4,0.39,0.36,2019-09-22,05:48,N,nominal,1.0NRT,275.5,1.6,N
9.62543,-63.69611,330,0.39,0.36,2019-09-22,05:48,N,nominal,1.0NRT,276.9,1.4,N
9.62485,-63.69254,347.9,0.39,0.36,2019-09-22,05:48,N,nominal,1.0NRT,281.9,3.9,N
9.62601,-63.69969,309.4,0.39,0.36,2019-09-22,05:48,N,nominal,1.0NRT,278.3,1.4,N
9.62428,-63.68896,312.1,0.39,0.36,2019-09-22,05:48,N,nominal,1.0NRT,274,3.9,N
9.62266,-63.70024,302.5,0.39,0.36,2019-09-22,05:48,N,nominal,1.0NRT,279.1,1.4,N
9.62208,-63.69666,310.2,0.39,0.36,2019-09-22,05:48,N,nominal,1.0NRT,278.6,1.4,N
9.6215,-63.69308,316.6,0.39,0.36,2019-09-22,05:48,N,nominal,1.0NRT,278.3,3.9,N
9.62093,-63.6895,304.4,0.39,0.36,2019-09-22,05:48,N,nominal,1.0NRT,274.7,3.9,N
9.62392,-63.72938,300.1,0.39,0.36,2019-09-22,05:48,N,nominal,1.0NRT,278.3,0.8,N
9.62334,-63.72581,309.3,0.39,0.36,2019-09-22,05:48,N,nominal,1.0NRT,280.3,0.8,N
9.62277,-63.72224,310.3,0.39,0.36,2019-09-22,05:48,N,nominal,1.0NRT,280.4,0.9,N
9.61942,-63.72277,330.1,0.39,0.36,2019-09-22,05:48,N,nominal,1.0NRT,280,0.9,N
9.62,-63.72635,313.2,0.39,0.36,2019-09-22,05:48,N,nominal,1.0NRT,278.6,0.8,N
9.61665,-63.72689,300.1,0.39,0.36,2019-09-22,05:48,N,nominal,1.0NRT,276.8,0.7,N
9.56441,-63.62854,305.5,0.4,0.37,2019-09-22,05:48,N,nominal,1.0NRT,276.8,0.5,N
9.56163,-63.63269,306.4,0.4,0.37,2019-09-22,05:48,N,nominal,1.0NRT,279.8,1.6,N
9.56105,-63.62909,318,0.4,0.37,2019-09-22,05:48,N,nominal,1.0NRT,278.4,1.2,N
9.472,-64.38796,302.3,0.39,0.36,2019-09-22,05:48,N,nominal,1.0NRT,279.4,0.5,N
9.29507,-63.89965,314.6,0.39,0.36,2019-09-22,05:48,N,nominal,1.0NRT,280.1,1.2,N
9.27515,-64.04437,316.9,0.39,0.36,2019-09-22,05:48,N,nominal,1.0NRT,277.9,1.3,N
9.27459,-64.04084,316.5,0.39,0.36,2019-09-22,05:48,N,nominal,1.0NRT,278,1,N
9.27182,-64.04491,308.2,0.39,0.36,2019-09-22,05:48,N,nominal,1.0NRT,277.2,1.3,N
9.27125,-64.04137,310.8,0.39,0.36,2019-09-22,05:48,N,nominal,1.0NRT,277.3,1,N
10.36464,-71.46459,308.4,0.5,0.49,2019-09-22,05:48,N,nominal,1.0NRT,281.9,1.8,N
9.22632,-64.05956,330.6,0.39,0.36,2019-09-22,05:48,N,nominal,1.0NRT,279.1,3.4,N
8.74393,-63.04994,318.6,0.41,0.37,2019-09-22,05:48,N,nominal,1.0NRT,289.1,0.5,N
8.74051,-63.05051,302,0.41,0.37,2019-09-22,05:48,N,nominal,1.0NRT,289,0.7,N
8.65121,-62.77572,301.9,0.42,0.38,2019-09-22,05:48,N,nominal,1.0NRT,284.6,1.2,N
8.65059,-62.77188,315.2,0.42,0.38,2019-09-22,05:48,N,nominal,1.0NRT,283,1.2,N
8.68797,-63.15444,326.1,0.41,0.37,2019-09-22,05:48,N,nominal,1.0NRT,289.6,2.8,N
8.68455,-63.155,324,0.41,0.37,2019-09-22,05:48,N,nominal,1.0NRT,288,2.4,N
9.58131,-70.45562,312.8,0.42,0.45,2019-09-22,05:48,N,nominal,1.0NRT,283.3,1.5,N
29.84475,-94.66061,309,0.32,0.55,2019-09-22,07:24,N,nominal,1.0NRT,289.4,0.6,N
18.06423,-93.31139,302.7,0.57,0.43,2019-09-22,07:24,N,nominal,1.0NRT,290.2,1,N
18.20164,-94.00499,311.6,0.42,0.45,2019-09-22,07:24,N,nominal,1.0NRT,292.3,0.8,N
18.21773,-93.89733,305.3,0.42,0.45,2019-09-22,07:24,N,nominal,1.0NRT,291.7,6.1,N
18.21723,-93.89338,338.9,0.42,0.45,2019-09-22,07:24,N,nominal,1.0NRT,292.3,6.1,N
18.14101,-92.82632,318.1,0.54,0.42,2019-09-22,07:24,N,nominal,1.0NRT,291.2,1.8,N
18.38482,-93.30999,311.9,0.39,0.44,2019-09-22,07:24,N,nominal,1.0NRT,292,2,N
18.39177,-92.82812,309.3,0.54,0.42,2019-09-22,07:24,N,nominal,1.0NRT,291.8,1,N
18.83511,-96.22585,303.7,0.59,0.53,2019-09-22,07:24,N,nominal,1.0NRT,289.2,1.2,N
18.83706,-96.22329,302.2,0.6,0.53,2019-09-22,07:24,N,nominal,1.0NRT,289,2,N
18.64192,-92.17236,335.6,0.5,0.41,2019-09-22,07:24,N,nominal,1.0NRT,300.3,25.2,N
18.64503,-92.16701,309,0.5,0.41,2019-09-22,07:24,N,nominal,1.0NRT,294.8,25.2,N
18.64568,-92.17179,338.7,0.5,0.41,2019-09-22,07:24,N,nominal,1.0NRT,295.6,25.2,N
18.31008,-88.82439,304.1,0.39,0.36,2019-09-22,07:24,N,nominal,1.0NRT,292.2,0.3,N
19.34381,-96.70581,308.8,0.32,0.55,2019-09-22,07:24,N,nominal,1.0NRT,288.3,0.7,N
18.8666,-92.62383,309.7,0.54,0.42,2019-09-22,07:24,N,nominal,1.0NRT,295.9,0.9,N
18.87047,-92.62325,308.5,0.54,0.42,2019-09-22,07:24,N,nominal,1.0NRT,295.8,0.9,N
18.6446,-88.49194,305.7,0.39,0.36,2019-09-22,07:24,N,nominal,1.0NRT,292.5,0.8,N
18.64516,-88.49557,305.3,0.39,0.36,2019-09-22,07:24,N,nominal,1.0NRT,292.4,0.8,N
19.8058,-97.3706,295.3,0.36,0.58,2019-09-22,07:24,N,nominal,1.0NRT,283.6,0.4,N
19.24017,-92.25399,320.5,0.52,0.41,2019-09-22,07:24,N,nominal,1.0NRT,295,1.8,N
19.29122,-92.17123,320.3,0.51,0.41,2019-09-22,07:24,N,nominal,1.0NRT,294.8,1.5,N
19.29899,-92.20003,311.4,0.51,0.41,2019-09-22,07:24,N,nominal,1.0NRT,294.6,0.7,N
19.29436,-92.16577,322,0.51,0.41,2019-09-22,07:24,N,nominal,1.0NRT,294.7,2.1,N
19.3651,-92.00935,308.9,0.5,0.41,2019-09-22,07:24,N,nominal,1.0NRT,293.2,3.3,N
19.39294,-92.04446,339,0.51,0.41,2019-09-22,07:24,N,nominal,1.0NRT,297.1,20.2,N
19.39672,-92.04389,336.2,0.51,0.41,2019-09-22,07:24,N,nominal,1.0NRT,295.2,20.2,N
19.42419,-92.07732,318.4,0.51,0.41,2019-09-22,07:24,N,nominal,1.0NRT,295.1,4,N
19.42861,-92.0816,325.7,0.51,0.41,2019-09-22,07:24,N,nominal,1.0NRT,294.8,4.6,N
19.43797,-92.03571,330.4,0.51,0.41,2019-09-22,07:24,N,nominal,1.0NRT,295.2,3.8,N
19.44174,-92.03514,331.1,0.51,0.41,2019-09-22,07:24,N,nominal,1.0NRT,295.4,3.8,N
19.51622,-92.15813,316.6,0.51,0.41,2019-09-22,07:24,N,nominal,1.0NRT,295.1,1.2,N
19.52088,-92.19259,309.9,0.52,0.41,2019-09-22,07:24,N,nominal,1.0NRT,294.7,1.8,N
20.38163,-99.69157,300.6,0.52,0.67,2019-09-22,07:24,N,nominal,1.0NRT,282.5,1,N
19.56376,-92.23513,308.6,0.52,0.42,2019-09-22,07:24,N,nominal,1.0NRT,294.8,11.2,N
19.56441,-92.2401,333.3,0.52,0.42,2019-09-22,07:24,N,nominal,1.0NRT,295.7,11.2,N
19.56759,-92.23455,309.8,0.52,0.42,2019-09-22,07:24,N,nominal,1.0NRT,294.3,11.2,N
19.56824,-92.23952,336.6,0.52,0.42,2019-09-22,07:24,N,nominal,1.0NRT,294.3,11.2,N
19.5649,-92.1844,314.9,0.52,0.41,2019-09-22,07:24,N,nominal,1.0NRT,295,5,N
20.38572,-99.69104,297.2,0.52,0.67,2019-09-22,07:24,N,nominal,1.0NRT,282.8,1.9,N
19.59911,-92.29603,321.8,0.52,0.42,2019-09-22,07:24,N,nominal,1.0NRT,295,5.5,N
19.5904,-92.20076,313.1,0.52,0.41,2019-09-22,07:24,N,nominal,1.0NRT,295.2,5.1,N
20.52144,-100.92694,302.2,0.63,0.72,2019-09-22,07:24,N,nominal,1.0NRT,283.8,1.1,N
19.60294,-92.29545,326.6,0.52,0.42,2019-09-22,07:24,N,nominal,1.0NRT,295,5.6,N
20.52814,-100.92626,296.3,0.63,0.72,2019-09-22,07:24,N,nominal,1.0NRT,282.9,1.1,N
19.6098,-92.25871,310,0.52,0.42,2019-09-22,07:24,N,nominal,1.0NRT,294.6,4.1,N
20.57528,-101.17182,296.8,0.65,0.73,2019-09-22,07:24,N,nominal,1.0NRT,282.2,0.9,N
20.57696,-101.17181,296.9,0.65,0.73,2019-09-22,07:24,N,nominal,1.0NRT,282.8,1.4,N
20.57744,-101.17829,299.2,0.65,0.73,2019-09-22,07:24,N,nominal,1.0NRT,283.7,1.4,N
20.45921,-97.5472,318.4,0.38,0.59,2019-09-22,07:24,N,nominal,1.0NRT,288.9,1.3,N
20.51433,-97.47842,346.1,0.38,0.58,2019-09-22,07:24,N,nominal,1.0NRT,289.9,3.7,N
22.10405,-100.91483,298.2,0.65,0.73,2019-09-22,07:24,N,nominal,1.0NRT,284.3,0.7,N
20.94193,-89.66317,310.2,0.42,0.37,2019-09-22,07:24,N,nominal,1.0NRT,292.3,1.5,N
22.0428,-98.87262,301.9,0.48,0.65,2019-09-22,07:24,N,nominal,1.0NRT,288.6,0.8,N
22.26288,-97.80638,307.6,0.41,0.61,2019-09-22,07:24,N,nominal,1.0NRT,291.9,3.1,N
22.26326,-97.8105,317.6,0.41,0.61,2019-09-22,07:24,N,nominal,1.0NRT,292,3.1,N
21.24775,-86.89539,312.2,0.39,0.36,2019-09-22,07:24,N,nominal,1.0NRT,292.2,2.1,N
23.01037,-82.74678,305.4,0.51,0.41,2019-09-22,07:24,N,nominal,1.0NRT,290.1,2.9,N
25.60052,-100.92288,299.6,0.7,0.75,2019-09-22,07:24,N,nominal,1.0NRT,287.2,1.8,N
25.58135,-99.93869,314.6,0.61,0.71,2019-09-22,07:24,N,nominal,1.0NRT,289.6,3.8,N
25.57848,-99.94079,304.7,0.61,0.71,2019-09-22,07:24,N,nominal,1.0NRT,289.4,1.4,N
25.58511,-99.94012,309.8,0.61,0.71,2019-09-22,07:24,N,nominal,1.0NRT,290,1.4,N
25.69477,-100.30238,301.5,0.64,0.72,2019-09-22,07:24,N,nominal,1.0NRT,288.7,1.7,N
25.93038,-98.01744,301.8,0.47,0.64,2019-09-22,07:24,N,nominal,1.0NRT,288.1,0.4,N
26.8814,-101.41628,305.7,0.77,0.77,2019-09-22,07:24,N,nominal,1.0NRT,288.7,2.3,N
26.88179,-101.42448,302,0.77,0.77,2019-09-22,07:24,N,nominal,1.0NRT,288.6,2.1,N
26.88297,-101.44913,309.5,0.77,0.77,2019-09-22,07:24,N,nominal,1.0NRT,288.1,1.7,N
26.88336,-101.45716,304.1,0.77,0.77,2019-09-22,07:24,N,nominal,1.0NRT,288.5,5.1,N
26.89025,-101.44889,304.4,0.77,0.77,2019-09-22,07:24,N,nominal,1.0NRT,288.3,1.7,N
27.88603,-97.27497,308.5,0.44,0.62,2019-09-22,07:24,N,nominal,1.0NRT,291.3,1.6,N
28.39196,-98.99734,303.2,0.56,0.69,2019-09-22,07:24,N,nominal,1.0NRT,287.6,0.4,N
27.72853,-91.1105,327.2,0.56,0.43,2019-09-22,07:24,N,nominal,1.0NRT,296.7,5.1,N
28.59561,-99.3664,304.4,0.6,0.7,2019-09-22,07:24,N,nominal,1.0NRT,285.9,0.5,N
28.60041,-98.26506,304.8,0.51,0.66,2019-09-22,07:24,N,nominal,1.0NRT,288.4,0.7,N
28.6049,-98.26507,302.1,0.51,0.66,2019-09-22,07:24,N,nominal,1.0NRT,288.2,0.6,N
28.70004,-96.54388,304.6,0.4,0.6,2019-09-22,07:24,N,nominal,1.0NRT,291.4,1,N
28.86751,-97.93271,303.9,0.49,0.65,2019-09-22,07:24,N,nominal,1.0NRT,289.2,0.5,N
28.8991,-97.93973,305.1,0.49,0.65,2019-09-22,07:24,N,nominal,1.0NRT,289,0.7,N
28.93858,-97.88423,304.7,0.49,0.65,2019-09-22,07:24,N,nominal,1.0NRT,289.1,0.8,N
28.95845,-97.90817,304.2,0.49,0.65,2019-09-22,07:24,N,nominal,1.0NRT,289.2,0.5,N
29.13722,-97.71986,307.8,0.48,0.65,2019-09-22,07:24,N,nominal,1.0NRT,289.9,0.9,N
29.00262,-95.4021,304.3,0.35,0.56,2019-09-22,07:24,N,nominal,1.0NRT,291.8,1.3,N
26.54195,-78.60634,303.4,0.5,0.49,2019-09-22,07:24,N,nominal,1.0NRT,291.2,0.8,N
29.06898,-95.75217,305.4,0.36,0.58,2019-09-22,07:24,N,nominal,1.0NRT,293.5,2.3,N
29.06548,-95.74889,304.9,0.36,0.58,2019-09-22,07:24,N,nominal,1.0NRT,293.2,1.2,N
29.06577,-95.75273,304.3,0.36,0.58,2019-09-22,07:24,N,nominal,1.0NRT,293,1.2,N
29.3423,-97.11192,303.2,0.44,0.63,2019-09-22,07:24,N,nominal,1.0NRT,290.3,1,N
29.57407,-98.03343,322.3,0.51,0.66,2019-09-22,07:24,N,nominal,1.0NRT,288.5,2.2,N
29.36819,-94.90975,310.1,0.33,0.55,2019-09-22,07:24,N,nominal,1.0NRT,294.1,2.1,N
29.37416,-94.91944,308.6,0.33,0.55,2019-09-22,07:24,N,nominal,1.0NRT,294.1,2.8,N
29.37562,-94.93667,309.8,0.33,0.55,2019-09-22,07:24,N,nominal,1.0NRT,294,1.9,N
29.37591,-94.94012,306.2,0.33,0.55,2019-09-22,07:24,N,nominal,1.0NRT,293.3,1.7,N
29.62243,-95.04929,305.5,0.34,0.56,2019-09-22,07:24,N,nominal,1.0NRT,289.7,1,N
29.71124,-95.23237,304.4,0.34,0.56,2019-09-22,07:24,N,nominal,1.0NRT,291.8,1.5,N
29.72331,-95.12178,306.3,0.34,0.56,2019-09-22,07:24,N,nominal,1.0NRT,290.3,2.6,N
29.73913,-94.99815,305,0.33,0.56,2019-09-22,07:24,N,nominal,1.0NRT,291.1,2.6,N
29.73973,-95.00519,306.2,0.33,0.56,2019-09-22,07:24,N,nominal,1.0NRT,290.7,2.4,N
29.74429,-94.99755,309.6,0.33,0.56,2019-09-22,07:24,N,nominal,1.0NRT,291.6,1.7,N
29.74579,-95.01517,306.4,0.33,0.56,2019-09-22,07:24,N,nominal,1.0NRT,290.6,2.3,N
29.7461,-95.01871,306.2,0.33,0.56,2019-09-22,07:24,N,nominal,1.0NRT,289.9,1.7,N
29.74459,-95.00107,326.4,0.33,0.56,2019-09-22,07:24,N,nominal,1.0NRT,291.4,1.7,N
29.7459,-94.99789,308.3,0.33,0.56,2019-09-22,07:24,N,nominal,1.0NRT,291.2,0.8,N
29.74618,-95.00143,310.4,0.33,0.56,2019-09-22,07:24,N,nominal,1.0NRT,290.1,0.8,N
29.75552,-93.8816,306.1,0.57,0.52,2019-09-22,07:24,N,nominal,1.0NRT,290.7,4.9,N
29.75878,-93.88134,305.3,0.57,0.52,2019-09-22,07:24,N,nominal,1.0NRT,291.6,5.2,N
28.17659,-82.12656,303.5,0.46,0.39,2019-09-22,07:24,N,nominal,1.0NRT,292,0.4,N
29.60686,-91.08603,303.9,0.39,0.44,2019-09-22,07:24,N,nominal,1.0NRT,292.8,0.5,N
29.77516,-91.73815,307.2,0.43,0.46,2019-09-22,07:24,N,nominal,1.0NRT,292,0.9,N
30.06547,-94.06507,303.7,0.59,0.53,2019-09-22,07:24,N,nominal,1.0NRT,290.5,2.5,N
30.11495,-93.29803,309.5,0.53,0.5,2019-09-22,07:24,N,nominal,1.0NRT,289.4,1.3,N
29.99673,-90.3944,307.3,0.55,0.43,2019-09-22,07:24,N,nominal,1.0NRT,295.7,1.9,N
30.00132,-90.3995,308.6,0.55,0.43,2019-09-22,07:24,N,nominal,1.0NRT,295.1,1.9,N
30.10801,-90.89785,310,0.39,0.44,2019-09-22,07:24,N,nominal,1.0NRT,295.7,1.3,N
30.13498,-90.91864,312.3,0.39,0.44,2019-09-22,07:24,N,nominal,1.0NRT,293.8,2,N
30.18835,-90.98992,309,0.39,0.44,2019-09-22,07:24,N,nominal,1.0NRT,293.4,1.1,N
30.32305,-91.23663,311.5,0.41,0.45,2019-09-22,07:24,N,nominal,1.0NRT,294.3,1.1,N
30.32781,-91.27963,307.3,0.41,0.45,2019-09-22,07:24,N,nominal,1.0NRT,293.2,1,N
30.81368,-96.65258,303.4,0.43,0.62,2019-09-22,07:24,N,nominal,1.0NRT,289.3,0.6,N
30.48407,-91.1777,306.8,0.41,0.45,2019-09-22,07:24,N,nominal,1.0NRT,295.1,2.6,N
30.60135,-91.91936,306.7,0.45,0.47,2019-09-22,07:24,N,nominal,1.0NRT,289.6,1,N
30.5849,-91.24298,303.7,0.41,0.45,2019-09-22,07:24,N,nominal,1.0NRT,291.6,0.5,N
30.74665,-92.25627,305.2,0.47,0.48,2019-09-22,07:24,N,nominal,1.0NRT,289.4,0.9,N
30.34032,-88.48638,312.2,0.45,0.39,2019-09-22,07:24,N,nominal,1.0NRT,298.8,3.8,N
30.34171,-88.4841,309.7,0.45,0.39,2019-09-22,07:24,N,nominal,1.0NRT,298.6,4.2,N
30.56606,-88.30138,302.4,0.45,0.39,2019-09-22,07:24,N,nominal,1.0NRT,291.7,0.4,N
31.35233,-96.16359,302.1,0.41,0.6,2019-09-22,07:24,N,nominal,1.0NRT,290.6,0.8,N
31.35263,-96.16804,312.3,0.41,0.6,2019-09-22,07:24,N,nominal,1.0NRT,290.7,1.5,N
31.35292,-96.17244,307.6,0.41,0.6,2019-09-22,07:24,N,nominal,1.0NRT,289.8,1.5,N
31.34835,-95.07819,312,0.35,0.57,2019-09-22,07:24,N,nominal,1.0NRT,291.4,0.8,N
30.47375,-85.37948,316.1,0.38,0.36,2019-09-22,07:24,N,nominal,1.0NRT,291.2,1.8,N
30.93734,-88.01286,314.3,0.44,0.38,2019-09-22,07:24,N,nominal,1.0NRT,293.9,2.2,N
30.94087,-88.01221,324.2,0.44,0.38,2019-09-22,07:24,N,nominal,1.0NRT,296.1,2.2,N
30.9444,-88.01157,315.1,0.44,0.38,2019-09-22,07:24,N,nominal,1.0NRT,293.3,1.2,N
31.5868,-92.37296,303.3,0.49,0.49,2019-09-22,07:24,N,nominal,1.0NRT,289,0.9,N
32.24747,-97.55093,305.7,0.5,0.66,2019-09-22,07:24,N,nominal,1.0NRT,289,0.8,N
31.44105,-88.09929,306.3,0.45,0.39,2019-09-22,07:24,N,nominal,1.0NRT,290.3,1,N
32.17061,-94.79852,302.5,0.34,0.56,2019-09-22,07:24,N,nominal,1.0NRT,290.7,0.3,N
31.01768,-84.50417,308.2,0.38,0.36,2019-09-22,07:24,N,nominal,1.0NRT,289.5,0.7,N
32.28218,-94.87388,305.7,0.35,0.57,2019-09-22,07:24,N,nominal,1.0NRT,290.9,0.5,N
32.28676,-94.87266,304.5,0.35,0.57,2019-09-22,07:24,N,nominal,1.0NRT,291,0.4,N
32.2946,-94.76196,306.7,0.34,0.56,2019-09-22,07:24,N,nominal,1.0NRT,290.9,0.5,N
31.37507,-84.85371,300.7,0.38,0.36,2019-09-22,07:24,N,nominal,1.0NRT,290.1,0.3,N
32.60506,-94.34255,303.5,0.33,0.55,2019-09-22,07:24,N,nominal,1.0NRT,290.5,0.2,N
31.39274,-84.13554,302.5,0.39,0.36,2019-09-22,07:24,N,nominal,1.0NRT,290.9,0.6,N
32.31376,-90.13639,304,0.57,0.43,2019-09-22,07:24,N,nominal,1.0NRT,288.2,0.6,N
32.58346,-89.58146,303.3,0.53,0.42,2019-09-22,07:24,N,nominal,1.0NRT,290,0.7,N
31.68604,-83.19633,304.6,0.4,0.37,2019-09-22,07:24,N,nominal,1.0NRT,291.2,1,N
31.68675,-83.20049,311.7,0.4,0.37,2019-09-22,07:24,N,nominal,1.0NRT,291.3,1,N
32.61725,-88.2739,301.9,0.47,0.39,2019-09-22,07:24,N,nominal,1.0NRT,290.2,0.8,N
32.62088,-88.27323,308.7,0.47,0.39,2019-09-22,07:24,N,nominal,1.0NRT,290.8,1.5,N
32.31838,-84.96743,303,0.39,0.36,2019-09-22,07:24,N,nominal,1.0NRT,290.5,0.9,N
32.32169,-84.96671,317.4,0.39,0.36,2019-09-22,07:24,N,nominal,1.0NRT,291.7,1.4,N
32.32185,-84.94565,303.3,0.38,0.36,2019-09-22,07:24,N,nominal,1.0NRT,291.9,1.1,N
32.33119,-84.9453,305.7,0.38,0.36,2019-09-22,07:24,N,nominal,1.0NRT,291.8,0.7,N
32.33182,-84.94939,302.5,0.38,0.36,2019-09-22,07:24,N,nominal,1.0NRT,291.6,1.4,N
32.33369,-84.96159,316.2,0.39,0.36,2019-09-22,07:24,N,nominal,1.0NRT,292.2,1.3,N
32.33699,-84.96089,314,0.39,0.36,2019-09-22,07:24,N,nominal,1.0NRT,292.7,1.3,N
32.4311,-84.97444,312.4,0.39,0.36,2019-09-22,07:24,N,nominal,1.0NRT,292,0.9,N
33.09197,-86.80337,317,0.42,0.38,2019-09-22,07:24,N,nominal,1.0NRT,292,2.9,N
33.10229,-86.80135,308.6,0.42,0.38,2019-09-22,07:24,N,nominal,1.0NRT,292.1,1.6,N
33.17948,-86.75626,313.2,0.42,0.37,2019-09-22,07:24,N,nominal,1.0NRT,291.5,1.5,N
33.43965,-88.56846,311.7,0.49,0.4,2019-09-22,07:24,N,nominal,1.0NRT,291.3,1.1,N
33.44466,-88.57836,306.2,0.49,0.4,2019-09-22,07:24,N,nominal,1.0NRT,291.6,2.6,N
33.21598,-86.79055,315.8,0.42,0.38,2019-09-22,07:24,N,nominal,1.0NRT,292.1,1.8,N
33.21907,-86.81305,312.2,0.42,0.38,2019-09-22,07:24,N,nominal,1.0NRT,291.9,0.9,N
33.24444,-86.81739,308.1,0.42,0.38,2019-09-22,07:24,N,nominal,1.0NRT,290.5,0.7,N
33.24623,-86.81965,312.4,0.42,0.38,2019-09-22,07:24,N,nominal,1.0NRT,291.8,1.5,N
32.84499,-83.21397,302.7,0.39,0.36,2019-09-22,07:24,N,nominal,1.0NRT,291.8,0.8,N
32.46317,-80.7706,300.7,0.46,0.39,2019-09-22,07:24,N,nominal,1.0NRT,290.2,0.4,N
33.01175,-79.88751,307.1,0.49,0.41,2019-09-22,07:24,N,nominal,1.0NRT,290.4,1.1,N
33.01542,-79.88651,314.3,0.49,0.41,2019-09-22,07:24,N,nominal,1.0NRT,290.8,1.1,N
15.61881,-87.94697,311.3,0.39,0.36,2019-09-22,07:30,N,nominal,1.0NRT,290,0.9,N
17.89717,-92.49081,333.4,0.51,0.41,2019-09-22,07:30,N,nominal,1.0NRT,293.9,11.8,N
18.13174,-94.2006,306.1,0.43,0.46,2019-09-22,07:30,N,nominal,1.0NRT,291,1,N
18.14074,-94.20351,302.4,0.43,0.46,2019-09-22,07:30,N,nominal,1.0NRT,290.8,0.5,N
17.39553,-88.90467,328.6,0.39,0.36,2019-09-22,07:30,N,nominal,1.0NRT,293.2,2.2,N
17.39885,-88.90412,320.7,0.39,0.36,2019-09-22,07:30,N,nominal,1.0NRT,292.9,2.2,N
18.09128,-94.049,317,0.42,0.45,2019-09-22,07:30,N,nominal,1.0NRT,292.1,2.1,N
18.09078,-94.04497,310.2,0.42,0.45,2019-09-22,07:30,N,nominal,1.0NRT,292.5,1.5,N
17.87752,-92.48877,309.2,0.51,0.41,2019-09-22,07:30,N,nominal,1.0NRT,292.4,1.7,N
18.10805,-94.39529,326.3,0.44,0.46,2019-09-22,07:30,N,nominal,1.0NRT,292.1,3.3,N
18.10239,-94.34867,305.4,0.44,0.46,2019-09-22,07:30,N,nominal,1.0NRT,291.9,1.2,N
18.10187,-94.34444,315.4,0.44,0.46,2019-09-22,07:30,N,nominal,1.0NRT,291.9,1,N
18.09976,-94.34692,320.5,0.44,0.46,2019-09-22,07:30,N,nominal,1.0NRT,292.2,2.1,N
18.03237,-93.92609,314.6,0.41,0.45,2019-09-22,07:30,N,nominal,1.0NRT,291.2,1.8,N
17.89337,-92.49138,337.5,0.51,0.41,2019-09-22,07:30,N,nominal,1.0NRT,293.2,11.8,N
18.03185,-93.92215,318.6,0.41,0.45,2019-09-22,07:30,N,nominal,1.0NRT,291.2,1.4,N
17.90214,-93.18503,322.1,0.56,0.43,2019-09-22,07:30,N,nominal,1.0NRT,290.5,3.5,N
17.90144,-93.17974,322.4,0.56,0.43,2019-09-22,07:30,N,nominal,1.0NRT,290.5,3.5,N
17.89818,-93.18561,312.8,0.56,0.43,2019-09-22,07:30,N,nominal,1.0NRT,290.4,5.3,N
17.89748,-93.18031,307.1,0.56,0.43,2019-09-22,07:30,N,nominal,1.0NRT,290,5.5,N
17.89422,-93.18618,345.1,0.56,0.43,2019-09-22,07:30,N,nominal,1.0NRT,291.3,5.3,N
17.89282,-93.17558,332.1,0.56,0.43,2019-09-22,07:30,N,nominal,1.0NRT,291.6,5.5,N
17.89026,-93.18676,327.8,0.56,0.43,2019-09-22,07:30,N,nominal,1.0NRT,290.2,4.2,N
17.94863,-93.63555,303.2,0.4,0.44,2019-09-22,07:30,N,nominal,1.0NRT,290.2,0.6,N
17.89095,-93.19205,312.3,0.56,0.43,2019-09-22,07:30,N,nominal,1.0NRT,290.8,4.2,N
17.9134,-93.52235,305.2,0.39,0.44,2019-09-22,07:30,N,nominal,1.0NRT,289.9,0.4,N
17.90935,-93.5229,336.4,0.39,0.44,2019-09-22,07:30,N,nominal,1.0NRT,290.5,2.6,N
17.97994,-94.11646,310.1,0.43,0.46,2019-09-22,07:30,N,nominal,1.0NRT,291.4,0.6,N
17.84504,-93.11788,309.9,0.56,0.43,2019-09-22,07:30,N,nominal,1.0NRT,290,2,N
17.84177,-93.12371,332,0.56,0.43,2019-09-22,07:30,N,nominal,1.0NRT,290.9,25.1,N
17.84109,-93.11843,339.6,0.56,0.43,2019-09-22,07:30,N,nominal,1.0NRT,294.1,25.1,N
17.9227,-93.75949,312.6,0.4,0.45,2019-09-22,07:30,N,nominal,1.0NRT,291.5,1,N
17.83715,-93.119,319.4,0.56,0.43,2019-09-22,07:30,N,nominal,1.0NRT,289.9,25.1,N
17.83816,-93.12045,337.4,0.55,0.43,2019-09-22,07:30,N,nominal,1.0NRT,290.2,8,N
17.94556,-94.28627,310.8,0.44,0.46,2019-09-22,07:30,N,nominal,1.0NRT,291.6,0.7,N
17.79017,-93.12212,307.1,0.55,0.43,2019-09-22,07:30,N,nominal,1.0NRT,289.8,1,N
17.71948,-93.15514,303.2,0.56,0.43,2019-09-22,07:30,N,nominal,1.0NRT,289.9,0.5,N
29.1371,-97.71715,306.8,0.51,0.66,2019-09-22,09:06,N,nominal,1.0NRT,289.2,1.3,N
28.95939,-97.90663,308.8,0.5,0.66,2019-09-22,09:06,N,nominal,1.0NRT,288.8,0.6,N
28.93363,-97.88161,306.2,0.51,0.66,2019-09-22,09:06,N,nominal,1.0NRT,289,0.5,N
28.77102,-98.02771,305.2,0.5,0.66,2019-09-22,09:06,N,nominal,1.0NRT,288.8,0.8,N
28.77065,-98.02861,301.7,0.5,0.66,2019-09-22,09:06,N,nominal,1.0NRT,288.8,0.4,N
28.60029,-98.26601,302.7,0.49,0.65,2019-09-22,09:06,N,nominal,1.0NRT,289,0.6,N
28.60424,-98.26277,308.9,0.49,0.65,2019-09-22,09:06,N,nominal,1.0NRT,289.2,0.8,N
28.59581,-98.37871,301.5,0.48,0.65,2019-09-22,09:06,N,nominal,1.0NRT,289,0.5,N
28.39012,-98.99245,302.3,0.45,0.63,2019-09-22,09:06,N,nominal,1.0NRT,288.1,0.5,N
27.83117,-97.5257,303.2,0.56,0.69,2019-09-22,09:06,N,nominal,1.0NRT,290.5,1.8,N
26.88471,-101.41155,315.8,0.35,0.57,2019-09-22,09:06,N,nominal,1.0NRT,290,1.2,N
26.88767,-101.44768,352,0.35,0.57,2019-09-22,09:06,N,nominal,1.0NRT,291,4.5,N
26.8901,-101.45809,312.2,0.35,0.57,2019-09-22,09:06,N,nominal,1.0NRT,290.4,1.1,N
26.88848,-101.45116,307.4,0.35,0.57,2019-09-22,09:06,N,nominal,1.0NRT,290.1,4.1,N
26.88044,-101.41669,308.7,0.35,0.57,2019-09-22,09:06,N,nominal,1.0NRT,290.6,2.7,N
26.87963,-101.41321,319.7,0.35,0.57,2019-09-22,09:06,N,nominal,1.0NRT,291.5,1.2,N
26.87882,-101.40974,303.3,0.35,0.57,2019-09-22,09:06,N,nominal,1.0NRT,290.1,1.2,N
26.88502,-101.45969,335.8,0.35,0.57,2019-09-22,09:06,N,nominal,1.0NRT,292.1,3.9,N
26.88258,-101.44927,321.9,0.35,0.57,2019-09-22,09:06,N,nominal,1.0NRT,289.8,2.1,N
26.88421,-101.45622,309,0.35,0.57,2019-09-22,09:06,N,nominal,1.0NRT,290.4,2,N
26.8834,-101.45275,309.5,0.35,0.57,2019-09-22,09:06,N,nominal,1.0NRT,290.5,2,N
26.87617,-101.42181,311.1,0.35,0.57,2019-09-22,09:06,N,nominal,1.0NRT,290,1.6,N
26.8536,-101.39558,301.8,0.35,0.57,2019-09-22,09:06,N,nominal,1.0NRT,289,0.9,N
26.85281,-101.39226,301.5,0.35,0.57,2019-09-22,09:06,N,nominal,1.0NRT,289,0.6,N
26.85311,-101.39524,306.5,0.35,0.57,2019-09-22,09:06,N,nominal,1.0NRT,289.2,1,N
26.01811,-98.48412,301.6,0.55,0.68,2019-09-22,09:06,N,nominal,1.0NRT,286.8,0.7,N
26.01532,-98.48561,302.4,0.55,0.68,2019-09-22,09:06,N,nominal,1.0NRT,287.3,0.7,N
25.71902,-100.29646,301.9,0.43,0.62,2019-09-22,09:06,N,nominal,1.0NRT,288.9,1.3,N
25.71719,-100.29697,301.4,0.43,0.62,2019-09-22,09:06,N,nominal,1.0NRT,289.3,0.9,N
22.9862,-97.81405,301.5,0.7,0.75,2019-09-22,09:06,N,nominal,1.0NRT,288,1.1,N
22.26453,-97.80298,318.9,0.73,0.76,2019-09-22,09:06,N,nominal,1.0NRT,288.4,6,N
22.2658,-97.80136,308.5,0.73,0.76,2019-09-22,09:06,N,nominal,1.0NRT,288.1,2.3,N
22.04081,-98.86927,301.9,0.64,0.72,2019-09-22,09:06,N,nominal,1.0NRT,287.8,1.7,N
20.95939,-102.79819,297,0.38,0.59,2019-09-22,09:06,N,nominal,1.0NRT,286.1,0.5,N
20.5251,-100.92258,300.9,0.51,0.66,2019-09-22,09:06,N,nominal,1.0NRT,285.2,0.7,N
20.57762,-101.17408,300,0.5,0.65,2019-09-22,09:06,N,nominal,1.0NRT,285.4,1.2,N
20.57651,-101.16935,308.6,0.5,0.65,2019-09-22,09:06,N,nominal,1.0NRT,284.4,1.2,N
20.51908,-100.92416,300,0.51,0.66,2019-09-22,09:06,N,nominal,1.0NRT,284.6,1,N
32.46165,-97.02139,302.4,0.47,0.64,2019-09-22,09:06,N,nominal,1.0NRT,285.9,0.5,N
32.24367,-97.55148,300.4,0.44,0.62,2019-09-22,09:06,N,nominal,1.0NRT,277,0.9,N
32.71611,-104.44541,316.6,0.54,0.42,2019-09-22,09:06,N,nominal,1.0NRT,275.1,2,N
30.81146,-96.65083,302.2,0.54,0.68,2019-09-22,09:06,N,nominal,1.0NRT,288.1,0.6,N
33.41802,-110.86242,325,0.39,0.36,2019-09-22,09:06,N,nominal,1.0NRT,296.6,14.2,N
20.57604,-101.17319,305.5,0.5,0.65,2019-09-22,09:06,N,nominal,1.0NRT,284.7,1.1,N
20.57497,-101.16844,295.9,0.5,0.66,2019-09-22,09:06,N,nominal,1.0NRT,283.5,1.1,N
20.5191,-100.92252,298.1,0.52,0.66,2019-09-22,09:06,N,nominal,1.0NRT,284.2,1.3,N
17.22803,-100.81875,307.2,0.61,0.71,2019-09-22,09:06,N,nominal,1.0NRT,286,1.4,N
29.13656,-97.71667,314.8,0.51,0.66,2019-09-22,09:06,N,nominal,1.0NRT,288.9,1.3,N
28.93422,-97.88333,307.6,0.51,0.66,2019-09-22,09:06,N,nominal,1.0NRT,288.9,0.8,N
33.41469,-110.86312,313.7,0.39,0.36,2019-09-22,09:06,N,nominal,1.0NRT,288.3,14.2,N
33.41407,-110.85895,309.1,0.39,0.36,2019-09-22,09:06,N,nominal,1.0NRT,290.3,14.2,N
29.74516,-94.99825,316.8,0.7,0.75,2019-09-22,09:06,N,nominal,1.0NRT,290.5,2.5,N
29.74261,-95.01511,316.9,0.7,0.75,2019-09-22,09:06,N,nominal,1.0NRT,289.9,5.2,N
29.74056,-95.00793,305.9,0.7,0.75,2019-09-22,09:06,N,nominal,1.0NRT,289.8,2.5,N
29.73848,-95.00076,307.3,0.7,0.75,2019-09-22,09:06,N,nominal,1.0NRT,289.9,2.5,N
29.74392,-95.01635,307.8,0.7,0.75,2019-09-22,09:06,N,nominal,1.0NRT,290.2,2.9,N
29.74191,-95.00916,316,0.7,0.75,2019-09-22,09:06,N,nominal,1.0NRT,290,2.9,N
29.73988,-95.00195,311,0.7,0.75,2019-09-22,09:06,N,nominal,1.0NRT,289.7,4.2,N
29.72159,-95.11986,301.8,0.69,0.74,2019-09-22,09:06,N,nominal,1.0NRT,288.2,1.5,N
33.00242,-110.7716,322.6,0.39,0.36,2019-09-22,09:06,N,nominal,1.0NRT,294.7,2.3,N
29.37387,-94.93578,301.4,0.72,0.76,2019-09-22,09:06,N,nominal,1.0NRT,285.2,3.2,N
29.3696,-94.92104,301.2,0.72,0.76,2019-09-22,09:06,N,nominal,1.0NRT,287,4.5,N
29.37466,-94.93387,300.9,0.72,0.76,2019-09-22,09:06,N,nominal,1.0NRT,286,2.2,N
29.37048,-94.91908,303.1,0.73,0.76,2019-09-22,09:06,N,nominal,1.0NRT,287.1,3.1,N
29.06773,-95.7482,302.6,0.66,0.73,2019-09-22,09:06,N,nominal,1.0NRT,287.9,1.6,N
29.6808,-98.18051,299.6,0.47,0.64,2019-09-22,09:06,N,nominal,1.0NRT,283.3,0.5,N
29.67502,-98.18231,298,0.47,0.64,2019-09-22,09:06,N,nominal,1.0NRT,281.1,0.5,N
29.06603,-95.74727,301.4,0.66,0.73,2019-09-22,09:06,N,nominal,1.0NRT,287.8,1.9,N
29.67765,-98.18272,295.1,0.47,0.64,2019-09-22,09:06,N,nominal,1.0NRT,280.8,0.7,N
29.57619,-98.03249,315.1,0.48,0.65,2019-09-22,09:06,N,nominal,1.0NRT,286.1,1.6,N
18.92663,-70.35545,338.9,0.69,0.74,2019-09-22,16:54,N,nominal,1.0NRT,284.1,11.7,D
18.9273,-70.3509,338,0.69,0.74,2019-09-22,16:54,N,nominal,1.0NRT,284.9,11.3,D
17.92424,-92.89266,329.6,0.48,0.65,2019-09-22,18:36,N,nominal,1.0NRT,289.6,4.8,D
19.56473,-92.23904,336,0.41,0.6,2019-09-22,18:36,N,nominal,1.0NRT,291.1,4.5,D
19.44147,-92.03925,331.5,0.4,0.6,2019-09-22,18:36,N,nominal,1.0NRT,291,1.8,D
19.43602,-92.03798,329.3,0.4,0.6,2019-09-22,18:36,N,nominal,1.0NRT,290.6,2.3,D
19.39532,-92.04349,345,0.4,0.6,2019-09-22,18:36,N,nominal,1.0NRT,290.8,10.6,D
19.39452,-92.04727,367,0.4,0.6,2019-09-22,18:36,N,high,1.0NRT,291.4,10.6,D
19.36828,-92.00942,343.3,0.4,0.6,2019-09-22,18:36,N,nominal,1.0NRT,291.2,3.8,D
17.85145,-95.83457,334.6,0.74,0.76,2019-09-22,18:36,N,nominal,1.0NRT,288.9,7.9,D
18.64622,-92.174,343.9,0.42,0.61,2019-09-22,18:36,N,nominal,1.0NRT,292.3,8.2,D
17.85394,-95.8341,336.8,0.74,0.76,2019-09-22,18:36,N,nominal,1.0NRT,289,6.7,D
18.643,-92.17332,351.9,0.42,0.61,2019-09-22,18:36,N,nominal,1.0NRT,292.9,7.9,D
18.59502,-92.28865,367,0.43,0.62,2019-09-22,18:36,N,high,1.0NRT,292.5,18.3,D
18.20667,-94.00746,330.9,0.56,0.69,2019-09-22,18:36,N,nominal,1.0NRT,291.6,4.4,D
18.20042,-94.00591,332.9,0.56,0.69,2019-09-22,18:36,N,nominal,1.0NRT,291.8,4.4,D
18.12895,-94.20451,331.9,0.58,0.7,2019-09-22,18:36,N,nominal,1.0NRT,290.1,4.1,D
18.20621,-93.03062,329,0.49,0.65,2019-09-22,18:36,N,nominal,1.0NRT,291.2,2,D
18.34872,-92.12381,367,0.42,0.61,2019-09-22,18:36,N,high,1.0NRT,293.2,14.2,D
18.34661,-92.1228,367,0.42,0.61,2019-09-22,18:36,N,high,1.0NRT,292.2,15.5,D
17.31446,-95.79259,326.2,0.76,0.77,2019-09-22,18:36,N,nominal,1.0NRT,287.3,7,D
17.89972,-93.18207,341.5,0.5,0.66,2019-09-22,18:36,N,nominal,1.0NRT,292.4,5.9,D
17.89057,-93.19476,337.1,0.5,0.66,2019-09-22,18:36,N,nominal,1.0NRT,292.3,6,D
17.89371,-93.18066,354.3,0.5,0.66,2019-09-22,18:36,N,nominal,1.0NRT,292,8.2,D
17.89476,-93.17594,333.5,0.5,0.66,2019-09-22,18:36,N,nominal,1.0NRT,292,8.2,D
17.89266,-93.18539,367,0.5,0.66,2019-09-22,18:36,N,high,1.0NRT,291.9,17.1,D
17.8997,-93.18077,328.1,0.5,0.66,2019-09-22,18:36,N,nominal,1.0NRT,292,7.5,D
17.89064,-93.19351,331,0.5,0.66,2019-09-22,18:36,N,nominal,1.0NRT,292.2,7.1,D
17.89165,-93.18879,336.6,0.5,0.66,2019-09-22,18:36,N,nominal,1.0NRT,292,7.1,D
17.89267,-93.18407,334.9,0.5,0.66,2019-09-22,18:36,N,nominal,1.0NRT,291.5,7.5,D
17.89369,-93.17934,367,0.5,0.66,2019-09-22,18:36,N,high,1.0NRT,292.7,7.5,D
17.92522,-92.88813,335.8,0.48,0.65,2019-09-22,18:36,N,nominal,1.0NRT,290.7,7.3,D
18.8132,-88.4969,347.3,0.49,0.48,2019-09-22,18:36,N,nominal,1.0NRT,297.4,20.2,D
17.84404,-93.11751,353.6,0.5,0.66,2019-09-22,18:36,N,nominal,1.0NRT,291.1,14.7,D
17.84301,-93.12218,367,0.5,0.66,2019-09-22,18:36,N,high,1.0NRT,291.6,14.7,D
17.83703,-93.1207,330.3,0.5,0.66,2019-09-22,18:36,N,nominal,1.0NRT,290.4,3.5,D
17.89561,-92.49183,367,0.46,0.63,2019-09-22,18:36,N,high,1.0NRT,293.2,32.4,D
18.71522,-87.72456,333.3,0.44,0.46,2019-09-22,18:36,N,nominal,1.0NRT,297.7,17.1,D
18.71599,-87.72044,340.4,0.44,0.46,2019-09-22,18:36,N,nominal,1.0NRT,295,17.5,D
17.34273,-91.63238,332.4,0.41,0.61,2019-09-22,18:36,N,nominal,1.0NRT,290.9,1.8,D
17.05349,-92.41085,335.9,0.47,0.64,2019-09-22,18:36,N,nominal,1.0NRT,290.7,4.6,D
16.6128,-92.10535,326,0.46,0.63,2019-09-22,18:36,N,nominal,1.0NRT,292.6,4.4,D
16.61425,-92.10405,330.8,0.46,0.63,2019-09-22,18:36,N,nominal,1.0NRT,292.9,6.1,D
16.605,-90.30097,330.7,0.35,0.57,2019-09-22,18:36,N,nominal,1.0NRT,287,4.4,D
16.60565,-90.29771,329.8,0.35,0.57,2019-09-22,18:36,N,nominal,1.0NRT,287,4.4,D
16.60631,-90.29444,348.9,0.35,0.57,2019-09-22,18:36,N,nominal,1.0NRT,290,10.7,D
15.79926,-89.60741,350.1,0.33,0.55,2019-09-22,18:36,N,nominal,1.0NRT,290.1,5.6,D
15.37602,-88.62475,327.7,0.57,0.52,2019-09-22,18:36,N,nominal,1.0NRT,288.4,3.7,D
15.84572,-85.65528,329.3,0.55,0.43,2019-09-22,18:36,N,low,1.0NRT,300.2,3.2,D
15.28135,-88.06063,339.6,0.53,0.5,2019-09-22,18:36,N,nominal,1.0NRT,291.8,10.2,D
15.229,-88.13522,336.9,0.53,0.5,2019-09-22,18:36,N,nominal,1.0NRT,291.2,6.1,D
15.22696,-88.13024,327.6,0.53,0.5,2019-09-22,18:36,N,nominal,1.0NRT,290.7,6.5,D
15.65091,-84.89989,331.6,0.5,0.41,2019-09-22,18:36,N,nominal,1.0NRT,294.5,3.2,D
15.32751,-85.42289,332.8,0.54,0.42,2019-09-22,18:36,N,nominal,1.0NRT,290.1,13.6,D
15.06407,-84.91058,340.9,0.51,0.41,2019-09-22,18:36,N,nominal,1.0NRT,294.8,6.9,D
15.01114,-84.97172,342.9,0.52,0.41,2019-09-22,18:36,N,nominal,1.0NRT,299.2,17.3,D
15.01196,-84.9669,335.8,0.52,0.41,2019-09-22,18:36,N,nominal,1.0NRT,297.5,12.7,D
15.10992,-83.75983,336.5,0.45,0.39,2019-09-22,18:36,N,nominal,1.0NRT,301.6,7.7,D
14.67798,-86.10143,330.4,0.41,0.45,2019-09-22,18:36,N,nominal,1.0NRT,298.8,1.4,D
14.32567,-86.42141,335,0.43,0.46,2019-09-22,18:36,N,nominal,1.0NRT,294.8,5,D
14.20715,-83.42638,342,0.45,0.39,2019-09-22,18:36,N,nominal,1.0NRT,295.5,6.3,D
13.69695,-85.49213,349.1,0.39,0.44,2019-09-22,18:36,N,nominal,1.0NRT,294.6,7.7,D
13.46573,-86.11457,339.5,0.42,0.46,2019-09-22,18:36,N,nominal,1.0NRT,295.3,8,D
11.13297,-72.57759,331.7,0.54,0.51,2019-09-22,18:36,N,nominal,1.0NRT,296.2,7,D
11.13363,-72.57259,330.4,0.54,0.51,2019-09-22,18:36,N,nominal,1.0NRT,296.6,7,D
8.67391,-72.86607,340.9,0.48,0.48,2019-09-22,18:36,N,nominal,1.0NRT,292.1,12.1,D
8.67485,-72.82541,330.8,0.48,0.48,2019-09-22,18:36,N,nominal,1.0NRT,288,4.4,D
8.44456,-72.35248,342.8,0.51,0.5,2019-09-22,18:36,N,nominal,1.0NRT,291.8,6,D
8.40411,-72.48013,342.4,0.5,0.49,2019-09-22,18:36,N,nominal,1.0NRT,289.8,22.3,D
8.04613,-72.58368,329.6,0.49,0.49,2019-09-22,18:36,N,nominal,1.0NRT,288.1,9.1,D
8.04672,-72.57928,342.8,0.49,0.49,2019-09-22,18:36,N,nominal,1.0NRT,289.5,21.8,D
8.03177,-72.65714,340.4,0.48,0.48,2019-09-22,18:36,N,nominal,1.0NRT,287.3,5.7,D
8.04869,-72.58053,353.7,0.49,0.49,2019-09-22,18:36,N,nominal,1.0NRT,288.9,26,D
8.02869,-72.65742,340.5,0.48,0.48,2019-09-22,18:36,N,nominal,1.0NRT,288.6,5.5,D
8.02676,-71.73728,336.8,0.56,0.51,2019-09-22,18:36,N,nominal,1.0NRT,275.6,6.7,D
7.79599,-72.68924,338.5,0.48,0.48,2019-09-22,18:36,N,nominal,1.0NRT,292.5,4.7,D
7.77602,-72.73514,328.3,0.47,0.48,2019-09-22,18:36,N,nominal,1.0NRT,291.2,2.2,D
7.29896,-74.00304,338.1,0.39,0.44,2019-09-22,18:36,N,nominal,1.0NRT,294.2,3.5,D
7.18366,-74.02616,342.8,0.38,0.44,2019-09-22,18:36,N,nominal,1.0NRT,297.6,17.1,D
7.03563,-73.8203,345,0.39,0.44,2019-09-22,18:36,N,nominal,1.0NRT,291.9,8.5,D
32.31835,-84.96647,334.5,0.38,0.36,2019-09-22,18:42,N,nominal,1.0NRT,303.8,3,D
32.31812,-84.94546,350.2,0.38,0.36,2019-09-22,18:42,N,nominal,1.0NRT,306.8,6.3,D
32.03864,-85.55283,332,0.39,0.36,2019-09-22,18:42,N,nominal,1.0NRT,304,2.8,D
31.04754,-90.94321,329.9,0.4,0.44,2019-09-22,18:42,N,nominal,1.0NRT,296,2,D
32.36368,-82.61961,338.9,0.42,0.38,2019-09-22,18:42,N,nominal,1.0NRT,305.2,4,D
32.16475,-83.56541,339.6,0.4,0.37,2019-09-22,18:42,N,nominal,1.0NRT,308.9,3.9,D
32.16139,-83.56477,342.8,0.4,0.37,2019-09-22,18:42,N,nominal,1.0NRT,308.4,3.9,D
32.38935,-81.83865,333.5,0.45,0.39,2019-09-22,18:42,N,low,1.0NRT,306.2,5.6,D
30.86822,-90.99844,332.7,0.41,0.45,2019-09-22,18:42,N,nominal,1.0NRT,297.6,2,D
31.41957,-87.31501,330.5,0.42,0.37,2019-09-22,18:42,N,nominal,1.0NRT,304.6,1.8,D
32.0298,-83.00781,331.6,0.41,0.37,2019-09-22,18:42,N,nominal,1.0NRT,306.2,1.7,D
30.74576,-90.64384,351.1,0.39,0.44,2019-09-22,18:42,N,nominal,1.0NRT,297.8,6.8,D
30.59414,-91.37466,341.6,0.43,0.46,2019-09-22,18:42,N,nominal,1.0NRT,300.3,7.4,D
30.58998,-91.37351,332.3,0.43,0.46,2019-09-22,18:42,N,nominal,1.0NRT,300.4,2,D
30.57291,-91.3924,342.3,0.43,0.46,2019-09-22,18:42,N,nominal,1.0NRT,304.1,5.7,D
30.49322,-91.49915,348.7,0.44,0.46,2019-09-22,18:42,N,nominal,1.0NRT,302.6,6,D
30.49418,-91.49459,351.9,0.44,0.46,2019-09-22,18:42,N,nominal,1.0NRT,304.7,6,D
30.49609,-91.48551,341.9,0.44,0.46,2019-09-22,18:42,N,nominal,1.0NRT,303.7,10.6,D
30.48998,-91.49345,334.5,0.44,0.46,2019-09-22,18:42,N,nominal,1.0NRT,302.8,6,D
31.46256,-85.82957,336.3,0.39,0.36,2019-09-22,18:42,N,low,1.0NRT,309.4,5.2,D
31.46321,-85.82552,338,0.39,0.36,2019-09-22,18:42,N,nominal,1.0NRT,303.2,5.2,D
31.58664,-84.76792,331.7,0.38,0.36,2019-09-22,18:42,N,nominal,1.0NRT,301.2,1.4,D
31.98501,-81.63425,339.7,0.45,0.39,2019-09-22,18:42,N,nominal,1.0NRT,306.5,7.4,D
31.98204,-81.62885,339,0.45,0.39,2019-09-22,18:42,N,low,1.0NRT,312.5,9.2,D
31.97543,-81.65218,341.1,0.45,0.39,2019-09-22,18:42,N,nominal,1.0NRT,303.9,6,D
31.97604,-81.64738,333.2,0.45,0.39,2019-09-22,18:42,N,nominal,1.0NRT,302.5,6,D
32.55927,-83.88058,335.6,0.39,0.37,2019-09-22,18:42,N,nominal,1.0NRT,304.2,2.3,D
31.82874,-82.74531,348.5,0.41,0.37,2019-09-22,18:42,N,nominal,1.0NRT,311.7,17,D
31.82531,-82.74469,348.1,0.41,0.37,2019-09-22,18:42,N,nominal,1.0NRT,310.1,17,D
30.93983,-88.01558,332.3,0.44,0.39,2019-09-22,18:42,N,low,1.0NRT,305.8,2.7,D
31.23637,-86.2261,333.6,0.39,0.37,2019-09-22,18:42,N,low,1.0NRT,304.9,1.8,D
31.73422,-82.04953,333.7,0.43,0.38,2019-09-22,18:42,N,nominal,1.0NRT,305,3.2,D
31.73482,-82.04495,346,0.43,0.38,2019-09-22,18:42,N,nominal,1.0NRT,305.6,11.6,D
31.30648,-84.42193,347.2,0.39,0.36,2019-09-22,18:42,N,nominal,1.0NRT,306,4.9,D
31.02851,-84.54132,334.4,0.38,0.36,2019-09-22,18:42,N,nominal,1.0NRT,302.9,1.5,D
31.02074,-84.50255,339.4,0.38,0.36,2019-09-22,18:42,N,nominal,1.0NRT,306.2,4.4,D
30.47598,-85.37765,346.5,0.39,0.36,2019-09-22,18:42,N,nominal,1.0NRT,301.5,7.4,D
30.41001,-83.10747,336.3,0.4,0.37,2019-09-22,18:42,N,nominal,1.0NRT,306.2,3.6,D
30.40665,-83.10684,336.6,0.4,0.37,2019-09-22,18:42,N,nominal,1.0NRT,305,3.6,D
27.72934,-91.11037,327.6,0.48,0.48,2019-09-22,18:42,N,nominal,1.0NRT,294.5,3,D
28.06834,-81.61071,330.5,0.42,0.38,2019-09-22,18:42,N,nominal,1.0NRT,300.2,2.5,D
26.66254,-78.01164,341.9,0.39,0.44,2019-09-22,18:42,N,nominal,1.0NRT,298.3,10.5,D
26.66298,-78.00767,347.7,0.39,0.44,2019-09-22,18:42,N,nominal,1.0NRT,301.9,10.5,D
26.65804,-78.01505,354.7,0.39,0.44,2019-09-22,18:42,N,nominal,1.0NRT,298.9,3.3,D
26.66025,-77.99516,345.2,0.39,0.44,2019-09-22,18:42,N,nominal,1.0NRT,300.8,11.3,D
33.40902,-91.3833,344.1,0.38,0.43,2019-09-22,18:42,N,nominal,1.0NRT,293.4,9.1,D
33.40984,-91.37923,350.1,0.38,0.43,2019-09-22,18:42,N,nominal,1.0NRT,298,9.1,D
33.40426,-91.38625,338.9,0.38,0.43,2019-09-22,18:42,N,nominal,1.0NRT,299.1,17,D
33.40509,-91.38218,355,0.38,0.43,2019-09-22,18:42,N,nominal,1.0NRT,301.8,29.3,D
33.40591,-91.37811,343,0.38,0.43,2019-09-22,18:42,N,nominal,1.0NRT,308.2,29.3,D
33.40115,-91.38106,355.5,0.38,0.43,2019-09-22,18:42,N,nominal,1.0NRT,306.6,29.3,D
33.40198,-91.37699,335.1,0.38,0.43,2019-09-22,18:42,N,nominal,1.0NRT,288.7,29.3,D
33.27087,-90.20259,336.6,0.51,0.41,2019-09-22,18:42,N,nominal,1.0NRT,296.2,7.8,D
32.8912,-91.60294,339.7,0.4,0.44,2019-09-22,18:42,N,nominal,1.0NRT,299.4,5.9,D
32.73849,-91.68639,335.5,0.41,0.45,2019-09-22,18:42,N,nominal,1.0NRT,300.1,3.2,D
33.42844,-87.27515,345.7,0.4,0.37,2019-09-22,18:42,N,nominal,1.0NRT,301.4,14.8,D
33.42509,-87.27435,345.5,0.4,0.37,2019-09-22,18:42,N,nominal,1.0NRT,304.9,14.8,D
33.46419,-85.8082,332.4,0.38,0.36,2019-09-22,18:42,N,nominal,1.0NRT,300,1.8,D
32.33899,-91.97393,334.1,0.43,0.46,2019-09-22,18:42,N,nominal,1.0NRT,299.5,5.8,D
32.80276,-88.59996,333.7,0.44,0.39,2019-09-22,18:42,N,nominal,1.0NRT,299.5,3.3,D
33.09195,-86.80401,333.3,0.39,0.37,2019-09-22,18:42,N,nominal,1.0NRT,307.2,2.3,D
32.07391,-91.4735,347.1,0.41,0.45,2019-09-22,18:42,N,nominal,1.0NRT,302.3,13.3,D
32.0748,-91.46922,336.7,0.41,0.45,2019-09-22,18:42,N,nominal,1.0NRT,299.8,13.3,D
32.93382,-81.03421,331.8,0.49,0.4,2019-09-22,18:42,N,nominal,1.0NRT,303.7,1.3,D
29.75383,-97.75248,339.2,0.52,0.67,2019-09-22,18:42,N,nominal,1.0NRT,290.9,5.4,D
32.64194,-82.9046,345,0.42,0.37,2019-09-22,18:42,N,nominal,1.0NRT,308.6,4.5,D
31.67077,-91.72578,351.8,0.43,0.46,2019-09-22,18:42,N,nominal,1.0NRT,305.6,9.5,D
31.67171,-91.72131,344.1,0.43,0.46,2019-09-22,18:42,N,nominal,1.0NRT,303.1,9.5,D
31.66663,-91.72461,336.2,0.43,0.46,2019-09-22,18:42,N,nominal,1.0NRT,302.6,9.5,D
31.66757,-91.72014,333.1,0.43,0.46,2019-09-22,18:42,N,nominal,1.0NRT,301.8,9.5,D
32.76539,-83.85421,331.6,0.4,0.37,2019-09-22,18:42,N,low,1.0NRT,303.2,2.9,D
31.55021,-90.52548,335.3,0.56,0.43,2019-09-22,18:42,N,nominal,1.0NRT,295.3,6.1,D
33.12492,-80.18499,330.7,0.54,0.42,2019-09-22,18:42,N,nominal,1.0NRT,299.9,3.3,D
32.31987,-85.77132,342.4,0.39,0.36,2019-09-22,18:42,N,nominal,1.0NRT,303.8,4.9,D
29.75348,-97.75249,339,0.52,0.67,2019-09-22,18:42,N,nominal,1.0NRT,291.3,8.7,D
32.07568,-91.46493,341.6,0.41,0.45,2019-09-22,18:42,N,nominal,1.0NRT,297.8,4.3,D
32.07074,-91.46808,334.2,0.41,0.45,2019-09-22,18:42,N,nominal,1.0NRT,300.6,10.2,D
32.07162,-91.46379,354,0.41,0.45,2019-09-22,18:42,N,nominal,1.0NRT,305.1,25.1,D
32.07251,-91.4595,341.9,0.41,0.45,2019-09-22,18:42,N,nominal,1.0NRT,301.1,25.1,D
32.06986,-91.47237,367,0.41,0.45,2019-09-22,18:42,N,high,1.0NRT,306,10.2,D
32.06225,-91.48841,343.6,0.41,0.45,2019-09-22,18:42,N,nominal,1.0NRT,300.9,9.5,D
32.06845,-91.45836,341.6,0.41,0.45,2019-09-22,18:42,N,nominal,1.0NRT,302.1,25.1,D
32.62473,-88.27547,333.3,0.43,0.38,2019-09-22,18:42,N,low,1.0NRT,303.7,3.1,D
32.62125,-88.27461,331.5,0.43,0.38,2019-09-22,18:42,N,low,1.0NRT,302.8,3.1,D
32.61778,-88.27376,342.3,0.43,0.38,2019-09-22,18:42,N,nominal,1.0NRT,305.3,9.5,D
32.54602,-88.59554,337.1,0.45,0.39,2019-09-22,18:42,N,nominal,1.0NRT,301.7,14.2,D
33.47804,-82.49857,339.2,0.43,0.38,2019-09-22,18:42,N,nominal,1.0NRT,305.7,3.9,D
32.64253,-82.90018,335.7,0.42,0.37,2019-09-22,18:42,N,nominal,1.0NRT,308.7,4.5,D
32.32141,-84.94614,342.4,0.38,0.36,2019-09-22,18:42,N,nominal,1.0NRT,304.8,4.8,D
21.12535,-98.24461,332.3,0.35,0.57,2019-09-22,20:18,N,nominal,1.0NRT,296.3,1.9,D
17.89955,-92.49001,367,0.75,0.77,2019-09-22,20:18,N,low,1.0NRT,289.2,15.7,D
17.89514,-92.4902,367,0.75,0.77,2019-09-22,20:18,N,high,1.0NRT,290.3,33.2,D
17.84397,-93.1176,367,0.69,0.74,2019-09-22,20:18,N,high,1.0NRT,291.3,36.1,D
17.84341,-93.12437,353.2,0.69,0.74,2019-09-22,20:18,N,nominal,1.0NRT,290.2,36.1,D
17.87541,-92.82246,327.6,0.72,0.75,2019-09-22,20:18,N,nominal,1.0NRT,289.4,4,D
17.89491,-93.17542,367,0.68,0.74,2019-09-22,20:18,N,high,1.0NRT,290.9,14,D
17.89434,-93.18211,347,0.68,0.74,2019-09-22,20:18,N,nominal,1.0NRT,290.6,14,D
17.89375,-93.1888,341.1,0.68,0.74,2019-09-22,20:18,N,nominal,1.0NRT,290.5,11.6,D
17.89317,-93.19559,337.1,0.68,0.74,2019-09-22,20:18,N,nominal,1.0NRT,290.6,11.6,D
17.90125,-93.18269,343.2,0.68,0.74,2019-09-22,20:18,N,nominal,1.0NRT,290.7,14,D
17.91236,-93.52283,353.7,0.65,0.73,2019-09-22,20:18,N,nominal,1.0NRT,288.3,12.1,D
18.09287,-94.04971,330.4,0.6,0.71,2019-09-22,20:18,N,nominal,1.0NRT,291.4,3.9,D
18.18762,-92.63599,350.8,0.74,0.76,2019-09-22,20:18,N,nominal,1.0NRT,288.7,18.1,D
18.09105,-94.04802,337.2,0.6,0.71,2019-09-22,20:18,N,nominal,1.0NRT,291.6,4.3,D
18.13008,-94.20368,338.2,0.59,0.7,2019-09-22,20:18,N,nominal,1.0NRT,291.9,3.5,D
18.20154,-94.00436,328,0.61,0.71,2019-09-22,20:18,N,nominal,1.0NRT,292.2,9.6,D
18.20098,-94.01027,334.4,0.61,0.71,2019-09-22,20:18,N,nominal,1.0NRT,292.3,7.7,D
18.20609,-94.0073,355.6,0.61,0.71,2019-09-22,20:18,N,nominal,1.0NRT,292.5,10,D
18.49335,-101.35123,330.1,0.41,0.45,2019-09-22,20:18,N,low,1.0NRT,304.2,6.3,D
19.17204,-98.32238,331.7,0.33,0.55,2019-09-22,20:18,N,low,1.0NRT,304.5,4.2,D
20.11412,-96.83125,331.8,0.42,0.61,2019-09-22,20:18,N,nominal,1.0NRT,296.8,6.9,D
20.11944,-96.83553,343.4,0.42,0.61,2019-09-22,20:18,N,nominal,1.0NRT,296.9,5.6,D
20.11596,-96.83225,343,0.42,0.61,2019-09-22,20:18,N,nominal,1.0NRT,296.9,7.2,D
20.12131,-96.83652,337.1,0.42,0.61,2019-09-22,20:18,N,nominal,1.0NRT,296.3,4.5,D
20.27119,-97.55335,330.6,0.38,0.59,2019-09-22,20:18,N,nominal,1.0NRT,298.6,3,D
19.95137,-101.1176,340.8,0.44,0.46,2019-09-22,20:18,N,nominal,1.0NRT,295.7,3,D
19.67461,-103.37692,332.9,0.49,0.4,2019-09-22,20:18,N,nominal,1.0NRT,301.1,5.4,D
20.00027,-101.03706,356.1,0.45,0.47,2019-09-22,20:18,N,nominal,1.0NRT,297.4,9.7,D
20.00457,-101.03761,340,0.45,0.47,2019-09-22,20:18,N,nominal,1.0NRT,296.6,9.7,D
26.88535,-101.45242,341.1,0.51,0.5,2019-09-22,20:18,N,nominal,1.0NRT,297.9,5.8,D
26.88585,-101.44716,339.1,0.51,0.5,2019-09-22,20:18,N,nominal,1.0NRT,298.7,7.6,D
26.88622,-101.44914,352.6,0.51,0.5,2019-09-22,20:18,N,nominal,1.0NRT,299,10.1,D
26.8854,-101.41207,331.4,0.52,0.5,2019-09-22,20:18,N,nominal,1.0NRT,297.2,2.9,D
24.31769,-107.37516,340.2,0.39,0.36,2019-09-22,20:18,N,nominal,1.0NRT,299.9,5,D
23.99364,-99.12745,330.3,0.33,0.55,2019-09-22,20:18,N,nominal,1.0NRT,298.3,2.4,D
22.26578,-97.80485,345.3,0.38,0.59,2019-09-22,20:18,N,nominal,1.0NRT,300.9,8.1,D
22.26505,-97.80423,345.1,0.38,0.59,2019-09-22,20:18,N,nominal,1.0NRT,300.7,6.1,D
21.97963,-99.32378,352.2,0.61,0.53,2019-09-22,20:18,N,nominal,1.0NRT,296.6,16,D
21.88663,-98.3598,351.4,0.35,0.57,2019-09-22,20:18,N,nominal,1.0NRT,297.9,5.6,D
21.88695,-98.35641,347.7,0.35,0.57,2019-09-22,20:18,N,nominal,1.0NRT,298.2,7,D
21.00403,-97.91484,348.1,0.37,0.58,2019-09-22,20:18,N,nominal,1.0NRT,301.9,6,D
20.52668,-100.92514,340,0.46,0.47,2019-09-22,20:18,N,nominal,1.0NRT,307.2,5.8,D
20.00264,-101.03659,343.8,0.45,0.47,2019-09-22,20:18,N,nominal,1.0NRT,300.4,16.9,D
21.88756,-98.35794,367,0.35,0.57,2019-09-22,20:18,N,high,1.0NRT,298.3,10.2,D
21.80262,-98.57426,350.7,0.34,0.56,2019-09-22,20:18,N,nominal,1.0NRT,301.9,4.4,D
16.20237,-95.1671,331.2,0.48,0.65,2019-09-22,20:18,N,nominal,1.0NRT,293.4,7,D
15.9859,-97.77483,336.5,0.32,0.55,2019-09-22,20:18,N,nominal,1.0NRT,291.9,4.2,D
17.76907,-93.79435,333.3,0.62,0.71,2019-09-22,20:18,N,nominal,1.0NRT,289.6,4,D
17.89235,-92.48949,352.1,0.75,0.77,2019-09-22,20:18,N,nominal,1.0NRT,289.9,15.7,D
17.84442,-93.11641,367,0.69,0.74,2019-09-22,20:18,N,high,1.0NRT,290.5,52,D
21.80295,-98.57088,354.7,0.34,0.56,2019-09-22,20:18,N,nominal,1.0NRT,299,6.9,D
21.71261,-98.6739,330.4,0.33,0.55,2019-09-22,20:18,N,nominal,1.0NRT,299,1.7,D
21.41504,-98.62786,347.9,0.33,0.55,2019-09-22,20:18,N,nominal,1.0NRT,298.6,18.3,D
21.41536,-98.62476,367,0.33,0.55,2019-09-22,20:18,N,high,1.0NRT,302.6,31.2,D
21.41019,-98.62444,341.6,0.33,0.55,2019-09-22,20:18,N,nominal,1.0NRT,300.8,3.5,D
17.84382,-93.12315,352.4,0.69,0.74,2019-09-22,20:18,N,nominal,1.0NRT,290.1,33.6,D
32.60446,-115.13889,337.1,0.5,0.41,2019-09-22,20:24,N,low,1.0NRT,308.1,7.4,D
32.25705,-115.1611,346,0.5,0.41,2019-09-22,20:24,N,nominal,1.0NRT,308.8,9,D
32.86926,-111.4794,341.8,0.39,0.36,2019-09-22,20:24,N,nominal,1.0NRT,309.2,42.7,D
32.86861,-111.48351,367,0.39,0.36,2019-09-22,20:24,N,high,1.0NRT,316.4,30.9,D
29.47544,-97.93535,331,0.45,0.63,2019-09-22,20:24,N,nominal,1.0NRT,294.4,5.4,D
31.64538,-101.76805,336.9,0.56,0.51,2019-09-22,20:24,N,nominal,1.0NRT,281.3,3,D
32.15591,-101.92972,343,0.55,0.51,2019-09-22,20:24,N,nominal,1.0NRT,294.8,10.6,D
32.15605,-101.93251,343.3,0.55,0.51,2019-09-22,20:24,N,nominal,1.0NRT,294.1,6.8,D
32.86531,-111.48278,367,0.39,0.36,2019-09-22,20:24,N,low,1.0NRT,326.4,30.9,D
32.60261,-115.13453,340.1,0.5,0.41,2019-09-22,20:24,N,low,1.0NRT,311.2,6.8,D
