latitude,longitude,bright_ti4,scan,track,acq_date,acq_time,satellite,confidence,version,bright_ti5,frp,daynight
52.58216,19.67447,302,0.5,0.41,2019-10-11,01:12,N,nominal,1.0NRT,278.8,0.7,N
66.02633,8.08283,297,0.44,0.46,2019-10-11,01:12,N,nominal,1.0NRT,279.7,1.8,N
61.09576,1.72049,305.7,0.61,0.54,2019-10-11,01:12,N,nominal,1.0NRT,270.9,1.3,N
58.38547,13.82867,296.1,0.4,0.37,2019-10-11,01:12,N,nominal,1.0NRT,279.2,0.6,N
58.38217,13.82702,303,0.4,0.37,2019-10-11,01:12,N,nominal,1.0NRT,279.3,0.6,N
58.35968,12.37536,327.9,0.42,0.38,2019-10-11,01:12,N,nominal,1.0NRT,280.4,4.2,N
58.3588,12.38247,313.9,0.42,0.38,2019-10-11,01:12,N,nominal,1.0NRT,278.9,2.5,N
56.00988,-3.67309,295.3,0.45,0.63,2019-10-11,01:12,N,nominal,1.0NRT,277.8,1.1,N
49.81419,18.3153,299.7,0.51,0.41,2019-10-11,01:18,N,nominal,1.0NRT,279.8,0.9,N
50.65318,11.43526,306.3,0.39,0.36,2019-10-11,01:18,N,nominal,1.0NRT,281.1,1.1,N
48.61065,21.19973,322.1,0.47,0.48,2019-10-11,01:18,N,nominal,1.0NRT,279.9,1.8,N
48.60692,21.17679,337.6,0.47,0.48,2019-10-11,01:18,N,nominal,1.0NRT,280.9,4.4,N
47.90418,21.03354,341.7,0.48,0.48,2019-10-11,01:18,N,nominal,1.0NRT,281.4,4.8,N
50.56908,5.36701,303,0.54,0.42,2019-10-11,01:18,N,nominal,1.0NRT,280.8,1.4,N
49.95427,9.77089,304,0.4,0.37,2019-10-11,01:18,N,nominal,1.0NRT,278.7,0.6,N
45.94963,25.28274,299.2,0.42,0.61,2019-10-11,01:18,N,nominal,1.0NRT,278.9,1.7,N
45.95255,25.28427,299.7,0.42,0.61,2019-10-11,01:18,N,nominal,1.0NRT,279.1,0.7,N
48.2774,14.33377,330.8,0.42,0.37,2019-10-11,01:18,N,nominal,1.0NRT,276.1,13.1,N
48.27639,14.33924,305.8,0.42,0.37,2019-10-11,01:18,N,nominal,1.0NRT,279.7,13.1,N
48.27303,14.33784,326.3,0.42,0.37,2019-10-11,01:18,N,nominal,1.0NRT,275.9,2.4,N
48.27508,14.32691,315.8,0.42,0.37,2019-10-11,01:18,N,nominal,1.0NRT,277.7,1.6,N
48.27406,14.33237,303.2,0.42,0.37,2019-10-11,01:18,N,nominal,1.0NRT,274.4,2.4,N
48.27172,14.32551,307.7,0.42,0.37,2019-10-11,01:18,N,nominal,1.0NRT,274.4,1.6,N
48.27317,14.32432,325,0.42,0.37,2019-10-11,01:18,N,nominal,1.0NRT,275.4,3,N
49.35519,6.74967,319.6,0.47,0.39,2019-10-11,01:18,N,nominal,1.0NRT,273.6,3.1,N
48.77746,10.70184,314.4,0.39,0.36,2019-10-11,01:18,N,nominal,1.0NRT,280.1,1,N
48.77418,10.70071,299.6,0.39,0.36,2019-10-11,01:18,N,nominal,1.0NRT,277.8,0.6,N
49.24443,6.84587,301.8,0.46,0.39,2019-10-11,01:18,N,nominal,1.0NRT,275.7,1.5,N
49.2437,6.8523,309.5,0.46,0.39,2019-10-11,01:18,N,nominal,1.0NRT,277.4,1.4,N
48.65271,10.1642,296.3,0.39,0.36,2019-10-11,01:18,N,nominal,1.0NRT,276.8,0.4,N
48.51065,10.85168,304.9,0.38,0.36,2019-10-11,01:18,N,nominal,1.0NRT,277.9,1.2,N
45.95296,22.86889,296.4,0.33,0.55,2019-10-11,01:18,N,nominal,1.0NRT,278.7,0.5,N
46.94194,18.93302,316,0.42,0.45,2019-10-11,01:18,N,nominal,1.0NRT,280,1.8,N
46.9407,18.93831,301,0.42,0.45,2019-10-11,01:18,N,nominal,1.0NRT,281.5,1.3,N
45.12406,25.41719,299.8,0.45,0.63,2019-10-11,01:18,N,nominal,1.0NRT,281.5,1,N
48.88361,6.05544,295.1,0.49,0.4,2019-10-11,01:18,N,nominal,1.0NRT,278.5,0.5,N
48.59874,7.82201,297.4,0.43,0.38,2019-10-11,01:18,N,nominal,1.0NRT,282.7,1,N
48.59528,7.82102,301.8,0.43,0.38,2019-10-11,01:18,N,nominal,1.0NRT,282.5,1.2,N
48.68826,6.96615,299.2,0.45,0.39,2019-10-11,01:18,N,nominal,1.0NRT,281.5,0.8,N
47.79108,12.18028,299.3,0.39,0.36,2019-10-11,01:18,N,nominal,1.0NRT,275.5,0.7,N
44.73989,21.24871,295.7,0.6,0.53,2019-10-11,01:18,N,nominal,1.0NRT,280,1.2,N
47.17323,7.56024,312,0.42,0.38,2019-10-11,01:18,N,nominal,1.0NRT,277.5,2.5,N
47.17253,7.56579,318.9,0.42,0.38,2019-10-11,01:18,N,nominal,1.0NRT,278.2,2.1,N
47.07088,8.26493,311.5,0.41,0.37,2019-10-11,01:18,N,nominal,1.0NRT,278.7,1.2,N
45.01861,18.05039,307.3,0.42,0.45,2019-10-11,01:18,N,nominal,1.0NRT,280.8,0.6,N
45.51747,11.50027,316.9,0.39,0.36,2019-10-11,01:18,N,nominal,1.0NRT,284.3,1,N
45.38039,11.94502,300.2,0.4,0.37,2019-10-11,01:18,N,nominal,1.0NRT,284.4,0.9,N
45.37952,11.95001,300.4,0.4,0.37,2019-10-11,01:18,N,nominal,1.0NRT,285.7,0.7,N
46.12411,6.31279,308.3,0.45,0.39,2019-10-11,01:18,N,nominal,1.0NRT,277.7,1.1,N
45.78034,8.68166,300.2,0.39,0.36,2019-10-11,01:18,N,nominal,1.0NRT,281.8,0.8,N
45.43491,8.79428,295.1,0.39,0.36,2019-10-11,01:18,N,nominal,1.0NRT,283.6,1,N
45.14669,9.94141,328.9,0.38,0.36,2019-10-11,01:18,N,nominal,1.0NRT,286.6,4.1,N
45.14266,9.94523,296.4,0.38,0.36,2019-10-11,01:18,N,nominal,1.0NRT,283.1,6.9,N
44.68036,10.06646,295.3,0.38,0.36,2019-10-11,01:18,N,nominal,1.0NRT,283.3,0.3,N
41.44113,21.93994,306.1,0.4,0.6,2019-10-11,01:18,N,nominal,1.0NRT,270.2,1.1,N
43.3625,12.54561,306.7,0.43,0.38,2019-10-11,01:18,N,nominal,1.0NRT,285.1,0.9,N
44.34103,5.33502,304.6,0.46,0.39,2019-10-11,01:18,N,nominal,1.0NRT,279.7,0.8,N
42.24207,14.20383,344.1,0.5,0.41,2019-10-11,01:18,N,nominal,1.0NRT,287.9,4.3,N
42.2384,14.20257,296.8,0.5,0.41,2019-10-11,01:18,N,nominal,1.0NRT,284.5,4.3,N
43.4478,4.89677,333.5,0.47,0.4,2019-10-11,01:18,N,nominal,1.0NRT,286.1,6.4,N
43.44417,4.89597,323.1,0.47,0.4,2019-10-11,01:18,N,nominal,1.0NRT,285.9,1.2,N
43.44349,4.90176,324.6,0.47,0.4,2019-10-11,01:18,N,nominal,1.0NRT,285.8,2.6,N
43.44485,4.89015,298.4,0.47,0.4,2019-10-11,01:18,N,nominal,1.0NRT,282.9,1.2,N
43.44122,4.88935,295.2,0.47,0.4,2019-10-11,01:18,N,nominal,1.0NRT,282.8,1.2,N
43.44054,4.89517,299.6,0.47,0.4,2019-10-11,01:18,N,nominal,1.0NRT,283.9,1.2,N
43.43826,4.88274,328.2,0.47,0.4,2019-10-11,01:18,N,nominal,1.0NRT,285.7,2.4,N
43.43758,4.88855,312.7,0.47,0.4,2019-10-11,01:18,N,nominal,1.0NRT,283.5,1.4,N
43.43691,4.89436,310.9,0.47,0.4,2019-10-11,01:18,N,nominal,1.0NRT,285.6,1.4,N
43.42812,4.96947,305.1,0.46,0.39,2019-10-11,01:18,N,nominal,1.0NRT,285.3,1.1,N
43.43463,4.88194,321,0.47,0.4,2019-10-11,01:18,N,nominal,1.0NRT,283.3,2.4,N
43.43395,4.88774,296.8,0.47,0.4,2019-10-11,01:18,N,nominal,1.0NRT,285.7,1.4,N
43.43328,4.89355,312.8,0.47,0.4,2019-10-11,01:18,N,nominal,1.0NRT,284.8,1.4,N
43.4326,4.89934,299,0.47,0.4,2019-10-11,01:18,N,nominal,1.0NRT,285.1,0.9,N
43.43032,4.88694,308.3,0.47,0.4,2019-10-11,01:18,N,nominal,1.0NRT,286.1,1.3,N
43.42965,4.89274,298.4,0.47,0.4,2019-10-11,01:18,N,nominal,1.0NRT,285.9,1.3,N
43.54247,-5.84283,299.1,0.5,0.66,2019-10-11,01:18,N,nominal,1.0NRT,284.8,1,N
43.54218,-5.82986,302.1,0.5,0.66,2019-10-11,01:18,N,nominal,1.0NRT,285.5,2.5,N
43.18516,0.99059,303.2,0.46,0.47,2019-10-11,01:18,N,nominal,1.0NRT,283.4,1.5,N
43.53601,-5.83015,326.3,0.5,0.66,2019-10-11,01:18,N,nominal,1.0NRT,284.8,2.5,N
43.5276,-5.72861,296.2,0.5,0.66,2019-10-11,01:18,N,nominal,1.0NRT,284.2,1,N
43.52145,-5.72888,297.2,0.5,0.66,2019-10-11,01:18,N,nominal,1.0NRT,284.2,1,N
40.51957,17.20604,311.1,0.49,0.49,2019-10-11,01:18,N,nominal,1.0NRT,289.7,1.6,N
40.51387,17.21001,304,0.49,0.49,2019-10-11,01:18,N,nominal,1.0NRT,289.4,1.6,N
40.50819,17.21392,301.8,0.49,0.49,2019-10-11,01:18,N,nominal,1.0NRT,289,1.8,N
40.50386,17.21214,325.7,0.49,0.49,2019-10-11,01:18,N,nominal,1.0NRT,290,1.8,N
40.50521,17.20646,299.6,0.49,0.49,2019-10-11,01:18,N,nominal,1.0NRT,288.2,2.8,N
40.5025,17.21786,305.8,0.49,0.49,2019-10-11,01:18,N,nominal,1.0NRT,290.6,1.8,N
40.50087,17.20469,321.7,0.49,0.49,2019-10-11,01:18,N,nominal,1.0NRT,288.9,2.4,N
43.30783,-3.02284,302.2,0.36,0.58,2019-10-11,01:18,N,nominal,1.0NRT,285.7,0.8,N
40.55569,9.67003,303.9,0.39,0.36,2019-10-11,01:18,N,nominal,1.0NRT,287.9,1.2,N
40.34124,8.76175,300,0.38,0.36,2019-10-11,01:18,N,nominal,1.0NRT,280.3,0.5,N
38.79447,15.21154,345.9,0.43,0.46,2019-10-11,01:18,N,nominal,1.0NRT,299.4,41.2,N
38.79337,15.21642,326.2,0.43,0.46,2019-10-11,01:18,N,nominal,1.0NRT,286.7,12,N
38.79041,15.20987,350.4,0.43,0.46,2019-10-11,01:18,N,nominal,1.0NRT,289.4,41.2,N
38.78939,15.21436,330.3,0.43,0.46,2019-10-11,01:18,N,nominal,1.0NRT,285.7,12,N
38.78997,15.21122,353.1,0.43,0.46,2019-10-11,01:18,N,nominal,1.0NRT,286.9,15.1,N
38.79081,15.20743,310.4,0.43,0.46,2019-10-11,01:18,N,nominal,1.0NRT,286.9,15.1,N
39.07948,9.01991,305.1,0.39,0.36,2019-10-11,01:18,N,nominal,1.0NRT,293.5,1.7,N
37.75245,14.99851,338.4,0.44,0.46,2019-10-11,01:18,N,nominal,1.0NRT,286.7,6.4,N
37.74934,14.9924,349.3,0.44,0.46,2019-10-11,01:18,N,nominal,1.0NRT,279.5,6.4,N
37.7482,14.99749,327.5,0.44,0.46,2019-10-11,01:18,N,nominal,1.0NRT,277.7,6.4,N
40.24234,-3.47325,322.4,0.36,0.58,2019-10-11,01:18,N,nominal,1.0NRT,288.7,1.6,N
36.58968,10.3196,303.1,0.44,0.38,2019-10-11,01:18,N,nominal,1.0NRT,289.8,1,N
36.59016,10.31789,302.1,0.44,0.38,2019-10-11,01:18,N,nominal,1.0NRT,289.5,1,N
36.79363,7.70184,302.4,0.39,0.36,2019-10-11,01:18,N,nominal,1.0NRT,287.8,1.3,N
36.79172,7.69245,311,0.39,0.36,2019-10-11,01:18,N,nominal,1.0NRT,289.5,1.1,N
36.78965,7.70531,314.6,0.39,0.36,2019-10-11,01:18,N,nominal,1.0NRT,289.2,0.8,N
36.87905,6.94459,308.9,0.38,0.36,2019-10-11,01:18,N,nominal,1.0NRT,289.2,0.8,N
36.87838,6.94887,309.7,0.38,0.36,2019-10-11,01:18,N,nominal,1.0NRT,289,0.8,N
36.87576,6.9438,307.8,0.38,0.36,2019-10-11,01:18,N,nominal,1.0NRT,288.7,0.8,N
36.8751,6.94808,310.3,0.38,0.36,2019-10-11,01:18,N,nominal,1.0NRT,288.4,0.8,N
36.86979,6.98238,311.1,0.38,0.36,2019-10-11,01:18,N,nominal,1.0NRT,288.6,1.1,N
36.86912,6.98667,300.5,0.38,0.36,2019-10-11,01:18,N,nominal,1.0NRT,288.3,0.4,N
36.86716,6.97729,303.3,0.38,0.36,2019-10-11,01:18,N,nominal,1.0NRT,291.7,0.9,N
36.8665,6.98158,301,0.38,0.36,2019-10-11,01:18,N,nominal,1.0NRT,288.9,0.9,N
36.86584,6.98587,300.5,0.38,0.36,2019-10-11,01:18,N,nominal,1.0NRT,288.3,0.4,N
36.76107,7.30874,304.5,0.38,0.36,2019-10-11,01:18,N,nominal,1.0NRT,288.7,0.7,N
36.15788,10.28541,302.7,0.44,0.38,2019-10-11,01:18,N,nominal,1.0NRT,290.5,0.6,N
36.15887,10.28399,302.4,0.44,0.38,2019-10-11,01:18,N,nominal,1.0NRT,290.4,0.7,N
37.9562,-8.80643,301.5,0.67,0.74,2019-10-11,01:18,N,nominal,1.0NRT,287.7,2.2,N
37.9562,-8.80507,305.5,0.67,0.74,2019-10-11,01:18,N,nominal,1.0NRT,288.4,2.7,N
36.43026,6.62121,312.5,0.38,0.36,2019-10-11,01:18,N,nominal,1.0NRT,286.5,1.1,N
35.85143,8.59518,297.1,0.4,0.37,2019-10-11,01:18,N,nominal,1.0NRT,284.9,0.4,N
35.84809,8.59435,295.9,0.4,0.37,2019-10-11,01:18,N,nominal,1.0NRT,284.3,0.5,N
36.33422,5.48403,314.7,0.4,0.37,2019-10-11,01:18,N,nominal,1.0NRT,285.3,0.8,N
36.96753,-1.90521,305,0.55,0.51,2019-10-11,01:18,N,nominal,1.0NRT,287.9,2,N
36.02863,5.90816,298.8,0.39,0.36,2019-10-11,01:18,N,nominal,1.0NRT,283.2,0.7,N
36.17768,3.75072,321.9,0.44,0.38,2019-10-11,01:18,N,nominal,1.0NRT,286.7,1.5,N
36.14096,2.92855,295.7,0.47,0.4,2019-10-11,01:18,N,nominal,1.0NRT,284.6,0.5,N
35.8793,4.44962,308.9,0.41,0.37,2019-10-11,01:18,N,nominal,1.0NRT,288.4,0.8,N
35.23128,8.17121,315.2,0.4,0.37,2019-10-11,01:18,N,nominal,1.0NRT,284.1,1.3,N
36.12833,1.24002,303.1,0.56,0.43,2019-10-11,01:18,N,nominal,1.0NRT,291,1,N
35.70808,4.47733,301.5,0.41,0.37,2019-10-11,01:18,N,nominal,1.0NRT,288.2,0.7,N
35.56706,5.18367,319.9,0.4,0.37,2019-10-11,01:18,N,nominal,1.0NRT,287,1.7,N
34.93699,8.52907,303,0.4,0.37,2019-10-11,01:18,N,nominal,1.0NRT,287,0.8,N
35.35041,5.76116,307.6,0.39,0.36,2019-10-11,01:18,N,nominal,1.0NRT,287.1,1.6,N
35.3471,5.76043,328,0.39,0.36,2019-10-11,01:18,N,nominal,1.0NRT,288,1.6,N
34.29375,11.40583,306,0.52,0.41,2019-10-11,01:18,N,nominal,1.0NRT,293.7,1.4,N
34.29482,11.40495,308.1,0.52,0.41,2019-10-11,01:18,N,nominal,1.0NRT,293.6,1.6,N
35.80979,-0.23864,338.3,0.44,0.46,2019-10-11,01:18,N,nominal,1.0NRT,274.9,5.9,N
35.80734,-0.25867,305.2,0.44,0.46,2019-10-11,01:18,N,nominal,1.0NRT,274.8,1,N
35.80689,-0.25382,305.3,0.44,0.46,2019-10-11,01:18,N,nominal,1.0NRT,275,1,N
35.09612,5.64598,313.8,0.39,0.36,2019-10-11,01:18,N,nominal,1.0NRT,292,1,N
34.98094,5.71408,303.8,0.39,0.36,2019-10-11,01:18,N,nominal,1.0NRT,290.7,1.2,N
34.9803,5.71832,311.5,0.39,0.36,2019-10-11,01:18,N,nominal,1.0NRT,292.6,1.2,N
35.45927,-0.39415,312.3,0.44,0.46,2019-10-11,01:18,N,nominal,1.0NRT,289.4,1,N
35.31253,-1.34147,306.3,0.5,0.49,2019-10-11,01:18,N,nominal,1.0NRT,290.4,1.8,N
34.43517,2.06045,305.2,0.49,0.4,2019-10-11,01:18,N,nominal,1.0NRT,285.9,1.4,N
45.14341,9.94039,329,0.38,0.36,2019-10-11,01:18,N,nominal,1.0NRT,285.5,6.9,N
52.17149,14.61222,314.6,0.39,0.36,2019-10-11,01:18,N,nominal,1.0NRT,279.3,1.6,N
52.16957,14.62342,301.5,0.39,0.36,2019-10-11,01:18,N,nominal,1.0NRT,277.5,0.7,N
52.1686,14.62902,299.2,0.39,0.36,2019-10-11,01:18,N,nominal,1.0NRT,277.5,0.7,N
52.16401,14.61485,301.9,0.39,0.36,2019-10-11,01:18,N,nominal,1.0NRT,278,0.6,N
51.26744,11.66123,297.7,0.39,0.36,2019-10-11,01:18,N,nominal,1.0NRT,279,1.1,N
51.36229,10.48378,297.3,0.4,0.37,2019-10-11,01:18,N,nominal,1.0NRT,278.3,0.9,N
49.81332,18.31371,295.1,0.51,0.41,2019-10-11,01:18,N,nominal,1.0NRT,279.9,1.1,N
67.36113,15.57981,306.8,0.42,0.45,2019-10-11,02:54,N,nominal,1.0NRT,272.9,1.5,N
61.36271,1.57986,315,0.5,0.41,2019-10-11,02:54,N,nominal,1.0NRT,281.2,2.4,N
61.36129,1.5823,320.1,0.5,0.41,2019-10-11,02:54,N,nominal,1.0NRT,281.2,2.8,N
61.09316,1.72112,297.7,0.51,0.41,2019-10-11,02:54,N,nominal,1.0NRT,272.4,0.6,N
60.85582,1.472,313.7,0.51,0.41,2019-10-11,02:54,N,nominal,1.0NRT,276.9,2.5,N
58.28933,0.20374,323,0.55,0.43,2019-10-11,02:54,N,nominal,1.0NRT,281,2.6,N
58.28974,0.20629,316.4,0.55,0.43,2019-10-11,02:54,N,nominal,1.0NRT,280.7,2.3,N
58.28614,0.20316,311.6,0.55,0.43,2019-10-11,02:54,N,nominal,1.0NRT,279.1,1.9,N
57.25438,0.80916,329.5,0.41,0.45,2019-10-11,02:54,N,nominal,1.0NRT,283,1.9,N
56.09755,-3.30125,328.2,0.49,0.41,2019-10-11,02:54,N,nominal,1.0NRT,280.9,3.4,N
56.00661,-3.67079,332.3,0.48,0.4,2019-10-11,02:54,N,nominal,1.0NRT,281.3,4.6,N
53.63206,-0.24794,298.1,0.48,0.48,2019-10-11,02:54,N,nominal,1.0NRT,284.5,1.3,N
53.5693,-0.5972,300.1,0.47,0.48,2019-10-11,02:54,N,nominal,1.0NRT,281.6,1.5,N
53.56694,-0.60678,308.4,0.47,0.48,2019-10-11,02:54,N,nominal,1.0NRT,280.6,1.5,N
53.56523,-0.60018,308.5,0.47,0.48,2019-10-11,02:54,N,nominal,1.0NRT,281.4,1.5,N
39.68314,-8.90701,296.6,0.48,0.48,2019-10-11,03:00,N,nominal,1.0NRT,285.8,1.1,N
43.18639,0.98896,301.8,0.57,0.69,2019-10-11,03:00,N,nominal,1.0NRT,282.4,1.5,N
43.52264,-5.73027,311.7,0.54,0.51,2019-10-11,03:00,N,nominal,1.0NRT,285.3,3.1,N
43.54613,-5.84233,295.4,0.54,0.51,2019-10-11,03:00,N,nominal,1.0NRT,284.2,1.1,N
43.54176,-5.84481,302.1,0.54,0.51,2019-10-11,03:00,N,nominal,1.0NRT,284.7,1.1,N
43.53846,-5.83183,303.7,0.54,0.51,2019-10-11,03:00,N,nominal,1.0NRT,284.7,1.2,N
40.70851,0.49975,307.2,0.64,0.72,2019-10-11,03:00,N,nominal,1.0NRT,285.2,0.9,N
42.98102,-9.0862,297.9,0.39,0.44,2019-10-11,03:00,N,nominal,1.0NRT,285.6,1,N
42.9456,-9.17596,309.3,0.39,0.44,2019-10-11,03:00,N,nominal,1.0NRT,285.4,1.2,N
40.24456,-3.47379,324.1,0.43,0.62,2019-10-11,03:00,N,nominal,1.0NRT,287.6,2.7,N
37.56808,-0.90906,302.1,0.68,0.74,2019-10-11,03:00,N,nominal,1.0NRT,287.5,1.9,N
37.56903,-0.91375,302.9,0.68,0.74,2019-10-11,03:00,N,nominal,1.0NRT,287.8,1.9,N
37.90005,-4.76368,297.3,0.43,0.62,2019-10-11,03:00,N,nominal,1.0NRT,283.1,0.6,N
35.31238,-1.33987,300.1,0.75,0.77,2019-10-11,03:00,N,nominal,1.0NRT,287,1,N
61.18551,2.17388,302.3,0.74,0.76,2019-10-11,04:36,N,nominal,1.0NRT,277.1,10.3,N
61.17631,2.19932,367,0.74,0.76,2019-10-11,04:36,N,high,1.0NRT,279.4,11.4,N
61.18703,2.18021,296.1,0.74,0.76,2019-10-11,04:36,N,nominal,1.0NRT,276.4,6.2,N
61.18168,2.18976,315.9,0.74,0.76,2019-10-11,04:36,N,nominal,1.0NRT,276.7,6.2,N
61.17094,2.20889,301.4,0.75,0.77,2019-10-11,04:36,N,nominal,1.0NRT,275.1,11.4,N
61.17161,2.18797,367,0.74,0.76,2019-10-11,04:36,N,high,1.0NRT,275.3,11.4,N
61.18233,2.16887,296.5,0.74,0.76,2019-10-11,04:36,N,nominal,1.0NRT,276.6,6.2,N
61.17698,2.17841,315.9,0.74,0.76,2019-10-11,04:36,N,nominal,1.0NRT,277.4,6.2,N
61.16624,2.19753,309.2,0.75,0.77,2019-10-11,04:36,N,nominal,1.0NRT,270,11.4,N
61.18017,2.18352,327.7,0.74,0.76,2019-10-11,04:36,N,nominal,1.0NRT,277.5,10.3,N
61.17483,2.19316,367,0.74,0.76,2019-10-11,04:36,N,high,1.0NRT,279.1,23.2,N
61.16948,2.20281,351.2,0.75,0.77,2019-10-11,04:36,N,nominal,1.0NRT,274.2,23.2,N
50.69711,31.90643,339.2,0.45,0.63,2019-10-11,09:24,N,nominal,1.0NRT,288.4,4.8,D
48.4958,32.73828,340.4,0.5,0.66,2019-10-11,09:24,N,nominal,1.0NRT,286.8,9.1,D
48.4937,32.73195,339.3,0.5,0.66,2019-10-11,09:24,N,nominal,1.0NRT,287.2,6.6,D
48.80692,32.81861,340.7,0.48,0.65,2019-10-11,09:24,N,nominal,1.0NRT,280.6,4.3,D
49.5255,33.01937,367,0.45,0.63,2019-10-11,09:24,N,high,1.0NRT,291,8.8,D
49.52364,33.01361,342,0.45,0.63,2019-10-11,09:24,N,nominal,1.0NRT,288.1,8.8,D
49.92797,34.15593,342.2,0.39,0.59,2019-10-11,09:24,N,nominal,1.0NRT,289,5.6,D
49.92857,34.15817,333.7,0.39,0.59,2019-10-11,09:24,N,nominal,1.0NRT,288.6,4,D
50.52129,33.05377,325.3,0.41,0.61,2019-10-11,09:24,N,nominal,1.0NRT,286,3.8,D
51.07461,33.7571,346.1,0.37,0.58,2019-10-11,09:24,N,nominal,1.0NRT,282.1,5.6,D
51.29122,32.03914,326.7,0.43,0.62,2019-10-11,09:24,N,nominal,1.0NRT,282.4,2,D
40.35582,22.5185,326.3,0.53,0.42,2019-10-11,11:00,N,nominal,1.0NRT,295.6,2.3,D
50.09827,32.575,329,0.4,0.45,2019-10-11,11:00,N,nominal,1.0NRT,290.1,4,D
49.22717,25.38532,330.2,0.39,0.36,2019-10-11,11:00,N,nominal,1.0NRT,287.4,2.2,D
49.2936,26.14621,355.1,0.39,0.36,2019-10-11,11:00,N,nominal,1.0NRT,292.2,20.2,D
49.29435,26.15153,336.6,0.39,0.36,2019-10-11,11:00,N,nominal,1.0NRT,290.3,8,D
49.2903,26.14729,354,0.39,0.36,2019-10-11,11:00,N,nominal,1.0NRT,292.7,20.2,D
50.01208,33.72002,330.1,0.45,0.47,2019-10-11,11:00,N,nominal,1.0NRT,293.1,41.8,D
50.01254,33.72641,351.9,0.45,0.47,2019-10-11,11:00,N,nominal,1.0NRT,296.7,41.8,D
50.0082,33.72709,355.3,0.45,0.47,2019-10-11,11:00,N,nominal,1.0NRT,289.8,11,D
49.54538,28.88239,326.2,0.44,0.39,2019-10-11,11:00,N,nominal,1.0NRT,283.6,1.9,D
50.00799,33.72792,351.7,0.45,0.47,2019-10-11,11:00,N,nominal,1.0NRT,288.2,10.7,D
49.92575,33.00774,328.5,0.42,0.45,2019-10-11,11:00,N,nominal,1.0NRT,284.7,5.1,D
49.92156,33.00852,338.5,0.42,0.45,2019-10-11,11:00,N,nominal,1.0NRT,285.4,5.1,D
50.03776,34.86513,327.9,0.5,0.49,2019-10-11,11:00,N,nominal,1.0NRT,285.8,5.1,D
49.7254,32.38021,330,0.39,0.44,2019-10-11,11:00,N,nominal,1.0NRT,288.2,4.6,D
49.0005,26.12464,344.9,0.39,0.36,2019-10-11,11:00,N,nominal,1.0NRT,284.6,7.5,D
48.37348,22.46835,331.6,0.41,0.37,2019-10-11,11:00,N,nominal,1.0NRT,289.6,2,D
49.03555,26.75663,329,0.4,0.37,2019-10-11,11:00,N,nominal,1.0NRT,289.5,3.6,D
49.17038,28.31804,343.3,0.43,0.38,2019-10-11,11:00,N,nominal,1.0NRT,288.1,4.9,D
49.2378,29.85223,351.6,0.47,0.4,2019-10-11,11:00,N,nominal,1.0NRT,289.2,5.9,D
49.23415,29.85315,337.9,0.47,0.4,2019-10-11,11:00,N,nominal,1.0NRT,286.4,5.9,D
47.90495,21.03317,343.6,0.45,0.39,2019-10-11,11:00,N,nominal,1.0NRT,281.2,9.9,D
49.33134,34.72118,342.5,0.49,0.49,2019-10-11,11:00,N,nominal,1.0NRT,285.3,7.9,D
48.48037,26.79194,333,0.39,0.36,2019-10-11,11:00,N,nominal,1.0NRT,290.7,2.4,D
49.17736,34.42846,332.3,0.47,0.48,2019-10-11,11:00,N,nominal,1.0NRT,288.9,5.6,D
49.17783,34.43506,338.9,0.47,0.48,2019-10-11,11:00,N,nominal,1.0NRT,290.5,5.6,D
46.93713,18.95026,327,0.55,0.42,2019-10-11,11:00,N,nominal,1.0NRT,290.6,2.9,D
48.22729,26.15913,335.4,0.39,0.36,2019-10-11,11:00,N,nominal,1.0NRT,293.1,3.1,D
48.224,26.1602,335.9,0.39,0.36,2019-10-11,11:00,N,nominal,1.0NRT,294.9,3.1,D
48.88629,32.56311,338.3,0.39,0.44,2019-10-11,11:00,N,nominal,1.0NRT,285,3.5,D
48.76149,31.45045,354.3,0.53,0.42,2019-10-11,11:00,N,nominal,1.0NRT,296,15.1,D
48.76218,31.45773,338.8,0.53,0.42,2019-10-11,11:00,N,nominal,1.0NRT,292.5,15.1,D
48.75351,31.40796,344.2,0.53,0.42,2019-10-11,11:00,N,nominal,1.0NRT,289.7,9.1,D
48.75764,31.45138,343.1,0.53,0.42,2019-10-11,11:00,N,nominal,1.0NRT,292.8,12.1,D
48.75833,31.45866,350.2,0.53,0.42,2019-10-11,11:00,N,nominal,1.0NRT,295.9,12.1,D
48.74966,31.40884,355,0.53,0.42,2019-10-11,11:00,N,nominal,1.0NRT,293.3,9.1,D
48.757,31.57046,336.3,0.54,0.42,2019-10-11,11:00,N,nominal,1.0NRT,291.1,3.8,D
48.74934,31.41006,347,0.53,0.42,2019-10-11,11:00,N,nominal,1.0NRT,291.3,9.3,D
48.75738,31.57143,336.4,0.54,0.42,2019-10-11,11:00,N,nominal,1.0NRT,291.1,5.3,D
48.6695,31.89385,329.5,0.55,0.43,2019-10-11,11:00,N,nominal,1.0NRT,286.8,5,D
48.63523,34.63044,340.7,0.48,0.48,2019-10-11,11:00,N,nominal,1.0NRT,285.5,8.2,D
46.95165,21.73778,343.6,0.44,0.38,2019-10-11,11:00,N,nominal,1.0NRT,292,5.7,D
46.94821,21.73917,341.1,0.44,0.38,2019-10-11,11:00,N,nominal,1.0NRT,289.1,5.7,D
48.4525,33.03098,339.8,0.41,0.45,2019-10-11,11:00,N,nominal,1.0NRT,292.9,5.8,D
48.53079,34.6482,346.3,0.48,0.48,2019-10-11,11:00,N,nominal,1.0NRT,288.8,10.2,D
48.16597,30.61433,293.8,0.49,0.4,2019-10-11,11:00,N,low,1.0NRT,295.4,32.2,D
48.16667,30.62097,329.7,0.49,0.4,2019-10-11,11:00,N,nominal,1.0NRT,288.5,32.2,D
47.60454,28.8027,330.9,0.42,0.38,2019-10-11,11:00,N,nominal,1.0NRT,287.6,2.3,D
47.62974,34.32733,333.1,0.45,0.47,2019-10-11,11:00,N,nominal,1.0NRT,285.2,5.5,D
45.25307,20.55043,329.8,0.51,0.41,2019-10-11,11:00,N,nominal,1.0NRT,298.1,2.7,D
45.24805,20.54558,334.7,0.51,0.41,2019-10-11,11:00,N,nominal,1.0NRT,298.3,4.8,D
45.43044,21.45272,329.6,0.47,0.4,2019-10-11,11:00,N,nominal,1.0NRT,293.7,2.9,D
45.25347,20.55059,329.1,0.51,0.41,2019-10-11,11:00,N,nominal,1.0NRT,297.9,2.1,D
45.24848,20.54574,334.3,0.51,0.41,2019-10-11,11:00,N,nominal,1.0NRT,297.9,5,D
45.43067,21.45353,330.8,0.47,0.4,2019-10-11,11:00,N,nominal,1.0NRT,294,4,D
45.21144,21.08302,328.9,0.49,0.4,2019-10-11,11:00,N,nominal,1.0NRT,298.4,2.5,D
44.82838,19.97391,327.9,0.55,0.43,2019-10-11,11:00,N,nominal,1.0NRT,297.6,2.3,D
45.0865,21.2269,330,0.49,0.4,2019-10-11,11:00,N,nominal,1.0NRT,298,3.3,D
44.84793,20.14141,331.8,0.54,0.42,2019-10-11,11:00,N,nominal,1.0NRT,298.4,6.3,D
45.06345,21.19027,327.9,0.49,0.4,2019-10-11,11:00,N,nominal,1.0NRT,298.9,3.4,D
45.04459,21.21947,350.4,0.49,0.4,2019-10-11,11:00,N,nominal,1.0NRT,299.2,10.3,D
45.0458,21.22553,329.5,0.49,0.4,2019-10-11,11:00,N,nominal,1.0NRT,297.6,10.3,D
45.02637,21.14803,336.4,0.49,0.4,2019-10-11,11:00,N,nominal,1.0NRT,296.8,4.4,D
45.02758,21.1541,332.1,0.49,0.4,2019-10-11,11:00,N,nominal,1.0NRT,297.4,4.4,D
45.04219,21.22697,348.4,0.49,0.4,2019-10-11,11:00,N,nominal,1.0NRT,302.9,10.3,D
45.02275,21.14949,343.1,0.49,0.4,2019-10-11,11:00,N,nominal,1.0NRT,301.5,22.2,D
45.03982,21.25408,331.4,0.49,0.4,2019-10-11,11:00,N,nominal,1.0NRT,296,18.3,D
44.98305,21.18532,328.6,0.49,0.4,2019-10-11,11:00,N,nominal,1.0NRT,297,3.5,D
44.98428,21.19138,327.5,0.49,0.4,2019-10-11,11:00,N,nominal,1.0NRT,296.8,2.9,D
44.98066,21.19283,328.2,0.49,0.4,2019-10-11,11:00,N,nominal,1.0NRT,297.1,2.9,D
44.98189,21.19889,329.8,0.49,0.4,2019-10-11,11:00,N,nominal,1.0NRT,295.8,2.9,D
44.22206,17.89711,326.3,0.46,0.47,2019-10-11,11:00,N,nominal,1.0NRT,292.9,4.4,D
44.22148,17.898,328.1,0.46,0.47,2019-10-11,11:00,N,nominal,1.0NRT,294.2,3.5,D
45.97832,27.30622,332.1,0.39,0.36,2019-10-11,11:00,N,nominal,1.0NRT,295.5,3.2,D
45.97903,27.31124,335.9,0.39,0.36,2019-10-11,11:00,N,nominal,1.0NRT,294.4,3.2,D
44.92039,21.34804,337.3,0.49,0.4,2019-10-11,11:00,N,nominal,1.0NRT,298.6,4.4,D
44.80783,21.08357,331.7,0.5,0.41,2019-10-11,11:00,N,nominal,1.0NRT,298.2,8,D
44.80789,21.08539,337,0.5,0.41,2019-10-11,11:00,N,nominal,1.0NRT,297.2,7,D
45.74184,27.65636,327.9,0.39,0.36,2019-10-11,11:00,N,nominal,1.0NRT,295,3.3,D
45.74062,27.67236,332.5,0.39,0.36,2019-10-11,11:00,N,nominal,1.0NRT,296.8,6,D
45.7373,27.6733,332.6,0.39,0.36,2019-10-11,11:00,N,nominal,1.0NRT,298.4,6,D
45.63428,28.09589,332.9,0.4,0.37,2019-10-11,11:00,N,nominal,1.0NRT,295.4,2.7,D
45.51849,28.01437,328.6,0.4,0.37,2019-10-11,11:00,N,nominal,1.0NRT,296.3,2.4,D
41.97905,12.02621,335.1,0.5,0.66,2019-10-11,11:00,N,nominal,1.0NRT,292.2,7,D
45.46724,27.91894,330.1,0.39,0.36,2019-10-11,11:00,N,nominal,1.0NRT,295.8,2.2,D
45.46391,27.91987,332.4,0.39,0.36,2019-10-11,11:00,N,nominal,1.0NRT,295.5,2,D
44.49612,23.87865,332.7,0.41,0.37,2019-10-11,11:00,N,nominal,1.0NRT,296.2,2.9,D
45.14153,28.37359,326.2,0.4,0.37,2019-10-11,11:00,N,nominal,1.0NRT,293.5,2.9,D
44.71026,25.52823,333.9,0.39,0.36,2019-10-11,11:00,N,nominal,1.0NRT,295.4,3.2,D
44.17989,24.07085,344.7,0.41,0.37,2019-10-11,11:00,N,nominal,1.0NRT,295.3,3.2,D
44.17225,24.06807,338.9,0.41,0.37,2019-10-11,11:00,N,nominal,1.0NRT,296,2.1,D
43.924,23.11802,333.9,0.44,0.38,2019-10-11,11:00,N,nominal,1.0NRT,298.5,4,D
44.0746,24.29353,339.9,0.41,0.37,2019-10-11,11:00,N,nominal,1.0NRT,298.1,2.4,D
44.48528,26.94306,331.6,0.38,0.36,2019-10-11,11:00,N,nominal,1.0NRT,299.2,3.4,D
43.88949,23.82968,335.6,0.42,0.38,2019-10-11,11:00,N,nominal,1.0NRT,300.8,4,D
44.29486,26.52242,335.7,0.38,0.36,2019-10-11,11:00,N,nominal,1.0NRT,299.5,1.6,D
44.18095,25.93131,330.5,0.39,0.36,2019-10-11,11:00,N,nominal,1.0NRT,298.9,3.8,D
44.18172,25.93609,331.5,0.39,0.36,2019-10-11,11:00,N,nominal,1.0NRT,297.7,3.8,D
44.34,27.0434,337,0.38,0.36,2019-10-11,11:00,N,nominal,1.0NRT,299.1,4.6,D
44.33415,27.0501,332.1,0.38,0.36,2019-10-11,11:00,N,nominal,1.0NRT,299.1,1.4,D
44.33487,27.05488,338.3,0.38,0.36,2019-10-11,11:00,N,nominal,1.0NRT,299.3,4.3,D
43.89785,24.39816,331.7,0.41,0.37,2019-10-11,11:00,N,nominal,1.0NRT,300,1.7,D
44.23891,26.44931,334.5,0.38,0.36,2019-10-11,11:00,N,nominal,1.0NRT,296.8,2.2,D
44.23564,26.45029,329.5,0.38,0.36,2019-10-11,11:00,N,nominal,1.0NRT,296.6,1.5,D
44.26302,26.66489,329.4,0.38,0.36,2019-10-11,11:00,N,nominal,1.0NRT,297.6,4.6,D
44.25646,26.66684,349.2,0.38,0.36,2019-10-11,11:00,N,nominal,1.0NRT,296.4,9.9,D
44.25719,26.67161,345.5,0.38,0.36,2019-10-11,11:00,N,nominal,1.0NRT,295,9.9,D
43.60576,22.88565,332.8,0.45,0.39,2019-10-11,11:00,N,nominal,1.0NRT,301.1,2.8,D
43.725,23.54679,333.3,0.43,0.38,2019-10-11,11:00,N,nominal,1.0NRT,302.9,2.8,D
43.72596,23.55204,347.8,0.43,0.38,2019-10-11,11:00,N,nominal,1.0NRT,304.5,8.4,D
43.79815,23.95118,344.3,0.42,0.38,2019-10-11,11:00,N,nominal,1.0NRT,299.5,6,D
43.72254,23.55325,343.7,0.43,0.38,2019-10-11,11:00,N,nominal,1.0NRT,304.3,8.4,D
43.72349,23.55849,347.6,0.43,0.38,2019-10-11,11:00,N,nominal,1.0NRT,305.5,8.4,D
44.06494,25.52667,331,0.39,0.36,2019-10-11,11:00,N,nominal,1.0NRT,298.6,1.6,D
43.98473,25.21084,331,0.39,0.37,2019-10-11,11:00,N,nominal,1.0NRT,300.8,2.3,D
43.98143,25.2119,342.7,0.39,0.37,2019-10-11,11:00,N,nominal,1.0NRT,299.9,4,D
43.98225,25.21676,335.5,0.39,0.37,2019-10-11,11:00,N,nominal,1.0NRT,298.1,4,D
44.22409,26.79106,335.4,0.38,0.36,2019-10-11,11:00,N,nominal,1.0NRT,293.7,2.4,D
43.66333,23.56832,329.1,0.43,0.38,2019-10-11,11:00,N,nominal,1.0NRT,301.6,1.5,D
43.80182,24.35348,334,0.41,0.37,2019-10-11,11:00,N,nominal,1.0NRT,304.2,1.4,D
43.79845,24.3546,341.1,0.41,0.37,2019-10-11,11:00,N,nominal,1.0NRT,303.7,3.1,D
43.79509,24.35571,340.1,0.41,0.37,2019-10-11,11:00,N,nominal,1.0NRT,303.2,3.1,D
44.19458,26.79974,337.3,0.38,0.36,2019-10-11,11:00,N,nominal,1.0NRT,296.3,5,D
44.07959,26.25392,329,0.39,0.36,2019-10-11,11:00,N,nominal,1.0NRT,299.7,2.4,D
43.86578,25.05169,335.8,0.4,0.37,2019-10-11,11:00,N,nominal,1.0NRT,299,1.9,D
43.57469,23.42773,339.2,0.44,0.38,2019-10-11,11:00,N,nominal,1.0NRT,301.3,3.6,D
44.09128,26.61419,346.3,0.38,0.36,2019-10-11,11:00,N,nominal,1.0NRT,301.6,6.7,D
43.95972,25.95547,327,0.39,0.36,2019-10-11,11:00,N,nominal,1.0NRT,300.4,1.4,D
43.75611,24.9043,346.8,0.4,0.37,2019-10-11,11:00,N,nominal,1.0NRT,301.7,9.4,D
43.83579,25.6301,329.4,0.39,0.36,2019-10-11,11:00,N,nominal,1.0NRT,298.4,1.9,D
43.83249,25.63113,350.4,0.39,0.36,2019-10-11,11:00,N,nominal,1.0NRT,301.6,5.4,D
43.95979,26.46767,332,0.38,0.36,2019-10-11,11:00,N,nominal,1.0NRT,301.5,1.7,D
43.78958,25.51819,341.3,0.39,0.36,2019-10-11,11:00,N,nominal,1.0NRT,300.5,3,D
43.78867,25.53366,340.8,0.39,0.36,2019-10-11,11:00,N,nominal,1.0NRT,302.2,5.9,D
43.78947,25.53847,345.2,0.39,0.36,2019-10-11,11:00,N,nominal,1.0NRT,300.5,5.9,D
43.36065,23.35993,332.7,0.44,0.38,2019-10-11,11:00,N,nominal,1.0NRT,301.3,2.7,D
43.36165,23.36528,329.9,0.44,0.38,2019-10-11,11:00,N,low,1.0NRT,300.1,3.2,D
43.38913,23.51401,339.8,0.44,0.38,2019-10-11,11:00,N,nominal,1.0NRT,300.6,2.9,D
43.54235,24.40554,334.3,0.41,0.37,2019-10-11,11:00,N,nominal,1.0NRT,301.8,2.5,D
43.3839,23.64456,325.9,0.43,0.38,2019-10-11,11:00,N,low,1.0NRT,300,5.4,D
43.38047,23.64575,349.1,0.43,0.38,2019-10-11,11:00,N,nominal,1.0NRT,306.2,5.4,D
43.52061,24.54468,338.1,0.41,0.37,2019-10-11,11:00,N,nominal,1.0NRT,299.6,2.9,D
43.48994,24.3911,334.7,0.41,0.37,2019-10-11,11:00,N,nominal,1.0NRT,302.1,1.6,D
43.51813,24.55076,347,0.41,0.37,2019-10-11,11:00,N,nominal,1.0NRT,299,3.9,D
43.51565,24.55683,348.9,0.41,0.37,2019-10-11,11:00,N,nominal,1.0NRT,298.8,4.7,D
43.42681,24.19807,352.7,0.42,0.37,2019-10-11,11:00,N,nominal,1.0NRT,309.5,31.4,D
43.4259,24.19301,367,0.42,0.37,2019-10-11,11:00,N,high,1.0NRT,311.4,31.4,D
42.9683,21.83715,325.3,0.5,0.41,2019-10-11,11:00,N,low,1.0NRT,297.8,2,D
43.42343,24.19921,346.5,0.42,0.37,2019-10-11,11:00,N,nominal,1.0NRT,319.1,31.4,D
44.02067,27.89958,334.7,0.39,0.36,2019-10-11,11:00,N,nominal,1.0NRT,302.1,5.8,D
43.33511,23.91814,330.7,0.42,0.38,2019-10-11,11:00,N,nominal,1.0NRT,299.9,3.3,D
43.42673,24.43092,351.8,0.41,0.37,2019-10-11,11:00,N,nominal,1.0NRT,305.4,11.9,D
43.36334,24.11468,340.4,0.42,0.38,2019-10-11,11:00,N,nominal,1.0NRT,301.2,3.7,D
43.35617,24.15484,335,0.42,0.38,2019-10-11,11:00,N,nominal,1.0NRT,299.2,2.3,D
43.91777,27.74629,345.2,0.39,0.36,2019-10-11,11:00,N,nominal,1.0NRT,296.3,4.4,D
43.71266,26.41307,334.3,0.39,0.36,2019-10-11,11:00,N,nominal,1.0NRT,302,4.5,D
42.73012,21.10899,337.5,0.54,0.42,2019-10-11,11:00,N,nominal,1.0NRT,295.9,3.8,D
42.60588,20.56981,327.1,0.38,0.43,2019-10-11,11:00,N,nominal,1.0NRT,294.9,1.8,D
43.2795,24.02974,331.3,0.42,0.38,2019-10-11,11:00,N,nominal,1.0NRT,297.8,2,D
43.26501,24.13968,329.1,0.42,0.38,2019-10-11,11:00,N,nominal,1.0NRT,298.8,1.1,D
43.72774,27.1284,331.7,0.38,0.36,2019-10-11,11:00,N,nominal,1.0NRT,298.4,1,D
43.22914,24.67638,327.6,0.41,0.37,2019-10-11,11:00,N,nominal,1.0NRT,296.2,2.2,D
43.2423,24.8126,339.7,0.41,0.37,2019-10-11,11:00,N,nominal,1.0NRT,298.8,3.7,D
43.23895,24.81366,345.3,0.41,0.37,2019-10-11,11:00,N,nominal,1.0NRT,302,3.7,D
43.08876,24.11041,335.9,0.42,0.38,2019-10-11,11:00,N,nominal,1.0NRT,299.3,2.7,D
43.08538,24.1116,327.9,0.42,0.38,2019-10-11,11:00,N,nominal,1.0NRT,299.2,2.7,D
43.08629,24.11665,346.7,0.42,0.38,2019-10-11,11:00,N,nominal,1.0NRT,302.5,10.4,D
43.08563,24.44607,351.8,0.41,0.37,2019-10-11,11:00,N,nominal,1.0NRT,302.8,10.3,D
41.20036,15.92959,329.3,0.34,0.56,2019-10-11,11:00,N,nominal,1.0NRT,292.3,2.2,D
42.55879,21.70961,327.8,0.52,0.41,2019-10-11,11:00,N,low,1.0NRT,298.5,3.1,D
43.08224,24.44712,338.5,0.41,0.37,2019-10-11,11:00,N,nominal,1.0NRT,299,3.9,D
43.09075,25.81595,331,0.39,0.36,2019-10-11,11:00,N,nominal,1.0NRT,297.5,2.2,D
43.12906,26.5994,340.5,0.39,0.36,2019-10-11,11:00,N,nominal,1.0NRT,301,5.7,D
42.71452,24.172,348.1,0.42,0.38,2019-10-11,11:00,N,nominal,1.0NRT,304.3,9.6,D
42.35717,24.80737,339.3,0.41,0.37,2019-10-11,11:00,N,nominal,1.0NRT,304.1,3.7,D
42.48761,25.8385,346.7,0.39,0.36,2019-10-11,11:00,N,nominal,1.0NRT,302,11,D
42.4843,25.83948,345.8,0.39,0.36,2019-10-11,11:00,N,nominal,1.0NRT,302.2,11,D
42.69062,27.12647,334.2,0.38,0.36,2019-10-11,11:00,N,nominal,1.0NRT,299.2,3.4,D
42.51101,26.14842,341.3,0.39,0.36,2019-10-11,11:00,N,nominal,1.0NRT,301.5,4.2,D
42.50771,26.1494,329.7,0.39,0.36,2019-10-11,11:00,N,nominal,1.0NRT,300,4.2,D
42.22318,24.53201,331.2,0.42,0.38,2019-10-11,11:00,N,nominal,1.0NRT,300.3,3.5,D
42.19176,25.11357,334.9,0.41,0.37,2019-10-11,11:00,N,nominal,1.0NRT,302,3.4,D
42.28358,26.09378,330.8,0.39,0.36,2019-10-11,11:00,N,nominal,1.0NRT,295.2,2.4,D
41.44282,21.93927,338.3,0.53,0.42,2019-10-11,11:00,N,nominal,1.0NRT,300,8.7,D
41.44582,21.93997,336.3,0.53,0.42,2019-10-11,11:00,N,nominal,1.0NRT,296.3,5.6,D
41.44206,21.94132,327.4,0.53,0.42,2019-10-11,11:00,N,low,1.0NRT,298.2,5.6,D
39.63184,16.20744,333.7,0.37,0.58,2019-10-11,11:00,N,nominal,1.0NRT,296.3,2.3,D
39.63437,16.20604,332.1,0.37,0.58,2019-10-11,11:00,N,nominal,1.0NRT,297.4,2.6,D
41.28658,26.83726,334.1,0.39,0.36,2019-10-11,11:00,N,nominal,1.0NRT,294.3,3.8,D
39.10302,17.08206,325.5,0.34,0.56,2019-10-11,11:00,N,nominal,1.0NRT,294.4,1.5,D
40.35207,22.51979,331.8,0.53,0.42,2019-10-11,11:00,N,nominal,1.0NRT,296.4,2.3,D
38.95257,17.04218,327,0.35,0.56,2019-10-11,11:00,N,nominal,1.0NRT,294.7,3.1,D
35.26809,26.25949,332.6,0.45,0.39,2019-10-11,11:00,N,nominal,1.0NRT,292.6,5.4,D
35.17604,33.7927,338.2,0.47,0.4,2019-10-11,11:00,N,low,1.0NRT,311.1,5,D
48.27478,14.33584,334.1,0.52,0.5,2019-10-11,11:00,N,nominal,1.0NRT,283.7,5.6,D
50.31452,28.11785,328.2,0.43,0.38,2019-10-11,11:00,N,nominal,1.0NRT,284.6,3,D
50.3144,28.11379,327.9,0.43,0.38,2019-10-11,11:00,N,nominal,1.0NRT,284,3,D
50.30313,29.53499,326.5,0.47,0.4,2019-10-11,11:00,N,nominal,1.0NRT,286.6,2.5,D
38.95355,17.04589,344.8,0.35,0.56,2019-10-11,11:00,N,nominal,1.0NRT,295.2,3.1,D
38.95448,17.04941,343.7,0.35,0.56,2019-10-11,11:00,N,nominal,1.0NRT,295,6,D
37.88152,13.12264,332.8,0.58,0.7,2019-10-11,11:00,N,nominal,1.0NRT,294,1.9,D
38.95266,17.04259,327.1,0.35,0.56,2019-10-11,11:00,N,nominal,1.0NRT,294.4,3.1,D
38.95361,17.04631,345.6,0.35,0.56,2019-10-11,11:00,N,nominal,1.0NRT,295.1,3.1,D
38.95452,17.04984,342.4,0.35,0.56,2019-10-11,11:00,N,nominal,1.0NRT,295.1,5.8,D
40.47345,26.69995,333.2,0.39,0.36,2019-10-11,11:00,N,nominal,1.0NRT,293.1,1.9,D
37.19378,14.23517,328.4,0.54,0.68,2019-10-11,11:00,N,nominal,1.0NRT,291.1,3.5,D
38.44748,23.39948,335.7,0.52,0.42,2019-10-11,11:00,N,nominal,1.0NRT,297.8,5.1,D
39.77022,32.13114,334.5,0.45,0.39,2019-10-11,11:00,N,nominal,1.0NRT,298.5,3.3,D
38.36344,23.4278,334.1,0.52,0.42,2019-10-11,11:00,N,nominal,1.0NRT,299.4,4.2,D
38.74345,26.94754,331.7,0.4,0.37,2019-10-11,11:00,N,nominal,1.0NRT,299.5,3,D
38.64817,26.94031,332,0.4,0.37,2019-10-11,11:00,N,nominal,1.0NRT,296.5,2,D
38.68502,27.46328,331.3,0.39,0.36,2019-10-11,11:00,N,nominal,1.0NRT,300.1,1.3,D
38.58112,27.55902,328.6,0.39,0.36,2019-10-11,11:00,N,nominal,1.0NRT,298,1.3,D
38.75512,29.77015,332.3,0.39,0.36,2019-10-11,11:00,N,nominal,1.0NRT,304.8,3.8,D
38.19409,30.00533,338.1,0.39,0.36,2019-10-11,11:00,N,nominal,1.0NRT,295.2,12.3,D
38.19077,30.00609,356,0.39,0.36,2019-10-11,11:00,N,nominal,1.0NRT,301.8,12,D
38.18144,30.01279,344.5,0.39,0.36,2019-10-11,11:00,N,nominal,1.0NRT,298.2,2.5,D
38.01407,30.02093,340.2,0.39,0.36,2019-10-11,11:00,N,nominal,1.0NRT,294.8,4.4,D
37.12343,30.83014,330.3,0.4,0.37,2019-10-11,11:00,N,nominal,1.0NRT,268.3,2.6,D
51.46428,24.67244,328.1,0.39,0.36,2019-10-11,11:06,N,nominal,1.0NRT,286.4,3,D
51.89157,27.77585,330.1,0.44,0.38,2019-10-11,11:06,N,nominal,1.0NRT,280,2.2,D
51.29112,29.20988,336.9,0.47,0.4,2019-10-11,11:06,N,nominal,1.0NRT,285.6,5,D
51.61922,30.46947,330.2,0.52,0.42,2019-10-11,11:06,N,nominal,1.0NRT,285.5,3.7,D
51.09718,24.65936,335,0.39,0.36,2019-10-11,11:06,N,nominal,1.0NRT,286.6,3.4,D
51.63945,25.58003,329.9,0.39,0.37,2019-10-11,11:06,N,nominal,1.0NRT,281.6,2.7,D
58.2872,0.19529,348.4,0.38,0.59,2019-10-11,11:06,N,nominal,1.0NRT,280.5,5.9,D
34.64665,-1.59941,343.3,0.39,0.44,2019-10-11,12:42,N,nominal,1.0NRT,305.1,9,D
34.43357,6.9687,339.2,0.41,0.37,2019-10-11,12:42,N,nominal,1.0NRT,305.5,2.4,D
36.80883,4.52983,333,0.39,0.36,2019-10-11,12:42,N,nominal,1.0NRT,298.7,3.9,D
35.44869,-0.58863,338.3,0.51,0.41,2019-10-11,12:42,N,nominal,1.0NRT,293.7,7.6,D
36.17883,3.74731,337.3,0.38,0.36,2019-10-11,12:42,N,nominal,1.0NRT,306.7,2.1,D
36.54913,6.63744,330.8,0.42,0.38,2019-10-11,12:42,N,nominal,1.0NRT,303,2.1,D
36.49251,6.59469,334,0.42,0.38,2019-10-11,12:42,N,low,1.0NRT,305.3,2.8,D
36.33381,5.48127,334.2,0.39,0.37,2019-10-11,12:42,N,nominal,1.0NRT,306.8,0.9,D
34.65143,-1.59661,367,0.39,0.44,2019-10-11,12:42,N,high,1.0NRT,306.1,9,D
37.9935,12.84875,350.6,0.56,0.52,2019-10-11,12:42,N,nominal,1.0NRT,304.2,13.1,D
37.9982,12.84695,334.3,0.56,0.52,2019-10-11,12:42,N,nominal,1.0NRT,297.8,4.6,D
38.79397,15.21291,367,0.38,0.59,2019-10-11,12:42,N,high,1.0NRT,305.7,10.5,D
38.9497,17.03942,340.3,0.48,0.65,2019-10-11,12:42,N,nominal,1.0NRT,295.1,4,D
38.95625,17.05169,342.6,0.48,0.65,2019-10-11,12:42,N,nominal,1.0NRT,293.7,5.5,D
38.95106,17.05245,340.2,0.48,0.65,2019-10-11,12:42,N,nominal,1.0NRT,293.2,7,D
38.95065,17.04008,356.3,0.48,0.65,2019-10-11,12:42,N,nominal,1.0NRT,295.8,12.4,D
39.04463,16.93558,335.6,0.48,0.64,2019-10-11,12:42,N,nominal,1.0NRT,293.4,3.4,D
39.4564,8.88428,344.8,0.55,0.42,2019-10-11,12:42,N,nominal,1.0NRT,303.7,5.8,D
39.4594,8.88227,336.2,0.55,0.43,2019-10-11,12:42,N,nominal,1.0NRT,303.9,9.1,D
40.3909,16.83176,342.4,0.48,0.65,2019-10-11,12:42,N,nominal,1.0NRT,290.7,3.2,D
40.3923,16.82969,341.9,0.48,0.65,2019-10-11,12:42,N,nominal,1.0NRT,292,3.4,D
40.21868,8.76242,330,0.55,0.43,2019-10-11,12:42,N,low,1.0NRT,303.2,2.8,D
38.94291,-5.7774,332.7,0.52,0.5,2019-10-11,12:42,N,low,1.0NRT,304.5,4.8,D
38.94157,-5.78314,333.7,0.52,0.5,2019-10-11,12:42,N,nominal,1.0NRT,303.8,3.3,D
38.95044,-5.7865,335.2,0.52,0.5,2019-10-11,12:42,N,nominal,1.0NRT,304.4,5,D
38.95187,-5.78284,330.1,0.51,0.5,2019-10-11,12:42,N,low,1.0NRT,303.2,6.1,D
40.74103,0.76602,335.6,0.4,0.37,2019-10-11,12:42,N,nominal,1.0NRT,296.6,2.5,D
40.74436,0.76505,332.2,0.4,0.37,2019-10-11,12:42,N,nominal,1.0NRT,296.3,2.5,D
42.6604,13.96122,367,0.35,0.57,2019-10-11,12:42,N,high,1.0NRT,295.3,6.7,D
41.61119,0.51497,335,0.4,0.37,2019-10-11,12:42,N,nominal,1.0NRT,299.3,2.8,D
42.68734,2.6598,331.6,0.39,0.36,2019-10-11,12:42,N,nominal,1.0NRT,297.5,2.1,D
43.43825,4.88779,343.8,0.43,0.38,2019-10-11,12:42,N,nominal,1.0NRT,301,8.9,D
43.4376,4.88252,325.1,0.43,0.38,2019-10-11,12:42,N,low,1.0NRT,298.9,3.7,D
43.43694,4.87725,331.1,0.43,0.38,2019-10-11,12:42,N,nominal,1.0NRT,299,3.7,D
43.44107,4.88171,326.5,0.43,0.38,2019-10-11,12:42,N,low,1.0NRT,297.1,1.6,D
43.44651,4.89672,347.3,0.43,0.38,2019-10-11,12:42,N,nominal,1.0NRT,302.4,16.5,D
43.57784,4.56496,330.1,0.42,0.38,2019-10-11,12:42,N,nominal,1.0NRT,295.8,3.4,D
43.57719,4.55977,326.8,0.42,0.38,2019-10-11,12:42,N,nominal,1.0NRT,295.3,3.4,D
43.62272,4.75351,346.8,0.42,0.38,2019-10-11,12:42,N,nominal,1.0NRT,300,6.7,D
43.60308,4.59646,326.6,0.42,0.38,2019-10-11,12:42,N,nominal,1.0NRT,295.9,2.7,D
41.84925,-5.60637,336.6,0.43,0.46,2019-10-11,12:42,N,nominal,1.0NRT,302.6,3.9,D
43.89241,5.02003,331,0.43,0.38,2019-10-11,12:42,N,nominal,1.0NRT,296.8,2.7,D
43.92171,4.7924,330.9,0.43,0.38,2019-10-11,12:42,N,nominal,1.0NRT,295.7,2.9,D
43.92195,4.78983,332.1,0.43,0.38,2019-10-11,12:42,N,nominal,1.0NRT,296.4,3.2,D
41.97849,-6.97422,340.1,0.5,0.49,2019-10-11,12:42,N,nominal,1.0NRT,299.5,29.6,D
41.97711,-6.97999,344.1,0.5,0.49,2019-10-11,12:42,N,nominal,1.0NRT,302.7,8.4,D
41.9829,-6.97577,352.6,0.5,0.49,2019-10-11,12:42,N,nominal,1.0NRT,302,29.6,D
41.9815,-6.98168,325.5,0.5,0.49,2019-10-11,12:42,N,nominal,1.0NRT,296.1,8.4,D
42.31177,-6.02601,331.5,0.44,0.46,2019-10-11,12:42,N,nominal,1.0NRT,300.5,1.9,D
44.90577,12.11489,326.7,0.6,0.53,2019-10-11,12:42,N,nominal,1.0NRT,293.7,2.8,D
44.94038,12.29238,330.4,0.61,0.53,2019-10-11,12:42,N,nominal,1.0NRT,292.7,3,D
43.85128,0.51648,349.9,0.39,0.36,2019-10-11,12:42,N,nominal,1.0NRT,306.7,11.7,D
43.85346,0.51759,339.9,0.39,0.36,2019-10-11,12:42,N,nominal,1.0NRT,305.6,5.7,D
43.85268,0.51281,330.3,0.39,0.36,2019-10-11,12:42,N,low,1.0NRT,302.5,2.6,D
45.14606,9.93991,341,0.47,0.48,2019-10-11,12:42,N,nominal,1.0NRT,295.7,11.2,D
43.8826,-0.95593,353.6,0.41,0.37,2019-10-11,12:42,N,nominal,1.0NRT,298.5,3.5,D
43.88172,-0.96093,352.4,0.41,0.37,2019-10-11,12:42,N,nominal,1.0NRT,299.9,4.5,D
45.38118,11.94612,326.9,0.59,0.53,2019-10-11,12:42,N,nominal,1.0NRT,295.9,3.5,D
44.03207,-0.72915,326.3,0.4,0.37,2019-10-11,12:42,N,low,1.0NRT,297.6,1.3,D
44.03626,-0.7253,326.7,0.4,0.37,2019-10-11,12:42,N,low,1.0NRT,297.5,2.1,D
44.0354,-0.73026,346.8,0.4,0.37,2019-10-11,12:42,N,nominal,1.0NRT,298.7,2.1,D
43.01481,-6.01311,344.9,0.43,0.46,2019-10-11,12:42,N,nominal,1.0NRT,300.1,9.8,D
43.01376,-6.01778,338,0.43,0.46,2019-10-11,12:42,N,nominal,1.0NRT,294.5,9.8,D
44.17765,-0.93015,335.5,0.41,0.37,2019-10-11,12:42,N,nominal,1.0NRT,299.5,2,D
45.67204,12.32422,339.2,0.62,0.54,2019-10-11,12:42,N,nominal,1.0NRT,294.8,4.4,D
44.42667,0.29975,334.8,0.39,0.36,2019-10-11,12:42,N,nominal,1.0NRT,297.5,1.2,D
44.27271,-0.89112,337.8,0.4,0.37,2019-10-11,12:42,N,nominal,1.0NRT,299.2,2.1,D
44.27692,-0.88725,340.1,0.4,0.37,2019-10-11,12:42,N,nominal,1.0NRT,298.8,3.3,D
44.27605,-0.89224,338.9,0.4,0.37,2019-10-11,12:42,N,nominal,1.0NRT,298.6,2.1,D
44.40576,-0.98091,337.4,0.4,0.37,2019-10-11,12:42,N,nominal,1.0NRT,299.9,4.3,D
44.47917,-0.61639,338.1,0.4,0.37,2019-10-11,12:42,N,nominal,1.0NRT,298.9,4.2,D
44.47832,-0.62132,346,0.4,0.37,2019-10-11,12:42,N,nominal,1.0NRT,299.7,4.2,D
44.48164,-0.62242,353.4,0.4,0.37,2019-10-11,12:42,N,nominal,1.0NRT,300.1,4.2,D
44.48327,-0.63341,343.9,0.4,0.37,2019-10-11,12:42,N,nominal,1.0NRT,297.8,2.5,D
44.41459,-1.03168,339.3,0.41,0.37,2019-10-11,12:42,N,nominal,1.0NRT,300.3,3.4,D
44.48411,-0.62847,367,0.4,0.37,2019-10-11,12:42,N,low,1.0NRT,301.5,10.4,D
44.44799,-1.04302,345.3,0.41,0.37,2019-10-11,12:42,N,nominal,1.0NRT,299.6,2.3,D
44.44712,-1.04804,336.4,0.41,0.37,2019-10-11,12:42,N,nominal,1.0NRT,298.5,2.3,D
44.45133,-1.04416,341.8,0.41,0.37,2019-10-11,12:42,N,nominal,1.0NRT,298.2,2.3,D
43.53731,-5.83303,339.3,0.41,0.45,2019-10-11,12:42,N,nominal,1.0NRT,295.8,6,D
43.54129,-5.83471,328.8,0.41,0.45,2019-10-11,12:42,N,low,1.0NRT,299,6,D
44.52715,-0.99318,347.8,0.4,0.37,2019-10-11,12:42,N,nominal,1.0NRT,298.9,3.7,D
44.73573,0.20809,328.6,0.39,0.36,2019-10-11,12:42,N,nominal,1.0NRT,296.7,1.8,D
44.53642,-0.98042,341.6,0.4,0.37,2019-10-11,12:42,N,nominal,1.0NRT,300.5,4.4,D
44.53468,-0.99043,347.7,0.4,0.37,2019-10-11,12:42,N,nominal,1.0NRT,301.2,3.7,D
44.53975,-0.98155,340.6,0.4,0.37,2019-10-11,12:42,N,nominal,1.0NRT,301.5,8.7,D
44.54135,-0.9927,349.6,0.4,0.37,2019-10-11,12:42,N,nominal,1.0NRT,299.4,15.9,D
44.68939,-0.2017,331.2,0.39,0.36,2019-10-11,12:42,N,nominal,1.0NRT,297.5,1.6,D
45.9052,3.40443,329.9,0.41,0.37,2019-10-11,12:42,N,nominal,1.0NRT,295.6,2,D
46.04218,0.91131,335.6,0.38,0.36,2019-10-11,12:42,N,nominal,1.0NRT,294.9,5.2,D
47.07017,8.26432,333.7,0.42,0.45,2019-10-11,12:42,N,nominal,1.0NRT,293.3,2.5,D
47.17463,7.56231,326.7,0.39,0.44,2019-10-11,12:42,N,nominal,1.0NRT,292.7,2.3,D
46.94841,2.9507,337.6,0.41,0.37,2019-10-11,12:42,N,nominal,1.0NRT,301.7,19.6,D
48.27638,14.34509,327.5,0.41,0.6,2019-10-11,12:42,N,nominal,1.0NRT,284.8,6.1,D
36.01541,2.52285,349.9,0.4,0.37,2019-10-11,12:42,N,nominal,1.0NRT,306.4,8.6,D
35.4484,-0.58983,334.5,0.51,0.41,2019-10-11,12:42,N,nominal,1.0NRT,292.3,4.6,D
36.01873,2.52196,352.3,0.4,0.37,2019-10-11,12:42,N,nominal,1.0NRT,305.2,4.9,D
36.02279,2.52547,338.9,0.4,0.37,2019-10-11,12:42,N,nominal,1.0NRT,304.8,5.2,D
36.02205,2.52107,330,0.4,0.37,2019-10-11,12:42,N,low,1.0NRT,304.5,4.9,D
36.04084,2.52978,341.3,0.4,0.37,2019-10-11,12:42,N,nominal,1.0NRT,307.6,7.6,D
35.91976,1.81629,338,0.41,0.37,2019-10-11,12:42,N,nominal,1.0NRT,306.3,3.1,D
35.91899,1.81181,334.1,0.41,0.37,2019-10-11,12:42,N,nominal,1.0NRT,307.1,3.1,D
36.04417,2.52894,343.3,0.4,0.37,2019-10-11,12:42,N,nominal,1.0NRT,307.6,7.6,D
37.43687,15.03083,340.9,0.36,0.58,2019-10-11,12:42,N,nominal,1.0NRT,296.2,3.8,D
35.96111,1.68654,334.2,0.42,0.37,2019-10-11,12:42,N,nominal,1.0NRT,301.6,1.9,D
35.95949,1.67707,345.3,0.42,0.37,2019-10-11,12:42,N,nominal,1.0NRT,318.4,12.1,D
35.95867,1.67231,353.4,0.42,0.37,2019-10-11,12:42,N,nominal,1.0NRT,314.8,11.1,D
35.96288,1.67617,341,0.42,0.37,2019-10-11,12:42,N,nominal,1.0NRT,304.8,12.1,D
36.48671,4.737,333.5,0.39,0.36,2019-10-11,12:42,N,nominal,1.0NRT,307.4,2.2,D
36.46915,4.3866,335.3,0.38,0.36,2019-10-11,12:42,N,low,1.0NRT,308.1,8.1,D
36.46851,4.38233,340.7,0.38,0.36,2019-10-11,12:42,N,nominal,1.0NRT,307.1,8.1,D
36.4718,4.38154,336.5,0.38,0.36,2019-10-11,12:42,N,low,1.0NRT,306.8,8.1,D
36.44606,4.07465,333.5,0.38,0.36,2019-10-11,12:42,N,nominal,1.0NRT,305.7,2.8,D
36.44934,4.07388,345.7,0.38,0.36,2019-10-11,12:42,N,nominal,1.0NRT,307,8.7,D
36.86956,6.98227,344.1,0.43,0.38,2019-10-11,12:42,N,nominal,1.0NRT,300.1,5.2,D
36.87007,6.98431,337.6,0.43,0.38,2019-10-11,12:42,N,nominal,1.0NRT,300,5.9,D
36.52232,4.38028,336.6,0.38,0.36,2019-10-11,12:42,N,nominal,1.0NRT,300,2.6,D
37.56227,13.38145,331.7,0.59,0.53,2019-10-11,12:42,N,nominal,1.0NRT,295.6,4.7,D
36.43313,3.0386,344.5,0.39,0.36,2019-10-11,12:42,N,nominal,1.0NRT,303.8,7.9,D
36.42402,2.96081,303.3,0.39,0.36,2019-10-11,12:42,N,low,1.0NRT,314.8,39,D
36.42802,2.96429,336.8,0.39,0.36,2019-10-11,12:42,N,nominal,1.0NRT,305.2,39,D
36.4273,2.95989,348.1,0.39,0.36,2019-10-11,12:42,N,nominal,1.0NRT,308.1,39,D
36.64701,4.30823,338,0.38,0.36,2019-10-11,12:42,N,nominal,1.0NRT,299.4,4.2,D
36.51363,3.41527,344.4,0.39,0.36,2019-10-11,12:42,N,nominal,1.0NRT,307.3,3.3,D
36.50578,3.12817,335.4,0.39,0.36,2019-10-11,12:42,N,low,1.0NRT,307.8,16.1,D
36.50907,3.12728,331.5,0.39,0.36,2019-10-11,12:42,N,low,1.0NRT,301.7,16.1,D
36.44715,1.89719,332.2,0.41,0.37,2019-10-11,12:42,N,nominal,1.0NRT,301.7,3.4,D
36.78252,3.81435,332.7,0.38,0.36,2019-10-11,12:42,N,nominal,1.0NRT,307.6,1.5,D
36.33981,0.92026,334.3,0.43,0.38,2019-10-11,12:42,N,nominal,1.0NRT,307.2,2.6,D
36.74917,3.08033,331,0.39,0.36,2019-10-11,12:42,N,nominal,1.0NRT,302.3,1,D
36.48059,1.39975,336.6,0.42,0.38,2019-10-11,12:42,N,low,1.0NRT,308.7,7.7,D
37.99425,12.85036,355.7,0.56,0.52,2019-10-11,12:42,N,nominal,1.0NRT,305.3,19.7,D
58.87812,1.52383,336.5,0.49,0.41,2019-10-11,12:48,N,nominal,1.0NRT,281.7,4.5,D
58.8744,1.52517,339.9,0.49,0.41,2019-10-11,12:48,N,nominal,1.0NRT,283.2,4.5,D
56.09938,-3.30607,341.9,0.39,0.36,2019-10-11,12:48,N,nominal,1.0NRT,285.4,6,D
57.2554,0.80936,329.3,0.45,0.39,2019-10-11,12:48,N,nominal,1.0NRT,283.9,3.7,D
57.25621,0.80891,331.5,0.45,0.39,2019-10-11,12:48,N,nominal,1.0NRT,283.9,5.2,D
58.29123,0.19903,329.2,0.45,0.39,2019-10-11,12:48,N,nominal,1.0NRT,281.9,6.1,D
58.47945,1.26653,327.4,0.48,0.4,2019-10-11,12:48,N,nominal,1.0NRT,282.6,2.6,D
42.21142,-7.37617,367,0.57,0.69,2019-10-11,14:24,N,high,1.0NRT,296,79.4,D
42.21135,-7.38201,354.3,0.57,0.69,2019-10-11,14:24,N,nominal,1.0NRT,290.6,46.3,D
41.85557,-6.88417,367,0.6,0.7,2019-10-11,14:24,N,high,1.0NRT,292.5,69.5,D
42.20422,-7.3788,367,0.57,0.69,2019-10-11,14:24,N,high,1.0NRT,309,76,D
42.20441,-7.36738,333.2,0.57,0.69,2019-10-11,14:24,N,nominal,1.0NRT,285,49.2,D
42.20412,-7.38491,353,0.57,0.69,2019-10-11,14:24,N,nominal,1.0NRT,294.9,76,D
42.21079,-7.37238,348.9,0.57,0.69,2019-10-11,14:24,N,nominal,1.0NRT,288.1,71.7,D
42.21069,-7.37829,343.3,0.57,0.69,2019-10-11,14:24,N,nominal,1.0NRT,299.6,73.5,D
42.21059,-7.38422,367,0.57,0.69,2019-10-11,14:24,N,low,1.0NRT,288,73.5,D
41.85095,-6.88685,367,0.6,0.7,2019-10-11,14:24,N,high,1.0NRT,305.3,190.1,D
41.84889,-6.89122,367,0.6,0.7,2019-10-11,14:24,N,high,1.0NRT,304.6,46.1,D
53.44056,34.4139,317.8,0.42,0.45,2019-10-11,23:12,N,nominal,1.0NRT,279.8,2.3,N
53.44415,34.41401,300.1,0.42,0.45,2019-10-11,23:12,N,nominal,1.0NRT,278,1.7,N
47.87819,33.404,303.4,0.4,0.45,2019-10-11,23:18,N,nominal,1.0NRT,283.4,1.7,N
47.87771,33.40945,307,0.4,0.45,2019-10-11,23:18,N,nominal,1.0NRT,281.7,1.7,N
47.87311,33.4141,308.9,0.4,0.44,2019-10-11,23:18,N,nominal,1.0NRT,281.8,2.2,N
47.87117,33.43594,299.3,0.4,0.44,2019-10-11,23:18,N,nominal,1.0NRT,279.5,1.2,N
47.87019,33.44688,305,0.4,0.44,2019-10-11,23:18,N,nominal,1.0NRT,280,1,N
47.87142,33.38597,344.9,0.4,0.45,2019-10-11,23:18,N,nominal,1.0NRT,283.1,7,N
47.86707,33.43514,320.6,0.4,0.44,2019-10-11,23:18,N,nominal,1.0NRT,279.4,1.8,N
47.87093,33.39145,312.6,0.4,0.45,2019-10-11,23:18,N,nominal,1.0NRT,281.1,2.5,N
47.86755,33.42967,295.6,0.4,0.44,2019-10-11,23:18,N,nominal,1.0NRT,278.9,2,N
47.84214,33.38565,314.4,0.4,0.45,2019-10-11,23:18,N,nominal,1.0NRT,282.5,1.7,N
47.62537,34.32833,319.2,0.55,0.43,2019-10-11,23:18,N,nominal,1.0NRT,280.8,4.1,N
47.78897,28.95387,300.5,0.32,0.55,2019-10-11,23:18,N,nominal,1.0NRT,276.9,1.1,N
47.78877,28.95814,295.8,0.32,0.55,2019-10-11,23:18,N,nominal,1.0NRT,276.8,0.8,N
47.17285,31.75615,295.6,0.47,0.48,2019-10-11,23:18,N,nominal,1.0NRT,279,1.2,N
36.86855,34.76154,309,0.42,0.37,2019-10-11,23:18,N,nominal,1.0NRT,288.6,1.1,N
46.42796,26.39574,340.9,0.41,0.61,2019-10-11,23:18,N,nominal,1.0NRT,270.8,5.4,N
46.11239,30.31842,307.4,0.53,0.5,2019-10-11,23:18,N,nominal,1.0NRT,277.1,1.9,N
46.11109,30.31997,308.2,0.53,0.5,2019-10-11,23:18,N,nominal,1.0NRT,276.9,1.1,N
45.41904,27.97915,307.3,0.34,0.56,2019-10-11,23:18,N,nominal,1.0NRT,280.8,0.8,N
41.26339,31.42664,299.4,0.42,0.45,2019-10-11,23:18,N,nominal,1.0NRT,289.2,1.3,N
41.63049,27.68883,297.6,0.33,0.55,2019-10-11,23:18,N,nominal,1.0NRT,284.5,0.9,N
41.26386,31.42155,299.4,0.42,0.45,2019-10-11,23:18,N,nominal,1.0NRT,287,1.3,N
41.25471,31.43344,297,0.42,0.45,2019-10-11,23:18,N,nominal,1.0NRT,286,1.2,N
41.25937,31.42885,317.5,0.42,0.45,2019-10-11,23:18,N,nominal,1.0NRT,287.4,1.2,N
41.26356,31.42955,304.7,0.42,0.45,2019-10-11,23:18,N,nominal,1.0NRT,288.6,1,N
41.26402,31.42443,307.4,0.42,0.45,2019-10-11,23:18,N,nominal,1.0NRT,289.2,1.9,N
41.63605,27.50644,295.9,0.34,0.56,2019-10-11,23:18,N,nominal,1.0NRT,284.5,0.5,N
44.82511,33.65063,302,0.55,0.43,2019-10-11,23:18,N,nominal,1.0NRT,278.6,0.7,N
45.29168,25.11031,298.8,0.47,0.64,2019-10-11,23:18,N,nominal,1.0NRT,277.6,0.7,N
43.66397,24.47427,295.1,0.49,0.65,2019-10-11,23:18,N,nominal,1.0NRT,279.9,1.4,N
43.66383,24.4811,298.6,0.49,0.65,2019-10-11,23:18,N,nominal,1.0NRT,280.5,0.9,N
43.66499,24.47626,303.6,0.49,0.65,2019-10-11,23:18,N,nominal,1.0NRT,280.2,1.9,N
41.2629,31.43175,303.5,0.42,0.45,2019-10-11,23:18,N,nominal,1.0NRT,287.4,0.9,N
42.714,24.17371,314.5,0.51,0.66,2019-10-11,23:18,N,nominal,1.0NRT,280,1.5,N
42.71515,24.17487,310.6,0.51,0.66,2019-10-11,23:18,N,nominal,1.0NRT,280.1,2.6,N
42.03827,24.33025,296,0.49,0.65,2019-10-11,23:18,N,nominal,1.0NRT,281.8,0.7,N
39.86361,26.24182,298.8,0.38,0.59,2019-10-11,23:18,N,nominal,1.0NRT,286.4,0.6,N
39.86338,26.24629,298.2,0.38,0.59,2019-10-11,23:18,N,nominal,1.0NRT,286.9,0.6,N
39.17484,30.95709,297.8,0.42,0.45,2019-10-11,23:18,N,nominal,1.0NRT,282.4,0.7,N
38.75431,26.94947,303.9,0.34,0.56,2019-10-11,23:18,N,nominal,1.0NRT,287.9,0.9,N
38.75408,26.95344,298.6,0.34,0.56,2019-10-11,23:18,N,nominal,1.0NRT,286.9,0.6,N
38.7439,26.94852,299.4,0.34,0.56,2019-10-11,23:18,N,nominal,1.0NRT,288.3,0.5,N
38.73869,26.94796,300,0.34,0.56,2019-10-11,23:18,N,nominal,1.0NRT,289.3,0.5,N
38.75385,26.952,309.9,0.34,0.56,2019-10-11,23:18,N,nominal,1.0NRT,287.9,1.1,N
38.73823,26.95051,298.9,0.34,0.56,2019-10-11,23:18,N,nominal,1.0NRT,287.8,1.1,N
43.08567,24.17352,299.4,0.51,0.66,2019-10-11,23:18,N,nominal,1.0NRT,280.7,0.8,N
41.25871,31.43106,318.5,0.42,0.45,2019-10-11,23:18,N,nominal,1.0NRT,286.7,0.9,N
41.0226,28.55798,296.7,0.58,0.52,2019-10-11,23:18,N,nominal,1.0NRT,286.3,1.1,N
41.01772,28.55743,310.7,0.58,0.52,2019-10-11,23:18,N,nominal,1.0NRT,287.1,2.3,N
39.83287,34.50156,297.3,0.45,0.39,2019-10-11,23:18,N,nominal,1.0NRT,281.2,0.6,N
39.95842,33.14709,296.3,0.51,0.41,2019-10-11,23:18,N,nominal,1.0NRT,282.5,0.8,N
39.51933,33.47506,306.5,0.49,0.4,2019-10-11,23:18,N,nominal,1.0NRT,283.7,1.3,N
39.83431,30.3027,301,0.46,0.47,2019-10-11,23:18,N,nominal,1.0NRT,284,0.7,N
38.73198,26.96632,306.5,0.34,0.56,2019-10-11,23:18,N,nominal,1.0NRT,287.6,0.6,N
38.42729,27.21869,298.9,0.32,0.55,2019-10-11,23:18,N,nominal,1.0NRT,288.5,0.5,N
37.86211,29.37187,300.3,0.49,0.49,2019-10-11,23:18,N,nominal,1.0NRT,286.5,1.1,N
38.12978,23.5234,299.4,0.51,0.66,2019-10-11,23:18,N,nominal,1.0NRT,286.2,1.1,N
50.44993,34.1838,302.2,0.4,0.44,2019-10-11,23:18,N,nominal,1.0NRT,276,0.4,N
50.36195,31.07741,299,0.54,0.51,2019-10-11,23:18,N,nominal,1.0NRT,275.5,1,N
48.5302,34.61408,300.5,0.55,0.43,2019-10-11,23:18,N,nominal,1.0NRT,280.3,1.4,N
48.53178,34.61478,300.3,0.55,0.43,2019-10-11,23:18,N,nominal,1.0NRT,281.2,1.7,N
48.1637,30.61642,326.5,0.54,0.51,2019-10-11,23:18,N,nominal,1.0NRT,281.2,3.7,N
47.88511,33.44506,296,0.4,0.44,2019-10-11,23:18,N,nominal,1.0NRT,279.2,0.7,N
47.88251,33.44927,295.9,0.4,0.44,2019-10-11,23:18,N,nominal,1.0NRT,279.4,0.6,N
47.87868,33.39853,295.4,0.4,0.45,2019-10-11,23:18,N,nominal,1.0NRT,281.6,1.3,N
