latitude,longitude,bright_ti4,scan,track,acq_date,acq_time,satellite,confidence,version,bright_ti5,frp,daynight
36.26238,33.73127,303,0.38,0.43,2019-10-10,00:00,N,nominal,1.0NRT,292.2,0.6,N
38.12779,23.52278,300.1,0.49,0.4,2019-10-10,00:00,N,nominal,1.0NRT,285.8,1.5,N
38.1283,23.52348,306.1,0.49,0.4,2019-10-10,00:00,N,nominal,1.0NRT,286.7,1.2,N
38.79118,15.20022,332.2,0.45,0.63,2019-10-10,00:00,N,nominal,1.0NRT,286,3.2,N
37.25162,30.44406,296.2,0.42,0.37,2019-10-10,00:00,N,nominal,1.0NRT,284.9,0.8,N
61.27445,0.91612,314.8,0.46,0.47,2019-10-10,01:30,N,nominal,1.0NRT,277.1,1.9,N
61.36091,1.57426,308.8,0.44,0.46,2019-10-10,01:30,N,nominal,1.0NRT,273.2,1.7,N
58.8341,2.55234,299.3,0.57,0.43,2019-10-10,01:30,N,nominal,1.0NRT,270.5,1.4,N
67.36005,15.58209,304.3,0.4,0.37,2019-10-10,01:30,N,nominal,1.0NRT,274.9,1.2,N
63.31788,9.14009,302.3,0.44,0.39,2019-10-10,01:30,N,nominal,1.0NRT,278.4,1.9,N
58.83474,2.5486,309.3,0.57,0.43,2019-10-10,01:30,N,nominal,1.0NRT,270.6,2,N
58.682,17.13191,312.3,0.44,0.38,2019-10-10,01:30,N,nominal,1.0NRT,270.5,2.4,N
58.68533,17.1344,338,0.44,0.38,2019-10-10,01:30,N,nominal,1.0NRT,268.8,4.5,N
60.8564,1.46607,325,0.44,0.46,2019-10-10,01:30,N,nominal,1.0NRT,279.5,2.4,N
48.77784,10.6998,312.4,0.44,0.38,2019-10-10,01:36,N,nominal,1.0NRT,280.5,1.8,N
49.1502,-0.3392,330.9,0.56,0.43,2019-10-10,01:36,N,nominal,1.0NRT,285.3,10.7,N
49.14623,-0.34005,305.4,0.56,0.43,2019-10-10,01:36,N,nominal,1.0NRT,280.9,2.1,N
43.08647,24.17603,295.6,0.74,0.76,2019-10-10,01:36,N,nominal,1.0NRT,285,0.8,N
42.71611,24.17272,302.1,0.76,0.77,2019-10-10,01:36,N,nominal,1.0NRT,279.7,2.1,N
46.65471,6.54811,297.5,0.39,0.36,2019-10-10,01:36,N,nominal,1.0NRT,280.7,0.7,N
47.31498,-2.05407,309,0.42,0.45,2019-10-10,01:36,N,nominal,1.0NRT,282,0.8,N
41.44691,21.93942,326.6,0.66,0.73,2019-10-10,01:36,N,nominal,1.0NRT,281.5,10.5,N
41.44451,21.94657,341.3,0.66,0.73,2019-10-10,01:36,N,nominal,1.0NRT,282,8.9,N
41.43806,21.94333,324,0.66,0.73,2019-10-10,01:36,N,nominal,1.0NRT,282.4,5,N
41.44048,21.93613,302.4,0.66,0.73,2019-10-10,01:36,N,nominal,1.0NRT,281.3,4.6,N
41.44508,21.94128,367,0.66,0.73,2019-10-10,01:36,N,high,1.0NRT,283,5,N
41.44269,21.94849,310,0.67,0.73,2019-10-10,01:36,N,nominal,1.0NRT,281.5,5,N
41.43866,21.93792,295.2,0.66,0.73,2019-10-10,01:36,N,nominal,1.0NRT,280.9,5,N
41.43627,21.94516,297.1,0.67,0.73,2019-10-10,01:36,N,nominal,1.0NRT,282.2,5,N
43.80292,4.62203,297,0.38,0.36,2019-10-10,01:36,N,nominal,1.0NRT,282.8,0.4,N
41.21125,16.06461,298.9,0.36,0.57,2019-10-10,01:36,N,nominal,1.0NRT,284.7,0.6,N
41.2062,16.06231,304.6,0.36,0.57,2019-10-10,01:36,N,nominal,1.0NRT,284.6,0.6,N
43.44893,4.89774,299.4,0.38,0.36,2019-10-10,01:36,N,nominal,1.0NRT,282.8,0.4,N
43.44566,4.89676,341.1,0.38,0.36,2019-10-10,01:36,N,nominal,1.0NRT,289,2.3,N
43.44491,4.90146,328.7,0.38,0.36,2019-10-10,01:36,N,nominal,1.0NRT,285.7,2.3,N
43.4464,4.89207,296.6,0.38,0.36,2019-10-10,01:36,N,nominal,1.0NRT,283.4,1.1,N
43.44462,4.88168,295.1,0.38,0.36,2019-10-10,01:36,N,nominal,1.0NRT,282.1,0.4,N
43.44238,4.89577,295.3,0.38,0.36,2019-10-10,01:36,N,nominal,1.0NRT,283.9,2.3,N
43.44163,4.90047,306.8,0.38,0.36,2019-10-10,01:36,N,nominal,1.0NRT,284.7,2.3,N
43.44154,4.88289,323.5,0.38,0.36,2019-10-10,01:36,N,nominal,1.0NRT,284.6,1.4,N
43.44004,4.89228,332.8,0.38,0.36,2019-10-10,01:36,N,nominal,1.0NRT,286.6,3.1,N
43.43677,4.8913,329.5,0.38,0.36,2019-10-10,01:36,N,nominal,1.0NRT,284,3.1,N
43.43826,4.88191,298.7,0.38,0.36,2019-10-10,01:36,N,nominal,1.0NRT,286.4,1.4,N
43.43349,4.89033,301.1,0.38,0.36,2019-10-10,01:36,N,nominal,1.0NRT,286.9,1.1,N
43.43275,4.89503,302.1,0.38,0.36,2019-10-10,01:36,N,nominal,1.0NRT,284.5,0.7,N
43.432,4.89974,298.8,0.38,0.36,2019-10-10,01:36,N,nominal,1.0NRT,285.2,0.7,N
43.37971,5.01208,298.5,0.38,0.36,2019-10-10,01:36,N,nominal,1.0NRT,286.8,1,N
40.51774,17.2047,300.2,0.42,0.61,2019-10-10,01:36,N,nominal,1.0NRT,288.7,1,N
40.51637,17.20948,301.1,0.42,0.61,2019-10-10,01:36,N,nominal,1.0NRT,289.2,1,N
40.5042,17.20911,301.4,0.42,0.61,2019-10-10,01:36,N,nominal,1.0NRT,289,1.3,N
40.5028,17.21395,301.9,0.42,0.61,2019-10-10,01:36,N,nominal,1.0NRT,289.8,1.3,N
40.5014,17.21881,305.1,0.42,0.61,2019-10-10,01:36,N,nominal,1.0NRT,289.5,1.2,N
40.49881,17.2065,319.7,0.42,0.61,2019-10-10,01:36,N,nominal,1.0NRT,288.7,1.3,N
40.50678,17.20949,304.3,0.42,0.61,2019-10-10,01:36,N,nominal,1.0NRT,288.5,2.5,N
40.50541,17.21434,302.9,0.42,0.61,2019-10-10,01:36,N,nominal,1.0NRT,289.3,1.3,N
40.50404,17.21921,300.6,0.42,0.61,2019-10-10,01:36,N,nominal,1.0NRT,289.3,1.3,N
40.5014,17.20684,325,0.42,0.61,2019-10-10,01:36,N,nominal,1.0NRT,289.5,2.4,N
40.49866,17.21656,301.7,0.42,0.61,2019-10-10,01:36,N,nominal,1.0NRT,288.5,1.4,N
43.31337,0.63812,300.4,0.45,0.39,2019-10-10,01:36,N,nominal,1.0NRT,280.2,0.6,N
43.18464,0.98871,307.5,0.44,0.38,2019-10-10,01:36,N,nominal,1.0NRT,284.5,1.4,N
43.54292,-5.84023,297.1,0.58,0.52,2019-10-10,01:36,N,nominal,1.0NRT,282.3,1.4,N
43.53993,-5.83214,338.2,0.58,0.52,2019-10-10,01:36,N,nominal,1.0NRT,285.4,8.7,N
43.53942,-5.82435,300,0.58,0.52,2019-10-10,01:36,N,nominal,1.0NRT,282.3,3.7,N
43.5284,-5.73097,302.9,0.57,0.52,2019-10-10,01:36,N,nominal,1.0NRT,282,1,N
43.52356,-5.73164,310.9,0.57,0.52,2019-10-10,01:36,N,nominal,1.0NRT,284.1,1.9,N
40.55721,9.67341,300.1,0.55,0.43,2019-10-10,01:36,N,nominal,1.0NRT,287.3,1.3,N
38.79238,15.21179,356.4,0.38,0.58,2019-10-10,01:36,N,nominal,1.0NRT,292.5,8.8,N
38.7911,15.21648,327,0.38,0.58,2019-10-10,01:36,N,nominal,1.0NRT,285.5,4.2,N
38.79473,15.21315,332.8,0.38,0.58,2019-10-10,01:36,N,nominal,1.0NRT,288.9,2.9,N
38.79338,15.2182,306.6,0.38,0.58,2019-10-10,01:36,N,nominal,1.0NRT,285.3,1.6,N
38.7897,15.21039,340.5,0.38,0.58,2019-10-10,01:36,N,nominal,1.0NRT,286.3,4.9,N
38.78867,15.21428,314.9,0.38,0.58,2019-10-10,01:36,N,nominal,1.0NRT,283.9,2.2,N
41.47554,-1.48448,295.9,0.52,0.41,2019-10-10,01:36,N,nominal,1.0NRT,281.5,1.2,N
37.75122,14.99666,307.8,0.39,0.59,2019-10-10,01:36,N,nominal,1.0NRT,278.1,1.2,N
37.75076,14.9941,311.1,0.39,0.59,2019-10-10,01:36,N,nominal,1.0NRT,275.7,0.7,N
37.74929,14.99963,307.2,0.39,0.59,2019-10-10,01:36,N,nominal,1.0NRT,278.9,0.7,N
40.2434,-3.47538,325.6,0.41,0.45,2019-10-10,01:36,N,nominal,1.0NRT,288.5,2.2,N
40.24293,-3.47051,298.6,0.41,0.45,2019-10-10,01:36,N,nominal,1.0NRT,286.3,2.2,N
39.93627,-3.74622,297.3,0.42,0.45,2019-10-10,01:36,N,nominal,1.0NRT,286.6,0.7,N
39.93579,-3.74109,299,0.42,0.45,2019-10-10,01:36,N,nominal,1.0NRT,287.2,0.7,N
51.57047,-3.76542,307.3,0.55,0.51,2019-10-10,01:36,N,nominal,1.0NRT,279.2,2.2,N
36.78963,7.6922,304.4,0.52,0.42,2019-10-10,01:36,N,nominal,1.0NRT,287.8,1.4,N
36.87899,6.94573,311,0.49,0.4,2019-10-10,01:36,N,nominal,1.0NRT,288.4,1.5,N
36.87536,6.94462,314.6,0.49,0.4,2019-10-10,01:36,N,nominal,1.0NRT,287.9,1.5,N
36.868,6.98201,310,0.49,0.4,2019-10-10,01:36,N,nominal,1.0NRT,288.2,0.7,N
36.86696,6.9873,300.1,0.49,0.4,2019-10-10,01:36,N,nominal,1.0NRT,287.5,0.7,N
36.4314,6.62427,299.7,0.48,0.4,2019-10-10,01:36,N,nominal,1.0NRT,284.7,0.8,N
36.42781,6.6231,296.4,0.48,0.4,2019-10-10,01:36,N,nominal,1.0NRT,283.8,0.8,N
37.56955,-0.91399,302.2,0.45,0.39,2019-10-10,01:36,N,nominal,1.0NRT,290,0.3,N
35.85109,8.59476,295.4,0.4,0.44,2019-10-10,01:36,N,nominal,1.0NRT,285.1,0.3,N
36.54422,4.61285,299.5,0.41,0.37,2019-10-10,01:36,N,nominal,1.0NRT,286.2,0.5,N
36.74946,3.08353,302.4,0.39,0.36,2019-10-10,01:36,N,nominal,1.0NRT,290.8,1.2,N
36.70231,3.37188,300.2,0.39,0.36,2019-10-10,01:36,N,nominal,1.0NRT,287.2,0.2,N
36.33547,5.48317,301.7,0.44,0.38,2019-10-10,01:36,N,nominal,1.0NRT,282.1,0.8,N
36.332,5.48219,310.4,0.44,0.38,2019-10-10,01:36,N,nominal,1.0NRT,283,1.8,N
37.95383,-8.80003,313,0.37,0.58,2019-10-10,01:36,N,nominal,1.0NRT,286.8,1.2,N
37.95816,-8.80042,308.5,0.37,0.58,2019-10-10,01:36,N,nominal,1.0NRT,287.4,1,N
37.95275,-8.80094,300.9,0.37,0.58,2019-10-10,01:36,N,nominal,1.0NRT,286.7,0.7,N
36.57759,3.11398,297.2,0.39,0.36,2019-10-10,01:36,N,nominal,1.0NRT,286.5,0.3,N
37.4818,-5.70471,311.1,0.5,0.49,2019-10-10,01:36,N,nominal,1.0NRT,289.7,0.9,N
36.17912,3.74997,324.2,0.4,0.37,2019-10-10,01:36,N,nominal,1.0NRT,286.8,2.3,N
38.9259,-5.85831,304,0.53,0.5,2019-10-10,01:36,N,nominal,1.0NRT,285,1,N
51.56615,-3.77426,320.7,0.55,0.51,2019-10-10,01:36,N,nominal,1.0NRT,280.9,3.3,N
51.56658,-3.78243,295.8,0.55,0.51,2019-10-10,01:36,N,nominal,1.0NRT,279.7,3.3,N
51.56571,-3.76615,315.1,0.55,0.51,2019-10-10,01:36,N,nominal,1.0NRT,279.1,2.2,N
51.56052,-3.75875,298.4,0.55,0.51,2019-10-10,01:36,N,nominal,1.0NRT,275,3.5,N
51.55663,-3.77575,324.4,0.55,0.51,2019-10-10,01:36,N,nominal,1.0NRT,280.3,4.3,N
51.03146,2.27908,338.9,0.48,0.4,2019-10-10,01:36,N,nominal,1.0NRT,287.4,15.1,N
51.0307,2.28589,305.4,0.48,0.4,2019-10-10,01:36,N,nominal,1.0NRT,280.9,2.7,N
51.0278,2.27807,316.4,0.48,0.4,2019-10-10,01:36,N,nominal,1.0NRT,280.4,2.5,N
50.59923,3.48843,298.9,0.44,0.38,2019-10-10,01:36,N,nominal,1.0NRT,281,0.8,N
50.69689,2.11188,298.1,0.48,0.4,2019-10-10,01:36,N,nominal,1.0NRT,280.5,0.7,N
50.47188,3.99377,324.6,0.42,0.38,2019-10-10,01:36,N,nominal,1.0NRT,285,3,N
50.83069,-1.36372,295.1,0.43,0.46,2019-10-10,01:36,N,nominal,1.0NRT,280,1.1,N
45.124,25.41936,296.5,0.72,0.75,2019-10-10,01:36,N,nominal,1.0NRT,278.8,0.8,N
56.00958,-3.67419,304.6,0.6,0.53,2019-10-10,01:36,N,nominal,1.0NRT,279,1.7,N
53.6342,-0.24411,307.1,0.42,0.45,2019-10-10,01:36,N,nominal,1.0NRT,280.5,1.9,N
53.63455,-0.24469,301.1,0.42,0.45,2019-10-10,01:36,N,nominal,1.0NRT,281.3,1.8,N
50.33184,18.82886,303.3,0.52,0.5,2019-10-10,01:36,N,nominal,1.0NRT,268,0.8,N
52.49312,4.61017,320.1,0.43,0.38,2019-10-10,01:36,N,nominal,1.0NRT,282.6,3.4,N
52.49234,4.61642,328.8,0.43,0.38,2019-10-10,01:36,N,nominal,1.0NRT,284.8,3.5,N
52.487,4.60163,295.4,0.43,0.38,2019-10-10,01:36,N,nominal,1.0NRT,281.1,0.6,N
52.48511,4.58798,328,0.43,0.38,2019-10-10,01:36,N,nominal,1.0NRT,282.4,3.3,N
52.48166,4.58682,313.7,0.43,0.38,2019-10-10,01:36,N,nominal,1.0NRT,278.8,1,N
51.26806,11.66218,308.1,0.43,0.38,2019-10-10,01:36,N,nominal,1.0NRT,282.1,1.3,N
49.6832,18.6553,308.6,0.54,0.51,2019-10-10,01:36,N,nominal,1.0NRT,280.6,1.6,N
49.68133,18.66237,295.2,0.54,0.51,2019-10-10,01:36,N,nominal,1.0NRT,280.5,1.6,N
49.67699,18.65949,302.6,0.54,0.51,2019-10-10,01:36,N,nominal,1.0NRT,279.4,1.7,N
51.94205,4.10962,299.4,0.43,0.38,2019-10-10,01:36,N,nominal,1.0NRT,284,1.9,N
51.50306,6.73782,299.1,0.39,0.36,2019-10-10,01:36,N,nominal,1.0NRT,274.7,1.6,N
51.5014,6.7255,302.7,0.39,0.36,2019-10-10,01:36,N,nominal,1.0NRT,282.4,1.4,N
51.49568,6.74088,301.9,0.39,0.36,2019-10-10,01:36,N,nominal,1.0NRT,278.7,1.2,N
51.4866,6.70825,296,0.39,0.36,2019-10-10,01:36,N,nominal,1.0NRT,279.6,1.8,N
51.48332,6.70701,337.8,0.39,0.36,2019-10-10,01:36,N,nominal,1.0NRT,282,1.8,N
51.48413,6.70147,317.7,0.39,0.36,2019-10-10,01:36,N,nominal,1.0NRT,281.2,1.8,N
51.48251,6.71255,302.4,0.39,0.36,2019-10-10,01:36,N,nominal,1.0NRT,277.4,1.1,N
51.4817,6.71808,304.6,0.39,0.36,2019-10-10,01:36,N,nominal,1.0NRT,273.1,1.1,N
50.65568,11.43404,296.8,0.43,0.38,2019-10-10,01:36,N,nominal,1.0NRT,280.4,0.8,N
50.65524,11.43223,297.9,0.43,0.38,2019-10-10,01:36,N,nominal,1.0NRT,279,0.9,N
51.26676,4.32508,298.3,0.42,0.38,2019-10-10,01:36,N,nominal,1.0NRT,283.7,2.2,N
51.17535,3.81333,295.9,0.43,0.38,2019-10-10,01:36,N,nominal,1.0NRT,281.3,1.4,N
51.17263,3.80608,345.6,0.43,0.38,2019-10-10,01:36,N,nominal,1.0NRT,284.9,3.3,N
51.17187,3.81224,319.4,0.43,0.38,2019-10-10,01:36,N,nominal,1.0NRT,279.4,3.3,N
51.16914,3.805,311.6,0.43,0.38,2019-10-10,01:36,N,nominal,1.0NRT,282.8,3.3,N
51.16839,3.81116,297,0.43,0.38,2019-10-10,01:36,N,nominal,1.0NRT,277.5,3.3,N
51.16763,3.81733,304.3,0.43,0.38,2019-10-10,01:36,N,nominal,1.0NRT,279.6,1,N
51.16415,3.81624,307,0.43,0.38,2019-10-10,01:36,N,nominal,1.0NRT,279.6,0.9,N
51.53643,-0.3159,324.2,0.4,0.44,2019-10-10,01:36,N,nominal,1.0NRT,279.4,1.5,N
51.53235,-0.31683,302.4,0.4,0.44,2019-10-10,01:36,N,nominal,1.0NRT,278.3,1.5,N
48.45874,17.19087,295.9,0.51,0.49,2019-10-10,01:36,N,nominal,1.0NRT,281,0.6,N
48.458,17.19068,298.1,0.51,0.49,2019-10-10,01:36,N,nominal,1.0NRT,281.1,1.3,N
45.95164,25.2816,299.3,0.66,0.73,2019-10-10,01:36,N,nominal,1.0NRT,277.2,1.5,N
51.19501,1.22532,301,0.52,0.41,2019-10-10,01:36,N,nominal,1.0NRT,278.7,1.6,N
35.81475,-0.26823,295.1,0.41,0.37,2019-10-10,01:42,N,nominal,1.0NRT,255.8,1.3,N
34.98191,5.72058,301.1,0.46,0.39,2019-10-10,01:42,N,nominal,1.0NRT,289.3,2.1,N
35.09403,5.64798,309.5,0.46,0.39,2019-10-10,01:42,N,nominal,1.0NRT,289.6,1.5,N
35.34834,5.76493,310.4,0.46,0.39,2019-10-10,01:42,N,nominal,1.0NRT,284.7,2.2,N
36.12587,1.24339,327.4,0.39,0.36,2019-10-10,01:42,N,nominal,1.0NRT,292.4,2.1,N
35.34011,1.35647,297.2,0.39,0.36,2019-10-10,01:42,N,nominal,1.0NRT,280.9,0.6,N
35.3113,-1.34529,298.4,0.44,0.38,2019-10-10,01:42,N,nominal,1.0NRT,277.6,1.1,N
34.43631,2.06023,308.1,0.38,0.36,2019-10-10,01:42,N,nominal,1.0NRT,285.8,1.3,N
35.01245,-5.02774,308.2,0.43,0.46,2019-10-10,01:42,N,nominal,1.0NRT,285.3,1.1,N
35.01308,-5.02974,308.3,0.43,0.46,2019-10-10,01:42,N,nominal,1.0NRT,286.2,0.7,N
35.34929,5.75992,322,0.46,0.39,2019-10-10,01:42,N,nominal,1.0NRT,285.3,2.2,N
34.33373,-4.57599,317.4,0.4,0.44,2019-10-10,01:42,N,nominal,1.0NRT,290.9,2.3,N
34.33418,-4.58018,319.3,0.4,0.44,2019-10-10,01:42,N,nominal,1.0NRT,290.8,2.3,N
34.33299,-4.57819,336.5,0.4,0.44,2019-10-10,01:42,N,nominal,1.0NRT,291.3,4.6,N
34.93851,8.52948,297.7,0.42,0.45,2019-10-10,01:42,N,nominal,1.0NRT,285.3,0.6,N
35.87929,4.44656,308.2,0.41,0.37,2019-10-10,01:42,N,nominal,1.0NRT,288.4,0.9,N
36.13802,2.93037,298.5,0.39,0.36,2019-10-10,01:42,N,nominal,1.0NRT,281.6,0.4,N
35.80416,-0.24225,308.2,0.41,0.37,2019-10-10,01:42,N,nominal,1.0NRT,281.9,2,N
35.80603,-0.25591,304.8,0.41,0.37,2019-10-10,01:42,N,nominal,1.0NRT,268.2,1.5,N
35.80883,-0.25072,301.4,0.41,0.37,2019-10-10,01:42,N,nominal,1.0NRT,269.3,1.6,N
35.80945,-0.25524,330.9,0.41,0.37,2019-10-10,01:42,N,nominal,1.0NRT,267.2,1.5,N
35.81038,-0.23635,311,0.41,0.37,2019-10-10,01:42,N,nominal,1.0NRT,275.5,1,N
56.00652,-3.67291,338.1,0.45,0.47,2019-10-10,03:12,N,nominal,1.0NRT,281.8,7.9,N
51.16817,3.81618,336.4,0.61,0.71,2019-10-10,03:12,N,nominal,1.0NRT,279.8,6.5,N
51.16245,3.81069,307.4,0.61,0.71,2019-10-10,03:12,N,nominal,1.0NRT,277.9,2,N
51.03322,2.2792,317.7,0.55,0.68,2019-10-10,03:12,N,nominal,1.0NRT,278.7,3.5,N
51.03071,2.28622,309.2,0.55,0.68,2019-10-10,03:12,N,nominal,1.0NRT,279,2.5,N
53.56796,-0.60372,320.5,0.35,0.57,2019-10-10,03:12,N,nominal,1.0NRT,278.7,1.8,N
53.56648,-0.59894,310.6,0.35,0.57,2019-10-10,03:12,N,nominal,1.0NRT,279.3,1.8,N
53.56503,-0.59426,306.2,0.35,0.57,2019-10-10,03:12,N,nominal,1.0NRT,279,1.1,N
51.17115,3.80831,342.7,0.61,0.71,2019-10-10,03:12,N,nominal,1.0NRT,281.2,11.4,N
53.63374,-0.24019,302.2,0.36,0.57,2019-10-10,03:12,N,nominal,1.0NRT,276.6,1.6,N
66.30834,14.17193,303.8,0.55,0.51,2019-10-10,03:12,N,nominal,1.0NRT,268.8,1.9,N
61.36157,1.57849,304.7,0.44,0.46,2019-10-10,03:12,N,nominal,1.0NRT,277.8,0.9,N
61.20382,1.8314,315.2,0.45,0.47,2019-10-10,03:12,N,nominal,1.0NRT,275,2.1,N
61.09617,1.72222,306.2,0.45,0.47,2019-10-10,03:12,N,nominal,1.0NRT,267.4,0.8,N
61.0924,1.7177,299.2,0.45,0.47,2019-10-10,03:12,N,nominal,1.0NRT,267.4,0.8,N
64.35983,-21.78303,296.3,0.41,0.45,2019-10-10,03:12,N,nominal,1.0NRT,274.9,1.1,N
64.35568,-21.7846,306.3,0.41,0.45,2019-10-10,03:12,N,nominal,1.0NRT,274.4,1.1,N
57.06133,9.97374,303.1,0.56,0.69,2019-10-10,03:12,N,nominal,1.0NRT,277.7,2.9,N
57.05815,9.98144,300.3,0.56,0.69,2019-10-10,03:12,N,nominal,1.0NRT,277.6,2.2,N
57.06272,9.98225,300.3,0.56,0.69,2019-10-10,03:12,N,nominal,1.0NRT,278,1.5,N
57.05759,9.975,306.6,0.56,0.69,2019-10-10,03:12,N,nominal,1.0NRT,275.5,1.5,N
53.13409,8.69596,296.1,0.75,0.77,2019-10-10,03:12,N,nominal,1.0NRT,276.7,1.6,N
53.13231,8.67936,300.6,0.75,0.77,2019-10-10,03:12,N,nominal,1.0NRT,276.8,2,N
56.101,-3.30661,299.2,0.46,0.47,2019-10-10,03:12,N,nominal,1.0NRT,277.9,0.8,N
56.09916,-3.29974,300.9,0.46,0.47,2019-10-10,03:12,N,nominal,1.0NRT,277.9,0.8,N
56.0952,-3.30322,298.6,0.46,0.47,2019-10-10,03:12,N,nominal,1.0NRT,278.3,1.4,N
67.36092,15.58737,305.8,0.52,0.5,2019-10-10,03:12,N,nominal,1.0NRT,273.8,2.5,N
42.98177,-9.08498,300.2,0.33,0.55,2019-10-10,03:18,N,nominal,1.0NRT,283.6,0.6,N
37.95643,-8.79574,296.7,0.46,0.64,2019-10-10,03:18,N,nominal,1.0NRT,285,0.8,N
37.95173,-8.79532,296.1,0.46,0.64,2019-10-10,03:18,N,nominal,1.0NRT,284.1,0.7,N
51.53341,-0.31763,296.2,0.42,0.61,2019-10-10,03:18,N,nominal,1.0NRT,278.2,0.5,N
51.57085,-3.77015,304.8,0.62,0.54,2019-10-10,03:18,N,nominal,1.0NRT,280.4,2.3,N
51.56868,-3.78187,296.2,0.62,0.54,2019-10-10,03:18,N,nominal,1.0NRT,279.7,2.3,N
51.5663,-3.77357,316.6,0.62,0.54,2019-10-10,03:18,N,nominal,1.0NRT,282.1,2.3,N
51.5639,-3.76519,308,0.62,0.54,2019-10-10,03:18,N,nominal,1.0NRT,280.9,3.5,N
51.56174,-3.77694,301,0.62,0.54,2019-10-10,03:18,N,nominal,1.0NRT,280.6,3.2,N
43.5267,-5.73013,298.3,0.45,0.63,2019-10-10,03:18,N,nominal,1.0NRT,282.1,0.9,N
43.52124,-5.73325,304.5,0.45,0.63,2019-10-10,03:18,N,nominal,1.0NRT,282.3,0.9,N
43.35363,-8.44612,295.5,0.34,0.56,2019-10-10,03:18,N,nominal,1.0NRT,283.3,0.8,N
39.21737,33.45572,330.2,0.55,0.68,2019-10-10,09:36,N,nominal,1.0NRT,300.7,2.7,D
39.14706,34.71605,330.2,0.48,0.65,2019-10-10,09:36,N,nominal,1.0NRT,303.4,2,D
39.17703,34.70798,346,0.48,0.65,2019-10-10,09:36,N,nominal,1.0NRT,302.6,6.2,D
39.17463,34.71221,340.4,0.48,0.65,2019-10-10,09:36,N,nominal,1.0NRT,303.6,5.4,D
48.12099,29.76274,329.2,0.43,0.62,2019-10-10,09:42,N,nominal,1.0NRT,289.8,2.7,D
48.1193,29.75741,327.9,0.43,0.62,2019-10-10,09:42,N,nominal,1.0NRT,289.8,2.7,D
48.71364,31.59712,356.3,0.35,0.57,2019-10-10,09:42,N,nominal,1.0NRT,292.4,7.1,D
48.71235,31.59268,354.6,0.35,0.57,2019-10-10,09:42,N,nominal,1.0NRT,293.3,7.1,D
48.70563,29.82292,328,0.41,0.61,2019-10-10,09:42,N,nominal,1.0NRT,281.5,6,D
48.61463,29.59451,328.4,0.42,0.61,2019-10-10,09:42,N,nominal,1.0NRT,278.7,3.6,D
48.61814,29.60557,331,0.42,0.61,2019-10-10,09:42,N,nominal,1.0NRT,279.6,5.2,D
48.71189,29.81515,367,0.41,0.61,2019-10-10,09:42,N,low,1.0NRT,287,8.1,D
48.71349,29.82038,367,0.41,0.61,2019-10-10,09:42,N,low,1.0NRT,295.4,14.3,D
48.70864,29.80457,341.1,0.41,0.61,2019-10-10,09:42,N,nominal,1.0NRT,278.6,15.6,D
48.71027,29.80989,341.1,0.41,0.61,2019-10-10,09:42,N,nominal,1.0NRT,282.2,8.1,D
48.8562,31.7473,367,0.34,0.56,2019-10-10,09:42,N,high,1.0NRT,291.8,8.8,D
48.71508,29.82556,345.3,0.41,0.61,2019-10-10,09:42,N,nominal,1.0NRT,287,14.3,D
48.7051,29.81348,326.1,0.41,0.61,2019-10-10,09:42,N,nominal,1.0NRT,283.9,8.1,D
48.70671,29.81873,343.5,0.41,0.61,2019-10-10,09:42,N,nominal,1.0NRT,284.6,8.1,D
48.70831,29.82395,332.2,0.41,0.61,2019-10-10,09:42,N,nominal,1.0NRT,280.9,14.3,D
48.62193,29.60573,338.3,0.42,0.61,2019-10-10,09:42,N,nominal,1.0NRT,280.3,3.8,D
48.42658,29.2109,337.9,0.45,0.63,2019-10-10,09:42,N,nominal,1.0NRT,282.1,4.1,D
49.0565,31.30354,326.5,0.35,0.57,2019-10-10,09:42,N,nominal,1.0NRT,289.9,1.4,D
48.71602,30.37142,349.6,0.39,0.59,2019-10-10,09:42,N,nominal,1.0NRT,290.9,9.3,D
48.6694,30.60316,345.2,0.38,0.59,2019-10-10,09:42,N,nominal,1.0NRT,291.7,3,D
48.67242,30.61319,326.4,0.38,0.59,2019-10-10,09:42,N,nominal,1.0NRT,290.1,2.9,D
48.6739,30.61811,328.2,0.38,0.59,2019-10-10,09:42,N,nominal,1.0NRT,289.5,2.9,D
48.66438,30.60665,330,0.38,0.59,2019-10-10,09:42,N,nominal,1.0NRT,292.8,3,D
48.66589,30.61165,328.1,0.38,0.59,2019-10-10,09:42,N,nominal,1.0NRT,291.8,3,D
48.65936,30.61013,326.2,0.38,0.59,2019-10-10,09:42,N,nominal,1.0NRT,293.9,3.9,D
48.66086,30.6151,331.7,0.38,0.59,2019-10-10,09:42,N,nominal,1.0NRT,293.7,3.9,D
48.65731,30.62346,331.5,0.38,0.59,2019-10-10,09:42,N,nominal,1.0NRT,292.7,8.2,D
48.76404,31.37131,326.1,0.36,0.57,2019-10-10,09:42,N,nominal,1.0NRT,289.6,1.8,D
48.7969,31.54329,367,0.35,0.57,2019-10-10,09:42,N,high,1.0NRT,298.7,19.8,D
48.85493,31.74291,367,0.34,0.56,2019-10-10,09:42,N,high,1.0NRT,290.3,8.8,D
50.77848,29.92885,333.4,0.35,0.57,2019-10-10,09:42,N,nominal,1.0NRT,285,2.1,D
49.89725,27.50221,367,0.47,0.64,2019-10-10,09:42,N,low,1.0NRT,289.5,23.5,D
49.89528,27.49626,353.7,0.47,0.64,2019-10-10,09:42,N,nominal,1.0NRT,288.4,16.8,D
48.80735,26.27009,347,0.57,0.69,2019-10-10,09:42,N,nominal,1.0NRT,286.4,7,D
48.80946,26.25982,342.4,0.57,0.69,2019-10-10,09:42,N,nominal,1.0NRT,287.6,6.4,D
48.81209,26.26738,335.1,0.57,0.69,2019-10-10,09:42,N,nominal,1.0NRT,285.8,6.4,D
49.75962,32.31339,334.1,0.61,0.53,2019-10-10,09:42,N,nominal,1.0NRT,290.3,9.6,D
48.71437,29.81058,352.3,0.41,0.61,2019-10-10,09:42,N,nominal,1.0NRT,282.2,15.8,D
48.716,29.81579,351,0.41,0.61,2019-10-10,09:42,N,nominal,1.0NRT,298.9,15.8,D
48.71761,29.82096,367,0.41,0.61,2019-10-10,09:42,N,high,1.0NRT,291.9,40.7,D
48.71082,29.81939,367,0.41,0.61,2019-10-10,09:42,N,low,1.0NRT,284.7,15.8,D
48.70754,29.80891,338.5,0.41,0.61,2019-10-10,09:42,N,nominal,1.0NRT,282.3,17.5,D
48.70919,29.81417,356.5,0.41,0.61,2019-10-10,09:42,N,nominal,1.0NRT,285.4,15.8,D
48.67091,30.60818,325.5,0.38,0.59,2019-10-10,09:42,N,nominal,1.0NRT,290.3,3,D
43.69362,27.68515,330.3,0.74,0.76,2019-10-10,09:42,N,nominal,1.0NRT,293.6,5.7,D
48.71103,31.58814,333.8,0.35,0.57,2019-10-10,09:42,N,nominal,1.0NRT,291.4,7,D
48.71585,31.5848,367,0.35,0.57,2019-10-10,09:42,N,high,1.0NRT,294.2,7,D
48.71715,31.58926,341.2,0.35,0.57,2019-10-10,09:42,N,nominal,1.0NRT,291.2,7.1,D
48.71455,31.5803,357.2,0.35,0.57,2019-10-10,09:42,N,nominal,1.0NRT,292.7,7,D
48.69494,31.51298,325.4,0.35,0.57,2019-10-10,09:42,N,nominal,1.0NRT,290.8,1.9,D
48.04089,29.3667,327.1,0.45,0.63,2019-10-10,09:42,N,nominal,1.0NRT,289.9,3.1,D
48.27194,29.99069,326.1,0.42,0.61,2019-10-10,09:42,N,nominal,1.0NRT,291,3.7,D
48.84885,31.74172,332.4,0.34,0.56,2019-10-10,09:42,N,nominal,1.0NRT,289.5,4,D
43.65659,27.38914,332.5,0.76,0.77,2019-10-10,09:42,N,nominal,1.0NRT,291.8,6.5,D
43.65355,27.39209,333.1,0.76,0.77,2019-10-10,09:42,N,nominal,1.0NRT,292.6,9.8,D
45.90462,33.93359,329.3,0.34,0.56,2019-10-10,09:42,N,nominal,1.0NRT,295.4,2.5,D
43.74341,26.91165,328.6,0.79,0.78,2019-10-10,09:42,N,nominal,1.0NRT,292.9,5.3,D
43.746,26.9111,328.5,0.79,0.78,2019-10-10,09:42,N,nominal,1.0NRT,293,3.5,D
46.4575,34.96825,340.2,0.58,0.52,2019-10-10,09:42,N,nominal,1.0NRT,297.5,10.1,D
46.56343,34.70777,354.8,0.6,0.53,2019-10-10,09:42,N,nominal,1.0NRT,303.2,19.7,D
46.56805,34.70521,347,0.6,0.53,2019-10-10,09:42,N,nominal,1.0NRT,295.2,19.7,D
44.4751,27.5612,327.7,0.7,0.75,2019-10-10,09:42,N,nominal,1.0NRT,291.5,5.4,D
44.50312,26.99988,355.5,0.74,0.76,2019-10-10,09:42,N,nominal,1.0NRT,290.9,21.1,D
44.49946,26.99855,367,0.74,0.76,2019-10-10,09:42,N,high,1.0NRT,291.9,10.7,D
44.50591,26.9941,326.3,0.74,0.76,2019-10-10,09:42,N,nominal,1.0NRT,289.5,10.7,D
44.54705,26.53894,367,0.77,0.78,2019-10-10,09:42,N,high,1.0NRT,292.6,23.4,D
44.54348,26.54289,341.5,0.77,0.77,2019-10-10,09:42,N,nominal,1.0NRT,290.1,9.4,D
44.55001,26.53831,346.7,0.77,0.77,2019-10-10,09:42,N,nominal,1.0NRT,289.4,13.6,D
44.77565,27.00248,326.6,0.73,0.76,2019-10-10,09:42,N,nominal,1.0NRT,291.1,3.7,D
44.78203,26.99798,367,0.73,0.76,2019-10-10,09:42,N,high,1.0NRT,292.6,24.4,D
45.4527,28.93468,327.7,0.57,0.69,2019-10-10,09:42,N,nominal,1.0NRT,295.1,4.3,D
44.85906,26.9979,344,0.72,0.76,2019-10-10,09:42,N,nominal,1.0NRT,292.3,13.8,D
44.86544,26.99345,337,0.72,0.76,2019-10-10,09:42,N,nominal,1.0NRT,290.2,9.9,D
45.74252,27.63039,329.7,0.63,0.72,2019-10-10,09:42,N,nominal,1.0NRT,288.7,2.9,D
46.81011,30.17199,339.3,0.46,0.64,2019-10-10,09:42,N,nominal,1.0NRT,292.9,3.9,D
46.65247,29.56777,326,0.49,0.65,2019-10-10,09:42,N,nominal,1.0NRT,292.4,3.1,D
46.80777,30.17056,343.1,0.46,0.63,2019-10-10,09:42,N,nominal,1.0NRT,293.8,5.2,D
46.65278,29.56482,334.8,0.49,0.65,2019-10-10,09:42,N,nominal,1.0NRT,292.8,4.5,D
47.12856,30.51007,337.6,0.43,0.62,2019-10-10,09:42,N,nominal,1.0NRT,294.3,3.7,D
47.13384,30.5065,335.3,0.43,0.62,2019-10-10,09:42,N,nominal,1.0NRT,293,4.8,D
47.66864,30.39678,332.3,0.42,0.61,2019-10-10,09:42,N,nominal,1.0NRT,292.8,4.1,D
47.87786,30.88181,342.6,0.4,0.6,2019-10-10,09:42,N,nominal,1.0NRT,292.7,3.3,D
47.93493,30.86764,334.4,0.4,0.6,2019-10-10,09:42,N,nominal,1.0NRT,292.5,2.9,D
47.65524,29.93614,367,0.44,0.62,2019-10-10,09:42,N,high,1.0NRT,296.6,17.2,D
47.65348,29.93049,331.7,0.44,0.63,2019-10-10,09:42,N,nominal,1.0NRT,294.3,6.7,D
47.75625,29.9907,367,0.44,0.62,2019-10-10,09:42,N,high,1.0NRT,295,9.9,D
47.75785,29.99581,332.3,0.44,0.62,2019-10-10,09:42,N,nominal,1.0NRT,290.8,9.9,D
48.20979,31.46278,367,0.37,0.58,2019-10-10,09:42,N,high,1.0NRT,297.1,10.4,D
48.21112,31.4673,345.6,0.37,0.58,2019-10-10,09:42,N,nominal,1.0NRT,288.6,14.3,D
48.20842,31.45816,326.6,0.37,0.58,2019-10-10,09:42,N,nominal,1.0NRT,291.4,10.4,D
47.99595,30.60523,325.2,0.4,0.6,2019-10-10,09:42,N,nominal,1.0NRT,290.8,2.7,D
47.99446,30.60312,327.9,0.4,0.6,2019-10-10,09:42,N,nominal,1.0NRT,290.5,2,D
48.0545,30.49517,328.1,0.41,0.6,2019-10-10,09:42,N,nominal,1.0NRT,291.8,2.2,D
48.43129,31.72286,330.9,0.35,0.57,2019-10-10,09:42,N,nominal,1.0NRT,291.1,4.7,D
48.42998,31.71836,327.3,0.35,0.57,2019-10-10,09:42,N,nominal,1.0NRT,290.3,4.7,D
48.42866,31.7138,344.2,0.35,0.57,2019-10-10,09:42,N,nominal,1.0NRT,291.7,5.8,D
48.16113,30.7457,326.6,0.39,0.6,2019-10-10,09:42,N,nominal,1.0NRT,292.6,5.1,D
48.16,30.74253,330,0.39,0.6,2019-10-10,09:42,N,nominal,1.0NRT,291.3,2.3,D
47.84715,29.59837,367,0.45,0.63,2019-10-10,09:42,N,high,1.0NRT,294.3,11.8,D
48.16525,30.61887,339.6,0.4,0.6,2019-10-10,09:42,N,nominal,1.0NRT,290.8,5,D
47.96611,29.91384,335.2,0.43,0.62,2019-10-10,09:42,N,nominal,1.0NRT,292.3,3.7,D
48.54188,31.50532,341.4,0.36,0.57,2019-10-10,09:42,N,nominal,1.0NRT,290.4,3.5,D
48.54678,31.5021,334.2,0.36,0.57,2019-10-10,09:42,N,nominal,1.0NRT,290,3.6,D
48.21429,30.31511,343.7,0.41,0.61,2019-10-10,09:42,N,nominal,1.0NRT,291,4.2,D
47.97081,29.53473,349.8,0.45,0.63,2019-10-10,09:42,N,nominal,1.0NRT,293.9,7.9,D
48.46315,30.99806,327.4,0.38,0.58,2019-10-10,09:42,N,nominal,1.0NRT,288.7,2.4,D
48.47099,31.00432,333.9,0.38,0.58,2019-10-10,09:42,N,nominal,1.0NRT,289,5.2,D
48.46537,30.99839,327.8,0.38,0.58,2019-10-10,09:42,N,nominal,1.0NRT,288.6,3.1,D
37.69086,13.69706,340,0.63,0.54,2019-10-10,11:18,N,nominal,1.0NRT,296.6,6.2,D
44.24212,22.6928,339.6,0.39,0.36,2019-10-10,11:18,N,nominal,1.0NRT,299.7,4.2,D
44.23811,22.68893,334.6,0.39,0.36,2019-10-10,11:18,N,nominal,1.0NRT,298.6,4.2,D
44.23882,22.69373,348.3,0.39,0.36,2019-10-10,11:18,N,nominal,1.0NRT,298.5,4.2,D
44.62163,25.57735,330.1,0.44,0.38,2019-10-10,11:18,N,nominal,1.0NRT,297.9,2.7,D
44.7132,26.40324,341.8,0.47,0.4,2019-10-10,11:18,N,nominal,1.0NRT,298,7.9,D
44.75524,26.92824,331.1,0.49,0.4,2019-10-10,11:18,N,nominal,1.0NRT,298.7,19.8,D
44.32305,23.50226,325.4,0.39,0.36,2019-10-10,11:18,N,nominal,1.0NRT,273.5,8,D
44.1791,22.52084,334,0.39,0.36,2019-10-10,11:18,N,nominal,1.0NRT,296.6,2.9,D
44.26508,23.17613,328.9,0.39,0.36,2019-10-10,11:18,N,nominal,1.0NRT,290.8,3.3,D
44.17704,22.59425,338.7,0.39,0.36,2019-10-10,11:18,N,nominal,1.0NRT,300.5,4.5,D
44.55761,25.52068,336.2,0.44,0.38,2019-10-10,11:18,N,nominal,1.0NRT,296.3,5.3,D
44.16202,22.60849,344.2,0.39,0.36,2019-10-10,11:18,N,nominal,1.0NRT,295.3,4.1,D
44.40659,24.43733,343.4,0.41,0.37,2019-10-10,11:18,N,nominal,1.0NRT,298.2,7.1,D
44.5369,25.46905,331.9,0.44,0.38,2019-10-10,11:18,N,nominal,1.0NRT,295.7,2.9,D
44.49207,25.13406,347.8,0.43,0.38,2019-10-10,11:18,N,nominal,1.0NRT,296.8,6.9,D
44.63581,26.37349,340.7,0.47,0.39,2019-10-10,11:18,N,nominal,1.0NRT,303.2,25.8,D
44.63647,26.3794,332.2,0.47,0.39,2019-10-10,11:18,N,nominal,1.0NRT,296.1,15.1,D
44.8872,28.83219,329.3,0.39,0.44,2019-10-10,11:18,N,nominal,1.0NRT,295.1,2.8,D
44.63218,26.37428,331.5,0.47,0.39,2019-10-10,11:18,N,nominal,1.0NRT,298.6,3,D
44.47901,25.11518,336.5,0.43,0.38,2019-10-10,11:18,N,nominal,1.0NRT,296.1,3.1,D
44.64521,26.52335,332.5,0.47,0.4,2019-10-10,11:18,N,nominal,1.0NRT,296.5,2.5,D
44.53906,25.6672,341.6,0.44,0.38,2019-10-10,11:18,N,nominal,1.0NRT,296.5,5.6,D
44.52319,25.62526,329.4,0.44,0.38,2019-10-10,11:18,N,nominal,1.0NRT,295.9,3.3,D
44.52385,25.6308,339.6,0.44,0.38,2019-10-10,11:18,N,nominal,1.0NRT,296.3,3.9,D
44.35396,24.30324,352.8,0.41,0.37,2019-10-10,11:18,N,nominal,1.0NRT,291.1,8.6,D
44.52033,25.63162,329,0.44,0.38,2019-10-10,11:18,N,nominal,1.0NRT,296.3,3.9,D
44.5034,25.55036,331.4,0.44,0.38,2019-10-10,11:18,N,nominal,1.0NRT,295.9,2.9,D
44.50406,25.55586,331.2,0.44,0.38,2019-10-10,11:18,N,nominal,1.0NRT,294.7,4.1,D
44.53344,25.8352,341.7,0.45,0.39,2019-10-10,11:18,N,nominal,1.0NRT,296,3.9,D
44.08913,22.50962,325.1,0.38,0.36,2019-10-10,11:18,N,nominal,1.0NRT,294.9,1.9,D
44.31564,24.32656,328.3,0.41,0.37,2019-10-10,11:18,N,low,1.0NRT,299,2.2,D
43.9906,22.09927,340.4,0.38,0.36,2019-10-10,11:18,N,nominal,1.0NRT,301.1,7.6,D
44.34377,24.64748,354.2,0.41,0.37,2019-10-10,11:18,N,nominal,1.0NRT,312.3,16.4,D
44.34444,24.65265,336.3,0.41,0.37,2019-10-10,11:18,N,nominal,1.0NRT,288.4,16.4,D
44.30275,24.36137,341.5,0.41,0.37,2019-10-10,11:18,N,nominal,1.0NRT,296.9,4.5,D
44.34035,24.64832,355,0.41,0.37,2019-10-10,11:18,N,nominal,1.0NRT,311,16.4,D
44.34103,24.6535,339.1,0.41,0.37,2019-10-10,11:18,N,nominal,1.0NRT,292.4,16.4,D
42.40744,13.97175,328,0.47,0.48,2019-10-10,11:18,N,nominal,1.0NRT,295.8,4.3,D
44.5535,26.52722,335.1,0.47,0.4,2019-10-10,11:18,N,nominal,1.0NRT,297.3,4.5,D
44.55186,26.54586,348.9,0.47,0.4,2019-10-10,11:18,N,nominal,1.0NRT,297.3,6.5,D
44.32054,24.65858,335.7,0.41,0.37,2019-10-10,11:18,N,nominal,1.0NRT,299.5,5.6,D
44.30622,24.65683,367,0.41,0.37,2019-10-10,11:18,N,high,1.0NRT,300.9,9,D
44.2427,24.22468,330,0.4,0.37,2019-10-10,11:18,N,nominal,1.0NRT,290.4,3.3,D
44.52031,26.63219,331,0.47,0.4,2019-10-10,11:18,N,nominal,1.0NRT,296.9,3.3,D
44.52324,26.6931,337,0.48,0.4,2019-10-10,11:18,N,nominal,1.0NRT,297.7,5.8,D
44.36901,25.50555,329,0.43,0.38,2019-10-10,11:18,N,nominal,1.0NRT,295.8,3.6,D
44.36616,25.51183,338.7,0.44,0.38,2019-10-10,11:18,N,nominal,1.0NRT,296.3,5,D
44.36604,25.50865,336.6,0.43,0.38,2019-10-10,11:18,N,nominal,1.0NRT,296.2,3.5,D
44.32176,25.29619,333,0.43,0.38,2019-10-10,11:18,N,nominal,1.0NRT,296.3,4.4,D
44.14705,23.98267,333.9,0.4,0.37,2019-10-10,11:18,N,nominal,1.0NRT,284.9,3.4,D
44.17881,24.24383,351.8,0.4,0.37,2019-10-10,11:18,N,nominal,1.0NRT,297.7,6.5,D
44.30985,25.31562,343.7,0.43,0.38,2019-10-10,11:18,N,nominal,1.0NRT,296.1,4,D
44.31052,25.321,334,0.43,0.38,2019-10-10,11:18,N,nominal,1.0NRT,296.1,4,D
44.50579,26.99823,330.7,0.49,0.4,2019-10-10,11:18,N,nominal,1.0NRT,297.2,2.8,D
44.50647,27.00441,345.8,0.49,0.4,2019-10-10,11:18,N,nominal,1.0NRT,298,5.9,D
44.50208,26.999,351.6,0.49,0.4,2019-10-10,11:18,N,nominal,1.0NRT,300.5,9.8,D
44.50275,27.00518,332.5,0.49,0.4,2019-10-10,11:18,N,nominal,1.0NRT,297.4,4.2,D
44.49837,26.99977,340.3,0.49,0.4,2019-10-10,11:18,N,nominal,1.0NRT,298.5,9.8,D
44.33907,25.85562,355.2,0.45,0.39,2019-10-10,11:18,N,nominal,1.0NRT,301.2,21.2,D
44.10995,24.37933,332.8,0.41,0.37,2019-10-10,11:18,N,nominal,1.0NRT,299.1,2.3,D
44.01789,23.7536,338,0.4,0.37,2019-10-10,11:18,N,nominal,1.0NRT,274.6,3.4,D
44.22393,25.31673,337.5,0.43,0.38,2019-10-10,11:18,N,nominal,1.0NRT,296.2,3.8,D
44.01456,23.75449,350.5,0.4,0.37,2019-10-10,11:18,N,nominal,1.0NRT,281.5,14.5,D
44.29424,26.52695,348.7,0.47,0.4,2019-10-10,11:18,N,nominal,1.0NRT,298.4,26.1,D
44.2949,26.53284,356.5,0.47,0.4,2019-10-10,11:18,N,nominal,1.0NRT,305.8,26.1,D
44.29061,26.52774,330.6,0.47,0.4,2019-10-10,11:18,N,nominal,1.0NRT,297.1,3.3,D
44.29126,26.53363,345.2,0.47,0.4,2019-10-10,11:18,N,nominal,1.0NRT,297.2,3.3,D
44.01992,24.41254,333.3,0.41,0.37,2019-10-10,11:18,N,nominal,1.0NRT,301.3,2.8,D
44.2584,26.43874,329.9,0.46,0.39,2019-10-10,11:18,N,nominal,1.0NRT,296.7,3.4,D
44.25853,26.43971,329.2,0.46,0.39,2019-10-10,11:18,N,nominal,1.0NRT,296.7,2.7,D
44.33067,27.25334,339.9,0.5,0.41,2019-10-10,11:18,N,nominal,1.0NRT,297,4.5,D
44.10736,25.47854,348.9,0.43,0.38,2019-10-10,11:18,N,nominal,1.0NRT,295,25.1,D
44.10802,25.48394,355.3,0.43,0.38,2019-10-10,11:18,N,nominal,1.0NRT,297.2,25.1,D
44.10387,25.47935,347.9,0.43,0.38,2019-10-10,11:18,N,nominal,1.0NRT,296.4,6.4,D
44.10454,25.48475,346.3,0.43,0.38,2019-10-10,11:18,N,nominal,1.0NRT,298.4,6.4,D
44.18798,26.27714,341.1,0.46,0.39,2019-10-10,11:18,N,nominal,1.0NRT,296.8,4.8,D
43.85223,24.12379,335.4,0.4,0.37,2019-10-10,11:18,N,nominal,1.0NRT,302.6,8.2,D
43.94267,24.88486,330.9,0.42,0.37,2019-10-10,11:18,N,nominal,1.0NRT,298.2,2.3,D
44.07681,26.0248,336.9,0.45,0.39,2019-10-10,11:18,N,nominal,1.0NRT,296.4,8.9,D
44.07748,26.0304,340.9,0.45,0.39,2019-10-10,11:18,N,nominal,1.0NRT,296.1,8.9,D
44.12616,26.44681,344.5,0.46,0.39,2019-10-10,11:18,N,nominal,1.0NRT,297.1,6.1,D
43.869,24.40354,332.4,0.4,0.37,2019-10-10,11:18,N,nominal,1.0NRT,300.4,2.4,D
44.07326,26.02559,346.7,0.45,0.39,2019-10-10,11:18,N,nominal,1.0NRT,299,8.9,D
44.07393,26.0312,346.6,0.45,0.39,2019-10-10,11:18,N,nominal,1.0NRT,299.8,8.9,D
44.10587,26.30335,331.9,0.46,0.39,2019-10-10,11:18,N,nominal,1.0NRT,297.5,4.5,D
44.07875,26.13411,329.6,0.45,0.39,2019-10-10,11:18,N,nominal,1.0NRT,297,3.3,D
44.11599,26.4551,342.1,0.46,0.39,2019-10-10,11:18,N,nominal,1.0NRT,297.5,4.8,D
43.88556,24.60823,336.4,0.41,0.37,2019-10-10,11:18,N,nominal,1.0NRT,299.8,2,D
44.09845,26.33471,337,0.46,0.39,2019-10-10,11:18,N,nominal,1.0NRT,297.9,5.7,D
44.09285,26.31824,329.5,0.46,0.39,2019-10-10,11:18,N,nominal,1.0NRT,297.2,7.7,D
44.09352,26.32401,343.4,0.46,0.39,2019-10-10,11:18,N,nominal,1.0NRT,301.4,28,D
44.08993,26.32482,335.3,0.46,0.39,2019-10-10,11:18,N,nominal,1.0NRT,298.3,6.1,D
43.757,23.9595,340.4,0.4,0.37,2019-10-10,11:18,N,nominal,1.0NRT,301.2,3.5,D
43.78425,24.26465,332.8,0.4,0.37,2019-10-10,11:18,N,nominal,1.0NRT,303.2,1.6,D
43.87473,25.04571,345.9,0.42,0.38,2019-10-10,11:18,N,nominal,1.0NRT,299.8,5,D
43.87264,25.04335,334.1,0.42,0.38,2019-10-10,11:18,N,nominal,1.0NRT,299.6,3.4,D
43.87399,25.05379,335.5,0.42,0.38,2019-10-10,11:18,N,nominal,1.0NRT,300.8,12.4,D
43.87332,25.04856,367,0.42,0.38,2019-10-10,11:18,N,high,1.0NRT,306.4,12.4,D
43.90915,25.38699,332,0.43,0.38,2019-10-10,11:18,N,nominal,1.0NRT,296.6,3.8,D
43.90005,25.40008,344,0.43,0.38,2019-10-10,11:18,N,nominal,1.0NRT,298,3.9,D
43.94088,25.79031,334.2,0.44,0.38,2019-10-10,11:18,N,nominal,1.0NRT,298,3.3,D
43.96215,26.05873,329.3,0.45,0.39,2019-10-10,11:18,N,nominal,1.0NRT,296.9,2.6,D
43.74977,24.40008,341.1,0.4,0.37,2019-10-10,11:18,N,nominal,1.0NRT,301.6,3.5,D
43.99841,26.4648,331.5,0.46,0.39,2019-10-10,11:18,N,nominal,1.0NRT,296,6,D
43.82386,25.04969,344.4,0.42,0.38,2019-10-10,11:18,N,nominal,1.0NRT,300.3,6.4,D
43.99545,26.47133,334.5,0.46,0.39,2019-10-10,11:18,N,nominal,1.0NRT,299.2,12.8,D
43.82042,25.05052,341.7,0.42,0.38,2019-10-10,11:18,N,nominal,1.0NRT,300.7,3.6,D
43.86341,25.48,332.5,0.43,0.38,2019-10-10,11:18,N,nominal,1.0NRT,298,2.9,D
43.81951,25.21218,332.7,0.42,0.38,2019-10-10,11:18,N,nominal,1.0NRT,298.7,2.6,D
44.04846,27.22457,367,0.49,0.41,2019-10-10,11:18,N,high,1.0NRT,325.1,124.7,D
44.04473,27.22536,336.6,0.49,0.41,2019-10-10,11:18,N,nominal,1.0NRT,300.3,5,D
43.63522,23.91246,350.1,0.4,0.37,2019-10-10,11:18,N,nominal,1.0NRT,309.6,6.6,D
43.63589,23.91734,350.6,0.4,0.37,2019-10-10,11:18,N,nominal,1.0NRT,306.2,6.6,D
43.63255,23.91821,330.9,0.4,0.37,2019-10-10,11:18,N,low,1.0NRT,302.6,6.6,D
43.8291,25.57892,340.8,0.43,0.38,2019-10-10,11:18,N,nominal,1.0NRT,298.5,4.2,D
43.84912,25.7412,331.5,0.44,0.38,2019-10-10,11:18,N,nominal,1.0NRT,299.4,5.7,D
43.84979,25.74666,354.6,0.44,0.38,2019-10-10,11:18,N,nominal,1.0NRT,300.4,5.7,D
43.84562,25.74203,346.3,0.44,0.38,2019-10-10,11:18,N,nominal,1.0NRT,299.6,5.7,D
43.6479,24.26377,337.4,0.4,0.37,2019-10-10,11:18,N,nominal,1.0NRT,300.2,3.2,D
43.64454,24.26464,331.5,0.4,0.37,2019-10-10,11:18,N,low,1.0NRT,303.9,3.1,D
43.7673,25.20052,331.1,0.42,0.38,2019-10-10,11:18,N,nominal,1.0NRT,298.7,2.4,D
43.93306,26.70158,340,0.47,0.4,2019-10-10,11:18,N,nominal,1.0NRT,297.1,4.1,D
43.70182,24.96497,341.5,0.42,0.37,2019-10-10,11:18,N,nominal,1.0NRT,299,6.1,D
43.90991,26.69472,340.4,0.47,0.4,2019-10-10,11:18,N,nominal,1.0NRT,299.8,18,D
43.90626,26.69542,332.4,0.47,0.4,2019-10-10,11:18,N,nominal,1.0NRT,299.9,18,D
41.92529,14.94428,331.5,0.43,0.46,2019-10-10,11:18,N,nominal,1.0NRT,298.4,2.6,D
43.58616,24.14149,341,0.4,0.37,2019-10-10,11:18,N,nominal,1.0NRT,305.4,3.8,D
43.58281,24.14234,340,0.4,0.37,2019-10-10,11:18,N,nominal,1.0NRT,303.3,3.8,D
43.76797,25.63735,335.5,0.43,0.38,2019-10-10,11:18,N,nominal,1.0NRT,299.8,3.3,D
43.70588,25.22073,338.4,0.42,0.38,2019-10-10,11:18,N,nominal,1.0NRT,299.8,4,D
43.66964,24.96176,333.3,0.42,0.37,2019-10-10,11:18,N,nominal,1.0NRT,296.8,2.3,D
43.69749,25.23888,341.9,0.42,0.38,2019-10-10,11:18,N,nominal,1.0NRT,299.6,4.4,D
43.62229,24.75707,338.5,0.41,0.37,2019-10-10,11:18,N,nominal,1.0NRT,300.3,4.8,D
43.62321,24.75873,343.4,0.41,0.37,2019-10-10,11:18,N,nominal,1.0NRT,301.4,4.2,D
43.44656,23.52077,328.8,0.39,0.36,2019-10-10,11:18,N,nominal,1.0NRT,292.4,4.3,D
43.44724,23.52559,342.8,0.39,0.36,2019-10-10,11:18,N,nominal,1.0NRT,297.9,13.1,D
43.44392,23.52646,348.5,0.39,0.36,2019-10-10,11:18,N,nominal,1.0NRT,293.9,13.1,D
43.44461,23.53126,334.1,0.39,0.36,2019-10-10,11:18,N,nominal,1.0NRT,292,13.1,D
43.53873,24.20668,347.5,0.4,0.37,2019-10-10,11:18,N,nominal,1.0NRT,304.1,8.2,D
43.6983,25.42459,332,0.43,0.38,2019-10-10,11:18,N,nominal,1.0NRT,299.7,1.6,D
43.48699,23.9561,343.5,0.4,0.37,2019-10-10,11:18,N,nominal,1.0NRT,304.2,4.4,D
43.42828,23.61025,327.6,0.39,0.36,2019-10-10,11:18,N,nominal,1.0NRT,301.6,2.4,D
43.605,24.91567,344.6,0.41,0.37,2019-10-10,11:18,N,nominal,1.0NRT,302.9,12.8,D
43.42496,23.61113,338.1,0.39,0.36,2019-10-10,11:18,N,nominal,1.0NRT,302.4,3.9,D
43.60093,24.91145,348.1,0.41,0.37,2019-10-10,11:18,N,nominal,1.0NRT,307.5,10,D
43.60159,24.91652,348,0.41,0.37,2019-10-10,11:18,N,nominal,1.0NRT,302.6,11.5,D
43.68421,25.57019,333.1,0.43,0.38,2019-10-10,11:18,N,nominal,1.0NRT,297.8,4,D
43.48841,24.19409,332,0.4,0.37,2019-10-10,11:18,N,nominal,1.0NRT,303.6,1.4,D
43.85215,27.17874,329.3,0.49,0.4,2019-10-10,11:18,N,nominal,1.0NRT,297.2,2.3,D
41.81536,14.9518,329.8,0.44,0.46,2019-10-10,11:18,N,nominal,1.0NRT,300.7,3.2,D
43.42269,23.76666,328.4,0.39,0.36,2019-10-10,11:18,N,nominal,1.0NRT,302.4,1.4,D
43.41936,23.76752,341.5,0.39,0.36,2019-10-10,11:18,N,nominal,1.0NRT,302.5,3.2,D
43.3892,23.65046,337.6,0.39,0.36,2019-10-10,11:18,N,nominal,1.0NRT,302.2,6.1,D
43.50137,24.47231,338.8,0.4,0.37,2019-10-10,11:18,N,nominal,1.0NRT,301.3,6.2,D
43.51122,24.57334,351.3,0.41,0.37,2019-10-10,11:18,N,nominal,1.0NRT,305,14,D
40.39595,9.62457,343.1,0.43,0.62,2019-10-10,11:18,N,nominal,1.0NRT,295.5,4.7,D
43.76564,26.83382,340.8,0.47,0.4,2019-10-10,11:18,N,nominal,1.0NRT,298.4,7.1,D
43.76371,26.83657,338.7,0.47,0.4,2019-10-10,11:18,N,nominal,1.0NRT,298.6,4.8,D
43.46352,24.5521,337,0.41,0.37,2019-10-10,11:18,N,nominal,1.0NRT,300.5,3.8,D
43.40802,24.16702,331.5,0.4,0.37,2019-10-10,11:18,N,low,1.0NRT,303.4,1.1,D
43.46013,24.55293,339.5,0.41,0.37,2019-10-10,11:18,N,nominal,1.0NRT,300.3,4.5,D
40.39423,9.62396,345.2,0.43,0.62,2019-10-10,11:18,N,nominal,1.0NRT,296.2,4.3,D
43.4085,24.37557,328.7,0.4,0.37,2019-10-10,11:18,N,low,1.0NRT,301.2,0.6,D
43.45436,25.34063,334.4,0.42,0.38,2019-10-10,11:18,N,nominal,1.0NRT,300.7,4.5,D
43.45502,25.34588,346.1,0.42,0.38,2019-10-10,11:18,N,nominal,1.0NRT,300.7,4.5,D
43.4509,25.3414,354.5,0.42,0.38,2019-10-10,11:18,N,nominal,1.0NRT,302.3,4.5,D
43.45156,25.34666,333.7,0.42,0.38,2019-10-10,11:18,N,nominal,1.0NRT,299.7,4.5,D
43.70351,27.50281,332.5,0.5,0.41,2019-10-10,11:18,N,nominal,1.0NRT,299.8,2.4,D
43.70869,27.62356,333.9,0.51,0.41,2019-10-10,11:18,N,nominal,1.0NRT,299.9,3.9,D
43.26137,23.98995,337.9,0.4,0.37,2019-10-10,11:18,N,nominal,1.0NRT,300.6,2.9,D
43.26205,23.99483,332.3,0.4,0.37,2019-10-10,11:18,N,nominal,1.0NRT,300.3,2.9,D
43.51902,26.04081,344.3,0.44,0.39,2019-10-10,11:18,N,nominal,1.0NRT,300.6,24.5,D
43.51968,26.04631,355.1,0.44,0.39,2019-10-10,11:18,N,nominal,1.0NRT,300.2,24.5,D
43.51614,26.04703,349,0.44,0.39,2019-10-10,11:18,N,nominal,1.0NRT,303.9,24.5,D
43.75244,28.19978,333,0.54,0.42,2019-10-10,11:18,N,nominal,1.0NRT,299.7,3.7,D
43.7499,28.21396,337.4,0.54,0.42,2019-10-10,11:18,N,nominal,1.0NRT,299,5.1,D
43.68363,28.22091,334.4,0.54,0.42,2019-10-10,11:18,N,nominal,1.0NRT,299.9,4.6,D
43.58783,27.35037,337.6,0.49,0.4,2019-10-10,11:18,N,nominal,1.0NRT,300.3,6.9,D
43.67974,28.22161,338,0.54,0.42,2019-10-10,11:18,N,nominal,1.0NRT,300.7,4.6,D
43.66016,28.18435,348.1,0.53,0.42,2019-10-10,11:18,N,nominal,1.0NRT,304,19.9,D
41.56998,15.22439,354.9,0.43,0.46,2019-10-10,11:18,N,nominal,1.0NRT,303,6.3,D
43.65629,28.18507,337.5,0.53,0.42,2019-10-10,11:18,N,nominal,1.0NRT,301,3.9,D
41.59423,15.45141,341.2,0.42,0.45,2019-10-10,11:18,N,nominal,1.0NRT,304.6,8.3,D
41.51974,15.43992,331.8,0.42,0.45,2019-10-10,11:18,N,nominal,1.0NRT,302.2,5.6,D
41.52083,15.44483,348.3,0.42,0.45,2019-10-10,11:18,N,nominal,1.0NRT,301.1,14.6,D
41.5157,15.44153,338.1,0.42,0.45,2019-10-10,11:18,N,nominal,1.0NRT,305.9,10.6,D
41.51678,15.44645,350.9,0.42,0.45,2019-10-10,11:18,N,nominal,1.0NRT,313.2,38.7,D
41.50339,15.50496,335,0.42,0.45,2019-10-10,11:18,N,nominal,1.0NRT,302.8,4.9,D
43.18979,25.29001,344.4,0.42,0.38,2019-10-10,11:18,N,nominal,1.0NRT,299.9,7.6,D
43.20351,25.65778,331.9,0.43,0.38,2019-10-10,11:18,N,low,1.0NRT,304,10.7,D
39.59252,9.04781,328.9,0.48,0.65,2019-10-10,11:18,N,nominal,1.0NRT,296.8,2.2,D
42.71463,24.17337,345.2,0.4,0.37,2019-10-10,11:18,N,nominal,1.0NRT,299.1,7,D
41.96563,20.84414,341.4,0.4,0.37,2019-10-10,11:18,N,nominal,1.0NRT,270.3,6.6,D
41.03709,16.13883,334.4,0.4,0.44,2019-10-10,11:18,N,nominal,1.0NRT,297.5,4.5,D
41.03716,16.13691,330,0.4,0.44,2019-10-10,11:18,N,nominal,1.0NRT,298.3,4.4,D
41.86805,20.77133,337.5,0.4,0.37,2019-10-10,11:18,N,nominal,1.0NRT,274,4.9,D
42.49397,26.16375,332.6,0.44,0.38,2019-10-10,11:18,N,nominal,1.0NRT,299.4,2.4,D
40.79132,16.24341,340.9,0.4,0.44,2019-10-10,11:18,N,nominal,1.0NRT,297.5,5.1,D
42.2443,24.61477,332.8,0.4,0.37,2019-10-10,11:18,N,nominal,1.0NRT,296.8,3.3,D
42.24094,24.6156,344.8,0.4,0.37,2019-10-10,11:18,N,nominal,1.0NRT,299.3,3.3,D
40.82321,16.56824,341.3,0.39,0.44,2019-10-10,11:18,N,nominal,1.0NRT,298.9,2.8,D
41.44579,21.9386,328.8,0.39,0.36,2019-10-10,11:18,N,nominal,1.0NRT,297,2.6,D
41.4425,21.93954,339,0.39,0.36,2019-10-10,11:18,N,nominal,1.0NRT,302.9,2.6,D
40.37879,16.42302,338.7,0.4,0.44,2019-10-10,11:18,N,nominal,1.0NRT,296.2,3.2,D
40.50232,17.21713,337.4,0.55,0.43,2019-10-10,11:18,N,nominal,1.0NRT,297.2,3.6,D
40.24266,16.63967,329.5,0.39,0.44,2019-10-10,11:18,N,nominal,1.0NRT,293.4,2.6,D
40.24363,16.64423,338.9,0.39,0.44,2019-10-10,11:18,N,nominal,1.0NRT,295,4.6,D
41.45376,26.51617,332.7,0.44,0.38,2019-10-10,11:18,N,nominal,1.0NRT,297.2,2.7,D
39.6321,16.24952,341.2,0.42,0.45,2019-10-10,11:18,N,nominal,1.0NRT,291.5,6.2,D
36.86708,6.97534,337.3,0.73,0.76,2019-10-10,11:18,N,nominal,1.0NRT,290,9.2,D
36.87542,6.94437,326.2,0.73,0.76,2019-10-10,11:18,N,nominal,1.0NRT,289.5,4.2,D
36.86987,6.97524,336.6,0.73,0.76,2019-10-10,11:18,N,nominal,1.0NRT,289.6,6.6,D
41.00236,27.61397,328.2,0.47,0.4,2019-10-10,11:18,N,nominal,1.0NRT,296.1,2.3,D
37.96328,13.22013,340.8,0.33,0.55,2019-10-10,11:18,N,nominal,1.0NRT,296.9,4.2,D
37.95189,13.23921,332.7,0.33,0.55,2019-10-10,11:18,N,nominal,1.0NRT,296.9,2,D
47.9449,30.86889,336.8,0.52,0.5,2019-10-10,11:18,N,nominal,1.0NRT,296,3.6,D
47.94027,30.86954,346.6,0.52,0.5,2019-10-10,11:18,N,nominal,1.0NRT,297.5,8.5,D
47.94073,30.87666,347.1,0.52,0.5,2019-10-10,11:18,N,nominal,1.0NRT,295.1,13.7,D
47.82765,29.95814,328.9,0.47,0.48,2019-10-10,11:18,N,nominal,1.0NRT,295.7,2.1,D
47.76285,29.14904,348.7,0.43,0.46,2019-10-10,11:18,N,nominal,1.0NRT,297.1,6.3,D
47.6805,29.07028,336.9,0.43,0.46,2019-10-10,11:18,N,nominal,1.0NRT,295.3,10.9,D
47.7505,29.98462,350.9,0.47,0.48,2019-10-10,11:18,N,nominal,1.0NRT,297.4,14.2,D
47.68097,29.07605,367,0.43,0.46,2019-10-10,11:18,N,high,1.0NRT,301.1,10.9,D
47.65938,29.93629,344,0.47,0.48,2019-10-10,11:18,N,nominal,1.0NRT,299.1,9.9,D
47.67625,30.62698,339.7,0.5,0.49,2019-10-10,11:18,N,nominal,1.0NRT,296.5,3.8,D
47.56707,29.30005,340,0.44,0.46,2019-10-10,11:18,N,nominal,1.0NRT,298.6,6.2,D
47.54876,29.23154,329.3,0.44,0.46,2019-10-10,11:18,N,nominal,1.0NRT,296.2,10.9,D
47.5483,29.22559,367,0.44,0.46,2019-10-10,11:18,N,high,1.0NRT,302.8,25.4,D
47.54359,29.22055,353.6,0.44,0.46,2019-10-10,11:18,N,nominal,1.0NRT,298.8,25.4,D
47.54404,29.22639,354.8,0.44,0.46,2019-10-10,11:18,N,nominal,1.0NRT,304.3,25.4,D
47.54451,29.23238,342,0.44,0.46,2019-10-10,11:18,N,nominal,1.0NRT,298.1,10.9,D
47.53934,29.22135,342.9,0.44,0.46,2019-10-10,11:18,N,nominal,1.0NRT,297.3,6.3,D
47.5133,29.41354,340.4,0.44,0.46,2019-10-10,11:18,N,nominal,1.0NRT,296.2,4.3,D
47.45181,29.76102,328.8,0.46,0.47,2019-10-10,11:18,N,nominal,1.0NRT,296.6,2.5,D
47.45224,29.76708,345,0.46,0.47,2019-10-10,11:18,N,nominal,1.0NRT,295.2,6.8,D
47.44788,29.7678,340.5,0.46,0.47,2019-10-10,11:18,N,nominal,1.0NRT,297.5,5.6,D
47.45232,29.76183,329.6,0.46,0.47,2019-10-10,11:18,N,nominal,1.0NRT,296.9,3.1,D
47.45279,29.76794,330.6,0.46,0.47,2019-10-10,11:18,N,nominal,1.0NRT,294.1,3.1,D
47.44796,29.76258,332.8,0.46,0.47,2019-10-10,11:18,N,nominal,1.0NRT,297,5.6,D
47.44842,29.76864,342.4,0.46,0.47,2019-10-10,11:18,N,nominal,1.0NRT,297,5.6,D
47.39997,29.37358,348.5,0.44,0.46,2019-10-10,11:18,N,nominal,1.0NRT,305.8,44,D
47.41097,29.79985,339.4,0.46,0.47,2019-10-10,11:18,N,nominal,1.0NRT,296.4,6.4,D
47.15417,29.85073,347.5,0.46,0.47,2019-10-10,11:18,N,nominal,1.0NRT,298.5,8.6,D
47.08215,29.1835,331.8,0.43,0.46,2019-10-10,11:18,N,nominal,1.0NRT,296.5,4,D
47.07846,29.18048,350.4,0.43,0.46,2019-10-10,11:18,N,nominal,1.0NRT,300.6,18.9,D
47.07894,29.18619,345.2,0.43,0.46,2019-10-10,11:18,N,nominal,1.0NRT,301.5,19.2,D
47.07424,29.18128,338,0.43,0.46,2019-10-10,11:18,N,nominal,1.0NRT,297.3,2,D
47.27136,34.67672,352.5,0.39,0.59,2019-10-10,11:18,N,nominal,1.0NRT,287.4,6.3,D
46.88996,29.44163,339.7,0.44,0.46,2019-10-10,11:18,N,nominal,1.0NRT,295.9,3.6,D
46.89215,29.44355,336.4,0.44,0.46,2019-10-10,11:18,N,nominal,1.0NRT,295,3.1,D
46.7499,29.52913,332.7,0.44,0.46,2019-10-10,11:18,N,nominal,1.0NRT,298.6,2.7,D
46.14309,24.31283,345.9,0.42,0.38,2019-10-10,11:18,N,nominal,1.0NRT,299.9,15.6,D
46.57012,34.70602,335.4,0.38,0.59,2019-10-10,11:18,N,nominal,1.0NRT,292.7,4.1,D
46.38428,34.58911,345.3,0.38,0.59,2019-10-10,11:18,N,nominal,1.0NRT,302.2,29.5,D
46.38446,34.59413,367,0.38,0.59,2019-10-10,11:18,N,high,1.0NRT,305.8,44,D
46.39048,34.93531,348.2,0.39,0.6,2019-10-10,11:18,N,nominal,1.0NRT,293.2,5,D
46.20386,33.40371,344.9,0.33,0.55,2019-10-10,11:18,N,nominal,1.0NRT,284.4,5.3,D
45.25182,26.81699,344,0.49,0.4,2019-10-10,11:18,N,nominal,1.0NRT,300.7,15.2,D
45.44989,28.93263,337.5,0.4,0.44,2019-10-10,11:18,N,nominal,1.0NRT,297.7,3.2,D
45.25911,27.32203,334.8,0.51,0.41,2019-10-10,11:18,N,nominal,1.0NRT,295.6,3.8,D
45.25385,27.54015,328.8,0.52,0.42,2019-10-10,11:18,N,nominal,1.0NRT,296.6,3.8,D
44.95423,24.91582,332.2,0.42,0.38,2019-10-10,11:18,N,nominal,1.0NRT,289.6,3.8,D
44.54111,22.85427,329.5,0.39,0.36,2019-10-10,11:18,N,nominal,1.0NRT,295.1,3.3,D
45.10426,27.63387,329,0.53,0.42,2019-10-10,11:18,N,nominal,1.0NRT,295.3,3,D
44.49662,22.83153,327.6,0.39,0.36,2019-10-10,11:18,N,nominal,1.0NRT,292.2,1.9,D
44.88882,26.89287,347.9,0.49,0.4,2019-10-10,11:18,N,nominal,1.0NRT,292.4,30.7,D
44.9082,27.07506,332.7,0.5,0.41,2019-10-10,11:18,N,nominal,1.0NRT,296.9,2.9,D
44.88577,26.89987,340.4,0.49,0.4,2019-10-10,11:18,N,nominal,1.0NRT,296.7,30.7,D
44.86661,27.00631,328.1,0.49,0.41,2019-10-10,11:18,N,nominal,1.0NRT,297.6,4.6,D
44.69606,25.51267,334.1,0.44,0.38,2019-10-10,11:18,N,nominal,1.0NRT,294.9,7.1,D
44.86156,26.99451,338.4,0.49,0.41,2019-10-10,11:18,N,nominal,1.0NRT,299.3,4.9,D
44.33728,22.81388,332.5,0.39,0.36,2019-10-10,11:18,N,nominal,1.0NRT,298.1,2.8,D
44.85783,26.99529,340.8,0.49,0.41,2019-10-10,11:18,N,nominal,1.0NRT,299.1,4.9,D
44.85849,27.00158,328.3,0.49,0.41,2019-10-10,11:18,N,low,1.0NRT,298.8,4,D
44.68618,25.52069,351.2,0.44,0.38,2019-10-10,11:18,N,nominal,1.0NRT,298.1,12,D
44.86137,26.99545,335.9,0.49,0.4,2019-10-10,11:18,N,nominal,1.0NRT,299.2,5,D
44.85696,26.98995,329.1,0.49,0.4,2019-10-10,11:18,N,nominal,1.0NRT,299.4,2.8,D
44.85764,26.99622,340.1,0.49,0.4,2019-10-10,11:18,N,nominal,1.0NRT,299.2,5,D
44.68313,25.51737,350,0.44,0.38,2019-10-10,11:18,N,nominal,1.0NRT,299,11.4,D
44.6838,25.5229,346.7,0.44,0.38,2019-10-10,11:18,N,nominal,1.0NRT,302.6,11.4,D
44.67962,25.5182,338.4,0.44,0.38,2019-10-10,11:18,N,nominal,1.0NRT,297.5,11.4,D
44.67393,25.53092,345.2,0.44,0.38,2019-10-10,11:18,N,nominal,1.0NRT,297.9,11.4,D
44.64632,25.45232,327.4,0.44,0.38,2019-10-10,11:18,N,nominal,1.0NRT,295.5,2.4,D
44.64348,25.45865,333.8,0.44,0.38,2019-10-10,11:18,N,nominal,1.0NRT,297.6,8.9,D
44.64415,25.46415,334.2,0.44,0.38,2019-10-10,11:18,N,nominal,1.0NRT,292,8.9,D
44.79512,26.80602,333.6,0.48,0.4,2019-10-10,11:18,N,nominal,1.0NRT,299.6,3.6,D
44.63847,25.47681,356.1,0.44,0.38,2019-10-10,11:18,N,nominal,1.0NRT,299.2,7.9,D
44.64827,25.58822,349.5,0.44,0.38,2019-10-10,11:18,N,nominal,1.0NRT,297.1,7.7,D
44.64475,25.58905,328.7,0.44,0.38,2019-10-10,11:18,N,nominal,1.0NRT,295.8,7.7,D
44.63259,25.51788,331,0.44,0.38,2019-10-10,11:18,N,nominal,1.0NRT,295.2,3.2,D
44.24706,22.65641,346.7,0.39,0.36,2019-10-10,11:18,N,nominal,1.0NRT,300.3,5.3,D
44.76895,26.77388,340.3,0.48,0.4,2019-10-10,11:18,N,nominal,1.0NRT,299.4,6.2,D
37.84775,13.3341,336.1,0.33,0.55,2019-10-10,11:18,N,nominal,1.0NRT,298,4.4,D
37.74481,13.74606,327.9,0.63,0.54,2019-10-10,11:18,N,nominal,1.0NRT,294.7,2.5,D
37.69037,13.69806,341.7,0.63,0.54,2019-10-10,11:18,N,nominal,1.0NRT,296.9,7.5,D
40.62162,32.53746,326.8,0.53,0.5,2019-10-10,11:18,N,nominal,1.0NRT,293.5,1.4,D
39.86525,26.24409,328.6,0.42,0.38,2019-10-10,11:18,N,nominal,1.0NRT,300.3,2.3,D
37.71205,14.72358,328.6,0.56,0.51,2019-10-10,11:18,N,nominal,1.0NRT,296,3.3,D
37.71056,14.71939,332.5,0.56,0.51,2019-10-10,11:18,N,nominal,1.0NRT,295.5,4.8,D
40.40266,34.07038,341.9,0.32,0.54,2019-10-10,11:18,N,nominal,1.0NRT,301.9,4.2,D
39.83456,28.09979,326.7,0.48,0.4,2019-10-10,11:18,N,nominal,1.0NRT,299.8,2,D
40.28145,34.2254,338,0.32,0.55,2019-10-10,11:18,N,nominal,1.0NRT,303.3,3.3,D
39.21103,25.94989,335.9,0.41,0.37,2019-10-10,11:18,N,nominal,1.0NRT,296.7,2.2,D
39.73279,34.28363,343,0.32,0.55,2019-10-10,11:18,N,nominal,1.0NRT,303.9,2.9,D
39.072,32.07621,339.5,0.49,0.48,2019-10-10,11:18,N,nominal,1.0NRT,304.3,5.5,D
38.99041,31.46228,351.9,0.45,0.47,2019-10-10,11:18,N,nominal,1.0NRT,310,11.6,D
38.99358,31.46457,333,0.45,0.47,2019-10-10,11:18,N,nominal,1.0NRT,303,6.8,D
38.98879,31.46,331.6,0.45,0.47,2019-10-10,11:18,N,nominal,1.0NRT,304.5,4,D
38.98926,31.46522,353.2,0.45,0.47,2019-10-10,11:18,N,nominal,1.0NRT,307.5,6.8,D
38.47055,32.27573,335.2,0.49,0.49,2019-10-10,11:18,N,low,1.0NRT,305.3,6.6,D
37.54813,31.77486,344.9,0.45,0.47,2019-10-10,11:18,N,nominal,1.0NRT,311.5,5.6,D
37.04392,30.91411,330,0.4,0.44,2019-10-10,11:18,N,nominal,1.0NRT,302.9,2.3,D
36.83826,34.9414,367,0.33,0.55,2019-10-10,11:18,N,high,1.0NRT,303.9,8.6,D
36.83667,34.94287,367,0.33,0.55,2019-10-10,11:18,N,high,1.0NRT,302.9,4.7,D
35.155,33.76657,335.2,0.54,0.51,2019-10-10,11:18,N,nominal,1.0NRT,301.7,3,D
48.81816,33.61945,339.4,0.35,0.57,2019-10-10,11:24,N,nominal,1.0NRT,286.6,4.9,D
47.93845,30.87708,347.3,0.52,0.5,2019-10-10,11:24,N,nominal,1.0NRT,296.6,13,D
47.94265,30.8693,351.6,0.52,0.5,2019-10-10,11:24,N,nominal,1.0NRT,297.3,13,D
47.94399,29.92107,342.7,0.47,0.48,2019-10-10,11:24,N,nominal,1.0NRT,301.8,87.3,D
47.94886,29.92655,367,0.47,0.48,2019-10-10,11:24,N,high,1.0NRT,307.1,34,D
47.94931,29.93284,329.2,0.47,0.48,2019-10-10,11:24,N,nominal,1.0NRT,295.9,34,D
47.94841,29.92027,353.1,0.47,0.48,2019-10-10,11:24,N,nominal,1.0NRT,305.6,53.6,D
47.95374,29.93202,340.4,0.47,0.48,2019-10-10,11:24,N,nominal,1.0NRT,293.8,34,D
47.95328,29.92572,338.4,0.47,0.48,2019-10-10,11:24,N,nominal,1.0NRT,307.4,34,D
47.97004,29.90997,351.6,0.47,0.48,2019-10-10,11:24,N,nominal,1.0NRT,298,8.8,D
47.97446,29.90922,343.1,0.47,0.48,2019-10-10,11:24,N,nominal,1.0NRT,299.9,21,D
47.974,29.90292,337.6,0.47,0.48,2019-10-10,11:24,N,nominal,1.0NRT,297.9,10.8,D
47.96746,29.81416,326.9,0.47,0.48,2019-10-10,11:24,N,nominal,1.0NRT,294.1,2.7,D
47.99612,30.08334,327.2,0.48,0.48,2019-10-10,11:24,N,nominal,1.0NRT,293.5,1.6,D
48.01574,30.29453,326.2,0.49,0.49,2019-10-10,11:24,N,nominal,1.0NRT,294.9,5,D
48.01527,30.28788,344.3,0.49,0.49,2019-10-10,11:24,N,nominal,1.0NRT,296.8,5,D
48.01977,30.28714,335.4,0.49,0.49,2019-10-10,11:24,N,nominal,1.0NRT,295.5,5.8,D
48.01646,30.28653,344.1,0.49,0.49,2019-10-10,11:24,N,nominal,1.0NRT,296.4,9.3,D
48.02726,29.97807,348.8,0.48,0.48,2019-10-10,11:24,N,nominal,1.0NRT,296,8.5,D
48.0317,29.97739,341.2,0.48,0.48,2019-10-10,11:24,N,nominal,1.0NRT,295.8,8,D
47.96477,28.96273,327.6,0.43,0.46,2019-10-10,11:24,N,nominal,1.0NRT,289.4,4.6,D
48.02758,29.61103,345,0.46,0.47,2019-10-10,11:24,N,nominal,1.0NRT,295.9,7.5,D
48.03194,29.61032,336.6,0.46,0.47,2019-10-10,11:24,N,nominal,1.0NRT,295.3,5.2,D
48.21657,31.46372,346.8,0.56,0.51,2019-10-10,11:24,N,nominal,1.0NRT,292.7,9.3,D
48.21614,31.45599,328.5,0.56,0.51,2019-10-10,11:24,N,nominal,1.0NRT,292.7,9.3,D
48.21085,30.80935,340.7,0.52,0.5,2019-10-10,11:24,N,nominal,1.0NRT,295.4,14.1,D
48.14152,29.66188,334.1,0.46,0.47,2019-10-10,11:24,N,nominal,1.0NRT,294.3,5,D
48.17311,29.97465,351.2,0.48,0.48,2019-10-10,11:24,N,nominal,1.0NRT,297.5,10,D
48.15211,29.68522,329.3,0.46,0.47,2019-10-10,11:24,N,nominal,1.0NRT,295.5,2.3,D
48.21075,30.31779,326.9,0.49,0.49,2019-10-10,11:24,N,nominal,1.0NRT,291.9,1.3,D
48.25335,30.67426,327.3,0.51,0.5,2019-10-10,11:24,N,nominal,1.0NRT,293.9,1,D
48.32948,31.59856,340.9,0.57,0.52,2019-10-10,11:24,N,nominal,1.0NRT,294.9,15.9,D
48.29503,30.99402,340,0.53,0.5,2019-10-10,11:24,N,nominal,1.0NRT,295.4,5.3,D
48.23653,30.00949,343.4,0.48,0.48,2019-10-10,11:24,N,nominal,1.0NRT,294.9,6.4,D
48.24098,30.00876,341.6,0.48,0.48,2019-10-10,11:24,N,nominal,1.0NRT,293.4,6.4,D
48.24054,30.00231,343.7,0.48,0.48,2019-10-10,11:24,N,nominal,1.0NRT,296,6.4,D
48.30604,30.71595,338.9,0.52,0.5,2019-10-10,11:24,N,nominal,1.0NRT,295.2,7.7,D
48.28616,30.33991,367,0.5,0.49,2019-10-10,11:24,N,high,1.0NRT,295.8,13.9,D
48.37725,31.33644,331.8,0.55,0.51,2019-10-10,11:24,N,nominal,1.0NRT,293.3,7.4,D
48.18415,28.379,333.5,0.41,0.45,2019-10-10,11:24,N,nominal,1.0NRT,291.6,3.8,D
48.1857,28.38142,340.8,0.41,0.45,2019-10-10,11:24,N,nominal,1.0NRT,293.8,4.8,D
48.417,31.63459,330.8,0.57,0.52,2019-10-10,11:24,N,nominal,1.0NRT,291.2,3.9,D
48.4264,31.72091,327.3,0.58,0.52,2019-10-10,11:24,N,nominal,1.0NRT,291.3,6.3,D
48.42183,31.63401,329.7,0.57,0.52,2019-10-10,11:24,N,nominal,1.0NRT,291.1,4.5,D
48.45222,30.99436,356,0.53,0.5,2019-10-10,11:24,N,nominal,1.0NRT,295.3,13.1,D
48.40828,29.98815,343.5,0.48,0.48,2019-10-10,11:24,N,nominal,1.0NRT,283.1,7.6,D
48.41275,29.98758,337.7,0.48,0.48,2019-10-10,11:24,N,nominal,1.0NRT,280.7,5.5,D
48.41051,29.98821,353.9,0.48,0.48,2019-10-10,11:24,N,nominal,1.0NRT,283.7,12.6,D
48.41009,29.98171,332.5,0.48,0.48,2019-10-10,11:24,N,nominal,1.0NRT,283.5,3.6,D
48.54444,31.50255,328.6,0.56,0.52,2019-10-10,11:24,N,nominal,1.0NRT,292,3.8,D
48.44099,29.59052,333.5,0.46,0.47,2019-10-10,11:24,N,nominal,1.0NRT,266.8,6,D
48.44053,29.58414,356.4,0.46,0.47,2019-10-10,11:24,N,nominal,1.0NRT,276.5,17.7,D
48.44007,29.57779,341.6,0.46,0.47,2019-10-10,11:24,N,nominal,1.0NRT,274.3,17.7,D
48.4888,29.88283,332.8,0.48,0.48,2019-10-10,11:24,N,nominal,1.0NRT,293,4.7,D
48.56396,30.02965,346.2,0.48,0.48,2019-10-10,11:24,N,nominal,1.0NRT,297.4,20.4,D
48.5635,30.02288,334.4,0.48,0.48,2019-10-10,11:24,N,nominal,1.0NRT,297.2,20.4,D
48.58792,30.32097,336.8,0.5,0.49,2019-10-10,11:24,N,nominal,1.0NRT,292.1,6.4,D
48.58747,30.31421,353.9,0.5,0.49,2019-10-10,11:24,N,nominal,1.0NRT,298.2,10.3,D
48.56844,30.02899,341,0.48,0.48,2019-10-10,11:24,N,nominal,1.0NRT,290.7,20.4,D
48.56797,30.02222,333.4,0.48,0.48,2019-10-10,11:24,N,nominal,1.0NRT,295.7,20.4,D
48.59246,30.32032,335.5,0.5,0.49,2019-10-10,11:24,N,nominal,1.0NRT,293.1,5.8,D
48.59202,30.31353,346.6,0.5,0.49,2019-10-10,11:24,N,nominal,1.0NRT,295.2,8.1,D
48.54875,29.5583,330.6,0.46,0.47,2019-10-10,11:24,N,nominal,1.0NRT,267.8,2.1,D
48.54597,29.52026,333.1,0.46,0.47,2019-10-10,11:24,N,nominal,1.0NRT,267.4,8.7,D
48.55035,29.51957,357.1,0.46,0.47,2019-10-10,11:24,N,nominal,1.0NRT,274.4,8.7,D
48.54988,29.51319,342.3,0.46,0.47,2019-10-10,11:24,N,nominal,1.0NRT,268,8.7,D
48.64392,30.83565,367,0.53,0.5,2019-10-10,11:24,N,high,1.0NRT,295.7,14.1,D
48.81496,33.6227,338.5,0.35,0.57,2019-10-10,11:24,N,nominal,1.0NRT,286.4,4.6,D
48.59372,29.68716,346.7,0.47,0.48,2019-10-10,11:24,N,nominal,1.0NRT,286.9,55.9,D
48.59326,29.68082,345.9,0.47,0.48,2019-10-10,11:24,N,nominal,1.0NRT,291.9,62,D
48.62046,29.76665,347.9,0.47,0.48,2019-10-10,11:24,N,nominal,1.0NRT,282.8,15.7,D
48.62489,29.7659,338.7,0.47,0.48,2019-10-10,11:24,N,nominal,1.0NRT,277.1,6.5,D
48.6521,29.96782,334.4,0.48,0.48,2019-10-10,11:24,N,nominal,1.0NRT,286.1,6.1,D
48.59811,28.91912,338.3,0.43,0.46,2019-10-10,11:24,N,nominal,1.0NRT,288.3,12.2,D
48.59764,28.91314,355,0.43,0.46,2019-10-10,11:24,N,nominal,1.0NRT,293.2,12.2,D
48.93058,34.97951,327.4,0.41,0.61,2019-10-10,11:24,N,nominal,1.0NRT,286,2.3,D
48.64772,28.89241,341.8,0.43,0.46,2019-10-10,11:24,N,nominal,1.0NRT,289.5,12.9,D
48.65196,28.89158,353.4,0.43,0.46,2019-10-10,11:24,N,nominal,1.0NRT,292.5,12.9,D
48.65149,28.88562,351.2,0.43,0.46,2019-10-10,11:24,N,nominal,1.0NRT,294.1,17.4,D
48.65038,28.89539,333.3,0.43,0.46,2019-10-10,11:24,N,nominal,1.0NRT,288.4,9.3,D
48.64994,28.88944,355.6,0.43,0.46,2019-10-10,11:24,N,nominal,1.0NRT,298.9,22.6,D
48.64949,28.88348,344.5,0.43,0.46,2019-10-10,11:24,N,nominal,1.0NRT,292.6,22.6,D
48.92576,31.13679,349.6,0.55,0.51,2019-10-10,11:24,N,nominal,1.0NRT,312.8,109.5,D
48.93092,31.1437,367,0.55,0.51,2019-10-10,11:24,N,high,1.0NRT,298.7,122.7,D
48.9305,31.13613,208,0.55,0.51,2019-10-10,11:24,N,low,1.0NRT,323.9,188.8,D
48.9361,31.15069,348.9,0.55,0.51,2019-10-10,11:24,N,nominal,1.0NRT,296.5,122.7,D
48.73744,27.73479,341.6,0.39,0.44,2019-10-10,11:24,N,nominal,1.0NRT,274.3,20.5,D
48.74148,27.73405,345.9,0.39,0.44,2019-10-10,11:24,N,nominal,1.0NRT,274.7,20.5,D
48.74101,27.72873,349.4,0.39,0.44,2019-10-10,11:24,N,nominal,1.0NRT,290.8,20.5,D
48.74506,27.72803,327.2,0.39,0.44,2019-10-10,11:24,N,nominal,1.0NRT,275.8,5.3,D
49.09446,29.59451,326.5,0.47,0.48,2019-10-10,11:24,N,nominal,1.0NRT,290.1,3,D
49.17638,29.83505,348.9,0.48,0.48,2019-10-10,11:24,N,nominal,1.0NRT,314.2,42.5,D
49.18085,29.83434,348.3,0.48,0.48,2019-10-10,11:24,N,nominal,1.0NRT,301.3,42.5,D
49.1804,29.82772,339.3,0.48,0.48,2019-10-10,11:24,N,nominal,1.0NRT,293.8,42.5,D
48.49185,22.14007,325.8,0.4,0.37,2019-10-10,11:24,N,nominal,1.0NRT,289.7,2.1,D
49.13483,27.73349,339.4,0.39,0.44,2019-10-10,11:24,N,nominal,1.0NRT,290.9,3,D
49.50842,32.55982,325.6,0.32,0.55,2019-10-10,11:24,N,nominal,1.0NRT,289.7,1.1,D
49.5104,32.55714,334.6,0.32,0.55,2019-10-10,11:24,N,nominal,1.0NRT,289.8,1.9,D
49.61824,29.72124,367,0.48,0.48,2019-10-10,11:24,N,high,1.0NRT,293.7,44.3,D
49.61777,29.71444,343.1,0.48,0.48,2019-10-10,11:24,N,nominal,1.0NRT,286.2,44.3,D
49.62317,29.72733,330.8,0.48,0.48,2019-10-10,11:24,N,nominal,1.0NRT,286.8,24.4,D
49.6227,29.72052,346.6,0.48,0.48,2019-10-10,11:24,N,nominal,1.0NRT,295.9,44.3,D
49.62223,29.71369,342.8,0.48,0.48,2019-10-10,11:24,N,nominal,1.0NRT,287.7,44.3,D
49.71653,30.67152,331.7,0.53,0.5,2019-10-10,11:24,N,nominal,1.0NRT,285.7,2.8,D
49.72121,30.6709,334.4,0.53,0.5,2019-10-10,11:24,N,nominal,1.0NRT,283.5,2.8,D
49.72681,30.68528,347.4,0.53,0.5,2019-10-10,11:24,N,nominal,1.0NRT,284.3,8.3,D
49.71829,30.6708,337.9,0.53,0.5,2019-10-10,11:24,N,nominal,1.0NRT,285.3,6.2,D
49.72382,30.6852,351.2,0.53,0.5,2019-10-10,11:24,N,nominal,1.0NRT,286.4,13.3,D
49.72297,30.67015,330.2,0.53,0.5,2019-10-10,11:24,N,nominal,1.0NRT,283.1,6.2,D
49.32056,25.55456,338.5,0.49,0.4,2019-10-10,11:24,N,nominal,1.0NRT,292.2,8.7,D
49.596,28.49363,340.3,0.43,0.46,2019-10-10,11:24,N,nominal,1.0NRT,285.3,9.7,D
49.59554,28.48766,350,0.43,0.46,2019-10-10,11:24,N,nominal,1.0NRT,289.7,9.7,D
49.59977,28.48691,341,0.43,0.46,2019-10-10,11:24,N,nominal,1.0NRT,281.6,7.1,D
49.59885,28.47504,331,0.43,0.46,2019-10-10,11:24,N,nominal,1.0NRT,285.8,10.9,D
49.56384,28.03161,341.7,0.41,0.45,2019-10-10,11:24,N,nominal,1.0NRT,284.7,7.5,D
49.6655,28.72664,345.4,0.44,0.46,2019-10-10,11:24,N,nominal,1.0NRT,287,5.6,D
49.58751,27.47958,332.6,0.39,0.44,2019-10-10,11:24,N,nominal,1.0NRT,281.4,6,D
49.58702,27.47412,344.2,0.39,0.44,2019-10-10,11:24,N,nominal,1.0NRT,282.7,6,D
49.78349,28.60596,347,0.43,0.46,2019-10-10,11:24,N,nominal,1.0NRT,288.2,7.8,D
49.721,27.04563,340.8,0.56,0.43,2019-10-10,11:24,N,nominal,1.0NRT,306.6,42.9,D
49.72029,27.03781,347.3,0.56,0.43,2019-10-10,11:24,N,nominal,1.0NRT,291.2,42.9,D
49.47881,24.22742,332.9,0.45,0.39,2019-10-10,11:24,N,nominal,1.0NRT,285.7,3.4,D
50.5018,29.55474,335.1,0.48,0.48,2019-10-10,11:24,N,nominal,1.0NRT,280.2,3.9,D
50.50338,29.5533,330.7,0.48,0.48,2019-10-10,11:24,N,nominal,1.0NRT,278.7,3.7,D
50.52751,29.11081,352.9,0.46,0.47,2019-10-10,11:24,N,nominal,1.0NRT,290,9,D
50.68647,29.43205,337.4,0.48,0.48,2019-10-10,11:24,N,nominal,1.0NRT,285.3,5.4,D
51.09058,28.90218,327.6,0.46,0.47,2019-10-10,11:24,N,nominal,1.0NRT,286.6,1.5,D
51.0901,28.89552,328,0.46,0.47,2019-10-10,11:24,N,nominal,1.0NRT,286.6,8.5,D
51.08961,28.8889,336.4,0.46,0.47,2019-10-10,11:24,N,nominal,1.0NRT,289.1,8.5,D
51.09447,28.89482,340.4,0.46,0.47,2019-10-10,11:24,N,nominal,1.0NRT,287.9,11.7,D
51.09982,28.90745,325.6,0.46,0.47,2019-10-10,11:24,N,nominal,1.0NRT,286.3,4.3,D
51.08955,28.88939,340,0.46,0.47,2019-10-10,11:24,N,nominal,1.0NRT,290.5,9.7,D
51.09438,28.89531,343.5,0.46,0.47,2019-10-10,11:24,N,nominal,1.0NRT,288.3,11.2,D
51.09393,28.88868,327,0.46,0.47,2019-10-10,11:24,N,nominal,1.0NRT,286.2,4.7,D
51.10403,28.90724,339.7,0.46,0.47,2019-10-10,11:24,N,nominal,1.0NRT,285.6,5.1,D
52.42997,33.61222,325.7,0.37,0.58,2019-10-10,11:24,N,nominal,1.0NRT,282.9,1.8,D
51.16752,3.81341,345.2,0.36,0.58,2019-10-10,11:24,N,nominal,1.0NRT,285,5.7,D
51.17238,3.8097,342.8,0.36,0.58,2019-10-10,11:24,N,nominal,1.0NRT,287.4,3.7,D
51.17722,3.80592,325.3,0.36,0.58,2019-10-10,11:24,N,nominal,1.0NRT,287.3,3.7,D
51.02835,2.28081,346.2,0.42,0.61,2019-10-10,11:24,N,nominal,1.0NRT,285.3,5.7,D
51.03347,2.27668,333.7,0.42,0.61,2019-10-10,11:24,N,nominal,1.0NRT,280.7,3.3,D
58.46239,0.24755,328.1,0.54,0.51,2019-10-10,11:24,N,nominal,1.0NRT,279.6,3,D
59.16661,2.48608,336.6,0.44,0.46,2019-10-10,11:24,N,nominal,1.0NRT,281.6,4.4,D
57.48457,-3.43808,327.9,0.38,0.59,2019-10-10,11:24,N,nominal,1.0NRT,282.7,3.2,D
37.08212,-6.17449,336,0.52,0.42,2019-10-10,13:00,N,nominal,1.0NRT,300,1.9,D
37.08759,-6.09949,338.9,0.52,0.41,2019-10-10,13:00,N,nominal,1.0NRT,300.1,9.2,D
37.08382,-6.17743,335.5,0.52,0.41,2019-10-10,13:00,N,nominal,1.0NRT,299.4,4.8,D
37.11724,-6.1694,334.1,0.52,0.41,2019-10-10,13:00,N,nominal,1.0NRT,298.3,2.6,D
37.1712,-6.13734,336.4,0.52,0.41,2019-10-10,13:00,N,nominal,1.0NRT,299.8,5.6,D
37.16895,-6.1488,331.5,0.52,0.41,2019-10-10,13:00,N,nominal,1.0NRT,298.6,4.8,D
37.17269,-6.14995,333.6,0.52,0.41,2019-10-10,13:00,N,nominal,1.0NRT,298.2,4.8,D
39.16798,-3.23652,340.6,0.4,0.37,2019-10-10,13:00,N,nominal,1.0NRT,305.3,2.4,D
38.11913,-8.65102,344,0.43,0.46,2019-10-10,13:00,N,nominal,1.0NRT,309.7,83.6,D
38.11805,-8.65589,319.2,0.43,0.46,2019-10-10,13:00,N,low,1.0NRT,320.8,83.6,D
38.92517,-6.82284,341.7,0.52,0.41,2019-10-10,13:00,N,nominal,1.0NRT,304.5,39.1,D
38.92347,-6.82447,344.7,0.52,0.41,2019-10-10,13:00,N,nominal,1.0NRT,311.4,65.4,D
38.9482,-6.82003,334.1,0.51,0.41,2019-10-10,13:00,N,nominal,1.0NRT,303.5,5.6,D
39.22107,-5.75785,336.6,0.46,0.39,2019-10-10,13:00,N,nominal,1.0NRT,308.7,2.8,D
41.44782,15.271,336.5,0.71,0.75,2019-10-10,13:00,N,nominal,1.0NRT,295.5,8.3,D
41.45488,15.27138,354.1,0.71,0.75,2019-10-10,13:00,N,nominal,1.0NRT,294.4,8.3,D
41.4519,15.27195,367,0.71,0.75,2019-10-10,13:00,N,high,1.0NRT,295.6,16.3,D
41.65828,14.92253,333.4,0.68,0.74,2019-10-10,13:00,N,nominal,1.0NRT,294.2,10.4,D
41.65823,14.91561,334.4,0.68,0.74,2019-10-10,13:00,N,nominal,1.0NRT,293.4,7.1,D
41.65717,14.9231,326,0.68,0.74,2019-10-10,13:00,N,nominal,1.0NRT,294.1,6.5,D
41.65715,14.91606,344.9,0.68,0.74,2019-10-10,13:00,N,nominal,1.0NRT,294.7,6.5,D
42.40629,13.96492,337.3,0.62,0.71,2019-10-10,13:00,N,nominal,1.0NRT,292.1,6.5,D
41.59959,0.88186,331.9,0.43,0.38,2019-10-10,13:00,N,nominal,1.0NRT,297.6,9.2,D
41.61433,0.45807,342.4,0.42,0.38,2019-10-10,13:00,N,nominal,1.0NRT,297.6,7.2,D
41.61283,-4.73018,348,0.41,0.37,2019-10-10,13:00,N,nominal,1.0NRT,301.7,3.7,D
41.61618,-4.73122,340.3,0.41,0.37,2019-10-10,13:00,N,nominal,1.0NRT,300,3.7,D
43.4473,4.89858,343.6,0.44,0.46,2019-10-10,13:00,N,nominal,1.0NRT,298.9,9.3,D
43.50274,4.70016,335,0.43,0.46,2019-10-10,13:00,N,nominal,1.0NRT,296.2,6.4,D
43.62142,4.75003,336,0.43,0.46,2019-10-10,13:00,N,nominal,1.0NRT,297.8,6.2,D
44.08554,0.46757,347.4,0.44,0.39,2019-10-10,13:00,N,nominal,1.0NRT,298,5.4,D
43.54001,-5.83173,335.4,0.41,0.37,2019-10-10,13:00,N,nominal,1.0NRT,299.7,4,D
47.17425,7.56059,328.5,0.32,0.55,2019-10-10,13:00,N,nominal,1.0NRT,287.7,1.9,D
37.62203,-5.15321,343.7,0.46,0.39,2019-10-10,13:00,N,nominal,1.0NRT,305.8,3.8,D
37.62559,-5.15426,334.8,0.46,0.39,2019-10-10,13:00,N,nominal,1.0NRT,304.1,3.8,D
37.82069,-3.80082,339.3,0.42,0.37,2019-10-10,13:00,N,nominal,1.0NRT,304.2,2.6,D
39.67244,9.14384,346.8,0.33,0.55,2019-10-10,13:00,N,nominal,1.0NRT,298.1,4.7,D
39.67352,9.14296,339.7,0.33,0.55,2019-10-10,13:00,N,nominal,1.0NRT,296.9,3.2,D
39.68085,8.91305,345.1,0.32,0.55,2019-10-10,13:00,N,nominal,1.0NRT,299.2,3,D
40.3982,9.63941,335.5,0.36,0.57,2019-10-10,13:00,N,nominal,1.0NRT,295.8,2.2,D
35.50485,7.49179,338.9,0.49,0.49,2019-10-10,13:00,N,nominal,1.0NRT,304.1,3.4,D
35.34861,5.76057,343,0.39,0.44,2019-10-10,13:00,N,nominal,1.0NRT,308.3,3.5,D
34.66126,-1.36762,341.2,0.39,0.36,2019-10-10,13:00,N,low,1.0NRT,314.5,4.2,D
34.66323,-1.36745,349.1,0.39,0.36,2019-10-10,13:00,N,nominal,1.0NRT,317.7,17.4,D
34.66586,-1.37241,332.7,0.39,0.36,2019-10-10,13:00,N,low,1.0NRT,307.4,17.4,D
34.87868,-1.02394,333.5,0.39,0.36,2019-10-10,13:00,N,low,1.0NRT,306.2,3,D
35.16218,-1.07467,336.1,0.39,0.36,2019-10-10,13:00,N,nominal,1.0NRT,309.3,1.3,D
36.33374,5.4808,330.9,0.39,0.44,2019-10-10,13:00,N,nominal,1.0NRT,303.4,0.8,D
36.17936,3.74681,331.7,0.49,0.4,2019-10-10,13:00,N,nominal,1.0NRT,306.1,1.7,D
36.03768,2.5416,355.1,0.44,0.38,2019-10-10,13:00,N,nominal,1.0NRT,299.5,11,D
36.47621,6.52968,334.6,0.44,0.46,2019-10-10,13:00,N,nominal,1.0NRT,302.9,5.1,D
35.63083,-0.98857,337,0.39,0.36,2019-10-10,13:00,N,nominal,1.0NRT,306.2,4.6,D
35.80787,-0.25516,350.2,0.38,0.36,2019-10-10,13:00,N,nominal,1.0NRT,306.6,7.5,D
35.8156,-0.26913,344.2,0.38,0.36,2019-10-10,13:00,N,nominal,1.0NRT,303.2,2.4,D
36.88382,9.13808,338.2,0.62,0.54,2019-10-10,13:00,N,nominal,1.0NRT,294.7,8.2,D
36.79044,7.70256,331.4,0.52,0.5,2019-10-10,13:00,N,nominal,1.0NRT,297.3,3,D
36.12789,1.24123,338.3,0.4,0.37,2019-10-10,13:00,N,nominal,1.0NRT,309.1,2.8,D
36.00071,0.23118,330.8,0.39,0.36,2019-10-10,13:00,N,nominal,1.0NRT,305.1,1.2,D
36.01686,0.20122,339,0.39,0.36,2019-10-10,13:00,N,nominal,1.0NRT,306.1,4.3,D
36.58672,3.05933,330.8,0.46,0.39,2019-10-10,13:00,N,nominal,1.0NRT,298.4,2.7,D
36.96702,-1.90651,330.8,0.39,0.36,2019-10-10,13:00,N,nominal,1.0NRT,302.2,1.6,D
36.96619,-3.08192,337.8,0.41,0.37,2019-10-10,13:00,N,nominal,1.0NRT,302.5,11.4,D
36.96956,-3.08278,341.6,0.41,0.37,2019-10-10,13:00,N,nominal,1.0NRT,305.5,11.4,D
36.9688,-3.08725,353.4,0.41,0.37,2019-10-10,13:00,N,nominal,1.0NRT,312.8,11.4,D
36.96804,-3.0917,333.4,0.41,0.37,2019-10-10,13:00,N,nominal,1.0NRT,303.1,4.1,D
36.97216,-3.08813,357,0.41,0.37,2019-10-10,13:00,N,nominal,1.0NRT,304.4,24,D
37.17867,-6.13964,332.1,0.52,0.41,2019-10-10,13:00,N,nominal,1.0NRT,299.3,5.8,D
36.97141,-3.09255,334.1,0.41,0.37,2019-10-10,13:00,N,nominal,1.0NRT,299.7,5.9,D
37.29713,-3.71325,337.1,0.42,0.38,2019-10-10,13:00,N,nominal,1.0NRT,303.9,3.2,D
36.93568,-6.17754,339.8,0.52,0.42,2019-10-10,13:00,N,nominal,1.0NRT,306,3.8,D
37.06756,-6.12731,334.6,0.52,0.41,2019-10-10,13:00,N,nominal,1.0NRT,299.3,3.8,D
37.06417,-6.14453,333.5,0.52,0.41,2019-10-10,13:00,N,nominal,1.0NRT,298.7,3.1,D
37.0758,-6.10554,332.6,0.52,0.41,2019-10-10,13:00,N,nominal,1.0NRT,298.8,5.7,D
37.08924,-6.09754,333.6,0.52,0.41,2019-10-10,13:00,N,nominal,1.0NRT,299.5,6.6,D
51.16871,3.81198,339.7,0.47,0.48,2019-10-10,13:06,N,nominal,1.0NRT,287.1,5,D
51.03165,2.27991,349,0.41,0.45,2019-10-10,13:06,N,nominal,1.0NRT,294.4,37.3,D
51.03229,2.27704,343.1,0.41,0.45,2019-10-10,13:06,N,nominal,1.0NRT,292.1,18.2,D
51.17314,3.81125,336.5,0.47,0.48,2019-10-10,13:06,N,nominal,1.0NRT,288.8,5,D
51.17269,3.80437,326,0.47,0.48,2019-10-10,13:06,N,nominal,1.0NRT,291,5,D
52.49218,4.61399,325.9,0.53,0.5,2019-10-10,13:06,N,nominal,1.0NRT,287,4.6,D
56.76919,0.71287,325.7,0.41,0.45,2019-10-10,13:06,N,nominal,1.0NRT,280.1,2.2,D
58.66719,17.13192,304.3,0.67,0.74,2019-10-10,23:30,N,nominal,1.0NRT,273.6,3.4,N
38.12801,23.52296,297.8,0.57,0.52,2019-10-10,23:36,N,nominal,1.0NRT,284.6,1.4,N
38.10368,32.73878,298,0.38,0.36,2019-10-10,23:36,N,nominal,1.0NRT,281.7,0.4,N
55.39354,31.27536,297.7,0.39,0.44,2019-10-10,23:36,N,nominal,1.0NRT,267.1,0.1,N
52.60967,34.37738,300,0.44,0.38,2019-10-10,23:36,N,nominal,1.0NRT,277.4,0.9,N
52.60619,34.37623,311.2,0.44,0.38,2019-10-10,23:36,N,nominal,1.0NRT,277.5,1.5,N
52.6428,33.85278,329.1,0.45,0.39,2019-10-10,23:36,N,nominal,1.0NRT,275.8,2.7,N
52.84512,29.9921,295.4,0.4,0.45,2019-10-10,23:36,N,nominal,1.0NRT,276.9,0.2,N
48.61008,21.17828,299.1,0.45,0.63,2019-10-10,23:36,N,nominal,1.0NRT,279.4,2.4,N
48.60419,21.17787,318.4,0.45,0.63,2019-10-10,23:36,N,nominal,1.0NRT,278.5,2.2,N
48.43258,25.64227,308.5,0.56,0.51,2019-10-10,23:36,N,nominal,1.0NRT,277.9,2.4,N
48.25644,20.34877,297.9,0.49,0.65,2019-10-10,23:36,N,nominal,1.0NRT,278.8,0.9,N
48.25652,20.35098,302.4,0.49,0.65,2019-10-10,23:36,N,nominal,1.0NRT,278.3,0.7,N
47.90912,21.02678,297.1,0.45,0.63,2019-10-10,23:36,N,nominal,1.0NRT,279.3,1,N
47.90322,21.02643,316.4,0.45,0.63,2019-10-10,23:36,N,nominal,1.0NRT,279.2,2.5,N
47.90309,21.0327,306.9,0.45,0.63,2019-10-10,23:36,N,nominal,1.0NRT,279.5,1.6,N
46.94056,18.93903,295.6,0.56,0.69,2019-10-10,23:36,N,nominal,1.0NRT,279.9,2.1,N
46.94054,18.94664,295.5,0.56,0.69,2019-10-10,23:36,N,nominal,1.0NRT,278.6,1.1,N
46.94035,18.94478,303.9,0.56,0.69,2019-10-10,23:36,N,nominal,1.0NRT,278.8,2.1,N
45.95368,22.86574,295.4,0.36,0.57,2019-10-10,23:36,N,nominal,1.0NRT,278.7,0.7,N
44.73753,21.24965,295.3,0.42,0.61,2019-10-10,23:36,N,nominal,1.0NRT,280.8,1,N
43.92735,27.94765,296.2,0.39,0.44,2019-10-10,23:36,N,nominal,1.0NRT,282.7,0.8,N
43.79924,27.64389,305,0.4,0.44,2019-10-10,23:36,N,nominal,1.0NRT,282.7,0.8,N
43.79688,27.64598,302.9,0.4,0.44,2019-10-10,23:36,N,nominal,1.0NRT,282.8,0.5,N
43.75466,27.51396,295.1,0.41,0.45,2019-10-10,23:36,N,nominal,1.0NRT,283.1,0.3,N
43.7519,27.49809,300,0.41,0.45,2019-10-10,23:36,N,nominal,1.0NRT,282.9,0.6,N
41.26468,31.42509,306.4,0.41,0.37,2019-10-10,23:36,N,nominal,1.0NRT,274.8,1.6,N
41.26402,31.43003,296.7,0.41,0.37,2019-10-10,23:36,N,nominal,1.0NRT,273.1,0.5,N
41.96473,21.45597,296.6,0.39,0.6,2019-10-10,23:36,N,nominal,1.0NRT,283.6,1.2,N
40.76426,32.21848,299.1,0.4,0.37,2019-10-10,23:36,N,nominal,1.0NRT,276.9,0.8,N
40.75611,31.78244,296.6,0.4,0.37,2019-10-10,23:36,N,nominal,1.0NRT,279.6,0.6,N
40.7807,29.60479,300.8,0.46,0.39,2019-10-10,23:36,N,nominal,1.0NRT,287.6,1.5,N
40.80065,29.3745,300.6,0.47,0.4,2019-10-10,23:36,N,nominal,1.0NRT,288,1.3,N
40.75744,29.35971,298.4,0.47,0.4,2019-10-10,23:36,N,nominal,1.0NRT,285.5,0.6,N
41.21906,21.38684,298,0.39,0.59,2019-10-10,23:36,N,nominal,1.0NRT,281.6,1.1,N
41.2135,21.38643,304.1,0.39,0.59,2019-10-10,23:36,N,nominal,1.0NRT,280.3,1.7,N
41.21326,21.39172,315.1,0.39,0.59,2019-10-10,23:36,N,nominal,1.0NRT,283.3,1.7,N
41.20818,21.38084,299.4,0.39,0.59,2019-10-10,23:36,N,nominal,1.0NRT,278.6,2.4,N
41.20795,21.38605,307,0.39,0.59,2019-10-10,23:36,N,nominal,1.0NRT,281.8,1.7,N
41.2073,21.40033,295.9,0.39,0.59,2019-10-10,23:36,N,nominal,1.0NRT,281.1,1.8,N
39.95935,33.14367,302.3,0.38,0.36,2019-10-10,23:36,N,nominal,1.0NRT,282.2,0.7,N
39.94525,33.19112,303.2,0.38,0.36,2019-10-10,23:36,N,nominal,1.0NRT,283.9,1.3,N
39.73942,33.46391,300,0.38,0.36,2019-10-10,23:36,N,nominal,1.0NRT,284.7,2.5,N
39.73544,33.46749,329.9,0.38,0.36,2019-10-10,23:36,N,nominal,1.0NRT,283.6,2.5,N
39.73332,33.46404,320.1,0.38,0.36,2019-10-10,23:36,N,nominal,1.0NRT,281.3,2,N
40.62827,17.99904,295.9,0.58,0.7,2019-10-10,23:36,N,nominal,1.0NRT,285.1,1.1,N
40.51805,17.20754,305.8,0.64,0.72,2019-10-10,23:36,N,nominal,1.0NRT,287.9,1.6,N
40.51126,17.20715,298,0.64,0.72,2019-10-10,23:36,N,nominal,1.0NRT,286.7,1.6,N
40.49768,17.20663,302.5,0.64,0.72,2019-10-10,23:36,N,nominal,1.0NRT,286.8,2.4,N
39.03209,33.53268,304.6,0.38,0.36,2019-10-10,23:36,N,nominal,1.0NRT,280,0.7,N
39.02881,33.53182,299.5,0.38,0.36,2019-10-10,23:36,N,nominal,1.0NRT,279.6,0.5,N
39.02811,33.53622,295.8,0.38,0.36,2019-10-10,23:36,N,nominal,1.0NRT,279.9,0.5,N
39.02155,33.53449,303.3,0.38,0.36,2019-10-10,23:36,N,nominal,1.0NRT,280.4,0.9,N
39.01968,33.52485,296.8,0.38,0.36,2019-10-10,23:36,N,nominal,1.0NRT,280.2,0.2,N
39.86676,26.24351,305.2,0.43,0.46,2019-10-10,23:36,N,nominal,1.0NRT,283.7,1,N
39.86254,26.2429,296.4,0.43,0.46,2019-10-10,23:36,N,nominal,1.0NRT,285.1,1,N
37.86166,29.3745,301.2,0.44,0.39,2019-10-10,23:36,N,nominal,1.0NRT,282.2,0.9,N
37.2523,30.44273,296.9,0.41,0.37,2019-10-10,23:36,N,nominal,1.0NRT,279.5,0.6,N
36.86752,34.76159,305.5,0.41,0.37,2019-10-10,23:36,N,nominal,1.0NRT,292.2,0.9,N
