latitude,longitude,brightness,scan,track,acq_date,acq_time,satellite,confidence,version,bright_t31,frp,daynight
51.825,30.485,341.5,1,1,2019-09-17,00:20,A,100,6.0NRT,289.4,54.3,N
49.887,33.013,301.9,1.3,1.1,2019-09-17,00:20,A,45,6.0NRT,281.2,11.9,N
43.528,23.903,311.9,1,1,2019-09-17,00:25,A,84,6.0NRT,288.8,12.6,N
43.501,23.554,309.1,1,1,2019-09-17,00:25,A,76,6.0NRT,287.2,11.6,N
43.499,23.566,304.9,1,1,2019-09-17,00:25,A,62,6.0NRT,288,8.7,N
43.214,24.365,302,1,1,2019-09-17,00:25,A,46,6.0NRT,286.9,6.9,N
41.445,21.942,314.9,1.1,1,2019-09-17,00:25,A,90,6.0NRT,287.8,17.5,N
43.525,23.928,340.3,1,1,2019-09-17,00:25,A,100,6.0NRT,290.4,46.9,N
43.526,23.915,334.6,1,1,2019-09-17,00:25,A,100,6.0NRT,289.9,37.4,N
43.59,24.118,302.2,1,1,2019-09-17,00:25,A,47,6.0NRT,286.1,7.5,N
43.646,23.497,319.7,1,1,2019-09-17,00:25,A,99,6.0NRT,286.7,20.7,N
43.534,23.93,303.6,1,1,2019-09-17,00:25,A,56,6.0NRT,288.2,7.3,N
53.348,0.025,312.1,1.2,1.1,2019-09-17,02:00,A,84,6.0NRT,279.6,19.3,N
43.446,4.908,304.9,1.3,1.1,2019-09-17,02:05,A,62,6.0NRT,289.6,11,N
43.535,27.625,332.8,4.7,2,2019-09-17,08:10,T,85,6.0NRT,297.6,248.8,D
43.537,27.616,332.8,4.7,2,2019-09-17,08:10,T,85,6.0NRT,297.8,248.3,D
43.519,27.615,317.5,4.7,2,2019-09-17,08:10,T,61,6.0NRT,298.2,86.2,D
50.682,31.199,300,3.4,1.7,2019-09-17,08:10,T,16,6.0NRT,286,17.7,D
52.301,30.562,301.4,3.7,1.8,2019-09-17,08:10,T,44,6.0NRT,283.3,32.1,D
50.313,33.769,314.5,2.5,1.5,2019-09-17,08:10,T,75,6.0NRT,287.9,47.4,D
49.916,29.894,309.5,2.1,1.4,2019-09-17,09:45,T,68,6.0NRT,291.9,21.5,D
52.556,33.711,302.1,2.6,1.6,2019-09-17,09:45,T,47,6.0NRT,288.1,20.9,D
52.546,33.747,303.8,2.6,1.6,2019-09-17,09:45,T,50,6.0NRT,287.6,25.2,D
50.15,28.5,344,1.8,1.3,2019-09-17,09:45,T,93,6.0NRT,294.2,114.4,D
50.155,28.498,339.6,1.8,1.3,2019-09-17,09:45,T,92,6.0NRT,295.7,95.6,D
50.15,28.522,315.4,1.8,1.3,2019-09-17,09:45,T,49,6.0NRT,291,26,D
49.931,28.951,302.3,1.9,1.4,2019-09-17,09:45,T,50,6.0NRT,291,9.1,D
49.613,29.261,307.7,2,1.4,2019-09-17,09:45,T,65,6.0NRT,294.3,15,D
49.997,27.135,311.5,1.6,1.2,2019-09-17,09:45,T,63,6.0NRT,292.8,15.4,D
52.542,33.739,306.8,2.6,1.6,2019-09-17,09:45,T,64,6.0NRT,287.7,34.6,D
52.295,30.525,302.2,1.9,1.4,2019-09-17,09:45,T,11,6.0NRT,287.9,13.1,D
51.024,30.916,305.5,2.2,1.4,2019-09-17,09:45,T,61,6.0NRT,286.5,18.8,D
51.026,30.911,308,2.2,1.4,2019-09-17,09:45,T,63,6.0NRT,287.8,25.1,D
49.887,32.655,302.1,2.9,1.6,2019-09-17,09:45,T,32,6.0NRT,288,9.5,D
49.886,32.65,302.3,2.9,1.6,2019-09-17,09:45,T,30,6.0NRT,288.3,10.6,D
50.574,27.456,300.4,1.6,1.2,2019-09-17,09:45,T,33,6.0NRT,288.7,4.5,D
50.574,27.45,301,1.6,1.2,2019-09-17,09:45,T,35,6.0NRT,289.3,4.4,D
49.915,29.901,307.3,2.1,1.4,2019-09-17,09:45,T,57,6.0NRT,291.8,17.2,D
50.161,28.506,315.7,1.8,1.3,2019-09-17,09:45,T,71,6.0NRT,294.4,28.5,D
43.196,24.008,317.8,1.7,1.3,2019-09-17,09:50,T,63,6.0NRT,302.4,18.8,D
43.215,24.37,315.3,1.7,1.3,2019-09-17,09:50,T,22,6.0NRT,298.6,12.5,D
43.261,24.483,353.4,1.8,1.3,2019-09-17,09:50,T,97,6.0NRT,299.5,140.3,D
43.266,24.462,376.7,1.7,1.3,2019-09-17,09:50,T,100,6.0NRT,300.2,298.3,D
43.277,24.467,315.9,1.7,1.3,2019-09-17,09:50,T,57,6.0NRT,299,13.3,D
43.312,24.415,336.3,1.7,1.3,2019-09-17,09:50,T,87,6.0NRT,304,62.8,D
43.458,23.708,327.8,1.6,1.2,2019-09-17,09:50,T,79,6.0NRT,298.3,28.2,D
43.462,23.689,321.5,1.6,1.2,2019-09-17,09:50,T,48,6.0NRT,299.6,15.4,D
43.318,24.49,317.2,1.7,1.3,2019-09-17,09:50,T,49,6.0NRT,301,14.2,D
43.593,23.448,331.5,1.5,1.2,2019-09-17,09:50,T,84,6.0NRT,303.8,34.8,D
43.52,23.924,333.6,1.6,1.2,2019-09-17,09:50,T,85,6.0NRT,300.3,45.8,D
43.524,23.904,325.9,1.6,1.2,2019-09-17,09:50,T,60,6.0NRT,300.3,25.7,D
43.535,23.909,322.4,1.6,1.2,2019-09-17,09:50,T,68,6.0NRT,299.4,19.1,D
43.52,23.929,330,1.6,1.2,2019-09-17,09:50,T,82,6.0NRT,299.9,36.5,D
43.524,23.91,333,1.6,1.2,2019-09-17,09:50,T,85,6.0NRT,300.6,44.8,D
43.471,24.271,316.9,1.7,1.3,2019-09-17,09:50,T,39,6.0NRT,298.8,13.8,D
43.993,21.636,315.9,1.2,1.1,2019-09-17,09:50,T,64,6.0NRT,295.3,14,D
43.996,21.622,311.4,1.2,1.1,2019-09-17,09:50,T,44,6.0NRT,295.3,9,D
43.709,23.228,320.7,1.5,1.2,2019-09-17,09:50,T,72,6.0NRT,299,14.4,D
43.546,24.086,317,1.6,1.3,2019-09-17,09:50,T,25,6.0NRT,298.3,10.8,D
43.736,23.145,339,1.5,1.2,2019-09-17,09:50,T,89,6.0NRT,300.9,54.6,D
43.74,23.128,368.4,1.5,1.2,2019-09-17,09:50,T,100,6.0NRT,303.6,173.5,D
43.75,23.132,340.6,1.5,1.2,2019-09-17,09:50,T,90,6.0NRT,303.5,59.1,D
43.69,23.491,324.3,1.5,1.2,2019-09-17,09:50,T,77,6.0NRT,301.2,22.5,D
43.574,24.232,331.9,1.7,1.3,2019-09-17,09:50,T,84,6.0NRT,296.3,46.6,D
43.578,24.212,322.5,1.7,1.3,2019-09-17,09:50,T,67,6.0NRT,296.3,22.5,D
43.585,24.237,340.5,1.7,1.3,2019-09-17,09:50,T,90,6.0NRT,297.2,69.7,D
43.589,24.217,346.8,1.7,1.3,2019-09-17,09:50,T,93,6.0NRT,299.5,94.9,D
43.593,24.197,323.7,1.7,1.3,2019-09-17,09:50,T,76,6.0NRT,297.8,24.4,D
43.599,24.285,331.8,1.7,1.3,2019-09-17,09:50,T,81,6.0NRT,297.9,43.7,D
43.61,24.289,335.7,1.7,1.3,2019-09-17,09:50,T,84,6.0NRT,299,52.2,D
43.625,24.323,321.1,1.7,1.3,2019-09-17,09:50,T,70,6.0NRT,301,17.5,D
43.936,23.029,318.7,1.4,1.2,2019-09-17,09:50,T,64,6.0NRT,299.6,11.7,D
44.002,23.172,319.4,1.4,1.2,2019-09-17,09:50,T,56,6.0NRT,297.8,12.6,D
44.006,23.154,333.5,1.4,1.2,2019-09-17,09:50,T,85,6.0NRT,300.8,39.9,D
43.775,24.347,320.9,1.7,1.3,2019-09-17,09:50,T,67,6.0NRT,302.1,16.7,D
43.901,23.731,318.4,1.5,1.2,2019-09-17,09:50,T,55,6.0NRT,298.5,12.7,D
43.905,23.713,322.4,1.5,1.2,2019-09-17,09:50,T,70,6.0NRT,300.8,19,D
44.722,19.316,310.8,1,1,2019-09-17,09:50,T,42,6.0NRT,296.9,4.4,D
44.703,19.552,315.3,1,1,2019-09-17,09:50,T,66,6.0NRT,299.1,7.4,D
44.085,23.171,324.8,1.4,1.2,2019-09-17,09:50,T,76,6.0NRT,301,22.2,D
44.064,23.389,325.3,1.5,1.2,2019-09-17,09:50,T,77,6.0NRT,300,23.3,D
44.068,23.372,320.4,1.5,1.2,2019-09-17,09:50,T,70,6.0NRT,300.8,14.1,D
44.071,23.354,321.4,1.5,1.2,2019-09-17,09:50,T,72,6.0NRT,300.8,16.4,D
44.12,23.222,319.4,1.4,1.2,2019-09-17,09:50,T,68,6.0NRT,300.5,12.6,D
44.837,19.405,322.2,1,1,2019-09-17,09:50,T,76,6.0NRT,301.3,12.7,D
44.839,19.392,320.2,1,1,2019-09-17,09:50,T,63,6.0NRT,299.9,11,D
43.536,26.127,317.3,2.1,1.4,2019-09-17,09:50,T,63,6.0NRT,298.8,24.6,D
43.808,24.909,317.3,1.8,1.3,2019-09-17,09:50,T,63,6.0NRT,297.1,16.2,D
43.548,26.133,325.9,2.1,1.4,2019-09-17,09:50,T,77,6.0NRT,300.3,51,D
44.083,23.655,320.2,1.5,1.2,2019-09-17,09:50,T,64,6.0NRT,303.3,12.7,D
43.857,24.791,328.9,1.8,1.3,2019-09-17,09:50,T,80,6.0NRT,297.5,41.8,D
43.862,24.77,332,1.8,1.3,2019-09-17,09:50,T,83,6.0NRT,299.2,51.8,D
44.6,20.98,317,1.1,1.1,2019-09-17,09:50,T,67,6.0NRT,302.5,9.5,D
43.869,24.796,328.8,1.8,1.3,2019-09-17,09:50,T,80,6.0NRT,298.1,41.4,D
43.731,25.606,317.2,2,1.4,2019-09-17,09:50,T,48,6.0NRT,298.3,17.6,D
44.983,18.958,327.7,1,1,2019-09-17,09:50,T,69,6.0NRT,302.6,19.6,D
43.723,25.608,318.8,2,1.4,2019-09-17,09:50,T,56,6.0NRT,298.8,21.4,D
43.758,25.623,332.2,2,1.4,2019-09-17,09:50,T,83,6.0NRT,295.8,59.8,D
43.77,25.628,319.2,2,1.4,2019-09-17,09:50,T,67,6.0NRT,295.3,22.2,D
43.847,25.336,318.9,1.9,1.3,2019-09-17,09:50,T,66,6.0NRT,298.1,20.5,D
43.818,25.7,326.4,2,1.4,2019-09-17,09:50,T,78,6.0NRT,295.3,43.4,D
43.844,25.49,314,1.9,1.4,2019-09-17,09:50,T,35,6.0NRT,293.8,14.2,D
43.821,25.708,326.9,2,1.4,2019-09-17,09:50,T,78,6.0NRT,295.7,45.9,D
44.293,23.769,317.6,1.5,1.2,2019-09-17,09:50,T,63,6.0NRT,295.5,15.1,D
43.533,27.593,314.3,2.5,1.5,2019-09-17,09:50,T,54,6.0NRT,296.1,22.6,D
43.539,27.602,316.5,2.5,1.5,2019-09-17,09:50,T,62,6.0NRT,296.9,29.6,D
43.683,27.247,318.3,2.4,1.5,2019-09-17,09:50,T,66,6.0NRT,298.6,33.4,D
43.86,26.491,324.2,2.2,1.4,2019-09-17,09:50,T,76,6.0NRT,298.5,44,D
43.866,26.465,320.7,2.2,1.4,2019-09-17,09:50,T,71,6.0NRT,298.5,33.7,D
43.625,27.609,324.9,2.5,1.5,2019-09-17,09:50,T,77,6.0NRT,292.9,61,D
36.505,7.146,314.6,2.3,1.5,2019-09-17,09:50,T,47,6.0NRT,298.7,16.4,D
37.299,14.57,320.4,1,1,2019-09-17,09:50,T,53,6.0NRT,306.3,6,D
37.301,14.559,323.5,1,1,2019-09-17,09:50,T,69,6.0NRT,306.7,9.6,D
37.53,13.179,319.4,1.1,1,2019-09-17,09:50,T,60,6.0NRT,302.7,9.8,D
37.392,14.503,322.8,1,1,2019-09-17,09:50,T,68,6.0NRT,306.8,9.1,D
37.393,14.491,339.5,1,1,2019-09-17,09:50,T,88,6.0NRT,306.3,32,D
37.629,14.117,320.3,1,1,2019-09-17,09:50,T,58,6.0NRT,304.9,6.6,D
37.63,14.106,324.3,1,1,2019-09-17,09:50,T,71,6.0NRT,306.8,11.3,D
37.64,14.037,322.3,1,1,2019-09-17,09:50,T,68,6.0NRT,307.6,9,D
37.769,13.201,326.7,1.1,1,2019-09-17,09:50,T,75,6.0NRT,305.7,13.6,D
37.682,14.195,320,1,1,2019-09-17,09:50,T,57,6.0NRT,305.1,6.5,D
37.841,13.273,319.7,1.1,1,2019-09-17,09:50,T,50,6.0NRT,304.8,6.9,D
37.844,13.324,321.5,1.1,1,2019-09-17,09:50,T,64,6.0NRT,305,10.5,D
39.001,16.877,326.8,1,1,2019-09-17,09:50,T,81,6.0NRT,307.2,13.9,D
39.009,16.885,322.2,1,1,2019-09-17,09:50,T,54,6.0NRT,306.9,7.8,D
39.011,16.874,321,1,1,2019-09-17,09:50,T,45,6.0NRT,305.2,6.8,D
39.374,16.918,319.4,1,1,2019-09-17,09:50,T,72,6.0NRT,303.1,9.3,D
40.506,16.215,319.1,1,1,2019-09-17,09:50,T,63,6.0NRT,300.8,10.2,D
40.449,17.453,322.7,1,1,2019-09-17,09:50,T,69,6.0NRT,303.7,9.4,D
40.824,16.251,326.8,1,1,2019-09-17,09:50,T,77,6.0NRT,308.1,10.3,D
41.043,15.621,319.5,1,1,2019-09-17,09:50,T,39,6.0NRT,305.4,6.3,D
41.044,15.609,322.7,1,1,2019-09-17,09:50,T,65,6.0NRT,307,9.6,D
41.33,15.341,323.2,1,1,2019-09-17,09:50,T,74,6.0NRT,305.8,9.6,D
41.339,15.809,318.9,1,1,2019-09-17,09:50,T,61,6.0NRT,304.9,5.4,D
40.822,19.465,324.4,1.1,1.1,2019-09-17,09:50,T,77,6.0NRT,306.6,14.8,D
41.444,21.955,319.8,1.4,1.2,2019-09-17,09:50,T,72,6.0NRT,304.7,14,D
41.447,21.939,334.5,1.4,1.2,2019-09-17,09:50,T,86,6.0NRT,305.7,43.6,D
42.104,19.993,316.1,1.1,1.1,2019-09-17,09:50,T,67,6.0NRT,300.1,11.8,D
41.042,26.564,318.2,2.6,1.6,2019-09-17,09:50,T,48,6.0NRT,304.4,27.6,D
43.056,18.097,311.7,1,1,2019-09-17,09:50,T,55,6.0NRT,298.6,5.4,D
42.458,24.38,350.5,1.8,1.3,2019-09-17,09:50,T,95,6.0NRT,307.4,131,D
42.462,24.359,324.2,1.8,1.3,2019-09-17,09:50,T,76,6.0NRT,305.1,32.1,D
42.714,24.175,313.5,1.7,1.3,2019-09-17,09:50,T,39,6.0NRT,301.7,12.8,D
43.159,22.192,317.7,1.3,1.2,2019-09-17,09:50,T,51,6.0NRT,300.3,18,D
43.17,22.194,315.6,1.3,1.2,2019-09-17,09:50,T,49,6.0NRT,298.3,16.2,D
43.171,23.957,322.7,1.6,1.3,2019-09-17,09:50,T,77,6.0NRT,301.6,26.8,D
43.182,23.961,328.7,1.6,1.3,2019-09-17,09:50,T,78,6.0NRT,302.3,37.3,D
43.127,24.285,318.8,1.7,1.3,2019-09-17,09:50,T,73,6.0NRT,297.4,22.6,D
43.624,28.129,322.1,2.7,1.6,2019-09-17,09:50,T,74,6.0NRT,297,54.4,D
44.011,26.48,317.3,2.1,1.4,2019-09-17,09:50,T,60,6.0NRT,295.2,29.9,D
44.01,26.486,314,2.1,1.4,2019-09-17,09:50,T,45,6.0NRT,295.8,22.1,D
43.628,28.138,322.2,2.7,1.6,2019-09-17,09:50,T,74,6.0NRT,296.5,53.3,D
44.643,24.199,313.3,1.6,1.2,2019-09-17,09:50,T,61,6.0NRT,294.7,12.9,D
43.991,27.672,330.9,2.5,1.5,2019-09-17,09:50,T,83,6.0NRT,288.9,92,D
44.004,27.679,330.3,2.5,1.5,2019-09-17,09:50,T,83,6.0NRT,287.8,88.5,D
44.011,27.649,332.9,2.5,1.5,2019-09-17,09:50,T,85,6.0NRT,289.1,102.6,D
43.998,27.681,339,2.5,1.5,2019-09-17,09:50,T,89,6.0NRT,288.7,133.9,D
44.005,27.652,337.7,2.5,1.5,2019-09-17,09:50,T,88,6.0NRT,288.9,126.7,D
43.631,27.617,320.5,2.5,1.5,2019-09-17,09:50,T,64,6.0NRT,295.4,38.5,D
43.653,27.828,320.2,2.6,1.6,2019-09-17,09:50,T,65,6.0NRT,297.6,41.5,D
51.819,30.478,336.9,3,1.6,2019-09-17,09:55,A,68,6.0NRT,289.8,194.2,D
50.919,32.134,302.5,2.7,1.6,2019-09-17,09:55,A,34,6.0NRT,286.3,20.1,D
51.819,30.471,329.4,3,1.6,2019-09-17,09:55,A,81,6.0NRT,290,142.3,D
51.741,-1.82,308.3,1.1,1,2019-09-17,11:25,T,67,6.0NRT,292.1,6.7,D
51.425,-2.523,301.6,1,1,2019-09-17,11:25,T,42,6.0NRT,290.7,2.9,D
51.564,-3.758,309.4,1,1,2019-09-17,11:25,T,0,6.0NRT,294.2,7.2,D
56.098,-3.3,305.5,1,1,2019-09-17,11:25,T,62,6.0NRT,285.7,7.8,D
46.025,1.366,311.8,1.8,1.3,2019-09-17,11:25,T,55,6.0NRT,297.7,15.4,D
53.353,0.016,317.7,1.1,1,2019-09-17,11:25,T,68,6.0NRT,287.7,17.4,D
51.042,2.296,312.9,1.5,1.2,2019-09-17,11:25,T,0,6.0NRT,293.3,14.4,D
44.838,19.391,316,1.1,1.1,2019-09-17,11:30,A,56,6.0NRT,302.7,6.8,D
44.636,19.644,312.8,1.1,1,2019-09-17,11:30,A,57,6.0NRT,300.8,5.5,D
44.601,19.986,313.4,1.1,1,2019-09-17,11:30,A,61,6.0NRT,301.4,4.8,D
44.595,20.98,317.5,1,1,2019-09-17,11:30,A,69,6.0NRT,303.2,7.5,D
44.388,20.159,318.4,1.1,1,2019-09-17,11:30,A,72,6.0NRT,304,8.8,D
44.341,21.144,314.7,1,1,2019-09-17,11:30,A,46,6.0NRT,299.6,5.6,D
43.761,19.266,329.8,1.2,1.1,2019-09-17,11:30,A,73,6.0NRT,298.1,31.1,D
43.763,19.279,328.4,1.2,1.1,2019-09-17,11:30,A,78,6.0NRT,296.8,28.6,D
44.227,22.349,332,1,1,2019-09-17,11:30,A,83,6.0NRT,305,23,D
44.229,22.361,320,1,1,2019-09-17,11:30,A,69,6.0NRT,301.6,9.1,D
44.089,21.487,318.7,1,1,2019-09-17,11:30,A,68,6.0NRT,299.8,11.7,D
44,21.455,315.3,1,1,2019-09-17,11:30,A,60,6.0NRT,301.5,6.5,D
44.146,22.494,315.2,1,1,2019-09-17,11:30,A,54,6.0NRT,301.2,6,D
43.998,21.618,344.1,1,1,2019-09-17,11:30,A,92,6.0NRT,304.4,45,D
44,21.63,324.2,1,1,2019-09-17,11:30,A,75,6.0NRT,301.4,15.5,D
44.164,22.75,330.2,1,1,2019-09-17,11:30,A,81,6.0NRT,308.3,14.6,D
44.166,22.763,338.3,1,1,2019-09-17,11:30,A,76,6.0NRT,306.5,26.8,D
43.989,21.62,322.2,1,1,2019-09-17,11:30,A,59,6.0NRT,300.4,13.8,D
43.991,21.633,331.5,1,1,2019-09-17,11:30,A,83,6.0NRT,301.5,24.7,D
44.321,24.326,318.4,1.1,1,2019-09-17,11:30,A,34,6.0NRT,300.7,7.1,D
44.322,24.339,328.2,1.1,1,2019-09-17,11:30,A,77,6.0NRT,301.7,18.6,D
44.132,23.113,334.2,1,1,2019-09-17,11:30,A,84,6.0NRT,308.3,20.5,D
44.079,22.87,347.8,1,1,2019-09-17,11:30,A,93,6.0NRT,308.8,43,D
44.081,22.883,334.1,1,1,2019-09-17,11:30,A,84,6.0NRT,308.3,19.5,D
44.069,22.861,335.2,1,1,2019-09-17,11:30,A,85,6.0NRT,309.8,21.6,D
44.07,22.873,342.5,1,1,2019-09-17,11:30,A,90,6.0NRT,308.5,32.6,D
44.061,22.875,323.5,1,1,2019-09-17,11:30,A,72,6.0NRT,307.7,6.6,D
44.068,23.38,323.6,1,1,2019-09-17,11:30,A,71,6.0NRT,305.9,8.2,D
43.998,23.141,333.2,1,1,2019-09-17,11:30,A,83,6.0NRT,309.5,17.6,D
40.09,28.117,320.1,1.3,1.1,2019-09-17,11:30,A,39,6.0NRT,307.6,8.3,D
43.989,23.144,324.7,1,1,2019-09-17,11:30,A,71,6.0NRT,308.5,7.5,D
43.943,23.086,326.3,1,1,2019-09-17,11:30,A,75,6.0NRT,310.3,9.5,D
43.991,23.432,342.7,1,1,2019-09-17,11:30,A,90,6.0NRT,309,35.3,D
43.98,23.487,328.1,1,1,2019-09-17,11:30,A,77,6.0NRT,304.9,14.1,D
43.93,23.725,325.2,1,1,2019-09-17,11:30,A,71,6.0NRT,305.3,11.4,D
43.932,23.738,327.5,1,1,2019-09-17,11:30,A,76,6.0NRT,305.5,14.3,D
43.757,23.072,389.6,1,1,2019-09-17,11:30,A,100,6.0NRT,313.8,185.9,D
43.76,23.161,369.1,1,1,2019-09-17,11:30,A,100,6.0NRT,310,99.5,D
43.744,23.114,327.5,1,1,2019-09-17,11:30,A,77,6.0NRT,309,11.2,D
43.746,23.126,343.4,1,1,2019-09-17,11:30,A,91,6.0NRT,310.4,35.2,D
43.919,24.794,331.1,1.1,1,2019-09-17,11:30,A,79,6.0NRT,305.7,17.7,D
43.905,24.756,331.7,1.1,1,2019-09-17,11:30,A,78,6.0NRT,307.2,19.3,D
43.907,24.769,357.5,1.1,1,2019-09-17,11:30,A,98,6.0NRT,305.8,72.5,D
43.91,24.796,455.6,1.1,1,2019-09-17,11:30,A,100,6.0NRT,324.6,854,D
43.912,24.809,350.3,1.1,1,2019-09-17,11:30,A,94,6.0NRT,300.6,55.1,D
43.854,24.42,323.1,1,1,2019-09-17,11:30,A,67,6.0NRT,304,10.6,D
43.901,24.798,419.6,1.1,1,2019-09-17,11:30,A,100,6.0NRT,326.6,419,D
43.902,24.811,383.4,1.1,1,2019-09-17,11:30,A,100,6.0NRT,305.6,172,D
43.894,24.792,330.8,1.1,1,2019-09-17,11:30,A,79,6.0NRT,305.7,16.5,D
43.896,24.805,352.3,1.1,1,2019-09-17,11:30,A,96,6.0NRT,310.1,59,D
43.897,24.818,322.9,1.1,1,2019-09-17,11:30,A,42,6.0NRT,302.4,8.6,D
43.83,24.365,322.7,1,1,2019-09-17,11:30,A,65,6.0NRT,303,8.2,D
43.977,25.71,329.3,1.1,1.1,2019-09-17,11:30,A,78,6.0NRT,303.3,19.2,D
43.978,25.724,327.5,1.1,1.1,2019-09-17,11:30,A,76,6.0NRT,301.8,16.3,D
43.854,24.774,321.2,1.1,1,2019-09-17,11:30,A,37,6.0NRT,301.4,7.1,D
43.781,24.272,327.2,1,1,2019-09-17,11:30,A,75,6.0NRT,307.6,12,D
43.904,25.257,323.2,1.1,1,2019-09-17,11:30,A,48,6.0NRT,304.1,9.3,D
43.905,25.271,332,1.1,1,2019-09-17,11:30,A,81,6.0NRT,301.6,21.3,D
43.896,25.273,372.9,1.1,1,2019-09-17,11:30,A,100,6.0NRT,307.9,130.2,D
43.898,25.287,355.9,1.1,1,2019-09-17,11:30,A,98,6.0NRT,303.5,71.9,D
43.771,24.34,324.4,1,1,2019-09-17,11:30,A,71,6.0NRT,306,9.4,D
43.768,24.394,348.5,1,1,2019-09-17,11:30,A,93,6.0NRT,302.5,49.8,D
43.794,24.6,330,1.1,1,2019-09-17,11:30,A,78,6.0NRT,301.6,19.1,D
44.016,26.496,326.7,1.2,1.1,2019-09-17,11:30,A,72,6.0NRT,295.1,24.9,D
43.759,24.396,339.5,1,1,2019-09-17,11:30,A,87,6.0NRT,301.7,32.9,D
43.761,24.409,324.3,1,1,2019-09-17,11:30,A,61,6.0NRT,299.5,11.4,D
44.002,26.468,329.3,1.2,1.1,2019-09-17,11:30,A,68,6.0NRT,298.4,25.3,D
44.004,26.483,326.6,1.2,1.1,2019-09-17,11:30,A,61,6.0NRT,295.8,21.4,D
43.831,25.032,322,1.1,1,2019-09-17,11:30,A,61,6.0NRT,300.2,8.9,D
44,26.46,325,1.2,1.1,2019-09-17,11:30,A,57,6.0NRT,298,16.2,D
44.001,26.475,331.6,1.2,1.1,2019-09-17,11:30,A,81,6.0NRT,298,27.7,D
43.806,24.901,342.9,1.1,1,2019-09-17,11:30,A,90,6.0NRT,303,40.6,D
43.807,24.914,341.5,1.1,1,2019-09-17,11:30,A,89,6.0NRT,301.8,37.8,D
43.748,24.82,319.2,1.1,1,2019-09-17,11:30,A,43,6.0NRT,300.1,8.1,D
43.928,26.444,318.1,1.2,1.1,2019-09-17,11:30,A,56,6.0NRT,299.7,9,D
44.017,27.294,324.2,1.3,1.1,2019-09-17,11:30,A,72,6.0NRT,299.3,18.3,D
43.824,25.694,323.4,1.1,1.1,2019-09-17,11:30,A,66,6.0NRT,302.2,12.2,D
43.821,25.7,324.2,1.1,1.1,2019-09-17,11:30,A,73,6.0NRT,302.2,11.1,D
43.571,23.868,325.8,1,1,2019-09-17,11:30,A,76,6.0NRT,302.8,12.3,D
43.631,24.321,323.8,1,1,2019-09-17,11:30,A,65,6.0NRT,303.9,9.3,D
43.605,24.196,327.6,1,1,2019-09-17,11:30,A,77,6.0NRT,301,14.3,D
43.961,27.226,328.5,1.3,1.1,2019-09-17,11:30,A,79,6.0NRT,299.3,26.2,D
43.606,24.275,322.5,1,1,2019-09-17,11:30,A,68,6.0NRT,303.8,7.5,D
43.877,26.537,329.1,1.2,1.1,2019-09-17,11:30,A,79,6.0NRT,300.4,24,D
43.879,26.552,329.8,1.2,1.1,2019-09-17,11:30,A,80,6.0NRT,298.9,25.7,D
43.924,26.971,315.6,1.3,1.1,2019-09-17,11:30,A,32,6.0NRT,295.2,10.2,D
43.926,26.987,332.8,1.3,1.1,2019-09-17,11:30,A,83,6.0NRT,295.3,37.1,D
43.951,27.228,330.2,1.3,1.1,2019-09-17,11:30,A,81,6.0NRT,298,30.4,D
43.953,27.244,324.3,1.3,1.1,2019-09-17,11:30,A,73,6.0NRT,296.4,19.6,D
43.995,27.663,320.2,1.4,1.2,2019-09-17,11:30,A,47,6.0NRT,300.2,14,D
43.597,24.277,342.9,1,1,2019-09-17,11:30,A,90,6.0NRT,304,37.7,D
43.599,24.29,325,1,1,2019-09-17,11:30,A,61,6.0NRT,301.9,11.1,D
43.764,25.626,319.9,1.1,1.1,2019-09-17,11:30,A,55,6.0NRT,300.1,7.4,D
43.859,26.464,319.6,1.2,1.1,2019-09-17,11:30,A,64,6.0NRT,299.2,11,D
43.861,26.479,318.2,1.2,1.1,2019-09-17,11:30,A,60,6.0NRT,299.1,8.9,D
43.49,23.543,323.5,1,1,2019-09-17,11:30,A,49,6.0NRT,303.9,7.9,D
43.58,24.216,325.4,1,1,2019-09-17,11:30,A,71,6.0NRT,301.8,12.1,D
43.59,24.292,338,1,1,2019-09-17,11:30,A,87,6.0NRT,302.7,30.6,D
43.592,24.305,326.9,1,1,2019-09-17,11:30,A,74,6.0NRT,300.4,15,D
43.753,25.615,327.8,1.1,1.1,2019-09-17,11:30,A,78,6.0NRT,300,17.5,D
43.755,25.629,344.3,1.1,1.1,2019-09-17,11:30,A,91,6.0NRT,301.5,47,D
43.571,24.218,319.6,1,1,2019-09-17,11:30,A,32,6.0NRT,300.2,6.5,D
43.573,24.231,344.2,1,1,2019-09-17,11:30,A,91,6.0NRT,302.7,41.4,D
43.574,24.243,328.8,1,1,2019-09-17,11:30,A,79,6.0NRT,299.7,16.2,D
43.521,23.907,322.8,1,1,2019-09-17,11:30,A,53,6.0NRT,303.5,8.7,D
43.72,25.495,319.5,1.1,1.1,2019-09-17,11:30,A,47,6.0NRT,302.2,9.6,D
43.484,23.769,327.6,1,1,2019-09-17,11:30,A,76,6.0NRT,305.3,12.9,D
43.465,23.697,322.2,1,1,2019-09-17,11:30,A,48,6.0NRT,303.6,6.8,D
43.485,24.272,323.2,1,1,2019-09-17,11:30,A,62,6.0NRT,301.5,10,D
43.487,24.285,354.5,1,1,2019-09-17,11:30,A,97,6.0NRT,303.3,63.8,D
43.167,22.19,320.6,1,1,2019-09-17,11:30,A,32,6.0NRT,300.2,12.5,D
43.158,22.192,326.9,1,1,2019-09-17,11:30,A,56,6.0NRT,304.1,18.8,D
43.16,22.205,322.5,1,1,2019-09-17,11:30,A,34,6.0NRT,299,14.5,D
43.078,21.729,322.9,1,1,2019-09-17,11:30,A,77,6.0NRT,304.6,12.3,D
43.08,21.742,319.2,1,1,2019-09-17,11:30,A,72,6.0NRT,304.3,8.1,D
43.831,27.847,325.5,1.4,1.2,2019-09-17,11:30,A,76,6.0NRT,301,20.9,D
43.371,24.099,320.8,1,1,2019-09-17,11:30,A,69,6.0NRT,301.1,7.6,D
43.789,27.855,330.9,1.4,1.2,2019-09-17,11:30,A,82,6.0NRT,299.9,31.1,D
43.315,23.817,316.8,1,1,2019-09-17,11:30,A,42,6.0NRT,298.5,5.9,D
43.391,24.393,322.7,1,1,2019-09-17,11:30,A,72,6.0NRT,305.4,9.8,D
43.759,27.651,319.7,1.4,1.2,2019-09-17,11:30,A,63,6.0NRT,297.3,14.4,D
43.779,27.856,320.1,1.4,1.2,2019-09-17,11:30,A,68,6.0NRT,299.3,11.5,D
43.763,27.657,320.5,1.4,1.2,2019-09-17,11:30,A,67,6.0NRT,297.6,15.3,D
43.784,27.863,325.8,1.4,1.2,2019-09-17,11:30,A,77,6.0NRT,298.5,21.1,D
43.686,27.217,337.1,1.3,1.1,2019-09-17,11:30,A,87,6.0NRT,289.9,45.5,D
43.687,27.233,347.1,1.3,1.1,2019-09-17,11:30,A,93,6.0NRT,287,71.6,D
43.677,27.235,318.9,1.3,1.1,2019-09-17,11:30,A,60,6.0NRT,286.3,13.6,D
43.679,27.251,325.4,1.3,1.1,2019-09-17,11:30,A,76,6.0NRT,281.4,24.4,D
43.412,24.992,326.1,1.1,1,2019-09-17,11:30,A,76,6.0NRT,306.8,13.9,D
43.413,25.005,361.5,1.1,1,2019-09-17,11:30,A,100,6.0NRT,309.6,87.5,D
43.309,24.406,320.2,1,1,2019-09-17,11:30,A,42,6.0NRT,304,7.6,D
43.324,24.52,319.3,1,1,2019-09-17,11:30,A,66,6.0NRT,298.7,9.6,D
43.259,24.294,323.5,1,1,2019-09-17,11:30,A,65,6.0NRT,304.7,10.8,D
43.261,24.307,336.4,1,1,2019-09-17,11:30,A,87,6.0NRT,303.6,27.8,D
43.202,23.999,333.5,1,1,2019-09-17,11:30,A,85,6.0NRT,306.5,24.2,D
43.203,24.011,321.7,1,1,2019-09-17,11:30,A,56,6.0NRT,302.6,9.6,D
43.664,27.997,323.6,1.4,1.2,2019-09-17,11:30,A,75,6.0NRT,298.3,19.3,D
43.666,28.015,317.9,1.4,1.2,2019-09-17,11:30,A,65,6.0NRT,298.7,10.3,D
43.183,23.927,329.7,1,1,2019-09-17,11:30,A,80,6.0NRT,305.4,16.1,D
43.184,23.939,329.4,1,1,2019-09-17,11:30,A,79,6.0NRT,304.1,15.2,D
43.186,23.952,329.7,1,1,2019-09-17,11:30,A,79,6.0NRT,303.9,16.2,D
43.193,24.001,320.8,1,1,2019-09-17,11:30,A,45,6.0NRT,304.7,8.8,D
43.176,23.942,321.7,1,1,2019-09-17,11:30,A,22,6.0NRT,305.3,7.5,D
43.313,25.007,319.6,1.1,1,2019-09-17,11:30,A,65,6.0NRT,305,7.6,D
43.168,23.957,324.9,1,1,2019-09-17,11:30,A,57,6.0NRT,305.5,12.5,D
43.209,24.333,345.5,1,1,2019-09-17,11:30,A,92,6.0NRT,302.5,46,D
43.21,24.345,336.5,1,1,2019-09-17,11:30,A,87,6.0NRT,301.9,29.6,D
43.212,24.358,325.4,1,1,2019-09-17,11:30,A,76,6.0NRT,300.9,14.4,D
43.659,28.401,313.3,1.5,1.2,2019-09-17,11:30,A,37,6.0NRT,288.3,7.3,D
43.201,24.347,334.8,1,1,2019-09-17,11:30,A,85,6.0NRT,302.5,27.5,D
43.194,24.356,339.9,1,1,2019-09-17,11:30,A,89,6.0NRT,304.4,33.9,D
43.195,24.368,338.4,1,1,2019-09-17,11:30,A,88,6.0NRT,302.6,31.5,D
43.656,28.409,315.7,1.5,1.2,2019-09-17,11:30,A,35,6.0NRT,290.7,9.8,D
43.617,28.121,318.6,1.4,1.2,2019-09-17,11:30,A,67,6.0NRT,285.1,14,D
43.159,24.665,316.9,1,1,2019-09-17,11:30,A,45,6.0NRT,304,7.5,D
43.503,27.839,322.7,1.4,1.2,2019-09-17,11:30,A,59,6.0NRT,299,15.6,D
43.499,27.845,319,1.4,1.2,2019-09-17,11:30,A,61,6.0NRT,298.2,10.4,D
43.502,27.88,320.2,1.4,1.2,2019-09-17,11:30,A,69,6.0NRT,297.8,12.8,D
43.02,23.879,319.3,1,1,2019-09-17,11:30,A,70,6.0NRT,302.8,10.5,D
43.25,25.68,317.3,1.1,1.1,2019-09-17,11:30,A,48,6.0NRT,300.3,7.6,D
43.011,23.881,334,1,1,2019-09-17,11:30,A,86,6.0NRT,301.4,27.6,D
43.012,23.893,315,1,1,2019-09-17,11:30,A,54,6.0NRT,299.7,5.9,D
42.455,20.404,322.9,1.1,1,2019-09-17,11:30,A,77,6.0NRT,304.5,15.1,D
42.98,24.563,314,1,1,2019-09-17,11:30,A,44,6.0NRT,300.6,6.8,D
42.982,24.575,321,1,1,2019-09-17,11:30,A,72,6.0NRT,299.5,13.3,D
42.101,19.974,313.2,1.2,1.1,2019-09-17,11:30,A,47,6.0NRT,298.7,8.4,D
42.103,19.987,331.9,1.2,1.1,2019-09-17,11:30,A,84,6.0NRT,300.8,32.8,D
42.709,24.171,321.9,1,1,2019-09-17,11:30,A,71,6.0NRT,303.3,11.7,D
42.609,25.407,318,1.1,1,2019-09-17,11:30,A,40,6.0NRT,304.2,7.6,D
42.458,24.367,319.6,1,1,2019-09-17,11:30,A,53,6.0NRT,304.7,8.6,D
40.995,16.025,319.5,1.9,1.4,2019-09-17,11:30,A,69,6.0NRT,303.4,16,D
42.558,26.627,323.7,1.2,1.1,2019-09-17,11:30,A,68,6.0NRT,310.3,9.2,D
42.223,24.059,337.4,1,1,2019-09-17,11:30,A,87,6.0NRT,310.9,26.1,D
42.294,25.76,327.4,1.1,1,2019-09-17,11:30,A,52,6.0NRT,311.5,12.8,D
42.397,26.842,321.7,1.2,1.1,2019-09-17,11:30,A,51,6.0NRT,308.2,10,D
42.257,25.816,328.4,1.1,1,2019-09-17,11:30,A,75,6.0NRT,315.1,11.3,D
42.258,25.83,326,1.1,1.1,2019-09-17,11:30,A,71,6.0NRT,315.1,8.4,D
41.442,21.938,349.8,1,1,2019-09-17,11:30,A,95,6.0NRT,311.5,52.1,D
41.329,21.588,343.4,1.1,1,2019-09-17,11:30,A,91,6.0NRT,310,42.1,D
41.332,21.6,336.8,1.1,1,2019-09-17,11:30,A,87,6.0NRT,302.6,31,D
41.32,21.591,352.5,1.1,1,2019-09-17,11:30,A,96,6.0NRT,312.2,62.2,D
41.323,21.603,366.8,1.1,1,2019-09-17,11:30,A,100,6.0NRT,305.8,104.3,D
41.149,21.327,325.9,1.1,1,2019-09-17,11:30,A,65,6.0NRT,309.6,12,D
41.812,26.413,334.4,1.2,1.1,2019-09-17,11:30,A,74,6.0NRT,313,23.7,D
41.778,26.413,330.3,1.1,1.1,2019-09-17,11:30,A,81,6.0NRT,315.3,14.9,D
41.341,27.767,337.2,1.3,1.1,2019-09-17,11:30,A,86,6.0NRT,311.4,34.6,D
41.319,27.755,324.1,1.3,1.1,2019-09-17,11:30,A,70,6.0NRT,311.5,10.4,D
41.077,27.296,324.5,1.2,1.1,2019-09-17,11:30,A,71,6.0NRT,310.6,8.6,D
37.914,12.808,313.3,3.6,1.8,2019-09-17,11:30,A,52,6.0NRT,295,31.1,D
37.906,12.815,312.9,3.6,1.8,2019-09-17,11:30,A,45,6.0NRT,294.1,29.3,D
37.708,13.879,316.6,3.1,1.7,2019-09-17,11:30,A,53,6.0NRT,300.5,29.4,D
40.301,33.71,319.4,2.8,1.6,2019-09-17,11:30,A,41,6.0NRT,306.2,31.3,D
50.157,28.493,330.6,1.8,1.3,2019-09-17,11:30,A,86,6.0NRT,296.7,63.7,D
50.145,28.495,320.6,1.8,1.3,2019-09-17,11:30,A,79,6.0NRT,295.3,37.8,D
49.993,27.143,305.9,1.6,1.2,2019-09-17,11:30,A,24,6.0NRT,291,7.5,D
49.882,33.007,309.9,3.1,1.7,2019-09-17,11:30,A,27,6.0NRT,291.4,34.8,D
49.881,32.972,307,3.1,1.7,2019-09-17,11:30,A,46,6.0NRT,289.7,25.5,D
49.883,33.016,309.1,3.1,1.7,2019-09-17,11:30,A,54,6.0NRT,291.5,32.7,D
49.259,26.915,301.6,1.5,1.2,2019-09-17,11:30,A,0,6.0NRT,287.3,4.8,D
51.38,24.512,306.9,1.3,1.1,2019-09-17,11:35,A,51,6.0NRT,294.7,9.4,D
50.902,28.632,320.9,1.9,1.3,2019-09-17,11:35,A,76,6.0NRT,292.1,42.6,D
50.907,28.623,317.9,1.9,1.3,2019-09-17,11:35,A,73,6.0NRT,291.2,32.7,D
50.645,24.971,301.6,1.3,1.1,2019-09-17,11:35,A,26,6.0NRT,289.6,4.5,D
51.827,30.495,320.9,2.4,1.5,2019-09-17,11:35,A,70,6.0NRT,289.3,65.8,D
36.513,8.951,326.7,2.5,1.5,2019-09-17,13:05,A,75,6.0NRT,306.4,28.6,D
36.507,8.956,326.5,2.5,1.5,2019-09-17,13:05,A,74,6.0NRT,306.2,28.8,D
53.564,-0.182,301.3,1.3,1.1,2019-09-17,13:10,A,30,6.0NRT,288,4.1,D
51.31,-1.172,305.2,1.2,1.1,2019-09-17,13:10,A,53,6.0NRT,293.5,5.4,D
53.347,0.012,307.8,1.4,1.2,2019-09-17,13:10,A,61,6.0NRT,287.1,11,D
51.567,-3.769,307.3,1,1,2019-09-17,13:10,A,0,6.0NRT,295.5,5.9,D
46.013,1.363,316.5,1.2,1.1,2019-09-17,13:10,A,54,6.0NRT,299.6,12.7,D
51.392,32.444,323.4,1.2,1.1,2019-09-17,19:20,T,100,6.0NRT,279.7,32.9,N
43.731,23.945,301.9,2.2,1.4,2019-09-17,20:55,T,45,6.0NRT,285.4,19.9,N
43.764,23.136,300.5,2,1.4,2019-09-17,20:55,T,30,6.0NRT,285.5,14.7,N
43.452,4.888,300.1,2.6,1.5,2019-09-17,20:55,T,19,6.0NRT,289.9,16.7,N
45.146,9.939,305.8,1.3,1.1,2019-09-17,20:55,T,66,6.0NRT,291.6,10.1,N
48.275,14.328,305.4,1,1,2019-09-17,20:55,T,64,6.0NRT,286,9.1,N
48.277,14.342,308.6,1,1,2019-09-17,20:55,T,75,6.0NRT,286.4,11.2,N
38.794,15.211,324.3,1,1,2019-09-17,20:55,T,94,6.0NRT,290.4,0,N
41.448,21.946,303.4,1.6,1.2,2019-09-17,20:55,T,55,6.0NRT,289.6,12.5,N
41.446,21.927,301.7,1.6,1.2,2019-09-17,20:55,T,43,6.0NRT,288.6,10.4,N
41.893,15.083,312.9,1,1,2019-09-17,20:55,T,86,6.0NRT,292.9,11.1,N
43.325,24.398,301.4,2.3,1.5,2019-09-17,20:55,T,41,6.0NRT,287.7,19.1,N
43.32,24.393,303.5,2.3,1.5,2019-09-17,20:55,T,53,6.0NRT,287.8,22.1,N
43.645,24.766,301.6,2.5,1.5,2019-09-17,20:55,T,42,6.0NRT,287.2,22.3,N
43.596,24.03,304.4,2.3,1.5,2019-09-17,20:55,T,41,6.0NRT,285.8,23.8,N
43.596,24.052,302.4,2.3,1.5,2019-09-17,20:55,T,49,6.0NRT,286.1,22.1,N
43.587,23.721,306.1,2.2,1.4,2019-09-17,20:55,T,67,6.0NRT,287.3,26.6,N
43.629,24.162,320.2,2.3,1.5,2019-09-17,20:55,T,100,6.0NRT,288.1,65.1,N
43.627,24.133,309.8,2.3,1.5,2019-09-17,20:55,T,78,6.0NRT,287.6,36.1,N
51.367,6.712,307.1,1.3,1.1,2019-09-17,21:00,T,70,6.0NRT,281.8,16.3,N
52.151,10.402,314.6,1,1,2019-09-17,21:00,T,90,6.0NRT,281.6,16.7,N
