latitude,longitude,brightness,scan,track,acq_date,acq_time,satellite,confidence,version,bright_t31,frp,daynight
52.157,10.413,303.4,1.3,1.1,2019-08-24,01:10,A,55,6.0NRT,287.7,12,N
48.279,14.342,307.3,1,1,2019-08-24,01:10,A,71,6.0NRT,273.5,11,N
49.357,6.75,301.2,1.8,1.3,2019-08-24,01:10,A,39,6.0NRT,287.3,15.8,N
51.37,6.718,307.9,1.9,1.4,2019-08-24,01:10,A,73,6.0NRT,289.9,26.2,N
51.484,6.716,302.4,1.9,1.4,2019-08-24,01:10,A,19,6.0NRT,290.1,13.8,N
51.489,6.722,301.9,1.9,1.4,2019-08-24,01:10,A,43,6.0NRT,290.3,14.3,N
40.125,15.59,312.1,1.3,1.1,2019-08-24,01:15,A,84,6.0NRT,291.9,14.7,N
38.793,15.214,341.7,1.3,1.1,2019-08-24,01:15,A,100,6.0NRT,293.9,0,N
43.073,18.091,306.5,1.4,1.2,2019-08-24,01:15,A,63,6.0NRT,291.9,11.6,N
43.067,18.1,306.6,1.4,1.2,2019-08-24,01:15,A,46,6.0NRT,291.4,11.7,N
51.357,34.119,314.5,1,1,2019-08-24,08:55,T,39,6.0NRT,297.7,7.4,D
51.58,32.589,328.9,1,1,2019-08-24,08:55,T,82,6.0NRT,301.8,21.1,D
51.578,32.603,318.1,1,1,2019-08-24,08:55,T,59,6.0NRT,301.3,9.5,D
51.571,32.586,318.2,1,1,2019-08-24,08:55,T,56,6.0NRT,299,9.6,D
54.671,33.003,313.7,1,1,2019-08-24,08:55,T,74,6.0NRT,292.7,11.5,D
54.638,32.837,329.1,1,1,2019-08-24,08:55,T,86,6.0NRT,292.2,27.5,D
54.087,32.521,308.4,1,1,2019-08-24,08:55,T,65,6.0NRT,291.5,7.5,D
53.442,34.416,307.7,1,1,2019-08-24,08:55,T,60,6.0NRT,297.3,5.7,D
53.218,31.6,306.5,1,1,2019-08-24,08:55,T,48,6.0NRT,295,4.7,D
52.675,32.663,321.7,1,1,2019-08-24,08:55,T,77,6.0NRT,301.9,14.2,D
52.262,32.432,311.6,1,1,2019-08-24,08:55,T,46,6.0NRT,300.8,5.7,D
51.705,32.692,318.5,1,1,2019-08-24,08:55,T,72,6.0NRT,302,12,D
48.551,28.59,319.8,1.1,1.1,2019-08-24,09:00,T,69,6.0NRT,303.7,10,D
48.875,25.556,314.5,1.5,1.2,2019-08-24,09:00,T,48,6.0NRT,295.9,12.2,D
48.578,27.91,320.1,1.2,1.1,2019-08-24,09:00,T,69,6.0NRT,299.4,13.4,D
48.162,30.616,328.6,1,1,2019-08-24,09:00,T,78,6.0NRT,303.5,14,D
48.3,29.018,317.1,1.1,1,2019-08-24,09:00,T,40,6.0NRT,300.2,8.9,D
47.281,32.766,323.6,1,1,2019-08-24,09:00,T,62,6.0NRT,308.8,7,D
47.546,30.653,321.6,1,1,2019-08-24,09:00,T,58,6.0NRT,304.8,5.7,D
47.903,21.023,305,2.5,1.5,2019-08-24,09:00,T,49,6.0NRT,281.9,15.8,D
45.878,33.711,328.1,1.1,1.1,2019-08-24,09:00,T,71,6.0NRT,308.1,12.7,D
46.639,28.448,321.7,1.1,1,2019-08-24,09:00,T,71,6.0NRT,304.5,8.3,D
45.619,34.461,325,1.2,1.1,2019-08-24,09:00,T,64,6.0NRT,308.7,8.6,D
46.34,28.999,325.6,1,1,2019-08-24,09:00,T,73,6.0NRT,307.2,9.7,D
46.224,28.622,321.4,1.1,1,2019-08-24,09:00,T,64,6.0NRT,306.2,7.2,D
45.545,29.293,327.5,1,1,2019-08-24,09:00,T,72,6.0NRT,309.3,7.9,D
44.699,25.667,325.4,1.3,1.1,2019-08-24,09:00,T,69,6.0NRT,305.1,20,D
44.697,25.683,323.4,1.3,1.1,2019-08-24,09:00,T,65,6.0NRT,305.1,15.9,D
43.954,25.613,339,1.3,1.1,2019-08-24,09:00,T,87,6.0NRT,305.5,42.5,D
43.952,25.628,326.5,1.3,1.1,2019-08-24,09:00,T,73,6.0NRT,304.6,18.1,D
43.801,23.806,327.9,1.6,1.2,2019-08-24,09:00,T,58,6.0NRT,298.4,30.9,D
43.24,27.847,328.8,1.1,1,2019-08-24,09:00,T,75,6.0NRT,305.8,15.9,D
43.239,27.86,328.1,1.1,1,2019-08-24,09:00,T,74,6.0NRT,305.6,15.1,D
40.263,29.074,324.4,1,1,2019-08-24,09:00,T,16,6.0NRT,308.6,10.4,D
37.843,31.637,325.8,1.2,1.1,2019-08-24,09:00,T,66,6.0NRT,309,14.1,D
38.032,21.383,328.9,1.8,1.3,2019-08-24,09:00,T,78,6.0NRT,308.7,29.3,D
35.435,26.866,312,1,1,2019-08-24,09:00,T,52,6.0NRT,301.4,7.7,D
49.377,34.216,319.4,1.1,1,2019-08-24,09:00,T,46,6.0NRT,303.3,6.7,D
49.368,34.212,322,1.1,1,2019-08-24,09:00,T,66,6.0NRT,302.8,9.5,D
49.903,27.207,316.9,1.3,1.1,2019-08-24,09:00,T,65,6.0NRT,300.4,11.6,D
48.906,28.326,328.2,1.1,1.1,2019-08-24,09:00,T,81,6.0NRT,298.7,25.7,D
48.905,28.341,311.1,1.1,1.1,2019-08-24,09:00,T,37,6.0NRT,297.6,5.7,D
51.372,33.607,314.6,1,1,2019-08-24,09:00,T,43,6.0NRT,302.1,5.8,D
50.962,32.871,330.1,1,1,2019-08-24,09:00,T,78,6.0NRT,304.3,19.4,D
50.96,32.885,326.1,1,1,2019-08-24,09:00,T,60,6.0NRT,307.1,13.9,D
50.596,33.614,313.5,1,1,2019-08-24,09:00,T,52,6.0NRT,301.1,5.8,D
50.551,31.736,327.1,1,1,2019-08-24,09:00,T,80,6.0NRT,299.6,18.2,D
50.549,31.75,321.1,1,1,2019-08-24,09:00,T,74,6.0NRT,300,11.7,D
49.881,32.997,315.5,1,1,2019-08-24,09:00,T,43,6.0NRT,299.3,5.7,D
48.826,27.23,314.3,1.3,1.1,2019-08-24,09:00,T,49,6.0NRT,300.6,7.9,D
47.926,33.774,319.2,1.1,1,2019-08-24,09:00,T,54,6.0NRT,303.1,7.8,D
48.585,28.949,313.6,1.1,1,2019-08-24,09:00,T,21,6.0NRT,300.1,6,D
48.583,28.964,328.3,1.1,1,2019-08-24,09:00,T,80,6.0NRT,302.8,23,D
48.574,28.962,315.7,1.1,1,2019-08-24,09:00,T,28,6.0NRT,299.9,8.2,D
48.889,25.787,328.8,1.4,1.2,2019-08-24,09:00,T,84,6.0NRT,298.3,37.7,D
48.879,25.785,312.7,1.4,1.2,2019-08-24,09:00,T,41,6.0NRT,297.2,10.4,D
48.879,25.543,317.5,1.5,1.2,2019-08-24,09:00,T,71,6.0NRT,295.2,18.9,D
48.877,25.563,311.2,1.5,1.2,2019-08-24,09:00,T,41,6.0NRT,295.6,8.8,D
47.869,33.439,323.9,1.1,1,2019-08-24,09:00,T,53,6.0NRT,304.1,13.5,D
48.21,6.435,316.8,1,1,2019-08-24,10:35,T,40,6.0NRT,304.5,6.9,D
52.152,10.413,320.7,1,1,2019-08-24,10:35,T,69,6.0NRT,304.6,9.6,D
52.21,8.045,314.8,1,1,2019-08-24,10:35,T,50,6.0NRT,304,6.2,D
51.876,10.16,314.8,1,1,2019-08-24,10:35,T,51,6.0NRT,302.2,6.3,D
51.547,9.926,316,1,1,2019-08-24,10:35,T,52,6.0NRT,303.5,6.2,D
51.56,8.536,314.9,1,1,2019-08-24,10:35,T,51,6.0NRT,303.3,4.9,D
51.492,6.742,323.4,1,1,2019-08-24,10:35,T,45,6.0NRT,307.7,11,D
51.487,6.71,328.9,1,1,2019-08-24,10:35,T,0,6.0NRT,308.9,19,D
51.485,6.725,323.8,1,1,2019-08-24,10:35,T,0,6.0NRT,306.6,10.2,D
51.366,6.717,322.2,1,1,2019-08-24,10:35,T,66,6.0NRT,307.4,10.9,D
52.154,10.398,326.5,1,1,2019-08-24,10:35,T,77,6.0NRT,304.8,16.1,D
52.827,11.213,316.3,1.1,1,2019-08-24,10:35,T,56,6.0NRT,304.7,5.5,D
52.83,11.198,318.8,1.1,1,2019-08-24,10:35,T,69,6.0NRT,303,8,D
52.854,11.101,316.6,1.1,1,2019-08-24,10:35,T,59,6.0NRT,303.9,6.2,D
53.081,11.039,321.8,1,1,2019-08-24,10:35,T,74,6.0NRT,300.4,13.3,D
53.084,11.024,313.4,1,1,2019-08-24,10:35,T,40,6.0NRT,301.6,5.9,D
53.559,16.221,314,1.5,1.2,2019-08-24,10:35,T,0,6.0NRT,299.5,9.9,D
48.638,10.163,310.7,1.1,1.1,2019-08-24,10:35,T,33,6.0NRT,295.7,6.2,D
49.243,6.859,315.5,1,1,2019-08-24,10:35,T,37,6.0NRT,302.2,7,D
49.245,6.846,319,1,1,2019-08-24,10:35,T,62,6.0NRT,302.7,9.9,D
49.352,6.745,324,1,1,2019-08-24,10:35,T,68,6.0NRT,305.6,13.2,D
49.354,6.732,320.2,1,1,2019-08-24,10:35,T,46,6.0NRT,304.7,10,D
48.278,14.34,315.3,1.7,1.3,2019-08-24,10:35,T,33,6.0NRT,290.8,20.9,D
49.814,9.029,312.3,1,1,2019-08-24,10:35,T,33,6.0NRT,299.2,6.4,D
51.039,2.296,322.7,1.4,1.2,2019-08-24,10:35,T,55,6.0NRT,304.9,16,D
51.173,3.814,326.1,1.2,1.1,2019-08-24,10:35,T,68,6.0NRT,306,20.3,D
51.175,3.82,319.3,1.2,1.1,2019-08-24,10:35,T,41,6.0NRT,304.2,10.4,D
37.065,30.46,316.3,1.8,1.3,2019-08-24,10:40,A,22,6.0NRT,303.5,10.1,D
34.597,6.896,357.6,1.4,1.2,2019-08-24,10:40,T,98,6.0NRT,311.6,96.7,D
34.6,6.881,355.7,1.4,1.2,2019-08-24,10:40,T,97,6.0NRT,309.6,88.8,D
36.032,2.827,330.7,1,1,2019-08-24,10:40,T,68,6.0NRT,311.9,11.5,D
36.809,9.573,326.6,1.8,1.3,2019-08-24,10:40,T,64,6.0NRT,304.2,22.1,D
37.437,13.758,321.3,3.1,1.7,2019-08-24,10:40,T,60,6.0NRT,297.2,52.1,D
37.435,13.762,323.8,3.1,1.7,2019-08-24,10:40,T,64,6.0NRT,297.2,63.3,D
38.791,15.244,312.8,3.5,1.8,2019-08-24,10:40,T,53,6.0NRT,291.1,49.2,D
42.726,-1.644,322.9,1.6,1.3,2019-08-24,10:40,T,61,6.0NRT,308.8,17,D
40.869,14.112,316.7,2.6,1.6,2019-08-24,10:40,T,66,6.0NRT,297.3,22.4,D
43.443,4.9,329,1,1,2019-08-24,10:40,T,60,6.0NRT,307.9,15.4,D
44.975,7.753,319.7,1.1,1,2019-08-24,10:40,T,73,6.0NRT,297.3,12.8,D
45.407,10.966,319.8,1.4,1.2,2019-08-24,10:40,T,72,6.0NRT,299.6,13,D
47.175,7.568,312.1,1,1,2019-08-24,10:40,T,67,6.0NRT,299.5,7.1,D
45.868,33.703,333.6,1,1,2019-08-24,10:40,A,58,6.0NRT,311.1,15.5,D
43.738,23.352,321.1,3.1,1.7,2019-08-24,10:40,A,59,6.0NRT,298.5,50.9,D
43.73,23.323,316,3.1,1.7,2019-08-24,10:40,A,29,6.0NRT,294.4,32.4,D
45.619,34.464,335,1,1,2019-08-24,10:40,A,78,6.0NRT,311.6,18.4,D
45.61,34.467,350.4,1,1,2019-08-24,10:40,A,93,6.0NRT,312.4,46.1,D
45.119,33.651,332.9,1,1,2019-08-24,10:40,A,74,6.0NRT,312.1,15.9,D
41.434,21.931,314.9,4.3,1.9,2019-08-24,10:40,A,40,6.0NRT,297.5,38.1,D
40.698,26.482,322.1,2.5,1.5,2019-08-24,10:40,A,70,6.0NRT,297.8,38.2,D
40.704,26.51,323.9,2.5,1.5,2019-08-24,10:40,A,73,6.0NRT,300,45.6,D
40.704,26.487,329.7,2.5,1.5,2019-08-24,10:40,A,78,6.0NRT,299.4,67.5,D
39.978,33.621,327.2,1.1,1.1,2019-08-24,10:40,A,70,6.0NRT,308.4,14.2,D
39.079,29.319,329.8,1.9,1.3,2019-08-24,10:40,A,76,6.0NRT,302.1,56,D
39.084,29.34,319.3,1.9,1.3,2019-08-24,10:40,A,24,6.0NRT,302.8,21.8,D
39.585,33.555,323.1,1.1,1.1,2019-08-24,10:40,A,59,6.0NRT,307.6,9.7,D
37.851,31.649,324.6,1.5,1.2,2019-08-24,10:40,A,42,6.0NRT,307.4,12.1,D
59.267,27.887,303.3,1,1,2019-08-24,10:45,A,55,6.0NRT,293.2,4.8,D
48.882,25.773,314.4,1.6,1.3,2019-08-24,10:45,A,64,6.0NRT,298.7,14.4,D
48.883,25.78,314.5,1.6,1.3,2019-08-24,10:45,A,68,6.0NRT,299,15.4,D
49.67,30.532,319.2,1.1,1,2019-08-24,10:45,A,39,6.0NRT,302.3,9.5,D
49.871,32.998,338.3,1,1,2019-08-24,10:45,A,87,6.0NRT,296.5,32.5,D
48.904,28.316,312.4,1.3,1.1,2019-08-24,10:45,A,21,6.0NRT,300.3,6.5,D
48.572,27.902,316.4,1.3,1.1,2019-08-24,10:45,A,63,6.0NRT,299.3,10.9,D
49.548,34.29,334.9,1,1,2019-08-24,10:45,A,84,6.0NRT,302.2,26.7,D
49.518,34.479,318.1,1,1,2019-08-24,10:45,A,48,6.0NRT,302,6.6,D
49.15,34.998,319.2,1,1,2019-08-24,10:45,A,44,6.0NRT,304,8.5,D
48.079,29.74,319.4,1.2,1.1,2019-08-24,10:45,A,50,6.0NRT,299.2,9.5,D
48.393,33.226,333.9,1,1,2019-08-24,10:45,A,82,6.0NRT,306.8,22.4,D
46.456,24.132,318.8,2.3,1.5,2019-08-24,10:45,A,74,6.0NRT,298.8,31.7,D
45.561,21.088,317.1,3.5,1.8,2019-08-24,10:45,A,51,6.0NRT,293.8,44.6,D
47.87,33.393,321.1,1,1,2019-08-24,10:45,A,44,6.0NRT,306.1,7.9,D
50.251,31.19,323.5,1,1,2019-08-24,10:45,A,73,6.0NRT,301.6,14.1,D
50.547,31.781,317.2,1,1,2019-08-24,10:45,A,43,6.0NRT,300.6,6.9,D
50.686,30.233,320.7,1,1,2019-08-24,10:45,A,68,6.0NRT,299.6,11.9,D
50.699,30.197,325.2,1,1,2019-08-24,10:45,A,62,6.0NRT,301.1,16.2,D
49.635,24.423,310.4,1.8,1.3,2019-08-24,10:45,A,65,6.0NRT,294.4,15.8,D
51.37,33.611,318.8,1,1,2019-08-24,10:45,A,67,6.0NRT,305.3,9,D
51.368,33.597,315.5,1,1,2019-08-24,10:45,A,51,6.0NRT,303.3,5.8,D
51.734,34.151,319,1.1,1,2019-08-24,10:45,A,40,6.0NRT,305.9,9,D
51.574,32.589,321.3,1,1,2019-08-24,10:45,A,73,6.0NRT,305.2,12.1,D
52.159,34.225,332.3,1.1,1,2019-08-24,10:45,A,84,6.0NRT,307.9,22.1,D
50.425,33.454,322,1,1,2019-08-24,10:45,A,28,6.0NRT,306.3,9.7,D
52.846,29.99,316.3,1,1,2019-08-24,10:45,A,72,6.0NRT,304.6,10.1,D
54.083,32.512,306.6,1,1,2019-08-24,10:45,A,59,6.0NRT,292.8,6,D
54.634,32.833,349.6,1,1,2019-08-24,10:45,A,96,6.0NRT,292,64.5,D
54.665,33.007,308.7,1.1,1,2019-08-24,10:45,A,66,6.0NRT,292.6,7.8,D
54.657,30.86,307.3,1,1,2019-08-24,10:45,A,43,6.0NRT,295.8,4.6,D
43.742,23.344,319.1,3.9,1.8,2019-08-24,12:20,A,42,6.0NRT,298.4,39.3,D
34.597,6.895,334.4,1.8,1.3,2019-08-24,12:20,A,75,6.0NRT,312.2,28.1,D
34.593,6.89,343,1.8,1.3,2019-08-24,12:20,A,87,6.0NRT,311.7,60,D
35.322,8.858,323.7,1.3,1.1,2019-08-24,12:20,A,29,6.0NRT,305.8,13.8,D
37.37,14.094,343.4,1.1,1,2019-08-24,12:20,A,89,6.0NRT,310.3,39.1,D
37.462,13.536,329.4,1,1,2019-08-24,12:20,A,75,6.0NRT,308.1,12.2,D
37.5,13.47,328.5,1,1,2019-08-24,12:20,A,73,6.0NRT,310.3,11.3,D
37.962,15.803,330.6,1.2,1.1,2019-08-24,12:20,A,81,6.0NRT,305,21.9,D
38.875,16.552,325.5,1.4,1.2,2019-08-24,12:20,A,79,6.0NRT,305.1,15.1,D
38.874,16.536,331.8,1.4,1.2,2019-08-24,12:20,A,84,6.0NRT,305,27.7,D
39.243,17.015,324.1,1.5,1.2,2019-08-24,12:20,A,77,6.0NRT,308.1,12.4,D
40.69,14.782,322.3,1.2,1.1,2019-08-24,12:20,A,64,6.0NRT,304,13,D
40.865,14.1,333.8,1.1,1.1,2019-08-24,12:20,A,82,6.0NRT,306,23.4,D
40.876,14.111,327.9,1.1,1.1,2019-08-24,12:20,A,75,6.0NRT,307.1,14.3,D
40.874,14.098,372.4,1.1,1.1,2019-08-24,12:20,A,100,6.0NRT,308.3,131.7,D
41.351,15.523,329.8,1.3,1.1,2019-08-24,12:20,A,78,6.0NRT,307.6,15.6,D
41.359,15.532,327.5,1.3,1.1,2019-08-24,12:20,A,75,6.0NRT,307.1,12,D
41.255,13.77,333,1.1,1.1,2019-08-24,12:20,A,82,6.0NRT,305.1,23.8,D
41.254,13.757,322,1.1,1,2019-08-24,12:20,A,56,6.0NRT,305.1,9.2,D
41.295,13.625,332.2,1.1,1,2019-08-24,12:20,A,82,6.0NRT,303.2,25.3,D
41.294,13.612,320.8,1.1,1,2019-08-24,12:20,A,33,6.0NRT,303.7,10.1,D
41.304,13.622,345.9,1.1,1,2019-08-24,12:20,A,92,6.0NRT,302.6,52.4,D
41.31,13.471,328,1.1,1,2019-08-24,12:20,A,77,6.0NRT,301.7,17.6,D
41.721,15.504,347.3,1.3,1.1,2019-08-24,12:20,A,93,6.0NRT,304.6,63.1,D
41.719,15.489,335.1,1.3,1.1,2019-08-24,12:20,A,85,6.0NRT,303.2,31.8,D
41.877,14.775,316.6,1.2,1.1,2019-08-24,12:20,A,60,6.0NRT,298.6,7,D
44.909,7.359,313,1.1,1,2019-08-24,12:20,A,48,6.0NRT,299.2,5.4,D
45.329,9.128,315.5,1,1,2019-08-24,12:20,A,44,6.0NRT,299.5,6.1,D
45.394,9.254,316.7,1,1,2019-08-24,12:20,A,26,6.0NRT,299.1,5.6,D
51.364,6.704,333.2,1,1,2019-08-24,12:20,A,63,6.0NRT,308.2,21.4,D
51.24,5.604,322,1,1,2019-08-24,12:20,A,55,6.0NRT,308.3,11.4,D
51.168,3.814,321.3,1.1,1.1,2019-08-24,12:20,A,41,6.0NRT,304,14.4,D
52.15,10.411,324.1,1.1,1.1,2019-08-24,12:20,A,74,6.0NRT,307.2,13.2,D
52.148,10.395,331.1,1.1,1.1,2019-08-24,12:20,A,82,6.0NRT,307.4,22.8,D
52.231,6.778,336.7,1,1,2019-08-24,12:25,A,87,6.0NRT,305.7,29.6,D
52.229,6.764,316.4,1,1,2019-08-24,12:25,A,47,6.0NRT,304.5,6,D
52.292,4.713,318.5,1,1,2019-08-24,12:25,A,66,6.0NRT,305.1,7.4,D
53.519,9.904,322.5,1.1,1.1,2019-08-24,12:25,A,0,6.0NRT,306,14.2,D
52.683,5.032,312.8,1,1,2019-08-24,12:25,A,53,6.0NRT,302.1,5.5,D
53.139,8.676,316,1,1,2019-08-24,12:25,A,47,6.0NRT,304.5,9.2,D
51.03,2.284,321.1,1.3,1.1,2019-08-24,12:25,A,59,6.0NRT,307.9,13.1,D
52.205,8.046,319.8,1,1,2019-08-24,12:25,A,67,6.0NRT,307.2,9.2,D
43.718,23.168,305,1.3,1.1,2019-08-24,20:05,T,62,6.0NRT,292.7,7.4,N
44.345,26.43,307,1,1,2019-08-24,20:05,T,70,6.0NRT,294.5,6.3,N
46.153,30.007,304.1,1.2,1.1,2019-08-24,20:05,T,59,6.0NRT,292.8,6.6,N
36.202,23.032,309.8,1.8,1.3,2019-08-24,20:05,T,68,6.0NRT,295.6,18.6,N
41.185,20.867,301.2,1.9,1.3,2019-08-24,20:05,T,39,6.0NRT,288.8,11.4,N
41.18,20.845,300.8,1.9,1.3,2019-08-24,20:05,T,34,6.0NRT,289.5,10.6,N
41.902,21.538,305.2,1.6,1.3,2019-08-24,20:05,T,63,6.0NRT,289.6,13.4,N
43.741,23.352,302,1.2,1.1,2019-08-24,20:05,T,46,6.0NRT,291.8,5.2,N
52.844,29.982,302.5,1.4,1.2,2019-08-24,20:10,T,50,6.0NRT,285.5,12.5,N
52.159,10.408,301.2,2.9,1.6,2019-08-24,20:10,T,39,6.0NRT,291,25.1,N
48.61,21.187,307.7,1.2,1.1,2019-08-24,20:10,T,72,6.0NRT,290.8,11.2,N
47.872,33.444,308.6,1.7,1.3,2019-08-24,20:10,T,75,6.0NRT,292.9,17.1,N
47.863,33.429,322.9,1.7,1.3,2019-08-24,20:10,T,100,6.0NRT,293.2,42.5,N
48.607,21.171,300.6,1.2,1.1,2019-08-24,20:10,T,31,6.0NRT,289.5,5.4,N
51.702,32.694,320,1.8,1.3,2019-08-24,20:10,T,100,6.0NRT,288.6,46.8,N
41.374,13.902,314.5,2.9,1.6,2019-08-24,21:45,T,89,6.0NRT,289.3,63.5,N
46.291,6.46,301.6,1.3,1.1,2019-08-24,21:45,T,43,6.0NRT,287.9,8.7,N
48.195,12.845,309.4,2.9,1.6,2019-08-24,21:45,T,77,6.0NRT,275.7,55.6,N
43.45,4.898,311.7,1.1,1,2019-08-24,21:45,T,83,6.0NRT,292.3,11.5,N
35.812,-0.26,309.4,1.5,1.2,2019-08-24,21:45,T,77,6.0NRT,295.8,14.6,N
38.799,15.188,310.7,3.3,1.7,2019-08-24,21:45,T,72,6.0NRT,293,43.6,N
41.373,13.907,314.8,2.9,1.6,2019-08-24,21:45,T,90,6.0NRT,289.3,65,N
51.171,3.809,321,1.2,1.1,2019-08-24,21:50,T,100,6.0NRT,287.3,26.1,N
51.488,6.707,305.7,1.6,1.2,2019-08-24,21:50,T,65,6.0NRT,292.1,13.3,N
51.49,6.729,303.5,1.6,1.2,2019-08-24,21:50,T,55,6.0NRT,292.8,10.8,N
51.033,2.282,306.9,1.1,1,2019-08-24,21:50,T,70,6.0NRT,291.9,8.6,N
51.044,2.294,317.4,1.1,1,2019-08-24,21:50,T,89,6.0NRT,293,16.1,N
53.139,8.671,300.3,2,1.4,2019-08-24,21:50,T,23,6.0NRT,289.5,13,N
53.568,-0.606,301.4,1,1,2019-08-24,21:50,T,40,6.0NRT,290,5.1,N
53.576,-0.616,300,1,1,2019-08-24,21:50,T,12,6.0NRT,289.8,4.8,N
51.169,3.815,308.2,1.2,1.1,2019-08-24,21:50,T,74,6.0NRT,285.6,12.4,N
