latitude,longitude,brightness,scan,track,acq_date,acq_time,satellite,confidence,version,bright_t31,frp,daynight
35.809,-0.252,300.3,2.6,1.6,2019-10-18,01:20,A,24,6.0NRT,287.4,24.4,N
48.282,14.331,300.7,1,1,2019-10-18,01:20,A,32,6.0NRT,280.6,8,N
51.363,6.71,303.2,1.6,1.3,2019-10-18,01:20,A,54,6.0NRT,282.1,17.1,N
51.487,6.718,309.1,1.6,1.3,2019-10-18,01:20,A,76,6.0NRT,283.4,23.9,N
51.496,6.744,313.4,1.6,1.3,2019-10-18,01:20,A,79,6.0NRT,282.9,28.6,N
51.389,34.014,305.2,1.1,1,2019-10-18,09:05,T,42,6.0NRT,290.8,4.4,D
51.272,33.999,313.9,1.1,1,2019-10-18,09:05,T,64,6.0NRT,290.2,11.5,D
51.263,33.995,317.5,1.1,1,2019-10-18,09:05,T,78,6.0NRT,292.3,15.2,D
50.887,33.824,316.1,1.1,1,2019-10-18,09:05,T,76,6.0NRT,292.2,13.6,D
50.884,33.839,330,1.1,1,2019-10-18,09:05,T,86,6.0NRT,292,30,D
50.878,33.82,304.2,1.1,1,2019-10-18,09:05,T,24,6.0NRT,291.2,4.5,D
50.875,33.835,320.8,1.1,1,2019-10-18,09:05,T,80,6.0NRT,291.1,19.2,D
50.862,32.631,305.5,1,1,2019-10-18,09:05,T,48,6.0NRT,291.6,4.7,D
50.572,34.237,309.9,1.1,1.1,2019-10-18,09:05,T,67,6.0NRT,293.7,8.4,D
50.511,33.992,308.6,1.1,1,2019-10-18,09:05,T,65,6.0NRT,294.9,6.7,D
50.032,34.236,304.3,1.1,1.1,2019-10-18,09:05,T,51,6.0NRT,293.6,3.4,D
49.781,32.267,315.8,1,1,2019-10-18,09:05,T,73,6.0NRT,296,10.6,D
50,30.418,306.9,1,1,2019-10-18,09:05,T,58,6.0NRT,294.7,4.1,D
51.743,34.589,301.4,1.1,1,2019-10-18,09:05,T,44,6.0NRT,290.4,3.9,D
52.75,26.691,300.2,1.3,1.1,2019-10-18,09:05,T,32,6.0NRT,287.9,6.3,D
51.795,33.681,309.2,1,1,2019-10-18,09:05,T,68,6.0NRT,290.8,9,D
51.398,34.018,309.4,1.1,1,2019-10-18,09:05,T,69,6.0NRT,293.5,7.8,D
48.709,33.33,308.6,1.1,1.1,2019-10-18,09:05,T,63,6.0NRT,297.2,7,D
49.659,26.942,326,1.2,1.1,2019-10-18,09:05,T,84,6.0NRT,293.8,27.6,D
49.334,30.772,308.1,1,1,2019-10-18,09:05,T,61,6.0NRT,295.6,4,D
49.252,31.428,311,1,1,2019-10-18,09:05,T,67,6.0NRT,294.6,8,D
49.618,28.978,308.3,1,1,2019-10-18,09:05,T,62,6.0NRT,293.7,6,D
49.641,29.079,308.2,1,1,2019-10-18,09:05,T,62,6.0NRT,292.9,6.3,D
49.643,29.065,307,1,1,2019-10-18,09:05,T,59,6.0NRT,293.8,5.3,D
49.441,30.559,307.7,1,1,2019-10-18,09:05,T,61,6.0NRT,296.2,4.2,D
49.387,31.039,322.5,1,1,2019-10-18,09:05,T,80,6.0NRT,295.1,17.6,D
49.389,31.025,327,1,1,2019-10-18,09:05,T,84,6.0NRT,294.9,23,D
49.474,30.457,306,1,1,2019-10-18,09:05,T,41,6.0NRT,295.1,2.7,D
49.592,30.667,306.3,1,1,2019-10-18,09:05,T,57,6.0NRT,296,5.3,D
49.454,31.68,307.4,1,1,2019-10-18,09:05,T,45,6.0NRT,292.8,6,D
49.782,29.6,310.5,1,1,2019-10-18,09:05,T,67,6.0NRT,294.2,8.2,D
49.784,29.587,310.1,1,1,2019-10-18,09:05,T,67,6.0NRT,292.7,8,D
49.039,35,307.9,1.3,1.1,2019-10-18,09:05,T,59,6.0NRT,295.6,7,D
49.445,33.044,308.3,1.1,1,2019-10-18,09:05,T,61,6.0NRT,295.5,5.6,D
49.615,32.361,306.1,1,1,2019-10-18,09:05,T,40,6.0NRT,295.3,4.5,D
49.875,30.699,321.8,1,1,2019-10-18,09:05,T,80,6.0NRT,298,15.8,D
49.885,30.631,312.8,1,1,2019-10-18,09:05,T,70,6.0NRT,296.5,7.6,D
49.894,30.634,310.1,1,1,2019-10-18,09:05,T,56,6.0NRT,295.3,5.3,D
50.123,29.41,306.5,1,1,2019-10-18,09:05,T,57,6.0NRT,292.3,5.8,D
51.914,34.033,312.3,1.1,1,2019-10-18,09:05,T,72,6.0NRT,291.1,11.9,D
50.521,31.234,306.7,1,1,2019-10-18,09:05,T,49,6.0NRT,294.6,5.7,D
50.407,31.909,305.7,1,1,2019-10-18,09:05,T,56,6.0NRT,293.7,4.2,D
49.723,34.941,309.5,1.2,1.1,2019-10-18,09:05,T,65,6.0NRT,296.4,8.3,D
50.125,32.276,322.7,1,1,2019-10-18,09:05,T,80,6.0NRT,294.7,18,D
50.122,32.29,314.9,1,1,2019-10-18,09:05,T,73,6.0NRT,295.5,10.3,D
49.627,34.946,305,1.2,1.1,2019-10-18,09:05,T,51,6.0NRT,295,4.8,D
49.928,33.229,311.6,1.1,1,2019-10-18,09:05,T,68,6.0NRT,295.7,8.3,D
49.866,33.323,327.7,1.1,1,2019-10-18,09:05,T,84,6.0NRT,294.5,26.6,D
49.863,33.337,310.4,1.1,1,2019-10-18,09:05,T,61,6.0NRT,293.8,8.5,D
49.807,32.329,345.8,1,1,2019-10-18,09:05,T,94,6.0NRT,295.5,52.1,D
49.805,32.343,323.6,1,1,2019-10-18,09:05,T,81,6.0NRT,295.9,18.1,D
48.371,30.007,306.3,1,1,2019-10-18,09:05,T,30,6.0NRT,295.1,3.8,D
48.26,30.498,309,1,1,2019-10-18,09:05,T,58,6.0NRT,297.9,5,D
48.481,28.84,316.1,1,1,2019-10-18,09:05,T,74,6.0NRT,295.7,12.2,D
48.083,31.505,311.4,1,1,2019-10-18,09:05,T,63,6.0NRT,299.1,5.8,D
48.081,31.519,313.2,1,1,2019-10-18,09:05,T,67,6.0NRT,298.5,7.3,D
48.472,28.838,307.5,1,1,2019-10-18,09:05,T,31,6.0NRT,292.8,5.1,D
48.306,29.882,308,1,1,2019-10-18,09:05,T,55,6.0NRT,294.8,5.2,D
48.163,30.765,322.1,1,1,2019-10-18,09:05,T,78,6.0NRT,299.8,15.6,D
48.161,30.778,340.2,1,1,2019-10-18,09:05,T,91,6.0NRT,301.7,39.8,D
48.142,30.479,310.5,1,1,2019-10-18,09:05,T,60,6.0NRT,299.1,6,D
48.178,30.056,317.4,1,1,2019-10-18,09:05,T,73,6.0NRT,295.5,12.4,D
48.114,30.478,316,1,1,2019-10-18,09:05,T,71,6.0NRT,301.4,9.2,D
48.157,30.007,308.8,1,1,2019-10-18,09:05,T,57,6.0NRT,296.6,5.7,D
48.084,29.936,322.2,1,1,2019-10-18,09:05,T,79,6.0NRT,297,17.7,D
47.922,29.328,310,1,1,2019-10-18,09:05,T,59,6.0NRT,297.5,6.1,D
47.921,29.341,318.8,1,1,2019-10-18,09:05,T,74,6.0NRT,296.2,13.5,D
47.568,31.4,310.2,1,1,2019-10-18,09:05,T,55,6.0NRT,299.7,4,D
47.795,29.117,308,1,1,2019-10-18,09:05,T,41,6.0NRT,295.4,4.3,D
47.646,29.572,317.3,1,1,2019-10-18,09:05,T,72,6.0NRT,300.5,9.9,D
47.487,30.021,312.7,1,1,2019-10-18,09:05,T,57,6.0NRT,297.7,6.5,D
47.485,30.034,308.3,1,1,2019-10-18,09:05,T,17,6.0NRT,297.5,3.4,D
47.433,29.888,311.5,1,1,2019-10-18,09:05,T,61,6.0NRT,300.9,4.9,D
48.02,22.95,304.3,1.6,1.3,2019-10-18,09:05,T,58,6.0NRT,292.1,7.1,D
46.935,24.918,301.3,1.3,1.1,2019-10-18,09:05,T,40,6.0NRT,289.5,5.4,D
46.938,21.762,318.4,1.8,1.3,2019-10-18,09:05,T,78,6.0NRT,295,30.3,D
46.944,21.757,320.3,1.8,1.3,2019-10-18,09:05,T,80,6.0NRT,294.7,32.8,D
46.198,20.948,314,2,1.4,2019-10-18,09:05,T,74,6.0NRT,293.7,23.4,D
46.186,20.947,314.1,2,1.4,2019-10-18,09:05,T,74,6.0NRT,294.2,23.3,D
46.195,20.941,321,2,1.4,2019-10-18,09:05,T,80,6.0NRT,294,39.7,D
46.193,20.966,306.8,1.9,1.4,2019-10-18,09:05,T,41,6.0NRT,293.5,9.4,D
46.07,21.069,307.7,1.9,1.4,2019-10-18,09:05,T,64,6.0NRT,294.7,11.1,D
45.774,20.57,312.9,2,1.4,2019-10-18,09:05,T,72,6.0NRT,294.9,21.7,D
45.772,20.563,309.6,2,1.4,2019-10-18,09:05,T,68,6.0NRT,294.9,14,D
52.758,34.16,319,1,1,2019-10-18,09:05,T,79,6.0NRT,286.5,19.3,D
52.794,32.711,306.9,1,1,2019-10-18,09:05,T,64,6.0NRT,286.5,8.8,D
52.392,33.299,301,1,1,2019-10-18,09:05,T,43,6.0NRT,289.6,3.8,D
52.678,30.703,300.3,1,1,2019-10-18,09:05,T,32,6.0NRT,287.3,3.8,D
51.917,34.018,316.9,1.1,1,2019-10-18,09:05,T,77,6.0NRT,289.6,16.2,D
40.301,27.464,305.4,1,1,2019-10-18,09:05,T,42,6.0NRT,292.8,3.5,D
40.934,26.8,309.6,1,1,2019-10-18,09:05,T,62,6.0NRT,297.3,4.5,D
40.987,27.075,321.3,1,1,2019-10-18,09:05,T,78,6.0NRT,295.1,15,D
41.022,28.557,308.1,1,1,2019-10-18,09:05,T,0,6.0NRT,293.4,4.3,D
42.71,24.174,307.4,1.2,1.1,2019-10-18,09:05,T,55,6.0NRT,295.4,6,D
43.122,24.994,312.6,1.1,1.1,2019-10-18,09:05,T,69,6.0NRT,297.5,8.5,D
43.391,24.076,311.7,1.3,1.1,2019-10-18,09:05,T,49,6.0NRT,299,4.9,D
43.46,24.189,329,1.2,1.1,2019-10-18,09:05,T,84,6.0NRT,300.1,27.5,D
43.462,24.174,321.1,1.2,1.1,2019-10-18,09:05,T,77,6.0NRT,299.6,15.4,D
43.62,24.119,314.9,1.3,1.1,2019-10-18,09:05,T,69,6.0NRT,299.4,7.4,D
44.004,21.41,306.5,1.7,1.3,2019-10-18,09:05,T,61,6.0NRT,294.4,9.2,D
43.561,27.482,316.1,1,1,2019-10-18,09:05,T,71,6.0NRT,298.3,9.4,D
43.738,27.271,324.4,1,1,2019-10-18,09:05,T,80,6.0NRT,298.3,18.3,D
43.74,27.259,322.2,1,1,2019-10-18,09:05,T,78,6.0NRT,298.9,16.4,D
43.743,27.701,308.8,1,1,2019-10-18,09:05,T,50,6.0NRT,293.9,5.3,D
44.254,24.363,306,1.2,1.1,2019-10-18,09:05,T,44,6.0NRT,293.2,4.6,D
44.689,20.233,328.8,2.1,1.4,2019-10-18,09:05,T,65,6.0NRT,291.9,72.6,D
44.691,20.207,339.1,2.1,1.4,2019-10-18,09:05,T,69,6.0NRT,292.4,114.8,D
44.39,23.943,309,1.3,1.1,2019-10-18,09:05,T,61,6.0NRT,297.2,6.7,D
44.782,20.888,311.8,1.9,1.3,2019-10-18,09:05,T,48,6.0NRT,296.6,12.8,D
44.798,20.841,317.8,1.9,1.3,2019-10-18,09:05,T,77,6.0NRT,296.5,26.8,D
44.836,20.823,309.6,1.9,1.3,2019-10-18,09:05,T,53,6.0NRT,295.4,11.3,D
44.84,20.829,314.7,1.9,1.3,2019-10-18,09:05,T,74,6.0NRT,295.7,22.7,D
44.918,21.299,319.6,1.8,1.3,2019-10-18,09:05,T,79,6.0NRT,297.8,29.9,D
44.92,21.276,313.9,1.8,1.3,2019-10-18,09:05,T,67,6.0NRT,296.7,18.5,D
44.644,24.598,307.4,1.2,1.1,2019-10-18,09:05,T,50,6.0NRT,296.4,5.3,D
45.047,20.97,312.6,1.9,1.3,2019-10-18,09:05,T,71,6.0NRT,295.3,19.5,D
45.048,21.114,317.7,1.9,1.3,2019-10-18,09:05,T,77,6.0NRT,296.3,27.4,D
45.226,20.292,306.4,2.1,1.4,2019-10-18,09:05,T,40,6.0NRT,293.8,11.5,D
45.252,20.816,325.6,1.9,1.4,2019-10-18,09:05,T,73,6.0NRT,294.7,53.8,D
45.485,19.906,307.2,2.2,1.4,2019-10-18,09:05,T,64,6.0NRT,293.5,12.7,D
45.49,20.018,308.2,2.2,1.4,2019-10-18,09:05,T,66,6.0NRT,293.8,15.1,D
45.521,20.672,308.4,2,1.4,2019-10-18,09:05,T,66,6.0NRT,294.6,12.5,D
45.699,20.71,310.2,2,1.4,2019-10-18,09:05,T,47,6.0NRT,295,14.3,D
45.701,20.684,312,2,1.4,2019-10-18,09:05,T,64,6.0NRT,294.8,17.6,D
45.694,20.938,307.4,1.9,1.4,2019-10-18,09:05,T,64,6.0NRT,293.5,13,D
45.711,20.711,309.7,2,1.4,2019-10-18,09:05,T,25,6.0NRT,294.8,12.9,D
48.373,29.993,309.2,1,1,2019-10-18,09:05,T,54,6.0NRT,296.6,5.4,D
48.382,30.183,320.1,1,1,2019-10-18,09:05,T,77,6.0NRT,298.2,14.5,D
47.86,33.462,310.6,1.2,1.1,2019-10-18,09:05,T,64,6.0NRT,295.4,9.6,D
47.862,33.447,324.4,1.2,1.1,2019-10-18,09:05,T,77,6.0NRT,296,24.9,D
48.468,29.724,310.9,1,1,2019-10-18,09:05,T,65,6.0NRT,297.5,7.2,D
48.47,29.711,322.1,1,1,2019-10-18,09:05,T,79,6.0NRT,297.8,16.9,D
48.48,29.77,310.4,1,1,2019-10-18,09:05,T,63,6.0NRT,297.8,6.2,D
48.554,29.577,323.4,1,1,2019-10-18,09:05,T,80,6.0NRT,294.8,18.7,D
48.556,29.564,336,1,1,2019-10-18,09:05,T,89,6.0NRT,299,34.8,D
48.669,28.953,306.3,1,1,2019-10-18,09:05,T,44,6.0NRT,294.8,4.1,D
48.692,28.917,306.4,1,1,2019-10-18,09:05,T,53,6.0NRT,294.8,4.4,D
48.588,29.854,307.4,1,1,2019-10-18,09:05,T,55,6.0NRT,296.7,4.5,D
48.59,29.84,308.8,1,1,2019-10-18,09:05,T,60,6.0NRT,295.9,5.4,D
48.377,31.301,310.5,1,1,2019-10-18,09:05,T,63,6.0NRT,298.3,5.4,D
48.545,30.333,321.3,1,1,2019-10-18,09:05,T,67,6.0NRT,296.9,12.8,D
48.554,30.336,362.2,1,1,2019-10-18,09:05,T,100,6.0NRT,301,85.8,D
48.556,30.323,350.3,1,1,2019-10-18,09:05,T,96,6.0NRT,300,56.6,D
48.565,30.326,323.2,1,1,2019-10-18,09:05,T,78,6.0NRT,296.2,15.3,D
48.604,30.06,324.1,1,1,2019-10-18,09:05,T,81,6.0NRT,297.7,18.2,D
48.606,30.047,316.3,1,1,2019-10-18,09:05,T,73,6.0NRT,297.3,10.6,D
48.56,30.478,337,1,1,2019-10-18,09:05,T,89,6.0NRT,296.3,35.1,D
48.562,30.465,343.9,1,1,2019-10-18,09:05,T,93,6.0NRT,297.3,47,D
48.665,29.773,322.6,1,1,2019-10-18,09:05,T,80,6.0NRT,298.2,16.9,D
49.08,26.824,306.4,1.1,1.1,2019-10-18,09:05,T,60,6.0NRT,293.6,6.1,D
49.082,26.808,304.7,1.1,1.1,2019-10-18,09:05,T,55,6.0NRT,292.6,5,D
48.895,28.359,308.1,1,1,2019-10-18,09:05,T,62,6.0NRT,292.3,6.8,D
48.904,28.362,308.4,1,1,2019-10-18,09:05,T,63,6.0NRT,292.1,6.5,D
48.723,29.882,307.3,1,1,2019-10-18,09:05,T,52,6.0NRT,296.9,3.6,D
48.751,29.751,308.4,1,1,2019-10-18,09:05,T,60,6.0NRT,297.5,4.4,D
49.251,25.858,316.1,1.2,1.1,2019-10-18,09:05,T,76,6.0NRT,293.2,15.3,D
48.544,31.367,308.7,1,1,2019-10-18,09:05,T,53,6.0NRT,298.6,3.9,D
48.702,30.337,326.2,1,1,2019-10-18,09:05,T,82,6.0NRT,297.3,21.1,D
48.704,30.324,308.9,1,1,2019-10-18,09:05,T,60,6.0NRT,297.6,5.6,D
48.842,29.632,309.3,1,1,2019-10-18,09:05,T,51,6.0NRT,295.1,5.4,D
49.365,25.447,307.4,1.3,1.1,2019-10-18,09:05,T,65,6.0NRT,289.6,8.3,D
48.86,29.638,310.6,1,1,2019-10-18,09:05,T,64,6.0NRT,297.2,6.1,D
48.862,29.625,338.2,1,1,2019-10-18,09:05,T,90,6.0NRT,297.8,37.3,D
48.626,31.317,313.7,1,1,2019-10-18,09:05,T,69,6.0NRT,298.1,8.3,D
48.628,32.001,312.5,1,1,2019-10-18,09:05,T,68,6.0NRT,296.3,8,D
49.034,29.523,307,1,1,2019-10-18,09:05,T,58,6.0NRT,295.5,4.2,D
48.447,33.444,311.3,1.1,1.1,2019-10-18,09:05,T,67,6.0NRT,294.9,9.8,D
48.188,34.899,334.2,1.3,1.1,2019-10-18,09:05,T,88,6.0NRT,296.4,47.3,D
48.485,33.285,309.8,1.1,1.1,2019-10-18,09:05,T,64,6.0NRT,293.2,8.7,D
48.842,31.192,308.6,1,1,2019-10-18,09:05,T,56,6.0NRT,298.1,4.8,D
48.844,31.179,317.1,1,1,2019-10-18,09:05,T,74,6.0NRT,298.3,11.4,D
49.188,29.008,306.6,1,1,2019-10-18,09:05,T,58,6.0NRT,294.2,4.5,D
49.132,29.943,322.1,1,1,2019-10-18,09:05,T,80,6.0NRT,294.5,16.6,D
49.133,29.929,304.8,1,1,2019-10-18,09:05,T,19,6.0NRT,294,2.6,D
49.096,30.318,325.3,1,1,2019-10-18,09:05,T,82,6.0NRT,295.6,18.5,D
49.098,30.304,326.1,1,1,2019-10-18,09:05,T,83,6.0NRT,297,19.7,D
48.883,31.75,316.4,1,1,2019-10-18,09:05,T,74,6.0NRT,295.9,11.7,D
48.885,31.737,312.6,1,1,2019-10-18,09:05,T,68,6.0NRT,295.9,8.3,D
49.104,30.321,309.7,1,1,2019-10-18,09:05,T,63,6.0NRT,297.2,5,D
49.106,30.307,310.5,1,1,2019-10-18,09:05,T,62,6.0NRT,296.1,6.2,D
49.174,29.906,314.3,1,1,2019-10-18,09:05,T,71,6.0NRT,296.5,8.1,D
49.201,29.717,306.7,1,1,2019-10-18,09:05,T,52,6.0NRT,294.9,4,D
49.183,29.909,313,1,1,2019-10-18,09:05,T,65,6.0NRT,296.9,6.8,D
49.22,29.652,308,1,1,2019-10-18,09:05,T,60,6.0NRT,296.8,4.5,D
49.198,29.999,345.2,1,1,2019-10-18,09:05,T,94,6.0NRT,297.9,49.6,D
49.2,29.985,333.7,1,1,2019-10-18,09:05,T,88,6.0NRT,295.7,30.5,D
37.061,22.029,334.3,1.3,1.1,2019-10-18,09:10,T,88,6.0NRT,298,43.5,D
37.06,22.043,311.7,1.3,1.1,2019-10-18,09:10,T,66,6.0NRT,297.3,8,D
37.576,13.88,319.7,3.9,1.8,2019-10-18,10:45,T,72,6.0NRT,297.9,95,D
37.582,13.887,317.3,3.9,1.8,2019-10-18,10:45,T,68,6.0NRT,297.5,75.9,D
41.499,0.535,301,1.1,1,2019-10-18,10:45,T,37,6.0NRT,278.8,4.9,D
45.336,19.996,311.8,4.8,2,2019-10-18,10:45,T,65,6.0NRT,291.8,67.9,D
45.532,19.995,308.6,4.7,2,2019-10-18,10:45,T,67,6.0NRT,290.5,52.7,D
45.531,20,309.2,4.7,2,2019-10-18,10:45,T,64,6.0NRT,290.5,53.3,D
51.166,3.811,320.8,1.1,1,2019-10-18,10:45,T,61,6.0NRT,282,21.9,D
51.175,3.814,307,1.1,1,2019-10-18,10:45,T,15,6.0NRT,280.5,8.5,D
40.88,26.269,306.2,2.1,1.4,2019-10-18,10:45,A,50,6.0NRT,293.3,11.4,D
40.879,26.274,305.5,2.1,1.4,2019-10-18,10:45,A,39,6.0NRT,293.4,10.4,D
40.794,26.307,306.3,2.1,1.4,2019-10-18,10:45,A,29,6.0NRT,293.4,11.1,D
40.215,28.222,310.4,1.7,1.3,2019-10-18,10:45,A,67,6.0NRT,293.9,10.5,D
37.458,32.597,383.9,1.1,1.1,2019-10-18,10:45,A,100,6.0NRT,300.8,198.2,D
37.46,32.609,326.2,1.1,1.1,2019-10-18,10:45,A,77,6.0NRT,299.9,21.2,D
36.438,1.171,317.5,1,1,2019-10-18,10:45,T,60,6.0NRT,303.8,6.3,D
36.436,1.182,322.8,1,1,2019-10-18,10:45,T,75,6.0NRT,304,11.4,D
36.871,6.961,311.1,1.6,1.2,2019-10-18,10:45,T,55,6.0NRT,294.1,10.8,D
36.663,3.798,314.6,1.1,1,2019-10-18,10:45,T,66,6.0NRT,297,10.8,D
36.874,6.944,325.3,1.6,1.2,2019-10-18,10:45,T,80,6.0NRT,295.2,35.1,D
36.661,3.811,309.2,1.1,1.1,2019-10-18,10:45,T,45,6.0NRT,297,5.8,D
36.875,6.951,335.3,1.6,1.2,2019-10-18,10:45,T,76,6.0NRT,295.3,60.1,D
47.414,30.38,314.7,1,1,2019-10-18,10:50,A,65,6.0NRT,300.7,7.4,D
47.489,31.101,313.4,1,1,2019-10-18,10:50,A,61,6.0NRT,302.1,5.1,D
45.062,19.765,314.5,3.6,1.8,2019-10-18,10:50,A,73,6.0NRT,293.5,61.3,D
44.895,19.67,306,3.7,1.8,2019-10-18,10:50,A,55,6.0NRT,292.9,25.1,D
45.088,21.187,311.6,3,1.6,2019-10-18,10:50,A,58,6.0NRT,296.8,27.1,D
46.707,28.511,312,1.2,1.1,2019-10-18,10:50,A,67,6.0NRT,298.7,8.2,D
44.993,20.829,309.3,3.2,1.7,2019-10-18,10:50,A,68,6.0NRT,295.6,26.1,D
45.079,21.159,309.7,3,1.7,2019-10-18,10:50,A,61,6.0NRT,296.5,20.7,D
44.902,20.79,310.9,3.2,1.7,2019-10-18,10:50,A,70,6.0NRT,295.3,34.6,D
44.894,20.754,308.2,3.2,1.7,2019-10-18,10:50,A,67,6.0NRT,295.7,24.9,D
44.904,20.793,309.3,3.2,1.7,2019-10-18,10:50,A,68,6.0NRT,295.1,28.3,D
44.813,20.754,310.9,3.2,1.7,2019-10-18,10:50,A,71,6.0NRT,296.4,30.8,D
44.823,20.792,307.8,3.2,1.7,2019-10-18,10:50,A,60,6.0NRT,295,18.6,D
44.798,20.761,328.9,3.2,1.7,2019-10-18,10:50,A,86,6.0NRT,296.8,123.3,D
44.858,20.988,308.6,3.1,1.7,2019-10-18,10:50,A,50,6.0NRT,295.4,24.7,D
44.816,20.76,311.9,3.2,1.7,2019-10-18,10:50,A,72,6.0NRT,296.2,34.3,D
44.801,20.768,328.5,3.2,1.7,2019-10-18,10:50,A,86,6.0NRT,296.7,119.7,D
47.125,32.468,312.8,1,1,2019-10-18,10:50,A,64,6.0NRT,300.4,5.8,D
44.792,20.859,310.6,3.2,1.7,2019-10-18,10:50,A,50,6.0NRT,296.1,22.6,D
46.971,32.292,327.9,1,1,2019-10-18,10:50,A,83,6.0NRT,300.1,21.7,D
44.645,21.033,312.4,3.2,1.7,2019-10-18,10:50,A,72,6.0NRT,294.5,41.7,D
46.866,32.66,310.7,1,1,2019-10-18,10:50,A,61,6.0NRT,297.1,6.1,D
46.868,32.672,310,1,1,2019-10-18,10:50,A,59,6.0NRT,296,5.8,D
46.036,29.945,319.4,1.1,1,2019-10-18,10:50,A,76,6.0NRT,297.9,14.4,D
44.589,23.271,304.9,2.4,1.5,2019-10-18,10:50,A,49,6.0NRT,294.5,14.1,D
46.158,33.08,312.7,1,1,2019-10-18,10:50,A,59,6.0NRT,294.8,9.1,D
46.122,33.364,317.2,1,1,2019-10-18,10:50,A,74,6.0NRT,294.2,12.4,D
44.61,25.568,307.6,1.8,1.3,2019-10-18,10:50,A,52,6.0NRT,296.5,9.6,D
44.254,24.357,307.8,2.1,1.4,2019-10-18,10:50,A,49,6.0NRT,297,12.2,D
44.255,24.361,307.9,2.1,1.4,2019-10-18,10:50,A,49,6.0NRT,297.1,12.7,D
44.777,26.928,314.6,1.5,1.2,2019-10-18,10:50,A,69,6.0NRT,299.7,14.7,D
44.781,26.947,320.2,1.5,1.2,2019-10-18,10:50,A,76,6.0NRT,299.8,23.7,D
44.714,26.954,311.7,1.5,1.2,2019-10-18,10:50,A,60,6.0NRT,299.5,9.2,D
44.718,26.972,311.5,1.5,1.2,2019-10-18,10:50,A,62,6.0NRT,298.6,9,D
44.712,26.961,316.5,1.5,1.2,2019-10-18,10:50,A,72,6.0NRT,299.5,17.4,D
44.027,26.093,309.7,1.8,1.3,2019-10-18,10:50,A,58,6.0NRT,297.5,11.4,D
44.031,26.114,322.5,1.8,1.3,2019-10-18,10:50,A,78,6.0NRT,297.1,35.7,D
43.549,24.131,313.9,2.3,1.5,2019-10-18,10:50,A,70,6.0NRT,300.1,18.3,D
43.555,24.158,346.8,2.3,1.5,2019-10-18,10:50,A,94,6.0NRT,302.3,164.7,D
43.917,25.812,308.9,1.8,1.3,2019-10-18,10:50,A,51,6.0NRT,298.6,9.2,D
43.552,24.136,327.8,2.3,1.5,2019-10-18,10:50,A,84,6.0NRT,300.2,63.1,D
43.558,24.164,338.3,2.3,1.5,2019-10-18,10:50,A,90,6.0NRT,302.1,111.7,D
43.922,25.817,308.9,1.8,1.3,2019-10-18,10:50,A,47,6.0NRT,298,8.8,D
43.546,24.169,314.1,2.3,1.5,2019-10-18,10:50,A,65,6.0NRT,299.6,18.4,D
43.798,25.529,319.7,1.9,1.3,2019-10-18,10:50,A,74,6.0NRT,300.1,30.8,D
43.464,24.176,316.4,2.3,1.5,2019-10-18,10:50,A,70,6.0NRT,298.9,26.8,D
43.445,24.154,318,2.3,1.5,2019-10-18,10:50,A,75,6.0NRT,300.4,30.4,D
43.451,24.181,340.8,2.3,1.5,2019-10-18,10:50,A,91,6.0NRT,301.1,130.2,D
43.96,26.446,310.1,1.7,1.3,2019-10-18,10:50,A,60,6.0NRT,298.4,9.5,D
43.449,24.157,327,2.3,1.5,2019-10-18,10:50,A,83,6.0NRT,300.1,62.1,D
43.455,24.184,340.4,2.3,1.5,2019-10-18,10:50,A,91,6.0NRT,301,127.2,D
43.74,27.878,323.6,1.4,1.2,2019-10-18,10:50,A,79,6.0NRT,300.1,27.4,D
43.051,24.971,306.5,2.1,1.4,2019-10-18,10:50,A,32,6.0NRT,295.2,11.3,D
43.051,24.976,307.4,2.1,1.4,2019-10-18,10:50,A,46,6.0NRT,295.2,13.6,D
43.556,27.475,316.2,1.5,1.2,2019-10-18,10:50,A,71,6.0NRT,300.6,16.3,D
43.56,27.493,309.2,1.5,1.2,2019-10-18,10:50,A,44,6.0NRT,298.4,6.7,D
43.143,25.825,315.8,1.9,1.4,2019-10-18,10:50,A,72,6.0NRT,300.6,21.2,D
42.706,24.596,313.4,2.3,1.5,2019-10-18,10:50,A,65,6.0NRT,297.7,32,D
54.607,31.202,302.2,1,1,2019-10-18,10:50,A,51,6.0NRT,286.7,6.1,D
53.419,31.396,301.3,1,1,2019-10-18,10:50,A,46,6.0NRT,284.2,6.4,D
52.847,29.983,311.5,1,1,2019-10-18,10:50,A,71,6.0NRT,291,10.3,D
53.247,33.918,305.5,1.2,1.1,2019-10-18,10:50,A,62,6.0NRT,289.4,8,D
52.625,30.18,310,1,1,2019-10-18,10:50,A,69,6.0NRT,289.6,9.5,D
52.762,34.154,308.5,1.2,1.1,2019-10-18,10:50,A,67,6.0NRT,287.9,12,D
51.886,32.693,306.9,1.1,1,2019-10-18,10:50,A,64,6.0NRT,290.7,8,D
51.888,32.708,302,1.1,1,2019-10-18,10:50,A,50,6.0NRT,290.8,4.8,D
50.379,24.47,303.2,1.5,1.2,2019-10-18,10:50,A,52,6.0NRT,292.4,5.5,D
51.793,33.691,301.7,1.1,1.1,2019-10-18,10:50,A,49,6.0NRT,291.2,4.1,D
51.24,30.962,303.1,1,1,2019-10-18,10:50,A,54,6.0NRT,292.4,4.2,D
51.302,31.475,304.6,1,1,2019-10-18,10:50,A,59,6.0NRT,292.5,4.6,D
51.304,31.489,304.6,1,1,2019-10-18,10:50,A,57,6.0NRT,291.8,4.4,D
51.35,33.217,303.6,1.1,1,2019-10-18,10:50,A,54,6.0NRT,292.4,4.7,D
51.355,34.795,303.4,1.2,1.1,2019-10-18,10:50,A,52,6.0NRT,292.8,5.5,D
51.357,34.813,302.7,1.2,1.1,2019-10-18,10:50,A,45,6.0NRT,291.5,5.1,D
51.256,33.987,309,1.1,1.1,2019-10-18,10:50,A,63,6.0NRT,293.2,7.9,D
51.258,34.003,315.3,1.1,1.1,2019-10-18,10:50,A,74,6.0NRT,292.6,13.7,D
50.384,27.994,308.1,1.1,1,2019-10-18,10:50,A,35,6.0NRT,292.1,6.5,D
50.375,27.998,320.2,1.1,1,2019-10-18,10:50,A,80,6.0NRT,293.5,18.4,D
50.377,28.013,306.3,1.1,1,2019-10-18,10:50,A,41,6.0NRT,294.2,5.6,D
51.259,34.396,320.8,1.2,1.1,2019-10-18,10:50,A,79,6.0NRT,293.3,19.6,D
51.261,34.413,322.6,1.2,1.1,2019-10-18,10:50,A,81,6.0NRT,294.3,21.7,D
51.18,34.132,305.2,1.1,1.1,2019-10-18,10:50,A,51,6.0NRT,293.3,5.3,D
50.441,29.775,306.3,1,1,2019-10-18,10:50,A,53,6.0NRT,294.7,5.2,D
49.838,26.874,309.2,1.2,1.1,2019-10-18,10:50,A,65,6.0NRT,294.7,8.9,D
49.841,26.891,319.9,1.2,1.1,2019-10-18,10:50,A,78,6.0NRT,294.7,20.2,D
50.649,32.058,345.6,1,1,2019-10-18,10:50,A,94,6.0NRT,297.6,51.6,D
50.651,32.073,328.9,1,1,2019-10-18,10:50,A,85,6.0NRT,295.7,25.4,D
50.206,29.233,310,1,1,2019-10-18,10:50,A,68,6.0NRT,295.7,7.4,D
49.885,27.49,307.9,1.1,1.1,2019-10-18,10:50,A,62,6.0NRT,295.1,6.6,D
50.714,32.991,304.9,1.1,1,2019-10-18,10:50,A,52,6.0NRT,293.7,4.9,D
49.66,26.931,306.5,1.2,1.1,2019-10-18,10:50,A,57,6.0NRT,294.9,5.9,D
50.587,33.159,306.7,1.1,1,2019-10-18,10:50,A,55,6.0NRT,294.8,5.2,D
50.589,33.173,307.7,1.1,1,2019-10-18,10:50,A,60,6.0NRT,293.3,6,D
50.458,32.363,308.9,1,1,2019-10-18,10:50,A,62,6.0NRT,295.8,6.1,D
50.624,34.165,308.1,1.1,1.1,2019-10-18,10:50,A,62,6.0NRT,294.9,6.8,D
49.632,27.764,303.5,1.1,1.1,2019-10-18,10:50,A,26,6.0NRT,293.4,3.7,D
49.137,25.316,306.4,1.4,1.2,2019-10-18,10:50,A,60,6.0NRT,295.9,6.5,D
50.511,33.977,316.7,1.1,1.1,2019-10-18,10:50,A,75,6.0NRT,295.9,13.2,D
50.513,33.992,326.4,1.1,1.1,2019-10-18,10:50,A,83,6.0NRT,295.1,25.1,D
49.251,26.098,309.5,1.3,1.1,2019-10-18,10:50,A,66,6.0NRT,294.8,9.4,D
49.208,26.532,321.5,1.3,1.1,2019-10-18,10:50,A,80,6.0NRT,294.4,23,D
49.211,26.549,308.2,1.3,1.1,2019-10-18,10:50,A,63,6.0NRT,294.6,7.4,D
49.258,26.798,312.9,1.2,1.1,2019-10-18,10:50,A,70,6.0NRT,296.1,11,D
49.261,26.815,313.8,1.2,1.1,2019-10-18,10:50,A,72,6.0NRT,295.7,12,D
50.154,32.435,313.6,1,1,2019-10-18,10:50,A,63,6.0NRT,294.6,8.5,D
50.123,32.269,316.5,1,1,2019-10-18,10:50,A,73,6.0NRT,297.1,10.8,D
50.125,32.283,315.4,1,1,2019-10-18,10:50,A,72,6.0NRT,296.6,9.8,D
50.143,32.423,311.5,1,1,2019-10-18,10:50,A,43,6.0NRT,298,6.3,D
50.145,32.438,329.5,1,1,2019-10-18,10:50,A,85,6.0NRT,297.8,24.9,D
49.613,28.977,325.2,1.1,1,2019-10-18,10:50,A,82,6.0NRT,296.9,21.8,D
50.292,33.846,310,1.1,1,2019-10-18,10:50,A,63,6.0NRT,296.6,7.9,D
50.294,33.862,305.7,1.1,1,2019-10-18,10:50,A,40,6.0NRT,294.1,5,D
48.303,22.396,306.4,2.1,1.4,2019-10-18,10:50,A,62,6.0NRT,293.3,13.1,D
49.511,28.471,308.1,1.1,1,2019-10-18,10:50,A,60,6.0NRT,292.5,7.4,D
49.513,28.486,305.7,1.1,1,2019-10-18,10:50,A,52,6.0NRT,293.4,5.5,D
50.287,33.855,314,1.1,1,2019-10-18,10:50,A,64,6.0NRT,295.7,10.8,D
50.208,33.52,310.1,1.1,1,2019-10-18,10:50,A,64,6.0NRT,297,6.4,D
49.736,30.22,313.2,1,1,2019-10-18,10:50,A,69,6.0NRT,294.3,10.3,D
50.049,32.417,323.9,1,1,2019-10-18,10:50,A,81,6.0NRT,299,18.1,D
50.051,32.431,344.9,1,1,2019-10-18,10:50,A,93,6.0NRT,300.4,49.9,D
50.052,32.504,347.1,1,1,2019-10-18,10:50,A,94,6.0NRT,299.8,53.9,D
50.012,32.478,309.5,1,1,2019-10-18,10:50,A,54,6.0NRT,297.4,5.3,D
48.923,25.978,326.2,1.4,1.2,2019-10-18,10:50,A,84,6.0NRT,294,34.2,D
49.993,32.543,314.9,1,1,2019-10-18,10:50,A,71,6.0NRT,298,9.6,D
42.709,24.602,310.7,2.3,1.5,2019-10-18,10:50,A,29,6.0NRT,297.4,21.7,D
42.171,24.978,310.1,2.3,1.5,2019-10-18,10:50,A,62,6.0NRT,295.2,16.3,D
42.154,25.381,313.9,2.2,1.4,2019-10-18,10:50,A,70,6.0NRT,300.3,16.1,D
48.174,30.059,311.6,1,1,2019-10-18,10:50,A,40,6.0NRT,299.2,6.2,D
48.194,30.423,313.7,1,1,2019-10-18,10:50,A,66,6.0NRT,300.9,7.5,D
48.196,30.437,328.9,1,1,2019-10-18,10:50,A,83,6.0NRT,299.2,23.5,D
47.941,29.211,310.4,1.1,1,2019-10-18,10:50,A,56,6.0NRT,297.9,6.9,D
48.448,32.535,310.5,1,1,2019-10-18,10:50,A,59,6.0NRT,298.5,5.6,D
47.932,29.215,310,1.1,1,2019-10-18,10:50,A,46,6.0NRT,296.7,6.2,D
48.043,29.883,311.6,1,1,2019-10-18,10:50,A,59,6.0NRT,300.9,5.2,D
48.163,30.765,313.3,1,1,2019-10-18,10:50,A,64,6.0NRT,300.8,6.9,D
48.165,30.779,322.5,1,1,2019-10-18,10:50,A,77,6.0NRT,300.9,15.6,D
48.243,31.296,311.3,1,1,2019-10-18,10:50,A,42,6.0NRT,300.9,4.8,D
47.91,29.254,315.7,1.1,1,2019-10-18,10:50,A,60,6.0NRT,298.8,10.2,D
48.233,31.286,311.1,1,1,2019-10-18,10:50,A,29,6.0NRT,300.9,4.5,D
48.235,31.299,338.8,1,1,2019-10-18,10:50,A,90,6.0NRT,303,36,D
47.901,29.257,322.4,1.1,1,2019-10-18,10:50,A,78,6.0NRT,300.5,17.6,D
47.913,29.328,313.9,1.1,1,2019-10-18,10:50,A,67,6.0NRT,299.8,9.5,D
47.915,29.342,326.9,1.1,1,2019-10-18,10:50,A,82,6.0NRT,298,24,D
48.505,33.309,336.3,1,1,2019-10-18,10:50,A,89,6.0NRT,297.7,34.9,D
48.507,33.322,313.8,1,1,2019-10-18,10:50,A,40,6.0NRT,297.3,8.2,D
48.343,32.178,310.5,1,1,2019-10-18,10:50,A,58,6.0NRT,300.1,4.7,D
48.411,32.672,320.7,1,1,2019-10-18,10:50,A,72,6.0NRT,298.8,13.6,D
48.413,32.686,326.7,1,1,2019-10-18,10:50,A,71,6.0NRT,298.3,20.4,D
48.496,33.311,318.7,1,1,2019-10-18,10:50,A,74,6.0NRT,295.6,12.7,D
48.482,33.273,313,1,1,2019-10-18,10:50,A,66,6.0NRT,297.7,7.9,D
48.483,33.286,325.7,1,1,2019-10-18,10:50,A,81,6.0NRT,297.8,19.9,D
48.566,34.018,310.1,1.1,1,2019-10-18,10:50,A,52,6.0NRT,296.1,8,D
48.568,34.032,312,1.1,1,2019-10-18,10:50,A,49,6.0NRT,296.1,9.7,D
48.516,33.744,308.7,1.1,1,2019-10-18,10:50,A,54,6.0NRT,297.7,5.1,D
47.906,29.617,331,1.1,1,2019-10-18,10:50,A,85,6.0NRT,299.2,28.3,D
48.507,33.746,309,1.1,1,2019-10-18,10:50,A,51,6.0NRT,297.8,5.1,D
47.893,29.593,311.3,1.1,1,2019-10-18,10:50,A,60,6.0NRT,298.5,6.7,D
47.949,29.937,317.8,1,1,2019-10-18,10:50,A,72,6.0NRT,301,10.2,D
47.938,29.926,332.1,1,1,2019-10-18,10:50,A,85,6.0NRT,303.3,26.7,D
47.94,29.94,325.9,1,1,2019-10-18,10:50,A,81,6.0NRT,302.7,18.2,D
46.104,21.147,311.9,2.8,1.6,2019-10-18,10:50,A,70,6.0NRT,294.6,34.8,D
46.113,21.181,324.6,2.8,1.6,2019-10-18,10:50,A,82,6.0NRT,294.8,86.7,D
46.221,21.61,310.7,2.6,1.6,2019-10-18,10:50,A,51,6.0NRT,295.9,27.3,D
47.792,29.107,323.9,1.1,1,2019-10-18,10:50,A,79,6.0NRT,298.3,19.5,D
47.794,29.121,311.7,1.1,1,2019-10-18,10:50,A,60,6.0NRT,297.8,6.6,D
47.929,29.929,330,1,1,2019-10-18,10:50,A,84,6.0NRT,303.5,24.5,D
47.931,29.943,318,1,1,2019-10-18,10:50,A,69,6.0NRT,303.3,10.3,D
48.541,34.253,310.4,1.1,1,2019-10-18,10:50,A,58,6.0NRT,296.5,7.1,D
48.465,33.715,311.2,1.1,1,2019-10-18,10:50,A,63,6.0NRT,297.2,6.5,D
45.669,19.624,312.7,3.5,1.8,2019-10-18,10:50,A,70,6.0NRT,294.9,46,D
48.169,31.603,322.9,1,1,2019-10-18,10:50,A,78,6.0NRT,298.5,15.7,D
48.171,31.617,352.2,1,1,2019-10-18,10:50,A,96,6.0NRT,299.9,62.4,D
48.16,31.606,321.2,1,1,2019-10-18,10:50,A,72,6.0NRT,297.7,13.7,D
48.162,31.62,370.8,1,1,2019-10-18,10:50,A,100,6.0NRT,301.9,114.1,D
45.674,19.629,310.5,3.5,1.8,2019-10-18,10:50,A,67,6.0NRT,294.6,35.4,D
48.112,31.477,312.3,1,1,2019-10-18,10:50,A,60,6.0NRT,300.7,5.1,D
48.114,31.49,309.9,1,1,2019-10-18,10:50,A,48,6.0NRT,299.7,3.6,D
48.282,32.669,316.4,1,1,2019-10-18,10:50,A,71,6.0NRT,299.6,9.6,D
48.283,32.682,311.9,1,1,2019-10-18,10:50,A,62,6.0NRT,299.4,6,D
47.593,28.395,316.6,1.2,1.1,2019-10-18,10:50,A,73,6.0NRT,300.5,12.7,D
47.706,29.04,311.1,1.1,1,2019-10-18,10:50,A,61,6.0NRT,299.6,6.7,D
43.553,27.573,316,1.5,1.2,2019-10-18,10:50,A,71,6.0NRT,298.1,17.1,D
49.995,32.557,310.1,1,1,2019-10-18,10:50,A,62,6.0NRT,298.2,5.3,D
49.678,30.506,311,1,1,2019-10-18,10:50,A,64,6.0NRT,295.6,7.4,D
49.983,32.678,309.5,1,1,2019-10-18,10:50,A,61,6.0NRT,297.8,4.8,D
49.736,31.222,308,1,1,2019-10-18,10:50,A,51,6.0NRT,294.9,4.7,D
49.738,31.236,315.6,1,1,2019-10-18,10:50,A,71,6.0NRT,295.7,10.4,D
48.894,26.265,319.5,1.3,1.1,2019-10-18,10:50,A,79,6.0NRT,295.6,22.1,D
48.897,26.283,315.4,1.3,1.1,2019-10-18,10:50,A,75,6.0NRT,294.8,16.1,D
49.805,31.771,308.9,1,1,2019-10-18,10:50,A,53,6.0NRT,297.9,4.2,D
48.796,25.984,309.7,1.4,1.2,2019-10-18,10:50,A,63,6.0NRT,295.4,9.9,D
49.805,32.237,307.4,1,1,2019-10-18,10:50,A,46,6.0NRT,296.6,3.2,D
49.807,32.323,334.4,1,1,2019-10-18,10:50,A,88,6.0NRT,297,30.7,D
49.925,33.229,307.6,1.1,1,2019-10-18,10:50,A,56,6.0NRT,297.3,4.5,D
49.798,32.326,327.3,1,1,2019-10-18,10:50,A,83,6.0NRT,297.4,21.3,D
47.978,22.405,316.6,2.1,1.4,2019-10-18,10:50,A,76,6.0NRT,295.2,34.4,D
47.984,22.432,309.7,2.1,1.4,2019-10-18,10:50,A,68,6.0NRT,294.7,18,D
49.345,29.627,316.2,1,1,2019-10-18,10:50,A,73,6.0NRT,296.5,11.1,D
49.488,30.544,370,1,1,2019-10-18,10:50,A,100,6.0NRT,303.2,112.2,D
49.823,32.947,314.4,1,1,2019-10-18,10:50,A,70,6.0NRT,293.9,10.8,D
49.883,33.422,369.1,1.1,1,2019-10-18,10:50,A,100,6.0NRT,301.3,119.6,D
49.885,33.437,335,1.1,1,2019-10-18,10:50,A,88,6.0NRT,296.1,34.8,D
50.019,34.572,305.3,1.1,1.1,2019-10-18,10:50,A,46,6.0NRT,293.9,4.7,D
50.047,34.828,308.3,1.2,1.1,2019-10-18,10:50,A,59,6.0NRT,297.2,6.3,D
49.479,30.547,315.9,1,1,2019-10-18,10:50,A,68,6.0NRT,299.4,9.4,D
49.481,30.561,313.9,1,1,2019-10-18,10:50,A,45,6.0NRT,296.6,8.2,D
49.861,33.323,309.6,1.1,1,2019-10-18,10:50,A,62,6.0NRT,296,6.4,D
49.45,30.479,352.9,1,1,2019-10-18,10:50,A,97,6.0NRT,298.9,64.8,D
49.452,30.492,321.6,1,1,2019-10-18,10:50,A,79,6.0NRT,296.8,14.7,D
49.942,34.121,315.7,1.1,1,2019-10-18,10:50,A,72,6.0NRT,297.1,11.5,D
49.855,33.559,336.2,1.1,1,2019-10-18,10:50,A,89,6.0NRT,296.9,36.2,D
49.856,33.573,309.2,1.1,1,2019-10-18,10:50,A,61,6.0NRT,296.4,4.5,D
48.742,26.513,304.6,1.3,1.1,2019-10-18,10:50,A,56,6.0NRT,294.5,5,D
49.946,34.405,312.4,1.1,1.1,2019-10-18,10:50,A,68,6.0NRT,295.6,9.1,D
49.769,33.453,308.4,1.1,1,2019-10-18,10:50,A,58,6.0NRT,296.8,4.6,D
49.141,29.347,320.4,1,1,2019-10-18,10:50,A,78,6.0NRT,297.5,15.6,D
49.383,31.021,337.6,1,1,2019-10-18,10:50,A,90,6.0NRT,298.8,36.7,D
49.385,31.035,373,1,1,2019-10-18,10:50,A,100,6.0NRT,300.5,123.8,D
49.153,29.594,311.1,1,1,2019-10-18,10:50,A,66,6.0NRT,297.2,7.5,D
49.155,29.608,316.8,1,1,2019-10-18,10:50,A,74,6.0NRT,298.1,12,D
47.744,22.57,316.6,2.1,1.4,2019-10-18,10:50,A,77,6.0NRT,297.1,29.6,D
49.185,29.91,310.7,1,1,2019-10-18,10:50,A,48,6.0NRT,297.3,5.2,D
49.194,29.965,324.5,1,1,2019-10-18,10:50,A,81,6.0NRT,299.6,18.2,D
49.196,29.979,361.1,1,1,2019-10-18,10:50,A,100,6.0NRT,299.9,87.7,D
49.448,31.673,318.2,1,1,2019-10-18,10:50,A,75,6.0NRT,295,13.3,D
49.45,31.686,322.6,1,1,2019-10-18,10:50,A,79,6.0NRT,295.5,17.8,D
48.957,28.575,316.1,1.1,1,2019-10-18,10:50,A,73,6.0NRT,294.8,13.9,D
49.174,29.9,310.3,1,1,2019-10-18,10:50,A,31,6.0NRT,298.3,4.9,D
49.189,29.996,315.7,1,1,2019-10-18,10:50,A,48,6.0NRT,298.2,9.3,D
47.743,22.577,316.2,2.1,1.4,2019-10-18,10:50,A,76,6.0NRT,296.7,30.2,D
49.165,29.903,311,1,1,2019-10-18,10:50,A,45,6.0NRT,297.9,5.9,D
48.898,28.348,305.8,1.1,1.1,2019-10-18,10:50,A,50,6.0NRT,294.5,5.1,D
48.901,28.362,304,1.1,1.1,2019-10-18,10:50,A,29,6.0NRT,293.8,3.6,D
49.831,34.921,306.7,1.2,1.1,2019-10-18,10:50,A,46,6.0NRT,296.6,4.7,D
49.132,29.93,317.6,1,1,2019-10-18,10:50,A,75,6.0NRT,294.2,12.5,D
49.134,29.944,318.6,1,1,2019-10-18,10:50,A,76,6.0NRT,294.4,13.6,D
49.802,34.929,309.8,1.2,1.1,2019-10-18,10:50,A,63,6.0NRT,297.3,6.8,D
49.03,29.52,308.4,1,1,2019-10-18,10:50,A,59,6.0NRT,297.4,4.7,D
49.203,30.628,308.5,1,1,2019-10-18,10:50,A,56,6.0NRT,298.4,4.5,D
49.611,33.739,336.9,1.1,1,2019-10-18,10:50,A,89,6.0NRT,296.6,39.9,D
49.613,33.754,314.3,1.1,1,2019-10-18,10:50,A,71,6.0NRT,294.2,11.4,D
49.616,33.86,306.7,1.1,1,2019-10-18,10:50,A,29,6.0NRT,295.9,5,D
49.618,33.875,310.7,1.1,1,2019-10-18,10:50,A,59,6.0NRT,297,7.5,D
49.69,34.479,309.9,1.1,1.1,2019-10-18,10:50,A,63,6.0NRT,297.3,7.5,D
48.88,28.842,313.3,1.1,1,2019-10-18,10:50,A,69,6.0NRT,297.1,10.2,D
49.68,34.481,306.9,1.1,1.1,2019-10-18,10:50,A,50,6.0NRT,296.2,5.2,D
49.722,34.939,307.9,1.2,1.1,2019-10-18,10:50,A,55,6.0NRT,297.5,5.2,D
49.246,31.42,315.5,1,1,2019-10-18,10:50,A,71,6.0NRT,297,10.9,D
49.019,30.042,307.7,1,1,2019-10-18,10:50,A,47,6.0NRT,296.2,3.4,D
48.861,29.354,308.6,1.1,1,2019-10-18,10:50,A,54,6.0NRT,295.5,6.5,D
48.858,29.612,313.7,1,1,2019-10-18,10:50,A,57,6.0NRT,297.3,8.6,D
48.762,29.143,310.8,1.1,1,2019-10-18,10:50,A,64,6.0NRT,296.2,7.8,D
48.843,29.633,318.9,1,1,2019-10-18,10:50,A,76,6.0NRT,298.5,12.9,D
48.692,28.897,329.5,1.1,1,2019-10-18,10:50,A,85,6.0NRT,299,27.7,D
48.695,28.912,335.7,1.1,1,2019-10-18,10:50,A,89,6.0NRT,298.7,36.6,D
49.323,33.138,324.3,1,1,2019-10-18,10:50,A,81,6.0NRT,298.2,19.1,D
48.69,28.944,328.7,1.1,1,2019-10-18,10:50,A,84,6.0NRT,296.7,25.4,D
48.693,28.958,312.7,1.1,1,2019-10-18,10:50,A,8,6.0NRT,296.8,7.8,D
49.314,33.14,345.1,1,1,2019-10-18,10:50,A,93,6.0NRT,298.9,50.9,D
49.316,33.154,312,1,1,2019-10-18,10:50,A,36,6.0NRT,296.3,6.6,D
48.883,30.241,312.9,1,1,2019-10-18,10:50,A,68,6.0NRT,299.1,7.7,D
48.885,30.255,308.6,1,1,2019-10-18,10:50,A,50,6.0NRT,297.7,4.9,D
48.663,28.954,319.3,1.1,1,2019-10-18,10:50,A,52,6.0NRT,297.6,14,D
48.499,28.631,316.2,1.1,1.1,2019-10-18,10:50,A,72,6.0NRT,297.8,12.7,D
49.375,34.765,316.5,1.1,1.1,2019-10-18,10:50,A,73,6.0NRT,298.3,13.1,D
48.668,29.769,328.2,1,1,2019-10-18,10:50,A,83,6.0NRT,300.2,23,D
48.671,29.782,313.5,1,1,2019-10-18,10:50,A,63,6.0NRT,300.2,7.3,D
48.659,29.772,317,1,1,2019-10-18,10:50,A,73,6.0NRT,300.4,10.8,D
49.176,33.355,352,1,1,2019-10-18,10:50,A,96,6.0NRT,298.5,67.2,D
49.177,33.37,323.3,1,1,2019-10-18,10:50,A,80,6.0NRT,295.1,18.7,D
49.27,34.121,308.5,1.1,1,2019-10-18,10:50,A,59,6.0NRT,296.3,4.6,D
49.34,34.711,317.6,1.1,1.1,2019-10-18,10:50,A,74,6.0NRT,298.8,13.7,D
48.666,29.93,311.8,1,1,2019-10-18,10:50,A,64,6.0NRT,297.7,6.7,D
48.59,29.637,310.3,1,1,2019-10-18,10:50,A,61,6.0NRT,300.1,5.8,D
48.637,29.926,316.7,1,1,2019-10-18,10:50,A,72,6.0NRT,298,10.7,D
48.702,30.333,309.7,1,1,2019-10-18,10:50,A,54,6.0NRT,299,5.9,D
48.627,29.922,313.7,1,1,2019-10-18,10:50,A,67,6.0NRT,298.4,7.4,D
48.87,31.522,313.5,1,1,2019-10-18,10:50,A,68,6.0NRT,298.8,8.4,D
48.561,29.567,309.7,1.1,1,2019-10-18,10:50,A,58,6.0NRT,298.2,6,D
48.563,29.58,326.5,1.1,1,2019-10-18,10:50,A,82,6.0NRT,299.6,22.4,D
48.883,31.742,313.1,1,1,2019-10-18,10:50,A,57,6.0NRT,292.7,7.7,D
49.202,34.163,313.2,1.1,1,2019-10-18,10:50,A,68,6.0NRT,297.4,9,D
48.868,31.762,314.6,1,1,2019-10-18,10:50,A,63,6.0NRT,293.3,9,D
48.6,30.047,340.6,1,1,2019-10-18,10:50,A,79,6.0NRT,301.5,41.8,D
48.602,30.061,328,1,1,2019-10-18,10:50,A,79,6.0NRT,299.8,22.6,D
48.598,30.091,310.7,1,1,2019-10-18,10:50,A,61,6.0NRT,298.7,6,D
48.397,28.986,310.1,1.1,1,2019-10-18,10:50,A,61,6.0NRT,299.7,7.4,D
48.669,30.664,314.7,1,1,2019-10-18,10:50,A,64,6.0NRT,299.5,7.8,D
48.66,30.668,317.3,1,1,2019-10-18,10:50,A,71,6.0NRT,298.4,10.2,D
48.523,29.849,309.7,1,1,2019-10-18,10:50,A,58,6.0NRT,299.6,4.9,D
48.718,31.173,328.1,1,1,2019-10-18,10:50,A,79,6.0NRT,300.4,22.4,D
48.72,31.187,325.1,1,1,2019-10-18,10:50,A,81,6.0NRT,299.5,18.5,D
48.445,29.483,333.6,1.1,1,2019-10-18,10:50,A,87,6.0NRT,299.7,32.1,D
48.447,29.496,375.3,1.1,1,2019-10-18,10:50,A,100,6.0NRT,305.3,141.5,D
48.474,29.78,310,1,1,2019-10-18,10:50,A,59,6.0NRT,298.9,5.2,D
48.476,29.794,310.6,1,1,2019-10-18,10:50,A,61,6.0NRT,299,5.4,D
48.556,30.298,333.1,1,1,2019-10-18,10:50,A,87,6.0NRT,300.9,27.9,D
48.559,30.311,359.8,1,1,2019-10-18,10:50,A,99,6.0NRT,302.6,83,D
48.548,30.301,312.1,1,1,2019-10-18,10:50,A,43,6.0NRT,300,5.4,D
48.55,30.315,313.5,1,1,2019-10-18,10:50,A,65,6.0NRT,302.1,7.2,D
48.637,30.878,348.4,1,1,2019-10-18,10:50,A,95,6.0NRT,300.2,55.8,D
48.639,30.892,337.4,1,1,2019-10-18,10:50,A,89,6.0NRT,295.1,35.8,D
48.628,30.882,327.6,1,1,2019-10-18,10:50,A,83,6.0NRT,298.7,22.6,D
48.63,30.895,311.4,1,1,2019-10-18,10:50,A,59,6.0NRT,294.6,6.9,D
48.431,29.693,344.9,1,1,2019-10-18,10:50,A,93,6.0NRT,300.8,51.1,D
48.972,33.428,305.6,1,1,2019-10-18,10:50,A,43,6.0NRT,294.2,4.6,D
48.458,29.916,309.2,1,1,2019-10-18,10:50,A,55,6.0NRT,298.9,4,D
48.635,31.18,338.9,1,1,2019-10-18,10:50,A,90,6.0NRT,301.3,36.2,D
48.637,31.194,388.2,1,1,2019-10-18,10:50,A,100,6.0NRT,305.8,184.6,D
48.639,31.207,341,1,1,2019-10-18,10:50,A,91,6.0NRT,299.2,39.8,D
48.716,31.74,309.5,1,1,2019-10-18,10:50,A,55,6.0NRT,297.3,5.1,D
48.927,33.288,312.6,1,1,2019-10-18,10:50,A,67,6.0NRT,295.6,8.9,D
48.61,31.077,316.3,1,1,2019-10-18,10:50,A,71,6.0NRT,299.8,9.3,D
48.626,31.183,313.8,1,1,2019-10-18,10:50,A,68,6.0NRT,299.1,7.9,D
48.628,31.197,324.2,1,1,2019-10-18,10:50,A,80,6.0NRT,301.1,17.9,D
49.035,34.222,313.4,1.1,1,2019-10-18,10:50,A,68,6.0NRT,298.3,9.7,D
48.601,31.08,312.7,1,1,2019-10-18,10:50,A,60,6.0NRT,299.8,5.8,D
48.888,33.126,316.8,1,1,2019-10-18,10:50,A,73,6.0NRT,296.4,12.2,D
48.943,33.56,312.7,1.1,1,2019-10-18,10:50,A,67,6.0NRT,296.2,8.5,D
48.268,29.047,310.6,1.1,1,2019-10-18,10:50,A,62,6.0NRT,296.7,7.7,D
48.456,30.198,320,1,1,2019-10-18,10:50,A,76,6.0NRT,301.2,12.8,D
48.459,30.211,312.9,1,1,2019-10-18,10:50,A,66,6.0NRT,299.6,6.1,D
48.92,33.45,311.9,1,1,2019-10-18,10:50,A,65,6.0NRT,299,8.1,D
48.175,28.73,310.8,1.1,1.1,2019-10-18,10:50,A,63,6.0NRT,297.5,7.8,D
48.225,29.018,306.2,1.1,1,2019-10-18,10:50,A,43,6.0NRT,295.5,4.6,D
48.484,30.614,311.9,1,1,2019-10-18,10:50,A,64,6.0NRT,300.1,6.2,D
48.486,30.628,310.8,1,1,2019-10-18,10:50,A,61,6.0NRT,299.9,5.4,D
48.855,33.237,325.4,1,1,2019-10-18,10:50,A,81,6.0NRT,296.9,20.1,D
48.857,33.251,322.5,1,1,2019-10-18,10:50,A,79,6.0NRT,298.4,16.8,D
48.834,33.143,310.6,1,1,2019-10-18,10:50,A,62,6.0NRT,295.5,6.2,D
48.846,33.24,332,1,1,2019-10-18,10:50,A,86,6.0NRT,297.7,28.5,D
48.848,33.254,323.5,1,1,2019-10-18,10:50,A,80,6.0NRT,299.1,17.7,D
48.368,30,317.4,1,1,2019-10-18,10:50,A,73,6.0NRT,298.4,12,D
48.545,31.141,313.2,1,1,2019-10-18,10:50,A,67,6.0NRT,300,7.1,D
48.825,33.145,325.8,1,1,2019-10-18,10:50,A,82,6.0NRT,296.7,20.9,D
48.405,30.279,319.1,1,1,2019-10-18,10:50,A,75,6.0NRT,299.5,12.2,D
48.511,31.032,319.4,1,1,2019-10-18,10:50,A,75,6.0NRT,296.5,12.8,D
48.712,32.433,327.4,1,1,2019-10-18,10:50,A,83,6.0NRT,296.2,22.1,D
48.714,32.446,338.3,1,1,2019-10-18,10:50,A,90,6.0NRT,298.8,37.4,D
48.807,33.142,315.8,1,1,2019-10-18,10:50,A,71,6.0NRT,297.1,9.7,D
48.809,33.156,330.4,1,1,2019-10-18,10:50,A,85,6.0NRT,297.4,26.3,D
49.034,34.993,315.5,1.1,1.1,2019-10-18,10:50,A,71,6.0NRT,297.4,12.4,D
48.5,31.022,356.4,1,1,2019-10-18,10:50,A,98,6.0NRT,301.5,71.8,D
48.502,31.035,348.1,1,1,2019-10-18,10:50,A,95,6.0NRT,298.8,53.4,D
48.64,31.98,308.9,1,1,2019-10-18,10:50,A,55,6.0NRT,298.4,4.4,D
48.39,30.427,310.8,1,1,2019-10-18,10:50,A,53,6.0NRT,298.6,6.5,D
48.528,31.334,328.6,1,1,2019-10-18,10:50,A,83,6.0NRT,300.7,21.4,D
48.53,31.347,312.4,1,1,2019-10-18,10:50,A,64,6.0NRT,300.2,5.4,D
48.396,30.524,308.5,1,1,2019-10-18,10:50,A,53,6.0NRT,297.4,4.9,D
48.588,31.941,313,1,1,2019-10-18,10:50,A,61,6.0NRT,299.4,7.1,D
48.477,31.24,310.4,1,1,2019-10-18,10:50,A,60,6.0NRT,299.1,5,D
48.579,31.944,316.2,1,1,2019-10-18,10:50,A,71,6.0NRT,299.3,9.9,D
48.358,30.643,321.3,1,1,2019-10-18,10:50,A,77,6.0NRT,300.2,15.8,D
48.513,31.68,329,1,1,2019-10-18,10:50,A,84,6.0NRT,301.4,22.3,D
46.471,21.277,306.9,2.7,1.6,2019-10-18,10:50,A,62,6.0NRT,293.8,16.6,D
48.263,30.093,336,1,1,2019-10-18,10:50,A,88,6.0NRT,301.6,33.8,D
48.265,30.107,336,1,1,2019-10-18,10:50,A,88,6.0NRT,300.3,33.8,D
48.491,31.59,313.9,1,1,2019-10-18,10:50,A,67,6.0NRT,299.6,7,D
48.646,32.7,313.2,1,1,2019-10-18,10:50,A,66,6.0NRT,298.2,8,D
48.737,33.386,310.2,1,1,2019-10-18,10:50,A,60,6.0NRT,297,6.1,D
48.933,34.994,308.5,1.1,1.1,2019-10-18,10:50,A,56,6.0NRT,297.3,5.8,D
48.194,29.727,309,1.1,1,2019-10-18,10:50,A,43,6.0NRT,298.4,4.8,D
48.49,31.646,323.8,1,1,2019-10-18,10:50,A,79,6.0NRT,299.6,15.9,D
48.492,31.659,314,1,1,2019-10-18,10:50,A,49,6.0NRT,299,6.4,D
48.185,29.731,310.1,1.1,1,2019-10-18,10:50,A,52,6.0NRT,299.6,5.3,D
48.71,33.322,317.3,1,1,2019-10-18,10:50,A,73,6.0NRT,299,12.5,D
48.516,32.027,312.4,1,1,2019-10-18,10:50,A,64,6.0NRT,299,6.7,D
48.212,30.069,321.3,1,1,2019-10-18,10:50,A,77,6.0NRT,297.9,16.2,D
48.181,30.042,313,1,1,2019-10-18,10:50,A,34,6.0NRT,299.6,7.5,D
48.183,30.056,353.6,1,1,2019-10-18,10:50,A,97,6.0NRT,300.7,69.9,D
48.185,30.069,312.5,1,1,2019-10-18,10:50,A,50,6.0NRT,298,7.1,D
48.274,30.635,314.2,1,1,2019-10-18,10:50,A,67,6.0NRT,300,7.5,D
48.276,30.649,317.6,1,1,2019-10-18,10:50,A,72,6.0NRT,300.8,10.4,D
48.155,31.96,323.1,1,1,2019-10-18,10:50,A,78,6.0NRT,299.7,15.4,D
47.727,29.394,312.3,1.1,1,2019-10-18,10:50,A,63,6.0NRT,301.2,5.9,D
47.823,30.032,315.8,1,1,2019-10-18,10:50,A,68,6.0NRT,300.5,8.4,D
48.26,33.257,314.6,1,1,2019-10-18,10:50,A,69,6.0NRT,298.5,10,D
47.732,30.391,327.2,1,1,2019-10-18,10:50,A,81,6.0NRT,301.6,19.6,D
45.764,20.953,306.9,2.9,1.6,2019-10-18,10:50,A,61,6.0NRT,294.6,17.7,D
45.661,20.679,309.3,3.1,1.7,2019-10-18,10:50,A,65,6.0NRT,295.4,23.6,D
45.671,20.715,310.1,3,1.7,2019-10-18,10:50,A,67,6.0NRT,294.9,27,D
45.662,20.682,310.2,3.1,1.7,2019-10-18,10:50,A,67,6.0NRT,295.5,27.7,D
45.672,20.719,309.2,3,1.7,2019-10-18,10:50,A,65,6.0NRT,294.9,24,D
47.549,29.714,312.6,1.1,1,2019-10-18,10:50,A,62,6.0NRT,301.8,6.2,D
45.437,20.011,311.9,3.4,1.7,2019-10-18,10:50,A,70,6.0NRT,293.8,41,D
45.342,19.971,327.1,3.4,1.7,2019-10-18,10:50,A,84,6.0NRT,294.1,120.3,D
47.466,29.722,317.1,1.1,1,2019-10-18,10:50,A,71,6.0NRT,303.3,10.5,D
48.187,34.896,308.2,1.1,1.1,2019-10-18,10:50,A,57,6.0NRT,297.3,6.4,D
45.336,19.935,310.6,3.4,1.7,2019-10-18,10:50,A,68,6.0NRT,293.9,35.1,D
45.347,19.976,323.9,3.4,1.7,2019-10-18,10:50,A,82,6.0NRT,294,105.4,D
45.444,20.769,308,3.1,1.7,2019-10-18,10:50,A,63,6.0NRT,295.8,21.3,D
45.454,20.806,314.4,3.1,1.7,2019-10-18,10:50,A,73,6.0NRT,295.5,46.4,D
47.315,29.606,320.7,1.1,1,2019-10-18,10:50,A,76,6.0NRT,300.6,14.6,D
47.87,33.383,306.8,1,1,2019-10-18,10:50,A,26,6.0NRT,295.6,5.4,D
47.412,30.366,318.7,1,1,2019-10-18,10:50,A,72,6.0NRT,301.2,11.3,D
44.784,19.835,311.8,3.1,1.7,2019-10-18,12:25,A,71,6.0NRT,295.5,37.9,D
37.432,15.032,316.6,1.3,1.1,2019-10-18,12:25,A,58,6.0NRT,302.3,10.4,D
37.439,15.026,317.2,1.3,1.1,2019-10-18,12:25,A,66,6.0NRT,302.1,10.6,D
37.717,13.954,313.5,1.2,1.1,2019-10-18,12:25,A,49,6.0NRT,299.6,6.7,D
36.869,6.978,310.2,1.3,1.1,2019-10-18,12:25,A,50,6.0NRT,296.3,7.5,D
36.874,6.947,339.1,1.3,1.1,2019-10-18,12:25,A,79,6.0NRT,297.6,53.1,D
36.872,6.933,323.5,1.3,1.1,2019-10-18,12:25,A,75,6.0NRT,296.6,24.1,D
35.801,-0.261,313.1,3.7,1.8,2019-10-18,12:25,A,29,6.0NRT,296.3,36.3,D
39.314,22.761,318.5,4.1,1.9,2019-10-18,12:25,A,70,6.0NRT,292.4,101.1,D
39.319,22.753,317.4,4.1,1.9,2019-10-18,12:25,A,68,6.0NRT,292.7,89.4,D
41.667,14.766,307.4,1.5,1.2,2019-10-18,12:25,A,58,6.0NRT,293.9,9.2,D
44.618,21.279,309.9,3.7,1.8,2019-10-18,12:25,A,69,6.0NRT,297.7,35.3,D
43.908,11.042,306.4,1.1,1,2019-10-18,12:25,A,57,6.0NRT,293.9,4.5,D
44.793,20.755,311,3.5,1.8,2019-10-18,12:25,A,53,6.0NRT,296.4,30.6,D
44.785,19.843,309.6,3.1,1.7,2019-10-18,12:25,A,49,6.0NRT,295.4,28.4,D
44.789,20.319,307,3.3,1.7,2019-10-18,12:25,A,40,6.0NRT,294.4,19.5,D
45.083,21.168,309.3,3.7,1.8,2019-10-18,12:25,A,65,6.0NRT,295.2,31.1,D
45.159,20.574,319.7,3.4,1.7,2019-10-18,12:25,A,78,6.0NRT,295.1,74.4,D
45.154,20.566,310.2,3.4,1.7,2019-10-18,12:25,A,48,6.0NRT,295.2,28.8,D
45.17,20.565,314,3.4,1.7,2019-10-18,12:25,A,63,6.0NRT,294.6,46.3,D
45.125,19.14,312.6,2.8,1.6,2019-10-18,12:25,A,72,6.0NRT,291.4,39,D
45.129,18.312,310.5,2.5,1.5,2019-10-18,12:25,A,52,6.0NRT,294.3,27.9,D
45.433,20.486,308.4,3.4,1.7,2019-10-18,12:25,A,64,6.0NRT,294.9,22.9,D
45.447,20.02,313.6,3.2,1.7,2019-10-18,12:25,A,72,6.0NRT,295.8,38.7,D
45.485,19.855,313.1,3.1,1.7,2019-10-18,12:25,A,71,6.0NRT,295.8,36.1,D
45.475,20.009,309.1,3.2,1.7,2019-10-18,12:25,A,60,6.0NRT,295.1,22.4,D
45.484,19.846,311.9,3.1,1.7,2019-10-18,12:25,A,70,6.0NRT,295.6,31.8,D
45.61,20.688,313.7,3.5,1.8,2019-10-18,12:25,A,72,6.0NRT,295.1,46.5,D
45.618,20.683,313.5,3.5,1.8,2019-10-18,12:25,A,72,6.0NRT,294.9,47.7,D
45.74,20.667,309.1,3.5,1.8,2019-10-18,12:25,A,65,6.0NRT,294.8,28.5,D
45.748,20.662,309.9,3.5,1.8,2019-10-18,12:25,A,67,6.0NRT,294.7,31,D
45.859,21.121,311.1,3.7,1.8,2019-10-18,12:25,A,68,6.0NRT,294.7,44.3,D
45.854,20.978,308.4,3.6,1.8,2019-10-18,12:25,A,64,6.0NRT,294.3,29,D
45.851,21.113,312.1,3.7,1.8,2019-10-18,12:25,A,70,6.0NRT,294.5,46.7,D
46.088,21.192,311.8,3.8,1.8,2019-10-18,12:25,A,69,6.0NRT,294.9,44.1,D
46.096,21.183,313.4,3.8,1.8,2019-10-18,12:25,A,72,6.0NRT,294.7,57,D
46.747,21.723,307.7,4.1,1.9,2019-10-18,12:25,A,66,6.0NRT,293.2,35.7,D
47.484,22.321,307.7,4.4,1.9,2019-10-18,12:25,A,66,6.0NRT,292.7,44.3,D
47.487,22.312,307.2,4.4,1.9,2019-10-18,12:25,A,61,6.0NRT,292.7,41.3,D
44.775,19.306,306.9,2.9,1.6,2019-10-18,12:25,A,61,6.0NRT,292,16.8,D
44.902,20.828,308,3.5,1.8,2019-10-18,12:25,A,55,6.0NRT,293.8,22.4,D
44.901,20.784,347.4,3.5,1.8,2019-10-18,12:25,A,95,6.0NRT,297.5,323.4,D
44.84,19.786,310.7,3.1,1.7,2019-10-18,12:25,A,67,6.0NRT,295.3,28,D
44.839,19.747,308.8,3,1.7,2019-10-18,12:25,A,57,6.0NRT,294.4,22.2,D
44.893,20.78,344.6,3.5,1.8,2019-10-18,12:25,A,94,6.0NRT,297.9,289.8,D
44.98,19.885,311.7,3.1,1.7,2019-10-18,12:25,A,70,6.0NRT,296,31.8,D
45.041,21.081,308.6,3.6,1.8,2019-10-18,12:25,A,57,6.0NRT,294.2,28.5,D
45.093,21.172,309.3,3.7,1.8,2019-10-18,12:25,A,65,6.0NRT,295.1,32.1,D
48.272,14.333,311.2,1.7,1.3,2019-10-18,12:30,A,67,6.0NRT,293,21.2,D
53.515,9.897,300.2,1.3,1.1,2019-10-18,12:30,A,0,6.0NRT,285.9,5.3,D
52.154,10.406,303.6,1.3,1.1,2019-10-18,12:30,A,34,6.0NRT,287.2,7.7,D
49.523,5.894,300.2,1,1,2019-10-18,12:30,A,33,6.0NRT,286.8,5.4,D
49.525,5.907,302.4,1,1,2019-10-18,12:30,A,52,6.0NRT,285.8,6.5,D
38.146,-7.795,313.2,1.7,1.3,2019-10-18,14:05,A,67,6.0NRT,291.8,17.4,D
37.898,-7.396,325.5,1.8,1.3,2019-10-18,14:05,A,76,6.0NRT,289.2,45.9,D
37.953,-7.71,328.3,1.8,1.3,2019-10-18,14:05,A,83,6.0NRT,296.4,48.3,D
37.951,-7.73,327.9,1.7,1.3,2019-10-18,14:05,A,83,6.0NRT,296.4,47.6,D
37.948,-7.715,337.5,1.8,1.3,2019-10-18,14:05,A,89,6.0NRT,296.6,78.4,D
37.946,-7.735,316,1.7,1.3,2019-10-18,14:05,A,71,6.0NRT,294.8,20.8,D
38.134,-7.794,313.3,1.7,1.3,2019-10-18,14:05,A,66,6.0NRT,293,17.6,D
49.563,30.246,307.3,1.5,1.2,2019-10-18,20:15,T,71,6.0NRT,279.8,22.1,N
45.044,20.914,300.5,1.3,1.1,2019-10-18,20:15,T,29,6.0NRT,282.5,9.9,N
49.565,30.24,311.7,1.5,1.2,2019-10-18,20:15,T,83,6.0NRT,279.7,28.2,N
36.347,-5.292,376.4,2.4,1.5,2019-10-18,21:50,T,100,6.0NRT,293.9,509.5,N
36.341,-5.32,302.8,2.4,1.5,2019-10-18,21:50,T,44,6.0NRT,289.5,18.8,N
36.347,-5.269,384,2.4,1.5,2019-10-18,21:50,T,100,6.0NRT,296.6,617.9,N
36.341,-5.296,351.5,2.4,1.5,2019-10-18,21:50,T,100,6.0NRT,292.3,236.9,N
35.81,-0.258,312.3,1.3,1.1,2019-10-18,21:50,T,85,6.0NRT,288.5,17.8,N
36.339,-5.262,303,2.4,1.5,2019-10-18,21:50,T,33,6.0NRT,290.2,18,N
36.355,-5.3,300.6,2.4,1.5,2019-10-18,21:50,T,6,6.0NRT,289.3,13.9,N
36.352,-5.266,380,2.4,1.5,2019-10-18,21:50,T,100,6.0NRT,294.2,556.8,N
